https://surfdrive.surf.nl/files/index.php/s/B7PEqFZSZZBPcW8/download?path=%2FData%2FInput%2FDatasets%2FBerend%2FImages&files=B_246.jpg,4608,3072
B_246,daylight,wood,"[130, 130, 130]",['6025026']
6025026,2160,1453,2359,1792
