https://surfdrive.surf.nl/files/index.php/s/B7PEqFZSZZBPcW8/download?path=%2FData%2FInput%2FDatasets%2FBerend%2FImages&files=B_306.jpg,4608,3072
B_306,daylight,wood,"[130, 130, 130]","['4211412', '300123']"
4211412,2194,1599,2443,1863
300123,1955,1507,2273,1850
