https://surfdrive.surf.nl/files/index.php/s/B7PEqFZSZZBPcW8/download?path=%2FData%2FInput%2FDatasets%2FBerend%2FImages&files=B_314.jpg,4608,3072
B_314,daylight,wood,"[130, 130, 130]","['4211412', '300123', '6249125', '6104154']"
4211412,2081,1151,2225,1267
300123,1788,1423,2205,1853
6249125,2526,1049,2661,1150
6104154,2397,1550,2636,1785
