https://surfdrive.surf.nl/files/index.php/s/B7PEqFZSZZBPcW8/download?path=%2FData%2FInput%2FDatasets%2FBerend%2FImages&files=B_384.jpg,4607,3072
B_384,daylight,wood,"[130, 130, 130]","['4181144', '6238674', '6025026', '6074890']"
4181144,1496,1747,2150,2218
6238674,2047,1557,2206,1667
6025026,2013,1327,2212,1470
6074890,2036,1438,2196,1577
