https://surfdrive.surf.nl/files/index.php/s/B7PEqFZSZZBPcW8/download?path=%2FData%2FInput%2FDatasets%2FBerend%2FImages&files=B_440.jpg,4608,3072
B_440,daylight,wood,"[130, 130, 130]","['306201', '4153825', '4647553', '306223', '6151663', '6004938']"
306201,2798,1086,2934,1191
4153825,2339,1820,2562,2124
4647553,2970,2430,3116,2669
306223,431,462,548,588
6151663,3271,1758,3400,1945
6004938,1592,1948,1739,2105
