https://surfdrive.surf.nl/files/index.php/s/B7PEqFZSZZBPcW8/download?path=%2FData%2FInput%2FDatasets%2FBerend%2FImages&files=B_478.jpg,4608,3072
B_478,daylight,wood,"[130, 130, 130]","['6075079', '4211201', '4165967', '4647553', '4121967', '4211437']"
6075079,3936,1630,4252,1920
4211201,3597,1011,4343,1310
4165967,3380,1288,4135,1703
4647553,2877,1144,3213,1348
4121967,330,1309,699,1541
4211437,2535,1477,2798,1836
