https://surfdrive.surf.nl/files/index.php/s/B7PEqFZSZZBPcW8/download?path=%2FData%2FInput%2FDatasets%2FBerend%2FImages&files=B_582.jpg,4608,3072
B_582,daylight,wood,"[130, 130, 130]","['300401', '654126', '4211149', '300423']"
300401,1449,2297,1869,2662
654126,2431,965,2616,1199
4211149,1867,1419,2116,1805
300423,2651,2050,3037,2378
