https://surfdrive.surf.nl/files/index.php/s/B7PEqFZSZZBPcW8/download?path=%2FData%2FInput%2FDatasets%2FBerend%2FImages&files=B_82.jpg,4608,3072
B_82,daylight,wood,"[130, 130, 130]","['4211149', '4539099', '6025026']"
4211149,2062,1288,2315,1689
4539099,1488,1303,1661,1512
6025026,1334,752,1602,1117
