https://surfdrive.surf.nl/files/index.php/s/B7PEqFZSZZBPcW8/download?path=%2FData%2FInput%2FDatasets%2FDavid%2FImages&files=C_122.jpg,5472,3647
C_122,artificial,coffee_table,"[130, 130, 130]","['6238674', '4212454']"
6238674,2686,1613,2818,1810
4212454,2511,1657,2658,1848
