https://surfdrive.surf.nl/files/index.php/s/B7PEqFZSZZBPcW8/download?path=%2FData%2FInput%2FDatasets%2FDavid%2FImages&files=C_157.jpg,5472,3648
C_157,daylight,coffee_table,"[130, 130, 130]","['4121739', '6025026', '6238674', '6104154', '4121739']"
4121739,2319,1592,2595,1830
4121739,3031,1982,3331,2223
6025026,1991,1550,2249,1664
6238674,2070,1548,2287,1690
6104154,2375,1942,2603,2108
