https://surfdrive.surf.nl/files/index.php/s/B7PEqFZSZZBPcW8/download?path=%2FData%2FInput%2FDatasets%2FDavid%2FImages&files=C_202.jpg,5472,3648
C_202,daylight,coffee_table,"[130, 130, 130]","['4212454', '4649749', '4157124']"
4212454,2777,2123,2915,2281
4649749,1944,1546,2192,1731
4157124,3116,1276,3299,1480
