https://surfdrive.surf.nl/files/index.php/s/B7PEqFZSZZBPcW8/download?path=%2FData%2FInput%2FDatasets%2FDavid%2FImages&files=C_272.jpg,5472,3648
C_272,daylight,coffee_table,"[130, 130, 130]","['6003007', '6022023']"
6003007,2530,1661,2841,1916
6022023,2639,1723,2883,1953
