https://surfdrive.surf.nl/files/index.php/s/B7PEqFZSZZBPcW8/download?path=%2FData%2FInput%2FDatasets%2FDavid%2FImages&files=C_370.jpg,5472,3648
C_370,daylight,living_room_floor,"[130, 130, 130]","['4118793', '6035291', '4211614', '4567338', '4211412', '6025026', '4548180', '4655172', '4647553']"
4118793,2101,1706,2304,1880
6035291,2513,1784,2656,1848
4211614,2488,1326,2634,1501
4567338,2659,1486,2770,1604
4211412,2692,1788,2819,1875
6025026,2816,1921,2960,2053
4548180,2729,1691,2882,1800
4655172,2305,1631,2598,1864
4647553,2830,1715,2984,1836
