https://surfdrive.surf.nl/files/index.php/s/B7PEqFZSZZBPcW8/download?path=%2FData%2FInput%2FDatasets%2FDavid%2FImages&files=C_407.jpg,5472,3648
C_407,daylight,living_room_floor,"[130, 130, 130]","['300421', '300321', '300424', '614321', '4153827']"
300421,2507,1652,2698,1806
300321,2615,1728,2880,1977
300424,2946,2483,3201,2695
614321,3288,1101,3469,1260
4153827,3628,1879,3922,2254
