https://surfdrive.surf.nl/files/index.php/s/B7PEqFZSZZBPcW8/download?path=%2FData%2FInput%2FDatasets%2FDavid%2FImages&files=C_450.jpg,5472,3648
C_450,daylight,dining_table,"[130, 130, 130]","['6075079', '306201']"
6075079,2674,1773,2797,1999
306201,2281,1682,2440,1802
