https://surfdrive.surf.nl/files/index.php/s/B7PEqFZSZZBPcW8/download?path=%2FData%2FInput%2FDatasets%2FDavid%2FImages&files=C_541.jpg,5472,3648
C_541,daylight,couch,"[130, 130, 130]","['6177697', '6223631', '6073026', '300124', '4647553', '6035291', '4109995', '4527943']"
6177697,2710,1255,3087,1444
6223631,2297,2106,2408,2239
6073026,3800,1144,3950,1266
300124,2951,1065,3329,1363
4647553,2533,1529,2720,1652
6035291,2731,1668,2844,1850
4109995,2783,1539,2980,1670
4527943,3535,1224,3680,1356
