https://surfdrive.surf.nl/files/index.php/s/B7PEqFZSZZBPcW8/download?path=%2FData%2FInput%2FDatasets%2FDavid%2FImages&files=C_558.jpg,5472,3648
C_558,daylight,window_sill,"[130, 130, 130]","['6003007', '365901', '4567338', '4211166']"
6003007,2530,1783,2792,2071
365901,2486,1540,2937,1887
4567338,2555,1741,2802,1973
4211166,2625,1853,2879,2147
