https://surfdrive.surf.nl/files/index.php/s/B7PEqFZSZZBPcW8/download?path=%2FData%2FInput%2FDatasets%2FDavid%2FImages&files=C_587.jpg,5472,3648
C_587,daylight,window_sill,"[130, 130, 130]","['614321', '4211221', '4651236', '4621545', '6249125', '4143562']"
614321,2447,2126,2658,2396
4211221,2587,1495,2841,1710
4651236,3056,1541,3355,1760
4621545,2957,1617,3114,1806
6249125,3373,1663,3534,1833
4143562,2771,1777,3057,2019
