https://surfdrive.surf.nl/files/index.php/s/B7PEqFZSZZBPcW8/download?path=%2FData%2FInput%2FDatasets%2FDavid%2FImages&files=C_602.jpg,5472,3648
C_602,daylight,window_sill,"[130, 130, 130]",['300423']
300423,2619,1671,2958,1972
