https://surfdrive.surf.nl/files/index.php/s/B7PEqFZSZZBPcW8/download?path=%2FData%2FInput%2FDatasets%2FDavid%2FImages&files=C_85.jpg,5472,3648
C_85,daylight,coffee_table,"[130, 130, 130]","['4121739', '306223', '4210718', '6151663']"
4121739,2638,1329,2725,1473
306223,3006,1605,3071,1691
4210718,2003,1260,2312,1513
6151663,2272,1896,2437,1998
