https://surfdrive.surf.nl/files/index.php/s/B7PEqFZSZZBPcW8/download?path=%2FData%2FInput%2FDatasets%2FHiba%2FImages&files=H_164.jpg,5184,3456
H_164,daylight,wood,"[130, 130, 130]",['4211412']
4211412,2480,1630,2667,1779
