https://surfdrive.surf.nl/files/index.php/s/B7PEqFZSZZBPcW8/download?path=%2FData%2FInput%2FDatasets%2FHiba%2FImages&files=H_192.jpg,5184,3456
H_192,daylight,wood,"[130, 130, 130]","['4548180', '4504381', '4517992', '4647553']"
4548180,2449,1748,2749,1882
4504381,1654,1496,1809,1667
4517992,3163,1538,3463,1862
4647553,1366,1011,1632,1253
