https://surfdrive.surf.nl/files/index.php/s/B7PEqFZSZZBPcW8/download?path=%2FData%2FInput%2FDatasets%2FHiba%2FImages&files=H_291.jpg,5183,3456
H_291,daylight,wood,"[130, 130, 130]","['4558957', '6074890']"
4558957,2394,1692,2806,2007
6074890,1798,1230,1933,1365
