https://surfdrive.surf.nl/files/index.php/s/B7PEqFZSZZBPcW8/download?path=%2FData%2FInput%2FDatasets%2FHiba%2FImages&files=H_409.jpg,5184,3456
H_409,daylight,wood,"[130, 130, 130]","['4211166', '4647553', '4114319', '4550348', '4567338', '4211437']"
4211166,622,1819,993,2131
4647553,2914,1417,3191,1605
4114319,2892,1921,3643,2441
4550348,2152,1413,2413,1577
4567338,1936,1583,2145,1748
4211437,2484,1284,2765,1521
