https://surfdrive.surf.nl/files/index.php/s/B7PEqFZSZZBPcW8/download?path=%2FData%2FInput%2FDatasets%2FBerend%2FImages&files=B_12.jpg,4607,3072
B_12,daylight,wood,"[130, 130, 130]","['4650630', '6252809', '4211054', '4548180', '4649749']"
4650630,1119,2444,1470,2799
6252809,2098,1025,3140,1786
4211054,1691,1035,2028,1352
4548180,2225,899,2484,1098
4649749,2253,1014,2458,1272
