https://surfdrive.surf.nl/files/index.php/s/B7PEqFZSZZBPcW8/download?path=%2FData%2FInput%2FDatasets%2FBerend%2FImages&files=B_303.jpg,4607,3072
B_303,daylight,wood,"[130, 130, 130]",['4211412']
4211412,2179,1407,2415,1636
