https://surfdrive.surf.nl/files/index.php/s/B7PEqFZSZZBPcW8/download?path=%2FData%2FInput%2FDatasets%2FBerend%2FImages&files=B_395.jpg,4608,3072
B_395,daylight,wood,"[130, 130, 130]",['4121739']
4121739,2075,1337,2442,1601
