https://surfdrive.surf.nl/files/index.php/s/B7PEqFZSZZBPcW8/download?path=%2FData%2FInput%2FDatasets%2FDavid%2FImages&files=C_214.jpg,5472,3648
C_214,daylight,coffee_table,"[130, 130, 130]","['4212454', '4649749', '4157124', '4211437', '306223', '4212454', '4211149']"
4212454,2368,1852,2480,2039
4212454,3065,1949,3284,2120
4649749,2157,1747,2344,2043
4157124,2009,2265,2216,2525
4211437,3131,1571,3408,1761
306223,2381,1239,2574,1374
4211149,2845,1481,3106,1780
