https://surfdrive.surf.nl/files/index.php/s/B7PEqFZSZZBPcW8/download?path=%2FData%2FInput%2FDatasets%2FDavid%2FImages&files=C_616.jpg,5472,3648
C_616,daylight,window_sill,"[130, 130, 130]","['300423', '6073026', '4558957', '4527943', '4121967', '6249125']"
300423,2784,1378,3092,1622
6073026,2652,1492,2838,1670
4558957,1262,1375,1768,1738
4527943,2521,1565,2800,1820
4121967,2182,1018,2470,1203
6249125,2371,2557,2516,2697
