https://surfdrive.surf.nl/files/index.php/s/B7PEqFZSZZBPcW8/download?path=%2FData%2FInput%2FDatasets%2FHiba%2FImages&files=H_9.jpg,5184,3456
H_9,daylight,wood,"[130, 130, 130]","['623224', '6022023', '4121739']"
623224,3206,2230,3493,2495
6022023,2397,1558,2588,1622
4121739,1582,1896,1768,2070
