https://surfdrive.surf.nl/files/index.php/s/B7PEqFZSZZBPcW8/download?path=%2FData%2FInput%2FDatasets%2FDavid%2FImages&files=C_129.jpg,5472,3648
C_129,artificial,coffee_table,"[130, 130, 130]","['6238674', '4212454', '4504369', '4550348', '4527943']"
6238674,2141,2099,2326,2273
4212454,2404,1761,2577,1898
4504369,2345,1867,2482,1979
4550348,2378,1910,2631,2099
4527943,2801,1414,3013,1670
