https://surfdrive.surf.nl/files/index.php/s/B7PEqFZSZZBPcW8/download?path=%2FData%2FInput%2FDatasets%2FBerend%2FImages&files=B_12.jpg,4607,3072
B_12,daylight,wood,"[130, 130, 130]","['4650630', '6252809', '4211054', '4548180', '4649749']"
4650630,1119,2448,1464,2794
6252809,2097,1029,3139,1775
4211054,1694,1036,2021,1341
4548180,2245,898,2481,1096
4649749,2252,1015,2456,1271
