https://surfdrive.surf.nl/files/index.php/s/B7PEqFZSZZBPcW8/download?path=%2FData%2FInput%2FDatasets%2FBerend%2FImages&files=B_14.jpg,4608,3072
B_14,daylight,wood,"[130, 130, 130]","['4650630', '6252809', '4211054', '4548180', '4649749']"
4650630,1610,2198,2069,2542
6252809,837,1239,1999,2633
4211054,2665,1336,3192,1650
4548180,1371,551,1725,842
4649749,3118,1593,3520,1835
