https://surfdrive.surf.nl/files/index.php/s/B7PEqFZSZZBPcW8/download?path=%2FData%2FInput%2FDatasets%2FBerend%2FImages&files=B_184.jpg,4608,3072
B_184,daylight,wood,"[130, 130, 130]","['300821', '4211412']"
300821,1921,973,2635,1798
4211412,2058,662,2267,813
