https://surfdrive.surf.nl/files/index.php/s/B7PEqFZSZZBPcW8/download?path=%2FData%2FInput%2FDatasets%2FBerend%2FImages&files=B_219.jpg,4608,3072
B_219,daylight,wood,"[130, 130, 130]","['4109995', '4651236', '6177697']"
4109995,2669,1351,2937,1983
4651236,1511,1517,1861,1809
6177697,1506,846,1868,1212
