https://surfdrive.surf.nl/files/index.php/s/B7PEqFZSZZBPcW8/download?path=%2FData%2FInput%2FDatasets%2FBerend%2FImages&files=B_210.jpg,4608,3072
B_210,daylight,wood,"[130, 130, 130]","['4621545', '654126', '300124', '306201', '4212454', '614321']"
4621545,1895,1621,2068,1807
654126,2162,1459,2273,1593
300124,2443,1491,2602,1811
306201,1920,1293,2031,1396
4212454,1823,1348,1939,1429
614321,2013,1458,2151,1584
