https://surfdrive.surf.nl/files/index.php/s/B7PEqFZSZZBPcW8/download?path=%2FData%2FInput%2FDatasets%2FBerend%2FImages&files=B_229.jpg,4608,3072
B_229,daylight,wood,"[130, 130, 130]","['6138173', '4210718', '4210718']"
6138173,1515,1597,2055,2162
4210718,1880,1287,2390,1786
