https://surfdrive.surf.nl/files/index.php/s/B7PEqFZSZZBPcW8/download?path=%2FData%2FInput%2FDatasets%2FBerend%2FImages&files=B_355.jpg,4608,3072
B_355,daylight,wood,"[130, 130, 130]","['4639693', '4121967', '4157124', '4567338']"
4639693,1591,1332,2290,2179
4121967,2027,1377,2152,1549
4157124,1431,1316,1612,1468
