https://surfdrive.surf.nl/files/index.php/s/B7PEqFZSZZBPcW8/download?path=%2FData%2FInput%2FDatasets%2FBerend%2FImages&files=B_41.jpg,4608,3072
B_41,daylight,wood,"[130, 130, 130]","['306201', '4649749', '6025026', '6229071']"
306201,3208,1555,3445,1755
4649749,1596,1483,1854,1795
6025026,2187,1772,2406,2001
6229071,2674,1955,3001,2203
