https://surfdrive.surf.nl/files/index.php/s/B7PEqFZSZZBPcW8/download?path=%2FData%2FInput%2FDatasets%2FBerend%2FImages&files=B_468.jpg,4607,3072
B_468,daylight,wood,"[130, 130, 130]","['6075079', '4211201', '4165967']"
6075079,1337,1390,1927,1960
4211201,2180,1239,2728,1819
4165967,2639,1678,2984,1950
