https://surfdrive.surf.nl/files/index.php/s/B7PEqFZSZZBPcW8/download?path=%2FData%2FInput%2FDatasets%2FBerend%2FImages&files=B_481.jpg,4608,3072
B_481,daylight,wood,"[130, 130, 130]","['6075079', '4211201', '4165967', '4647553', '4121967', '4211437', '4143562']"
6075079,1463,1394,1832,1658
4211201,2108,921,2351,1613
4165967,2605,968,3249,1571
4647553,3007,1680,3430,1883
4121967,2479,1243,2739,1577
4211437,2330,2167,2596,2577
4143562,2351,936,2584,1175
