https://surfdrive.surf.nl/files/index.php/s/B7PEqFZSZZBPcW8/download?path=%2FData%2FInput%2FDatasets%2FBerend%2FImages&files=B_516.jpg,4608,3072
B_516,daylight,wood,"[130, 130, 130]","['300421', '4157124']"
300421,2186,2047,2628,2394
4157124,1858,958,2144,1190
