https://surfdrive.surf.nl/files/index.php/s/B7PEqFZSZZBPcW8/download?path=%2FData%2FInput%2FDatasets%2FBerend%2FImages&files=B_523.jpg,4608,3072
B_523,daylight,wood,"[130, 130, 130]","['6035291', '4567338']"
6035291,2078,1071,2314,1306
4567338,2185,926,2373,1093
