https://surfdrive.surf.nl/files/index.php/s/B7PEqFZSZZBPcW8/download?path=%2FData%2FInput%2FDatasets%2FBerend%2FImages&files=B_525.jpg,4608,3072
B_525,daylight,wood,"[130, 130, 130]","['6035291', '4567338', '6177697']"
6035291,1998,2026,2301,2238
4567338,1077,1185,1219,1345
6177697,2250,1361,2800,1638
