https://surfdrive.surf.nl/files/index.php/s/B7PEqFZSZZBPcW8/download?path=%2FData%2FInput%2FDatasets%2FBerend%2FImages&files=B_60.jpg,4608,3072
B_60,daylight,wood,"[130, 130, 130]","['6075079', '4520632', '300421', '6073026', '365901', '6062574']"
6075079,2432,1665,2678,1784
4520632,1357,1541,1882,1841
300421,1684,1369,1949,1637
6073026,2202,1358,2384,1565
365901,2356,1730,2807,2178
6062574,3092,1750,3237,1965
