https://surfdrive.surf.nl/files/index.php/s/B7PEqFZSZZBPcW8/download?path=%2FData%2FInput%2FDatasets%2FBerend%2FImages&files=B_669.jpg,4608,3072
B_669,daylight,wood,"[130, 130, 130]","['6223631', '4160403', '4527943', '4650630', '300424', '300321']"
6223631,2633,1928,2780,2069
4160403,3292,947,3533,1800
4527943,2939,1865,3231,2213
4650630,2950,1269,3302,1595
300424,2169,1153,2395,1510
300321,429,1161,859,1620
