https://surfdrive.surf.nl/files/index.php/s/B7PEqFZSZZBPcW8/download?path=%2FData%2FInput%2FDatasets%2FBerend%2FImages&files=B_67.jpg,4607,3072
B_67,daylight,wood,"[130, 130, 130]",['300121']
300121,1931,1343,2499,1817
