https://surfdrive.surf.nl/files/index.php/s/B7PEqFZSZZBPcW8/download?path=%2FData%2FInput%2FDatasets%2FBerend%2FImages&files=B_690.jpg,4608,3072
B_690,daylight,wood,"[130, 130, 130]","['365901', '4567338', '4121967', '6223631', '4212454', '4153825']"
365901,1564,1145,1952,1552
4567338,2344,1683,2729,2288
4121967,2849,1104,3087,1421
6223631,3421,1740,3618,1944
4212454,2429,1394,2583,1620
4153825,1028,1420,1271,1598
