https://surfdrive.surf.nl/files/index.php/s/B7PEqFZSZZBPcW8/download?path=%2FData%2FInput%2FDatasets%2FBerend%2FImages&files=B_726.jpg,4608,3072
B_726,daylight,wood,"[130, 130, 130]","['306201', '4527943', '6004938', '4121967', '4181144']"
306201,2025,1241,2218,1417
4527943,2479,1426,2803,1824
6004938,2221,1189,2439,1478
4121967,1405,1698,1792,2009
4181144,1578,1184,2568,2067
