https://surfdrive.surf.nl/files/index.php/s/B7PEqFZSZZBPcW8/download?path=%2FData%2FInput%2FDatasets%2FBerend%2FImages&files=B_726.jpg,4608,3072
B_726,daylight,wood,"[130, 130, 130]","['306201', '4527943', '6004938', '4121967', '4181144']"
306201,2035,1239,2213,1401
4527943,2471,1428,2802,1692
6004938,2228,1184,2427,1385
4121967,1402,1694,1785,1927
4181144,1571,1176,2594,1956
