https://surfdrive.surf.nl/files/index.php/s/B7PEqFZSZZBPcW8/download?path=%2FData%2FInput%2FDatasets%2FBerend%2FImages&files=B_730.jpg,4608,3072
B_730,daylight,wood,"[130, 130, 130]","['306201', '4527943', '6004938', '4121967', '4181144', '4160403']"
306201,730,1094,866,1263
4527943,3413,1364,3698,1634
6004938,2863,1517,3003,1726
4121967,2274,970,2518,1181
4181144,2550,1124,3305,1717
4160403,2356,1741,3067,2279
