https://surfdrive.surf.nl/files/index.php/s/B7PEqFZSZZBPcW8/download?path=%2FData%2FInput%2FDatasets%2FBerend%2FImages&files=B_744.jpg,4608,3072
B_744,daylight,wood,"[130, 130, 130]",['6074890']
6074890,2196,1435,2333,1636
