https://surfdrive.surf.nl/files/index.php/s/B7PEqFZSZZBPcW8/download?path=%2FData%2FInput%2FDatasets%2FBerend%2FImages&files=B_791.jpg,4608,3072
B_791,daylight,wood,"[130, 130, 130]","['4181135', '6069259', '6003007', '4650630', '4504369', '4527943', '6062574', '4211166', '4211437']"
4181135,2050,846,2385,1511
6069259,2437,1637,2756,1800
6003007,2362,775,2527,945
4650630,1786,1059,2089,1302
4504369,2554,1225,2747,1364
4527943,1812,721,2051,937
6062574,1701,921,1855,1109
4211166,2419,1392,2687,1633
4211437,2385,986,2586,1202
