https://surfdrive.surf.nl/files/index.php/s/B7PEqFZSZZBPcW8/download?path=%2FData%2FInput%2FDatasets%2FDavid%2FImages&files=C_129.jpg,5472,3648
C_129,artificial,coffee_table,"[130, 130, 130]","['6238674', '4212454', '4504369', '4550348', '4527943']"
6238674,2154,2110,2315,2250
4212454,2421,1771,2569,1891
4504369,2355,1874,2477,1949
4550348,2402,1909,2622,2095
4527943,2815,1442,3010,1602
