https://surfdrive.surf.nl/files/index.php/s/B7PEqFZSZZBPcW8/download?path=%2FData%2FInput%2FDatasets%2FDavid%2FImages&files=C_131.jpg,5472,3648
C_131,artificial,coffee_table,"[130, 130, 130]","['6238674', '4212454', '4504369', '4550348', '4527943']"
6238674,2415,1503,2525,1674
4212454,2564,1488,2635,1680
4504369,2534,1882,2699,2077
4550348,2584,1754,2872,1919
4527943,2938,1860,3158,2130
