https://surfdrive.surf.nl/files/index.php/s/B7PEqFZSZZBPcW8/download?path=%2FData%2FInput%2FDatasets%2FDavid%2FImages&files=C_157.jpg,5472,3648
C_157,daylight,coffee_table,"[130, 130, 130]","['4121739', '6025026', '6238674', '6104154', '4121739']"
4121739,2541,2076,2800,2227
4121739,3034,1987,3325,2183
6025026,1978,1551,2250,1645
6238674,2206,1361,2484,1563
6104154,2028,1677,2180,1753
