https://surfdrive.surf.nl/files/index.php/s/B7PEqFZSZZBPcW8/download?path=%2FData%2FInput%2FDatasets%2FDavid%2FImages&files=C_179.jpg,5472,3648
C_179,daylight,coffee_table,"[130, 130, 130]","['6252809', '4160403']"
6252809,2218,1606,3898,2160
4160403,1675,1312,2571,1930
