https://surfdrive.surf.nl/files/index.php/s/B7PEqFZSZZBPcW8/download?path=%2FData%2FInput%2FDatasets%2FDavid%2FImages&files=C_19.jpg,5472,3648
C_19,daylight,coffee_table,"[130, 130, 130]","['300121', '4567338', '4211149', '6022023', '6075075', '4118793', '4647553']"
300121,1974,1272,2249,1658
4567338,2889,1356,3044,1451
4211149,1062,2105,1356,2274
6022023,1727,1465,1901,1729
6075075,3662,2039,3915,2227
4118793,3463,1308,3588,1408
4647553,2539,1637,2801,1814
