https://surfdrive.surf.nl/files/index.php/s/B7PEqFZSZZBPcW8/download?path=%2FData%2FInput%2FDatasets%2FDavid%2FImages&files=C_256.jpg,5472,3648
C_256,daylight,coffee_table,"[130, 130, 130]","['6223631', '300424', '4153825']"
6223631,2129,1873,2295,2033
300424,2426,1870,2595,2111
4153825,3303,1402,3499,1763
