https://surfdrive.surf.nl/files/index.php/s/B7PEqFZSZZBPcW8/download?path=%2FData%2FInput%2FDatasets%2FDavid%2FImages&files=C_296.jpg,5472,3648
C_296,daylight,coffee_table,"[130, 130, 130]","['6151663', '365901', '4211201', '300401', '6252809', '6249125', '4211054', '6022064']"
6151663,2592,1925,2791,2229
365901,1805,1758,2009,2288
4211201,2020,1536,3288,1983
300401,3676,1942,4050,2282
6252809,2698,1141,3227,1492
6249125,3452,1600,3805,1870
4211054,2788,967,2941,1100
6022064,2293,1411,2543,1581
