https://surfdrive.surf.nl/files/index.php/s/B7PEqFZSZZBPcW8/download?path=%2FData%2FInput%2FDatasets%2FDavid%2FImages&files=C_296.jpg,5472,3647
C_296,daylight,coffee_table,"[130, 130, 130]","['6151663', '365901', '4211201', '300401', '6252809', '6249125', '4211054', '6022064']"
6151663,2296,1420,2522,1567
365901,1756,1758,2021,2293
4211201,2696,1144,3191,1538
300401,2572,1932,2809,2231
6252809,2023,1533,3276,1972
6249125,2789,966,2935,1101
4211054,3456,1612,3793,1859
6022064,3678,1938,4029,2252
