https://surfdrive.surf.nl/files/index.php/s/B7PEqFZSZZBPcW8/download?path=%2FData%2FInput%2FDatasets%2FDavid%2FImages&files=C_303.jpg,5472,3647
C_303,daylight,living_room_floor,"[130, 130, 130]",['4650630']
4650630,2636,1639,2851,1877
