https://surfdrive.surf.nl/files/index.php/s/B7PEqFZSZZBPcW8/download?path=%2FData%2FInput%2FDatasets%2FDavid%2FImages&files=C_388.jpg,5472,3648
C_388,daylight,living_room_floor,"[130, 130, 130]","['300401', '300423', '4529240', '6004938', '4550348', '6229071']"
300401,3189,2191,3414,2446
300423,1403,1155,1587,1301
4529240,2049,974,2180,1066
6004938,2403,1177,2520,1311
4550348,2731,1756,2950,1922
6229071,1763,2045,1923,2261
