https://surfdrive.surf.nl/files/index.php/s/B7PEqFZSZZBPcW8/download?path=%2FData%2FInput%2FDatasets%2FDavid%2FImages&files=C_405.jpg,5472,3648
C_405,daylight,living_room_floor,"[130, 130, 130]","['300421', '300321', '300424', '614321', '4153827']"
300421,2822,1903,2957,2019
300321,2108,1855,2245,2009
300424,2624,1760,2771,1899
614321,2151,1766,2250,1847
4153827,3054,1729,3216,1993
