https://surfdrive.surf.nl/files/index.php/s/B7PEqFZSZZBPcW8/download?path=%2FData%2FInput%2FDatasets%2FDavid%2FImages&files=C_442.jpg,5472,3648
C_442,daylight,living_room_floor,"[130, 130, 130]","['6069259', '6035291', '300321']"
6069259,2512,2061,2760,2386
6035291,2629,1665,2905,1842
300321,2735,1238,3012,1553
