https://surfdrive.surf.nl/files/index.php/s/B7PEqFZSZZBPcW8/download?path=%2FData%2FInput%2FDatasets%2FDavid%2FImages&files=C_469.jpg,5472,3647
C_469,daylight,dining_table,"[130, 130, 130]","['6075079', '306201', '4211614', '4181135', '6003007', '6138173', '300421', '6028324']"
6075079,2728,2000,3020,2197
306201,1597,1899,1788,2096
4211614,3482,1381,3645,1589
4181135,2671,1291,3347,1966
6003007,1841,1724,2061,1887
6138173,3158,1606,3439,1887
300421,2257,1673,2438,1972
6028324,2432,1549,2679,1808
