https://surfdrive.surf.nl/files/index.php/s/B7PEqFZSZZBPcW8/download?path=%2FData%2FInput%2FDatasets%2FDavid%2FImages&files=C_476.jpg,5472,3648
C_476,daylight,dining_table,"[130, 130, 130]","['4153825', '4621545']"
4153825,2551,1709,2793,1975
4621545,3271,1764,3499,1952
