https://surfdrive.surf.nl/files/index.php/s/B7PEqFZSZZBPcW8/download?path=%2FData%2FInput%2FDatasets%2FDavid%2FImages&files=C_504.jpg,5472,3648
C_504,daylight,coffee_table,"[130, 130, 130]","['300424', '6004938', '306201', '4211166', '4621545', '300121', '4118793', '4548180']"
300424,2794,1678,3052,1872
6004938,3366,2144,3550,2369
306201,2904,1864,3093,2000
4211166,2033,1966,2325,2214
4621545,2211,2139,2491,2447
300121,2282,1304,2737,1561
4118793,3406,2047,3586,2213
4548180,2376,1258,2493,1309
