https://surfdrive.surf.nl/files/index.php/s/B7PEqFZSZZBPcW8/download?path=%2FData%2FInput%2FDatasets%2FDavid%2FImages&files=C_504.jpg,5472,3648
C_504,daylight,coffee_table,"[130, 130, 130]","['300424', '6004938', '306201', '4211166', '4621545', '300121', '4118793', '4548180']"
300424,2796,1681,3055,1826
6004938,3367,2146,3531,2370
306201,2905,1862,3093,1990
4211166,2057,1969,2329,2259
4621545,2209,2138,2491,2386
300121,2288,1313,2732,1557
4118793,3441,2048,3604,2148
4548180,2361,1265,2455,1310
