https://surfdrive.surf.nl/files/index.php/s/B7PEqFZSZZBPcW8/download?path=%2FData%2FInput%2FDatasets%2FHiba%2FImages&files=H_29.jpg,5184,3456
H_29,daylight,wood,"[130, 130, 130]","['4181135', '6238674', '300321']"
4181135,2464,1365,3051,1949
6238674,1891,1982,2084,2099
300321,3170,1215,3391,1454
