https://surfdrive.surf.nl/files/index.php/s/B7PEqFZSZZBPcW8/download?path=%2FData%2FInput%2FDatasets%2FHiba%2FImages&files=H_379.jpg,5184,3456
H_379,daylight,wood,"[130, 130, 130]","['365901', '300424', '4529247', '4211412', '6238674', '4539099']"
365901,981,1853,1689,2287
300424,2835,1147,3154,1389
4529247,2569,1576,2767,1718
4211412,2853,2639,3172,2799
6238674,2252,1474,2465,1661
4539099,2422,1611,2544,1781
