https://surfdrive.surf.nl/files/index.php/s/B7PEqFZSZZBPcW8/download?path=%2FData%2FInput%2FDatasets%2FHiba%2FImages&files=H_380.jpg,5184,3456
H_380,daylight,wood,"[130, 130, 130]","['365901', '300424', '4529247', '4211412', '6238674', '4539099']"
365901,1985,1637,2510,1853
300424,1643,2118,1988,2458
4529247,4092,2161,4305,2265
4211412,3689,1497,3843,1641
6238674,3202,968,3349,1075
4539099,2479,1551,2675,1675
