https://surfdrive.surf.nl/files/index.php/s/B7PEqFZSZZBPcW8/download?path=%2FData%2FInput%2FDatasets%2FHiba%2FImages&files=H_380.jpg,5184,3456
H_380,daylight,wood,"[130, 130, 130]","['365901', '300424', '4529247', '4211412', '6238674', '4539099']"
365901,1964,1652,2522,1765
300424,1633,2141,1914,2467
4529247,4078,2158,4324,2254
4211412,3695,1499,3850,1647
6238674,3188,988,3364,1073
4539099,2478,1549,2673,1708
