https://surfdrive.surf.nl/files/index.php/s/B7PEqFZSZZBPcW8/download?path=%2FData%2FInput%2FDatasets%2FHiba%2FImages&files=H_45.jpg,5183,3456
H_45,daylight,wood,"[130, 130, 130]","['4210718', '6249125', '4504381', '4558957', '4651236']"
4210718,1482,2050,1744,2458
6249125,2636,1617,2732,1742
4504381,2566,1338,2686,1434
4558957,2386,1517,2836,1900
4651236,2436,2212,2607,2408
