https://surfdrive.surf.nl/files/index.php/s/B7PEqFZSZZBPcW8/download?path=%2FData%2FInput%2FDatasets%2FHiba%2FImages&files=H_71.jpg,5184,3456
H_71,daylight,wood,"[130, 130, 130]","['4211511', '4529240', '614321', '300423', '4212454', '6062574', '4650630', '4529247']"
4211511,2044,1990,2230,2138
4529240,2012,1711,2098,1828
614321,1374,648,1543,790
300423,2566,1583,2728,1839
4212454,2865,2425,3033,2598
6062574,2652,1835,2792,2017
4650630,2362,1775,2619,2007
4529247,2488,1061,2613,1135
