https://surfdrive.surf.nl/files/index.php/s/B7PEqFZSZZBPcW8/download?path=%2FData%2FInput%2FDatasets%2FBerend%2FImages&files=B_356.jpg,4608,3072
B_356,daylight,wood,"[130, 130, 130]","['4639693', '4121967', '4157124', '4567338']"
4639693,1539,1103,2185,2054
4121967,1170,1112,1478,1334
4157124,1724,775,1876,1024
4567338,2530,1281,2699,1479
