https://surfdrive.surf.nl/files/index.php/s/B7PEqFZSZZBPcW8/download?path=%2FData%2FInput%2FDatasets%2FDavid%2FImages&files=C_338.jpg,5472,3648
C_338,daylight,living_room_floor,"[130, 130, 130]","['4211614', '4153825', '6151663', '6004938', '306223', '6022064']"
4211614,2667,1709,2925,1882
4153825,2244,1701,2477,1950
6151663,2239,1097,2395,1308
6004938,2141,1602,2275,1777
306223,3148,1791,3319,1911
6022064,2015,1528,2154,1866
