https://surfdrive.surf.nl/files/index.php/s/B7PEqFZSZZBPcW8/download?path=%2FData%2FInput%2FDatasets%2FHiba%2FImages&files=H_70.jpg,5184,3456
H_70,daylight,wood,"[130, 130, 130]","['4211511', '4529240', '614321', '300423', '4212454', '6062574', '4650630', '4529247']"
4211511,3510,1633,3776,1923
4529240,3056,1356,3288,1548
614321,686,1649,1022,1951
300423,1757,1135,2012,1466
4212454,3478,1136,3696,1315
6062574,2465,1611,2731,1866
4650630,4361,1111,4832,1420
4529247,1090,937,1284,1065
