https://surfdrive.surf.nl/files/index.php/s/B7PEqFZSZZBPcW8/download?path=%2FData%2FInput%2FDatasets%2FBerend%2FImages&files=B_1073.jpg,4608,3072
B_1073,daylight,dirty_rug,"[120, 120, 120]","['4109995', '300123', '623224', '4520632', '6025026', '4504369', '4157124']"
4109995,2297,1507,2467,1688
300123,1773,1353,2087,1618
623224,1017,1994,1213,2209
4520632,2579,1198,2810,1508
6025026,3003,2161,3146,2333
4504369,1415,1103,1500,1186
4157124,2174,1513,2287,1656
