https://surfdrive.surf.nl/files/index.php/s/B7PEqFZSZZBPcW8/download?path=%2FData%2FInput%2FDatasets%2FBerend%2FImages&files=B_1047.jpg,4608,3072
B_1047,daylight,dirty_rug,"[120, 120, 120]","['654126', '4504381', '4517992', '4211221', '6177697', '6022023', '4550325']"
654126,2162,1765,2331,1926
4504381,2292,1007,2421,1090
4517992,2501,672,2768,938
4211221,2440,1587,2697,1836
6177697,2249,1065,2669,1275
6022023,1061,1347,1367,1644
4550325,1887,1056,2066,1267
