https://surfdrive.surf.nl/files/index.php/s/B7PEqFZSZZBPcW8/download?path=%2FData%2FInput%2FDatasets%2FBerend%2FImages&files=B_114.jpg,4608,3072
B_114,daylight,wood,"[130, 130, 130]","['6022064', '4211221', '4211511', '6073026', '4550348', '6022023', '4621545']"
6022064,2111,1677,2606,1996
4211221,1578,2120,1972,2507
4211511,1473,1911,1739,2182
6073026,1831,1557,2149,1808
4550348,2630,1159,2759,1398
6022023,1325,1913,1649,2220
4621545,1781,1879,2114,2168
