https://surfdrive.surf.nl/files/index.php/s/B7PEqFZSZZBPcW8/download?path=%2FData%2FInput%2FDatasets%2FBerend%2FImages&files=B_1182.jpg,3072,4608
B_1182,artificial_light,parquet_light,"[120, 120, 120]","['4517992', '4504369', '4504381', '4165967', '6138173', '300321', '4212454', '4520632', '4211614', '300123', '4212454', '6022064']"
4517992,731,1500,1072,1733
4504369,1015,2431,1286,2618
4504381,636,2605,799,2831
4165967,911,1990,1428,2281
6138173,1388,1540,1595,1922
300321,673,2110,933,2389
4212454,2170,2813,2319,2926
4212454,781,1850,944,2012
4520632,1133,1467,1555,1701
4211614,1192,3505,1356,3742
300123,950,2437,1226,2855
6022064,1164,2823,1291,3200
