https://surfdrive.surf.nl/files/index.php/s/B7PEqFZSZZBPcW8/download?path=%2FData%2FInput%2FDatasets%2FBerend%2FImages&files=B_1132.jpg,4608,3072
B_1132,artificial_light,desk_black_wood,"[120, 120, 120]","['4181135', '4649749', '300424', '6249125', '6003007', '4650630', '4181134', '306223', '4114319', '4651236']"
4181135,1878,1239,2801,1787
4649749,1661,1598,1949,1860
300424,2785,1361,3085,1703
6249125,2733,1115,2895,1260
6003007,926,743,1124,935
4650630,1995,1030,2328,1296
4181134,1467,642,2328,1190
306223,732,757,944,936
4114319,2892,850,3472,1350
4651236,1387,1645,1716,1883
