https://surfdrive.surf.nl/files/index.php/s/B7PEqFZSZZBPcW8/download?path=%2FData%2FInput%2FDatasets%2FBerend%2FImages&files=B_1105.jpg,4608,3072
B_1105,artificial_light,parquet_dark_brown,"[120, 120, 120]","['6075075', '4160403', '6252809', '4651236', '300821', '4181144', '4655172', '4539099', '6022064', '6073026', '300323', '6104154', '4504381']"
6075075,1415,1562,1657,1717
4160403,1141,670,1694,951
6252809,3035,1186,3965,2058
4651236,2381,905,2652,1133
300821,2252,767,3106,1015
4181144,2064,948,2752,1263
4655172,2115,1113,2508,1346
4539099,1028,1074,1119,1216
6022064,2556,1394,2743,1693
6073026,1318,1383,1498,1536
300323,1968,748,2212,929
6104154,2371,793,2569,904
4504381,1017,1581,1151,1701
