https://surfdrive.surf.nl/files/index.php/s/B7PEqFZSZZBPcW8/download?path=%2FData%2FInput%2FDatasets%2FBerend%2FImages&files=B_1216.jpg,4607,3072
B_1216,artificial_light,parquet_light,"[120, 120, 120]","['4157124', '4121967', '6075075', '4181144', '4655172', '4153825', '614321', '300821', '4181135', '4550325', '4153825']"
4157124,863,732,1009,829
4121967,829,1036,999,1144
6075075,1802,1061,1917,1218
4181144,1298,989,1783,1371
4655172,1895,502,2225,711
4153825,1369,548,1562,720
4153825,1535,472,1727,660
614321,1737,906,1882,1053
300821,1118,850,1745,983
4181135,2294,840,2788,1145
4550325,3714,876,3874,1025
