https://surfdrive.surf.nl/files/index.php/s/B7PEqFZSZZBPcW8/download?path=%2FData%2FInput%2FDatasets%2FBerend%2FImages&files=B_1214.jpg,4608,3072
B_1214,artificial_light,parquet_light,"[120, 120, 120]","['4157124', '4121967', '6075075', '4181144', '4655172', '4153825', '614321', '300821', '4181135', '4550325', '4153825', '6223631']"
4157124,2741,445,2825,549
4121967,1901,1209,2007,1321
6075075,2558,1278,2689,1349
4181144,2303,1235,2700,1490
4655172,2356,1413,2643,1631
4153825,2103,1338,2278,1488
4153825,2605,876,2739,1013
614321,2519,675,2641,780
300821,2343,1075,2917,1183
4181135,1326,2269,1832,2491
4550325,2745,1279,2892,1362
6223631,1920,1692,1989,1759
