https://surfdrive.surf.nl/files/index.php/s/B7PEqFZSZZBPcW8/download?path=%2FData%2FInput%2FDatasets%2FBerend%2FImages&files=B_155.jpg,4608,3072
B_155,daylight,wood,"[130, 130, 130]","['300421', '6138173', '4114319', '4211221', '6004938', '4211166']"
300421,2321,1594,2476,1725
6138173,1636,1518,1805,1693
4114319,1869,1212,2230,1353
4211221,2113,1447,2297,1596
6004938,2716,1830,2863,1961
4211166,2669,1817,2794,1953
