https://surfdrive.surf.nl/files/index.php/s/B7PEqFZSZZBPcW8/download?path=%2FData%2FInput%2FDatasets%2FBerend%2FImages&files=B_168.jpg,4608,3072
B_168,daylight,wood,"[130, 130, 130]",['4211201']
4211201,1901,1282,2665,1858
