https://surfdrive.surf.nl/files/index.php/s/B7PEqFZSZZBPcW8/download?path=%2FData%2FInput%2FDatasets%2FBerend%2FImages&files=B_179.jpg,4607,3072
B_179,daylight,wood,"[130, 130, 130]","['4548180', '4647553']"
4548180,1555,1595,1849,1859
4647553,2479,1159,2758,1385
