https://surfdrive.surf.nl/files/index.php/s/B7PEqFZSZZBPcW8/download?path=%2FData%2FInput%2FDatasets%2FBerend%2FImages&files=B_199.jpg,4607,3072
B_199,daylight,wood,"[130, 130, 130]","['4621545', '654126']"
4621545,1680,1164,1911,1421
654126,932,1951,1086,2127
