https://surfdrive.surf.nl/files/index.php/s/B7PEqFZSZZBPcW8/download?path=%2FData%2FInput%2FDatasets%2FBerend%2FImages&files=B_343.jpg,4608,3072
B_343,daylight,wood,"[130, 130, 130]",['6244886']
6244886,1835,1422,2132,1698
