https://surfdrive.surf.nl/files/index.php/s/B7PEqFZSZZBPcW8/download?path=%2FData%2FInput%2FDatasets%2FBerend%2FImages&files=B_403.jpg,4608,3072
B_403,daylight,wood,"[130, 130, 130]","['4548180', '4651236', '4529240']"
4548180,1473,1093,1804,1352
4651236,1458,776,1817,1050
4529240,2611,2561,2790,2841
