https://surfdrive.surf.nl/files/index.php/s/B7PEqFZSZZBPcW8/download?path=%2FData%2FInput%2FDatasets%2FBerend%2FImages&files=B_449.jpg,4608,3072
B_449,daylight,wood,"[130, 130, 130]","['300423', '4165967', '4647553']"
300423,2231,1883,2448,2151
4165967,1412,684,1934,1087
4647553,2272,1166,2452,1427
