https://surfdrive.surf.nl/files/index.php/s/B7PEqFZSZZBPcW8/download?path=%2FData%2FInput%2FDatasets%2FBerend%2FImages&files=B_469.jpg,4607,3072
B_469,daylight,wood,"[130, 130, 130]","['6075079', '4211201', '4165967']"
6075079,2724,1491,3017,1806
4211201,427,750,1108,1233
4165967,3826,941,4196,1419
