https://surfdrive.surf.nl/files/index.php/s/B7PEqFZSZZBPcW8/download?path=%2FData%2FInput%2FDatasets%2FBerend%2FImages&files=B_525.jpg,4608,3072
B_525,daylight,wood,"[130, 130, 130]","['6035291', '4567338', '6177697']"
6035291,1688,1740,1943,1949
4567338,1465,1242,1750,1470
6177697,2165,1578,2633,1844
