https://surfdrive.surf.nl/files/index.php/s/B7PEqFZSZZBPcW8/download?path=%2FData%2FInput%2FDatasets%2FBerend%2FImages&files=B_546.jpg,4608,3072
B_546,daylight,wood,"[130, 130, 130]","['4504369', '4211149']"
4504369,2165,1639,2407,1901
4211149,2105,1525,2386,1821
