https://surfdrive.surf.nl/files/index.php/s/B7PEqFZSZZBPcW8/download?path=%2FData%2FInput%2FDatasets%2FBerend%2FImages&files=B_551.jpg,4608,3072
B_551,daylight,wood,"[130, 130, 130]","['4504369', '4211149', '4118793']"
4504369,2179,1724,2411,1955
4211149,2020,1257,2366,1588
4118793,1854,1116,2084,1340
