https://surfdrive.surf.nl/files/index.php/s/B7PEqFZSZZBPcW8/download?path=%2FData%2FInput%2FDatasets%2FBerend%2FImages&files=B_566.jpg,4608,3072
B_566,daylight,wood,"[130, 130, 130]","['4550325', '6229071', '4639693', '6004938', '6069259']"
4550325,1679,912,2002,1190
6229071,3201,2095,3508,2423
4639693,1753,1008,2914,1663
6004938,1247,477,1430,700
6069259,2000,1533,2202,1887
