https://surfdrive.surf.nl/files/index.php/s/B7PEqFZSZZBPcW8/download?path=%2FData%2FInput%2FDatasets%2FBerend%2FImages&files=B_577.jpg,4607,3072
B_577,daylight,wood,"[130, 130, 130]","['300401', '654126']"
300401,2335,1099,2663,1459
654126,2108,1314,2386,1611
