https://surfdrive.surf.nl/files/index.php/s/B7PEqFZSZZBPcW8/download?path=%2FData%2FInput%2FDatasets%2FBerend%2FImages&files=B_584.jpg,4608,3072
B_584,daylight,wood,"[130, 130, 130]","['300401', '654126', '4211149', '300423']"
300401,1483,1855,1921,2180
654126,2848,1718,3129,2012
4211149,2804,808,3168,1148
300423,1392,761,1772,1065
