https://surfdrive.surf.nl/files/index.php/s/B7PEqFZSZZBPcW8/download?path=%2FData%2FInput%2FDatasets%2FBerend%2FImages&files=B_614.jpg,4608,3072
B_614,daylight,wood,"[130, 130, 130]","['6238674', '300323', '4153825', '4211054', '6062574', '623224', '6249125']"
6238674,1494,1339,1695,1558
300323,2567,1172,2902,1483
4153825,1833,646,2207,1003
4211054,2482,1899,2943,2285
6062574,2550,1424,2753,1669
623224,2182,1443,2499,1923
6249125,2192,697,2384,851
