https://surfdrive.surf.nl/files/index.php/s/B7PEqFZSZZBPcW8/download?path=%2FData%2FInput%2FDatasets%2FBerend%2FImages&files=B_616.jpg,4608,3072
B_616,daylight,wood,"[130, 130, 130]","['6238674', '300323', '4153825', '4211054', '6062574', '623224', '6249125', '6223631']"
6238674,2508,1031,2709,1230
300323,1524,1180,1846,1542
4153825,2292,1094,2524,1534
4211054,1611,1666,2011,2076
6062574,1988,1543,2222,1798
623224,1894,1937,2200,2434
6249125,2297,1018,2455,1126
6223631,2039,1862,2175,2030
