https://surfdrive.surf.nl/files/index.php/s/B7PEqFZSZZBPcW8/download?path=%2FData%2FInput%2FDatasets%2FBerend%2FImages&files=B_620.jpg,4607,3072
B_620,daylight,wood,"[130, 130, 130]","['6238674', '300323', '4153825', '4211054', '6062574', '623224', '6249125', '6223631', '4647553']"
6238674,3820,1501,3954,1681
300323,1594,478,1875,711
4153825,327,875,705,1187
4211054,1114,1570,1425,1817
6062574,4044,2170,4248,2349
623224,3072,1776,3462,2090
6249125,2129,1690,2298,1817
6223631,2678,1596,2822,1738
4647553,2733,1073,2949,1328
