https://surfdrive.surf.nl/files/index.php/s/B7PEqFZSZZBPcW8/download?path=%2FData%2FInput%2FDatasets%2FBerend%2FImages&files=B_650.jpg,4608,3072
B_650,daylight,wood,"[130, 130, 130]","['4118793', '4114319', '4558957', '4539099', '6104154', '4109995', '4558957', '4529240', '4157124']"
4118793,2021,838,2160,954
4114319,1143,1813,1620,2158
4558957,2066,1658,2462,2022
4558957,1969,1408,2330,1760
4539099,986,1050,1135,1135
6104154,2212,1293,2402,1495
4109995,2727,1432,2883,1643
4529240,2373,1733,2500,1851
4157124,2707,1236,2816,1395
