https://surfdrive.surf.nl/files/index.php/s/B7PEqFZSZZBPcW8/download?path=%2FData%2FInput%2FDatasets%2FBerend%2FImages&files=B_661.jpg,4607,3072
B_661,daylight,wood,"[130, 130, 130]","['6223631', '4160403', '4527943']"
6223631,2331,1386,2552,1600
4160403,1471,1579,2394,2156
4527943,1995,1417,2271,1669
