https://surfdrive.surf.nl/files/index.php/s/B7PEqFZSZZBPcW8/download?path=%2FData%2FInput%2FDatasets%2FBerend%2FImages&files=B_687.jpg,4607,3072
B_687,daylight,wood,"[130, 130, 130]","['365901', '4567338', '4121967', '6223631', '4212454']"
365901,2266,1644,2816,2140
4567338,1683,753,1839,944
4121967,3142,1345,3438,1660
6223631,1436,599,1601,751
4212454,3169,1760,3324,1941
