https://surfdrive.surf.nl/files/index.php/s/B7PEqFZSZZBPcW8/download?path=%2FData%2FInput%2FDatasets%2FBerend%2FImages&files=B_682.jpg,4608,3072
B_682,daylight,wood,"[130, 130, 130]","['365901', '4567338', '4121967']"
365901,1731,1246,2318,1535
4567338,2324,1528,2423,1701
4121967,2341,1128,2628,1333
