https://surfdrive.surf.nl/files/index.php/s/B7PEqFZSZZBPcW8/download?path=%2FData%2FInput%2FDatasets%2FBerend%2FImages&files=B_719.jpg,4608,3072
B_719,daylight,wood,"[130, 130, 130]","['306201', '4527943']"
306201,2485,1360,2645,1546
4527943,1902,1570,2086,1713
