https://surfdrive.surf.nl/files/index.php/s/B7PEqFZSZZBPcW8/download?path=%2FData%2FInput%2FDatasets%2FBerend%2FImages&files=B_713.jpg,4608,3072
B_713,daylight,wood,"[130, 130, 130]",['4504381']
4504381,2187,1405,2420,1617
