https://surfdrive.surf.nl/files/index.php/s/B7PEqFZSZZBPcW8/download?path=%2FData%2FInput%2FDatasets%2FBerend%2FImages&files=B_726.jpg,4608,3072
B_726,daylight,wood,"[130, 130, 130]","['306201', '4527943', '6004938', '4121967', '4181144']"
306201,2028,1243,2219,1411
4527943,2479,1434,2797,1781
6004938,2222,1190,2432,1446
4121967,1403,1706,1796,1952
4181144,1570,1183,2580,1995
