https://surfdrive.surf.nl/files/index.php/s/B7PEqFZSZZBPcW8/download?path=%2FData%2FInput%2FDatasets%2FBerend%2FImages&files=B_767.jpg,4608,3072
B_767,daylight,wood,"[130, 130, 130]",['4181135']
4181135,1672,1186,2556,1733
