https://surfdrive.surf.nl/files/index.php/s/B7PEqFZSZZBPcW8/download?path=%2FData%2FInput%2FDatasets%2FBerend%2FImages&files=B_872.jpg,4608,3072
B_872,daylight,parquet_dark_brown,"[120, 120, 120]","['4517992', '300121', '6022023', '300821', '300123', '6028324', '4143562', '6244886', '6022064', '4655172']"
4517992,2513,561,2651,670
300121,1602,1119,1844,1311
6022023,1342,1463,1550,1616
300821,1845,1518,1987,1944
300123,1788,1456,2001,1673
6028324,1723,1649,1854,1811
4143562,1780,1156,1917,1398
6244886,1476,1832,1628,1975
6022064,1789,1976,1919,2185
4655172,1655,1682,1894,1854
