https://surfdrive.surf.nl/files/index.php/s/B7PEqFZSZZBPcW8/download?path=%2FData%2FInput%2FDatasets%2FBerend%2FImages&files=B_878.jpg,4608,3072
B_878,daylight,parquet_dark_brown,"[120, 120, 120]","['4517992', '300121', '6022023', '300821', '300123', '6028324', '4143562', '6244886']"
4517992,1751,1495,1924,1651
300121,2327,1369,2608,1582
6022023,2571,1527,2748,1643
300821,2065,1325,2382,1742
300123,2083,1484,2283,1771
6028324,2409,1805,2512,1925
4143562,1716,1875,1843,2006
6244886,2264,493,2405,636
