https://surfdrive.surf.nl/files/index.php/s/B7PEqFZSZZBPcW8/download?path=%2FData%2FInput%2FDatasets%2FBerend%2FImages&files=B_901.jpg,4608,3072
B_901,daylight,parquet_dark_brown,"[120, 120, 120]","['4165967', '623224', '6075075', '6225539', '4504369', '6252809', '4181135', '4211511']"
4165967,2012,1448,2308,1749
623224,1750,1327,1924,1506
6075075,1773,2069,1938,2230
6225539,2319,1937,2799,2147
4504369,1406,1127,1490,1208
6252809,1721,1216,2448,1315
4181135,1893,1593,2269,1955
4211511,2430,1451,2515,1550
