https://surfdrive.surf.nl/files/index.php/s/B7PEqFZSZZBPcW8/download?path=%2FData%2FInput%2FDatasets%2FBerend%2FImages&files=B_921.jpg,4608,3072
B_921,daylight,parquet_light,"[120, 120, 120]","['6138173', '4520632', '6229071', '6177697', '300321', '4529247', '4639693', '4181144', '4211166']"
6138173,1310,1425,1432,1593
4520632,2259,1623,2572,1933
6229071,1353,1869,1473,2023
6177697,2495,1631,2667,1921
300321,3211,1458,3351,1616
4529247,1985,1896,2110,1978
4639693,2029,891,2498,1297
4181144,2162,1435,2511,1787
4211166,1493,1578,1647,1738
