https://surfdrive.surf.nl/files/index.php/s/B7PEqFZSZZBPcW8/download?path=%2FData%2FInput%2FDatasets%2FBerend%2FImages&files=B_955.jpg,4608,3072
B_955,daylight,parquet_light,"[120, 120, 120]","['6244886', '6022023', '300821', '4181134', '300121', '4143562', '300123', '4114319', '6075079', '4157124', '306223', '4181144', '4143562']"
6244886,1935,1699,2022,1855
6022023,1722,1929,1852,2033
300821,1784,1514,2270,1627
4181134,1934,1386,2288,1497
300121,1998,1136,2228,1263
4143562,2492,1693,2589,1836
4143562,2276,1716,2410,1847
300123,1525,1578,1766,1771
4114319,2223,1577,2344,1796
6075079,2349,1536,2416,1644
4157124,2259,1250,2369,1332
306223,2303,1404,2348,1480
4181144,1809,1580,2191,1736
