https://surfdrive.surf.nl/files/index.php/s/B7PEqFZSZZBPcW8/download?path=%2FData%2FInput%2FDatasets%2FBerend%2FImages&files=B_971.jpg,4608,3072
B_971,daylight,parquet_light,"[120, 120, 120]","['6244886', '6022023', '300821', '4181134', '300121', '4143562', '300123', '4114319']"
6244886,3186,1687,3397,1854
6022023,1777,1967,1973,2130
300821,1573,1047,2182,1403
4181134,2069,1378,2349,1844
300121,2383,1755,2732,2003
4143562,1180,346,1331,438
300123,2347,1192,2685,1461
4114319,2172,1723,2503,2035
