https://surfdrive.surf.nl/files/index.php/s/B7PEqFZSZZBPcW8/download?path=%2FData%2FInput%2FDatasets%2FBerend%2FImages&files=B_985.jpg,4608,3072
B_985,daylight,parquet_light,"[120, 120, 120]","['4211511', '6028324', '614321', '4165967', '6225539', '6138173', '6229071', '623224', '4651236']"
4211511,2260,1360,2338,1450
6028324,2948,1610,3067,1686
614321,1472,1044,1583,1145
4165967,2912,1432,3186,1561
6225539,2395,1784,2831,2024
6138173,2765,1027,2865,1130
6229071,2810,1526,2927,1679
623224,2470,1002,2607,1149
4651236,1980,1617,2107,1763
