https://surfdrive.surf.nl/files/index.php/s/B7PEqFZSZZBPcW8/download?path=%2FData%2FInput%2FDatasets%2FBerend%2FImages&files=B_996.jpg,4608,3072
B_996,daylight,dirty_rug,"[120, 120, 120]","['4504369', '4181135', '4520632', '4529247', '300321', '6075075', '6252809', '4181144', '6244886', '6004938', '4157124', '4109995', '4211149']"
4504369,3293,1016,3378,1099
4181135,1720,1137,2293,1448
4520632,1888,978,2265,1199
4529247,2846,1783,2992,1904
300321,2580,1363,2780,1569
6075075,3369,1348,3531,1486
6252809,1663,845,2507,1159
4181144,2268,1078,2805,1228
6244886,2308,1377,2494,1592
6004938,1602,1236,1693,1358
4157124,1224,1129,1358,1283
4109995,2628,1387,2807,1546
4211149,2574,1481,2744,1664
