https://surfdrive.surf.nl/files/index.php/s/B7PEqFZSZZBPcW8/download?path=%2FData%2FInput%2FDatasets%2FBerend%2FImages&files=B_990.jpg,4608,3072
B_990,daylight,parquet_light,"[120, 120, 120]","['4211511', '6028324', '614321', '4165967', '6225539', '6138173', '6229071']"
4211511,1836,1901,1926,2009
6028324,1608,1855,1727,1970
614321,2015,1677,2126,1802
4165967,1993,1722,2232,2001
6225539,1882,2053,2322,2238
6138173,2352,1921,2467,2076
6229071,2380,1626,2493,1741
