https://surfdrive.surf.nl/files/index.php/s/B7PEqFZSZZBPcW8/download?path=%2FData%2FInput%2FDatasets%2FDavid%2FImages&files=C_1001.jpg,5472,3648
C_1001,daylight,couch,"[120, 120, 120]","['4527943', '300401', '4550325', '4211201', '4121967', '306223', '4157124']"
4527943,3095,1680,3328,1947
300401,2675,1965,3002,2190
4550325,2631,1273,2920,1484
4211201,2446,1445,3059,1809
4121967,2926,2099,3184,2386
306223,2419,1360,2597,1528
4157124,2156,1787,2365,1997
