https://surfdrive.surf.nl/files/index.php/s/B7PEqFZSZZBPcW8/download?path=%2FData%2FInput%2FDatasets%2FDavid%2FImages&files=C_101.jpg,5472,3647
C_101,daylight,coffee_table,"[130, 130, 130]","['4121739', '306223', '4210718', '6151663', '4529240', '4211054', '6075079', '300123', '4550348']"
4121739,2969,1653,3194,1833
306223,2866,1059,3021,1160
4210718,655,1691,1162,1910
6151663,3428,2242,3645,2414
4529240,2892,2173,3060,2302
4211054,2913,1158,3072,1322
6075079,2812,1660,2980,1810
300123,3555,1976,4070,2325
4550348,3589,2458,3810,2704
