https://surfdrive.surf.nl/files/index.php/s/B7PEqFZSZZBPcW8/download?path=%2FData%2FInput%2FDatasets%2FDavid%2FImages&files=C_110.jpg,5472,3648
C_110,daylight,armchair,"[130, 130, 130]","['300124', '4181134']"
300124,1053,1668,1467,2110
4181134,3235,1811,3885,2390
