https://surfdrive.surf.nl/files/index.php/s/B7PEqFZSZZBPcW8/download?path=%2FData%2FInput%2FDatasets%2FDavid%2FImages&files=C_137.jpg,5472,3648
C_137,artificial,coffee_table,"[130, 130, 130]","['6238674', '4212454', '4504369', '4550348', '4527943', '6074890', '6244886']"
6238674,2797,1314,2993,1500
4212454,3155,1533,3310,1730
4504369,3046,2470,3252,2641
4550348,2410,1564,2568,1820
4527943,2853,1128,3078,1346
6074890,2333,1774,2558,1944
6244886,1521,1331,1876,1678
