https://surfdrive.surf.nl/files/index.php/s/B7PEqFZSZZBPcW8/download?path=%2FData%2FInput%2FDatasets%2FDavid%2FImages&files=C_167.jpg,5472,3648
C_167,daylight,coffee_table,"[130, 130, 130]","['4121739', '6025026', '6238674', '6104154', '4121739', '4529240', '4550325', '6225539']"
4121739,2373,1531,2804,1843
4121739,2513,1800,2776,2038
6025026,2592,2218,2898,2408
6238674,2182,1711,2407,1871
6104154,2098,1819,2354,2003
4529240,1320,1595,1552,1773
4550325,1461,1555,1713,1842
6225539,2165,1327,2743,1647
