https://surfdrive.surf.nl/files/index.php/s/B7PEqFZSZZBPcW8/download?path=%2FData%2FInput%2FDatasets%2FDavid%2FImages&files=C_164.jpg,5472,3648
C_164,daylight,coffee_table,"[130, 130, 130]","['4121739', '6025026', '6238674', '6104154', '4121739', '4529240', '4550325']"
4121739,2266,1521,2513,1809
4121739,2892,1124,3186,1360
6025026,2094,1793,2364,2039
6238674,2892,1376,3076,1548
6104154,2573,1284,2875,1526
4529240,2728,1806,2915,1930
4550325,2919,1758,3196,2043
