https://surfdrive.surf.nl/files/index.php/s/B7PEqFZSZZBPcW8/download?path=%2FData%2FInput%2FDatasets%2FDavid%2FImages&files=C_243.jpg,5472,3648
C_243,daylight,coffee_table,"[130, 130, 130]","['4118793', '4567338', '6073026', '4211054', '4121739', '300124', '6244886', '4211166', '300401']"
4118793,2546,1611,2652,1719
4567338,2763,1896,2903,2056
6073026,2018,1729,2118,1862
4211054,2363,1756,2562,1958
4121739,2785,1354,2921,1538
300124,2205,1942,2540,2124
6244886,2728,1355,2883,1517
4211166,3124,2162,3290,2305
300401,2946,2402,3094,2548
