https://surfdrive.surf.nl/files/index.php/s/B7PEqFZSZZBPcW8/download?path=%2FData%2FInput%2FDatasets%2FDavid%2FImages&files=C_285.jpg,5472,3648
C_285,daylight,coffee_table,"[130, 130, 130]","['6151663', '365901', '4211201', '300401', '6252809']"
6151663,2631,2069,2884,2407
365901,2548,1384,3081,2286
4211201,1978,1243,2524,1894
300401,3034,1182,3228,1561
6252809,3081,1006,3446,2230
