https://surfdrive.surf.nl/files/index.php/s/B7PEqFZSZZBPcW8/download?path=%2FData%2FInput%2FDatasets%2FDavid%2FImages&files=C_296.jpg,5472,3648
C_296,daylight,coffee_table,"[130, 130, 130]","['6151663', '365901', '4211201', '300401', '6252809', '6249125', '4211054', '6022064']"
6151663,2393,1586,2616,1787
365901,1786,1758,2017,2285
4211201,2467,1276,3234,1640
300401,2947,1934,3215,2246
6252809,2248,1406,3265,1814
6249125,3010,1176,3226,1354
4211054,3232,1386,3511,1611
6022064,3216,1763,3538,2036
