https://surfdrive.surf.nl/files/index.php/s/B7PEqFZSZZBPcW8/download?path=%2FData%2FInput%2FDatasets%2FDavid%2FImages&files=C_290.jpg,5472,3648
C_290,daylight,coffee_table,"[130, 130, 130]","['6151663', '365901', '4211201', '300401', '6252809', '6249125']"
6151663,2488,1398,2647,1640
365901,2597,1599,3070,1784
4211201,1937,1740,2415,2078
300401,2811,2040,3091,2334
6252809,2169,1619,3318,2020
6249125,2851,1254,2989,1380
