https://surfdrive.surf.nl/files/index.php/s/B7PEqFZSZZBPcW8/download?path=%2FData%2FInput%2FDatasets%2FDavid%2FImages&files=C_391.jpg,5472,3648
C_391,daylight,living_room_floor,"[130, 130, 130]","['300401', '300423', '4529240', '6004938', '4550348', '6229071', '6035291']"
300401,2948,2700,3172,2954
300423,2862,2433,3108,2640
4529240,2564,1824,2692,1953
6004938,3775,1518,3926,1662
4550348,3254,1370,3427,1506
6229071,3774,1320,3947,1487
6035291,3389,1575,3572,1734
