https://surfdrive.surf.nl/files/index.php/s/B7PEqFZSZZBPcW8/download?path=%2FData%2FInput%2FDatasets%2FDavid%2FImages&files=C_400.jpg,5472,3648
C_400,daylight,living_room_floor,"[130, 130, 130]","['300421', '300321', '300424']"
300421,2811,1788,3049,2036
300321,2362,1618,2626,1861
300424,2583,1702,2838,1973
