https://surfdrive.surf.nl/files/index.php/s/B7PEqFZSZZBPcW8/download?path=%2FData%2FInput%2FDatasets%2FDavid%2FImages&files=C_424.jpg,5472,3648
C_424,daylight,living_room_floor,"[130, 130, 130]","['6028324', '4558957']"
6028324,2669,1759,2821,1944
4558957,3229,1643,3593,2052
