https://surfdrive.surf.nl/files/index.php/s/B7PEqFZSZZBPcW8/download?path=%2FData%2FInput%2FDatasets%2FDavid%2FImages&files=C_426.jpg,5472,3648
C_426,daylight,living_room_floor,"[130, 130, 130]","['6028324', '4558957', '6104154']"
6028324,3373,2280,3587,2504
4558957,2501,1641,2888,2031
6104154,3518,1313,3764,1534
