https://surfdrive.surf.nl/files/index.php/s/B7PEqFZSZZBPcW8/download?path=%2FData%2FInput%2FDatasets%2FDavid%2FImages&files=C_429.jpg,5472,3648
C_429,daylight,living_room_floor,"[130, 130, 130]","['6028324', '4558957', '6104154', '4651236']"
6028324,2629,1706,2838,1945
4558957,2255,1172,2666,1554
6104154,2914,1189,3267,1543
4651236,2048,1153,2286,1328
