https://surfdrive.surf.nl/files/index.php/s/B7PEqFZSZZBPcW8/download?path=%2FData%2FInput%2FDatasets%2FDavid%2FImages&files=C_445.jpg,5472,3647
C_445,daylight,living_room_floor,"[130, 130, 130]","['6069259', '6035291', '300321', '4550348']"
6069259,2815,1656,2968,1770
6035291,2798,1765,2937,1853
300321,2438,1711,2590,1870
4550348,2632,1753,2748,1866
