https://surfdrive.surf.nl/files/index.php/s/B7PEqFZSZZBPcW8/download?path=%2FData%2FInput%2FDatasets%2FDavid%2FImages&files=C_443.jpg,5472,3648
C_443,daylight,living_room_floor,"[130, 130, 130]","['6069259', '6035291', '300321']"
6069259,3063,1676,3371,1915
6035291,2594,1737,2851,1898
300321,2743,1474,3046,1776
