https://surfdrive.surf.nl/files/index.php/s/B7PEqFZSZZBPcW8/download?path=%2FData%2FInput%2FDatasets%2FDavid%2FImages&files=C_442.jpg,5472,3648
C_442,daylight,living_room_floor,"[130, 130, 130]","['6069259', '6035291', '300321']"
6069259,2498,2057,2751,2359
6035291,2620,1660,2898,1840
300321,2730,1232,3011,1548
