https://surfdrive.surf.nl/files/index.php/s/B7PEqFZSZZBPcW8/download?path=%2FData%2FInput%2FDatasets%2FDavid%2FImages&files=C_453.jpg,5472,3648
C_453,daylight,dining_table,"[130, 130, 130]","['6075079', '306201', '4211614']"
6075079,2529,1232,2796,1450
306201,2621,1683,2796,1920
4211614,2227,1457,2584,1700
