https://surfdrive.surf.nl/files/index.php/s/B7PEqFZSZZBPcW8/download?path=%2FData%2FInput%2FDatasets%2FDavid%2FImages&files=C_495.jpg,5472,3648
C_495,daylight,coffee_table,"[130, 130, 130]","['300424', '6004938', '306201', '4211166', '4621545']"
300424,2312,1536,2497,1814
6004938,2340,2157,2549,2367
306201,2971,1981,3147,2183
4211166,2003,1485,2152,1705
4621545,2735,1705,2855,1913
