https://surfdrive.surf.nl/files/index.php/s/B7PEqFZSZZBPcW8/download?path=%2FData%2FInput%2FDatasets%2FDavid%2FImages&files=C_492.jpg,5472,3647
C_492,daylight,coffee_table,"[130, 130, 130]","['300424', '6004938', '306201', '4211166']"
300424,1741,2103,2016,2478
6004938,3328,1622,3557,1827
306201,2112,1377,2343,1565
4211166,2547,1566,2837,1878
