https://surfdrive.surf.nl/files/index.php/s/B7PEqFZSZZBPcW8/download?path=%2FData%2FInput%2FDatasets%2FDavid%2FImages&files=C_509.jpg,5472,3648
C_509,daylight,coffee_table,"[130, 130, 130]","['300424', '6004938', '306201', '4211166', '4621545', '300121', '4118793', '4548180', '4539099']"
300424,2275,1536,2691,1952
6004938,2437,1662,2632,1906
306201,2639,1589,2818,1805
4211166,741,1286,1105,1598
4621545,3705,1588,4093,1807
300121,1834,1377,2392,1698
4118793,3032,1992,3220,2212
4548180,2881,1095,3168,1383
4539099,2761,2067,3034,2308
