https://surfdrive.surf.nl/files/index.php/s/B7PEqFZSZZBPcW8/download?path=%2FData%2FInput%2FDatasets%2FDavid%2FImages&files=C_54.jpg,5472,3648
C_54,daylight,coffee_table,"[130, 130, 130]","['6104154', '4527943', '4157124', '4211201', '4211614', '4504381', '300421', '4649749']"
6104154,2032,1451,2234,1611
4527943,2489,1289,2689,1427
4157124,2393,1786,2556,1976
4211201,2308,1468,2743,1771
4211614,2908,1559,3121,1684
4504381,3085,2170,3192,2321
300421,2789,2040,3038,2211
4649749,2631,2057,2824,2230
