https://surfdrive.surf.nl/files/index.php/s/B7PEqFZSZZBPcW8/download?path=%2FData%2FInput%2FDatasets%2FDavid%2FImages&files=C_576.jpg,5472,3648
C_576,daylight,window_sill,"[130, 130, 130]","['614321', '4211221', '4651236']"
614321,2641,1536,3058,1984
4211221,2363,1497,2725,1938
4651236,2543,1519,2859,1961
