https://surfdrive.surf.nl/files/index.php/s/B7PEqFZSZZBPcW8/download?path=%2FData%2FInput%2FDatasets%2FDavid%2FImages&files=C_613.jpg,5472,3648
C_613,daylight,window_sill,"[130, 130, 130]","['300423', '6073026', '4558957', '4527943', '4121967']"
300423,2712,1646,2959,1902
6073026,4037,2052,4224,2242
4558957,2557,875,2934,1220
4527943,2262,1067,2482,1268
4121967,2105,1026,2336,1193
