https://surfdrive.surf.nl/files/index.php/s/B7PEqFZSZZBPcW8/download?path=%2FData%2FInput%2FDatasets%2FDavid%2FImages&files=C_634.jpg,5472,3648
C_634,daylight,coffee_table,"[130, 130, 130]","['6074890', '6073026', '4211221', '4211166', '4181144']"
6074890,3664,1869,3837,1998
6073026,3720,1335,3873,1514
4211221,3511,1049,3804,1346
4211166,2680,1730,2818,1954
4181144,2087,1017,2716,1576
