https://surfdrive.surf.nl/files/index.php/s/B7PEqFZSZZBPcW8/download?path=%2FData%2FInput%2FDatasets%2FDavid%2FImages&files=C_688.jpg,5472,3647
C_688,daylight,coffee_table,"[130, 130, 130]","['4558957', '4539099', '300323', '6229071', '4157124']"
4558957,3120,1754,3394,2113
4539099,2442,1537,2597,1745
300323,2263,1348,2472,1598
6229071,3315,2005,3559,2333
4157124,2383,1908,2766,2194
