https://surfdrive.surf.nl/files/index.php/s/B7PEqFZSZZBPcW8/download?path=%2FData%2FInput%2FDatasets%2FDavid%2FImages&files=C_785.jpg,5472,3648
C_785,daylight,couch,"[130, 130, 130]","['4621545', '4210718', '4650630', '4529247', '4529247']"
4621545,2114,1607,2382,1872
4210718,2665,1554,2940,1965
4650630,2711,1473,2951,1811
4529247,3029,1764,3171,1935
4529247,3005,1811,3116,1967
