https://surfdrive.surf.nl/files/index.php/s/B7PEqFZSZZBPcW8/download?path=%2FData%2FInput%2FDatasets%2FDavid%2FImages&files=C_803.jpg,5472,3648
C_803,daylight,couch,"[130, 130, 130]","['4504381', '4647553', '4153827', '4520632']"
4504381,2402,2021,2546,2171
4647553,2732,1511,3063,1786
4153827,2639,1627,3129,2036
4520632,3004,1564,3377,2001
