https://surfdrive.surf.nl/files/index.php/s/B7PEqFZSZZBPcW8/download?path=%2FData%2FInput%2FDatasets%2FDavid%2FImages&files=C_817.jpg,5472,3648
C_817,daylight,couch,"[130, 130, 130]","['6074890', '306223']"
6074890,2353,1472,2481,1611
306223,3122,1779,3232,1914
