https://surfdrive.surf.nl/files/index.php/s/B7PEqFZSZZBPcW8/download?path=%2FData%2FInput%2FDatasets%2FDavid%2FImages&files=C_828.jpg,5472,3648
C_828,daylight,coffee-table,"[120, 120, 120]","['365901', '300821', '4212454', '4567338', '300423', '6104154', '4143562', '6244886', '4210718', '6075075', '300321', '300323', '4550325']"
365901,2571,851,2746,1148
300821,3047,1494,3363,2199
4212454,1442,1599,1545,1737
4567338,1588,1324,1698,1406
300423,1501,1679,1717,1830
6104154,1897,2106,2054,2334
4143562,2092,2458,2300,2685
6244886,1920,1873,2119,2044
4210718,1762,887,2122,1217
6075075,1791,2328,1969,2539
300321,2019,2047,2266,2295
300323,3650,2789,3944,3063
4550325,2304,1548,2430,1756
