https://surfdrive.surf.nl/files/index.php/s/B7PEqFZSZZBPcW8/download?path=%2FData%2FInput%2FDatasets%2FDavid%2FImages&files=C_835.jpg,5472,3648
C_835,daylight,coffee-table,"[120, 120, 120]","['365901', '300821', '4212454', '4567338', '300423', '6104154', '4143562', '6244886', '4210718', '6075075']"
365901,2407,2193,2829,2636
300821,2020,1852,2926,2158
4212454,3551,1310,3654,1420
4567338,2728,1285,2886,1415
300423,2613,1500,2785,1723
6104154,2303,1415,2531,1633
4143562,2911,1204,3101,1373
6244886,2075,1201,2316,1464
4210718,2874,1559,3355,1933
6075075,3269,1594,3493,1732
