https://surfdrive.surf.nl/files/index.php/s/B7PEqFZSZZBPcW8/download?path=%2FData%2FInput%2FDatasets%2FDavid%2FImages&files=C_853.jpg,5472,3648
C_853,daylight,coffee-table,"[120, 120, 120]","['6138173', '6069259', '6223631', '4211166', '6075079', '300424', '6177697', '4639693', '4504369']"
6138173,1472,2042,1780,2271
6069259,2548,2119,2799,2300
6223631,2225,1922,2339,2151
4211166,2688,1683,2835,1853
6075079,2824,2375,2931,2470
300424,3360,1946,3595,2068
6177697,2342,2441,2828,2608
4639693,1982,832,2171,1393
4504369,3275,1779,3416,1877
