https://surfdrive.surf.nl/files/index.php/s/B7PEqFZSZZBPcW8/download?path=%2FData%2FInput%2FDatasets%2FDavid%2FImages&files=C_910.jpg,5472,3648
C_910,daylight,coffee-table,"[120, 120, 120]","['4529240', '6074890', '623224', '6025026', '4650630', '6028324', '4211412', '300121']"
4529240,2342,1107,2464,1232
6074890,2942,2153,3126,2332
623224,1884,1654,2175,2049
6025026,2592,2398,2796,2669
4650630,2594,888,2885,1068
6028324,3013,2279,3261,2499
4211412,2962,1617,3090,1778
300121,2474,1527,2903,2061
