https://surfdrive.surf.nl/files/index.php/s/B7PEqFZSZZBPcW8/download?path=%2FData%2FInput%2FDatasets%2FDavid%2FImages&files=C_938.jpg,5472,3647
C_938,daylight,couch,"[120, 120, 120]","['365901', '306201', '4529247', '300423', '6003007', '6244886', '6104154']"
365901,2346,1633,2838,1856
306201,2510,1548,2669,1675
4529247,2840,2235,2974,2426
300423,2762,1841,2951,2124
6003007,3383,1979,3503,2160
6244886,2385,1938,2680,2196
6104154,2512,1311,2755,1539
