https://surfdrive.surf.nl/files/index.php/s/B7PEqFZSZZBPcW8/download?path=%2FData%2FInput%2FDatasets%2FDavid%2FImages&files=C_951.jpg,5472,3648
C_951,daylight,couch,"[120, 120, 120]","['300821', '4143562', '4211149', '4655172', '300321', '6249125', '4550348', '4211221', '300323', '4550348', '4504381']"
300821,1165,1390,2375,1678
4143562,2414,1490,2695,1757
4211149,3970,1359,4215,1622
4655172,1763,1566,2417,1929
300321,3322,1406,3725,1737
6249125,3510,1338,3746,1441
4550348,3895,1729,4227,2024
4550348,2865,1629,3159,1742
4211221,3036,1265,3296,1565
300323,2648,1224,3010,1533
4504381,3782,1486,3934,1626
