https://surfdrive.surf.nl/files/index.php/s/B7PEqFZSZZBPcW8/download?path=%2FData%2FInput%2FDatasets%2FDavid%2FImages&files=C_979.jpg,5472,3647
C_979,daylight,couch,"[120, 120, 120]","['654126', '6004938', '4210718', '6238674', '4539099', '4651236']"
654126,2283,1414,2470,1584
6004938,2552,2118,2743,2322
4210718,2628,1522,3035,2070
6238674,3686,1679,3877,1793
4539099,2429,1880,2611,2009
4651236,2060,1811,2198,2031
