https://surfdrive.surf.nl/files/index.php/s/B7PEqFZSZZBPcW8/download?path=%2FData%2FInput%2FDatasets%2FHiba%2FImages&files=H_105.jpg,5184,3455
H_105,daylight,wood,"[130, 130, 130]","['6022064', '4558957']"
6022064,1516,1808,1867,1937
4558957,2779,1674,3239,2022
