https://surfdrive.surf.nl/files/index.php/s/B7PEqFZSZZBPcW8/download?path=%2FData%2FInput%2FDatasets%2FHiba%2FImages&files=H_112.jpg,5184,3456
H_112,daylight,wood,"[130, 130, 130]","['6022064', '4558957', '306223', '4527943']"
6022064,1919,1529,2372,1882
4558957,1377,1397,1861,1734
306223,3394,1179,3589,1332
4527943,2023,1442,2360,1749
