https://surfdrive.surf.nl/files/index.php/s/B7PEqFZSZZBPcW8/download?path=%2FData%2FInput%2FDatasets%2FHiba%2FImages&files=H_139.jpg,5184,3456
H_139,daylight,wood,"[130, 130, 130]","['4211054', '4211054', '306201', '6229071', '6074890']"
4211054,1723,861,1901,1120
4211054,2187,789,2400,1005
306201,2355,1094,2500,1182
6229071,3378,2480,3686,2783
6074890,2597,1196,2741,1300
