https://surfdrive.surf.nl/files/index.php/s/B7PEqFZSZZBPcW8/download?path=%2FData%2FInput%2FDatasets%2FHiba%2FImages&files=H_156.jpg,5184,3456
H_156,daylight,wood,"[130, 130, 130]","['4109995', '6025026']"
4109995,1806,2189,2132,2472
6025026,2520,1685,2650,1906
