https://surfdrive.surf.nl/files/index.php/s/B7PEqFZSZZBPcW8/download?path=%2FData%2FInput%2FDatasets%2FHiba%2FImages&files=H_188.jpg,5184,3456
H_188,daylight,wood,"[130, 130, 130]","['4548180', '4504381']"
4548180,2658,1668,2846,1894
4504381,2370,1680,2519,1889
