https://surfdrive.surf.nl/files/index.php/s/B7PEqFZSZZBPcW8/download?path=%2FData%2FInput%2FDatasets%2FHiba%2FImages&files=H_20.jpg,5184,3456
H_20,daylight,wood,"[130, 130, 130]","['623224', '6022023', '4121739', '4118793', '4529240', '6062574']"
623224,2529,1525,2760,1734
6022023,2324,1614,2549,1768
4121739,2126,1437,2313,1582
4118793,3541,2108,3676,2249
4529240,2752,959,2817,1050
6062574,1663,1669,1786,1800
