https://surfdrive.surf.nl/files/index.php/s/B7PEqFZSZZBPcW8/download?path=%2FData%2FInput%2FDatasets%2FHiba%2FImages&files=H_250.jpg,5184,3456
H_250,daylight,wood,"[130, 130, 130]","['6035291', '4160403', '6104154', '300123', '6069259', '6075079']"
6035291,3176,2343,3351,2477
4160403,2223,1727,2652,1964
6104154,2264,2015,2416,2201
300123,2088,1798,2473,2079
6069259,2958,2000,3150,2146
6075079,2535,2490,2732,2658
