https://surfdrive.surf.nl/files/index.php/s/B7PEqFZSZZBPcW8/download?path=%2FData%2FInput%2FDatasets%2FHiba%2FImages&files=H_286.jpg,5184,3455
H_286,daylight,wood,"[130, 130, 130]","['4211614', '4211614', '4529240']"
4211614,2297,1360,2447,1540
4211614,1979,1578,2171,1740
4529240,2583,1744,2673,1843
