https://surfdrive.surf.nl/files/index.php/s/B7PEqFZSZZBPcW8/download?path=%2FData%2FInput%2FDatasets%2FHiba%2FImages&files=H_293.jpg,5184,3456
H_293,daylight,wood,"[130, 130, 130]","['4558957', '6074890']"
4558957,2647,1567,3160,1975
6074890,1879,1806,2018,1995
