https://surfdrive.surf.nl/files/index.php/s/B7PEqFZSZZBPcW8/download?path=%2FData%2FInput%2FDatasets%2FHiba%2FImages&files=H_321.jpg,5184,3456
H_321,daylight,wood,"[130, 130, 130]","['4211437', '300821', '4647553', '4211166']"
4211437,2567,1546,2724,1819
300821,2029,636,2222,1155
4647553,2590,1261,2833,1445
4211166,3417,2336,3615,2615
