https://surfdrive.surf.nl/files/index.php/s/B7PEqFZSZZBPcW8/download?path=%2FData%2FInput%2FDatasets%2FHiba%2FImages&files=H_327.jpg,5184,3456
H_327,daylight,wood,"[130, 130, 130]","['4211437', '300821', '4647553', '4211166', '6073026', '6252809']"
4211437,2484,1838,2673,2039
300821,2364,2050,3125,2317
4647553,2004,1054,2159,1205
4211166,2881,1174,3017,1309
6073026,2857,830,2956,941
6252809,1512,1002,1652,1498
