https://surfdrive.surf.nl/files/index.php/s/B7PEqFZSZZBPcW8/download?path=%2FData%2FInput%2FDatasets%2FHiba%2FImages&files=H_369.jpg,5184,3456
H_369,daylight,wood,"[130, 130, 130]","['365901', '300424', '4529247']"
365901,2614,1606,2931,1906
300424,2455,1584,2814,1925
4529247,1451,1754,1602,1865
