https://surfdrive.surf.nl/files/index.php/s/B7PEqFZSZZBPcW8/download?path=%2FData%2FInput%2FDatasets%2FHiba%2FImages&files=H_376.jpg,5184,3456
H_376,daylight,wood,"[130, 130, 130]","['365901', '300424', '4529247', '4211412', '6238674']"
365901,3749,1267,4022,1696
300424,1715,1938,1978,2310
4529247,2088,1005,2186,1152
4211412,2531,1882,2757,2057
6238674,2278,1465,2480,1638
