https://surfdrive.surf.nl/files/index.php/s/B7PEqFZSZZBPcW8/download?path=%2FData%2FInput%2FDatasets%2FHiba%2FImages&files=H_392.jpg,5184,3456
H_392,daylight,wood,"[130, 130, 130]","['4181134', '4212454']"
4181134,2084,1445,2940,1772
4212454,2127,1794,2331,1963
