https://surfdrive.surf.nl/files/index.php/s/B7PEqFZSZZBPcW8/download?path=%2FData%2FInput%2FDatasets%2FHiba%2FImages&files=H_396.jpg,5184,3456
H_396,daylight,wood,"[130, 130, 130]","['4211166', '4647553']"
4211166,2329,1670,2671,2013
4647553,3482,1805,3739,2265
