https://surfdrive.surf.nl/files/index.php/s/B7PEqFZSZZBPcW8/download?path=%2FData%2FInput%2FDatasets%2FHiba%2FImages&files=H_411.jpg,5184,3456
H_411,daylight,wood,"[130, 130, 130]","['4211166', '4647553', '4114319', '4550348', '4567338', '4211437', '4621545']"
4211166,2569,804,2798,1035
4647553,2285,1539,2591,1813
4114319,1148,1862,1464,2580
4550348,1542,868,1687,1045
4567338,1547,1256,1749,1430
4211437,3236,1837,3431,2093
4621545,2698,1762,2922,2035
