https://surfdrive.surf.nl/files/index.php/s/B7PEqFZSZZBPcW8/download?path=%2FData%2FInput%2FDatasets%2FHiba%2FImages&files=H_487.jpg,5184,3456
H_487,daylight,parquet_brown_medium,"[120, 120, 120]","['4639693', '4211437', '4649749', '6062574', '4517992', '300124', '4153827', '4211412', '4118793', '4558957', '4181144', '6151663', '6073026']"
4639693,3105,983,3750,1266
4211437,3234,1212,3397,1359
4649749,3572,2267,3726,2473
6062574,2467,1397,2565,1525
4517992,2338,2143,2559,2381
300124,1479,1217,1814,1415
4153827,3117,1414,3468,1629
4211412,968,1336,1024,1425
4118793,2679,1034,2753,1144
4558957,3119,1678,3474,1990
4181144,2218,1651,2772,1920
6151663,2944,2272,3144,2435
6073026,1815,1851,1903,1988
