https://surfdrive.surf.nl/files/index.php/s/B7PEqFZSZZBPcW8/download?path=%2FData%2FInput%2FDatasets%2FHiba%2FImages&files=H_483.jpg,5183,3456
H_483,daylight,parquet_brown_medium,"[120, 120, 120]","['6028324', '4114319', '6004938', '300121', '300421', '6249125']"
6028324,3264,1694,3394,1829
4114319,2364,1763,2595,2011
6004938,2456,1597,2536,1691
300121,2531,2296,2870,2448
300421,2382,2118,2564,2249
6249125,3612,1747,3700,1815
