https://surfdrive.surf.nl/files/index.php/s/B7PEqFZSZZBPcW8/download?path=%2FData%2FInput%2FDatasets%2FHiba%2FImages&files=H_519.jpg,5184,3456
H_519,daylight,parquet_brown_medium,"[120, 120, 120]","['4520632', '4181134', '4211201', '4504369', '6025026', '6244886', '623224', '4529247']"
4520632,2142,1546,2374,1778
4181134,1716,1513,2059,1842
4211201,1777,1515,2036,1727
4504369,2542,1922,2633,2023
6025026,2530,1848,2671,1928
6244886,2953,1519,3120,1676
623224,1620,1862,1801,2033
4529247,1892,1419,1942,1505
