https://surfdrive.surf.nl/files/index.php/s/B7PEqFZSZZBPcW8/download?path=%2FData%2FInput%2FDatasets%2FHiba%2FImages&files=H_561.jpg,5184,3456
H_561,daylight,table_plastic_grey,"[120, 120, 120]","['6022023', '4143562', '300323', '6238674', '300401', '300423', '300123', '300821', '4649749', '4118793']"
6022023,2235,1584,2335,1767
4143562,2481,528,2617,686
300323,3490,1426,3668,1626
6238674,1775,1823,1861,1912
300401,2152,1345,2258,1495
300423,3013,726,3146,819
300123,2464,1650,2769,1871
300821,2392,863,2757,1273
4649749,3058,1492,3191,1591
4118793,2490,2026,2611,2129
