https://surfdrive.surf.nl/files/index.php/s/B7PEqFZSZZBPcW8/download?path=%2FData%2FInput%2FDatasets%2FHiba%2FImages&files=H_585.jpg,5184,3456
H_585,daylight,table_plastic_grey,"[120, 120, 120]","['4157124', '4211511', '6022064', '4211149', '4550348', '4651236', '4539099', '4550325', '4548180', '623224', '4121967', '300123']"
4157124,3282,1285,3462,1451
4211511,1624,1825,1773,1953
6022064,3213,989,3410,1234
4211149,2332,1847,2483,2059
4550348,2761,770,2896,925
4651236,2065,783,2245,910
4539099,2273,1776,2413,1871
4550325,2540,1761,2750,1908
4548180,2578,954,2718,1106
623224,3010,1147,3213,1349
4121967,1528,1121,1736,1263
300123,2386,2032,2883,2372
