https://surfdrive.surf.nl/files/index.php/s/B7PEqFZSZZBPcW8/download?path=%2FData%2FInput%2FDatasets%2FHiba%2FImages&files=H_595.jpg,5184,3456
H_595,daylight,table_plastic_grey,"[120, 120, 120]","['4157124', '4211511', '6022064', '4211149', '4550348', '4651236', '4539099', '4550325', '4548180']"
4157124,2352,1545,2526,1673
4211511,3029,2481,3189,2630
6022064,2697,1895,2937,2130
4211149,3210,2048,3401,2242
4550348,2968,1415,3142,1518
4651236,2712,1205,2870,1350
4539099,3242,1377,3371,1443
4550325,2711,1725,2877,1841
4548180,2660,1162,2816,1295
