https://surfdrive.surf.nl/files/index.php/s/B7PEqFZSZZBPcW8/download?path=%2FData%2FInput%2FDatasets%2FHiba%2FImages&files=H_606.jpg,5184,3456
H_606,daylight,table_plastic_grey,"[120, 120, 120]","['4639693', '4517992', '6074890', '4211437', '6062574', '4529240', '4655172', '6028324', '4649749', '4211149', '4143562']"
4639693,2325,456,2971,851
4517992,1922,1281,2184,1512
6074890,3375,987,3452,1101
4211437,2645,820,2826,931
6062574,2267,1032,2380,1151
4529240,3140,2060,3299,2203
4655172,1530,1585,1961,1894
6028324,1806,910,1917,1056
4649749,2642,1114,2756,1271
4211149,2303,1217,2510,1352
4143562,2693,2258,2992,2540
