https://surfdrive.surf.nl/files/index.php/s/B7PEqFZSZZBPcW8/download?path=%2FData%2FInput%2FDatasets%2FHiba%2FImages&files=H_610.jpg,5184,3456
H_610,daylight,table_plastic_grey,"[120, 120, 120]","['4639693', '4517992', '6074890', '4211437', '6062574', '4529240', '4655172', '6028324', '4649749', '4211149']"
4639693,1934,2155,2900,2536
4517992,2027,1476,2205,1730
6074890,2703,1302,2953,1518
4211437,2399,1817,2586,1978
6062574,2402,1482,2532,1612
4529240,3019,1573,3146,1757
4655172,2647,1323,3014,1613
6028324,1611,1559,1817,1713
4649749,2815,954,2985,1117
4211149,1885,972,2005,1144
