https://surfdrive.surf.nl/files/index.php/s/B7PEqFZSZZBPcW8/download?path=%2FData%2FInput%2FDatasets%2FHiba%2FImages&files=H_614.jpg,5183,3456
H_614,daylight,table_plastic_grey,"[120, 120, 120]","['300124', '4181135', '6004938', '4114319', '300323', '6104154', '6003007', '4153827', '4211511', '4649749', '4211054', '4160403', '4520632']"
300124,2902,1119,3330,1398
4181135,2970,1712,3445,1968
6004938,2198,1993,2324,2122
4114319,1970,2146,2375,2598
300323,3112,963,3280,1112
6104154,3143,1589,3234,1739
6003007,2155,1457,2348,1689
4153827,2900,943,3097,1193
4211511,3925,1992,4071,2112
4649749,3193,1098,3315,1306
4211054,1594,1491,1775,1715
4160403,2046,1299,2399,1717
4520632,2001,959,2227,1243
