https://surfdrive.surf.nl/files/index.php/s/B7PEqFZSZZBPcW8/download?path=%2FData%2FInput%2FDatasets%2FHiba%2FImages&files=H_611.jpg,5184,3456
H_611,daylight,table_plastic_grey,"[120, 120, 120]","['4639693', '4517992', '6074890', '4211437', '6062574', '4529240', '4655172', '6028324', '4649749']"
4639693,1725,1744,1965,2404
4517992,1236,1444,1429,1639
6074890,2320,1282,2395,1382
4211437,2615,1717,2726,1892
6062574,2303,1535,2418,1655
4529240,3774,1878,3891,1985
4655172,2882,1734,3253,1998
6028324,2788,1390,2910,1518
4649749,3264,1374,3370,1517
