https://surfdrive.surf.nl/files/index.php/s/B7PEqFZSZZBPcW8/download?path=%2FData%2FInput%2FDatasets%2FHiba%2FImages&files=H_624.jpg,5184,3456
H_624,daylight,table_plastic_grey,"[120, 120, 120]","['300124', '4181135', '6004938', '4114319', '300323', '6104154', '6003007', '4153827', '4211511', '4649749']"
300124,2616,1661,2885,1821
4181135,2530,1475,2845,1665
6004938,2562,1743,2674,1849
4114319,2196,1655,2460,1844
300323,2639,1822,2848,1971
6104154,2268,2175,2408,2286
6003007,2836,1654,2989,1765
4153827,2781,1133,3114,1309
4211511,2534,1813,2679,1900
4649749,2292,2271,2441,2360
