https://surfdrive.surf.nl/files/index.php/s/B7PEqFZSZZBPcW8/download?path=%2FData%2FInput%2FDatasets%2FHiba%2FImages&files=H_643.jpg,5184,3456
H_643,daylight,parquet_brown_light,"[120, 120, 120]","['4211412', '300421', '300121', '4529247', '300401', '6075075', '6151663', '6022023', '6223631']"
4211412,3101,1628,3300,1820
300421,2980,1934,3257,2250
300121,1033,2024,1742,2557
4529247,1821,1520,2007,1632
300401,2485,1651,2788,1965
6075075,2671,1225,2890,1380
6151663,2516,1760,2674,1974
6022023,2111,1097,2321,1331
6223631,2285,1123,2480,1316
