https://surfdrive.surf.nl/files/index.php/s/B7PEqFZSZZBPcW8/download?path=%2FData%2FInput%2FDatasets%2FHiba%2FImages&files=H_645.jpg,5184,3456
H_645,daylight,parquet_brown_light,"[120, 120, 120]","['4109995', '6249125', '365901', '306201', '300423', '4212454', '4211201', '300821', '4529240', '4567338', '306223', '4649749', '6025026']"
4109995,2259,1531,2459,1707
6249125,1749,1714,1856,1795
365901,2824,1600,3212,1800
306201,2873,2193,2970,2323
300423,2874,1718,3055,1846
4212454,2033,2022,2157,2091
4211201,2453,1330,2813,1586
300821,2399,1144,3052,1281
4529240,2733,1985,2840,2115
4567338,2529,2272,2644,2378
306223,2478,1971,2612,2079
4649749,1478,1958,1572,2134
6025026,2550,1626,2713,1708
