https://surfdrive.surf.nl/files/index.php/s/B7PEqFZSZZBPcW8/download?path=%2FData%2FInput%2FDatasets%2FHiba%2FImages&files=H_659.jpg,5184,3456
H_659,daylight,parquet_brown_light,"[120, 120, 120]","['4109995', '6249125', '365901', '306201', '300423', '4212454', '4211201', '300821']"
4109995,2673,1582,2892,1812
6249125,1782,1789,1919,1896
365901,2179,1876,2572,2287
306201,2020,718,2153,799
300423,2251,2399,2524,2589
4212454,1618,2341,1832,2496
4211201,2813,1150,3246,1440
300821,2296,1129,2957,1616
