https://surfdrive.surf.nl/files/index.php/s/B7PEqFZSZZBPcW8/download?path=%2FData%2FInput%2FDatasets%2FHiba%2FImages&files=H_657.jpg,5184,3456
H_657,daylight,parquet_brown_light,"[120, 120, 120]","['4109995', '6249125', '365901', '306201', '300423', '4212454', '4211201', '300821', '4529240']"
4109995,2828,1669,3037,1849
6249125,2431,1648,2563,1743
365901,3982,1567,4287,1900
306201,1717,2778,1900,2964
300423,2992,1794,3225,2005
4212454,2476,667,2577,723
4211201,2887,1187,3113,1462
300821,3131,1419,3774,1920
4529240,1671,1980,1808,2109
