https://surfdrive.surf.nl/files/index.php/s/B7PEqFZSZZBPcW8/download?path=%2FData%2FInput%2FDatasets%2FHiba%2FImages&files=H_674.jpg,5184,3456
H_674,daylight,parquet_brown_light,"[120, 120, 120]","['6069259', '4165967', '6238674', '4181144', '4558957', '4181134', '6244886', '4504369', '4143562']"
6069259,1647,1764,1842,1856
4165967,3182,1381,3485,1581
6238674,1955,2137,2025,2257
4181144,2759,1071,3086,1298
4558957,3295,895,3524,1048
4181134,2628,1159,2867,1436
6244886,2731,1735,2878,1865
4504369,659,1701,747,1769
4143562,981,1397,1143,1585
