https://surfdrive.surf.nl/files/index.php/s/B7PEqFZSZZBPcW8/download?path=%2FData%2FInput%2FDatasets%2FHiba%2FImages&files=H_757.jpg,5184,3456
H_757,artificial_light,parquet_brown_medium,"[120, 120, 120]","['300323', '6028324', '4651236', '300124', '6004938', '4211412', '300121']"
300323,1814,913,2013,1150
6028324,2356,862,2493,1027
4651236,2911,742,3050,881
300124,2033,1549,2357,1966
6004938,2816,1224,2913,1364
4211412,2060,1331,2187,1424
300121,2229,1588,2506,1983
