https://surfdrive.surf.nl/files/index.php/s/B7PEqFZSZZBPcW8/download?path=%2FData%2FInput%2FDatasets%2FHiba%2FImages&files=H_750.jpg,5184,3456
H_750,artificial_light,parquet_brown_medium,"[120, 120, 120]","['300323', '6028324', '4651236', '300124', '6004938', '4211412', '300121', '623224', '4550325']"
300323,2089,2370,2226,2549
6028324,2569,1348,2630,1483
4651236,1835,1626,1984,1732
300124,2376,1625,2721,1808
6004938,2744,2564,2859,2682
4211412,2097,1730,2180,1808
300121,3143,1809,3251,2050
623224,2962,1366,3072,1496
4550325,2823,1859,2977,1974
