https://surfdrive.surf.nl/files/index.php/s/B7PEqFZSZZBPcW8/download?path=%2FData%2FInput%2FDatasets%2FHiba%2FImages&files=H_761.jpg,5184,3456
H_761,artificial_light,parquet_brown_medium,"[120, 120, 120]","['4550348', '4153827', '300421', '6003007', '4211437', '654126', '4181135', '6252809', '4211437', '4548180', '4211149', '4655172']"
4550348,1317,2134,1524,2249
4153827,2159,876,2457,1090
300421,2662,2117,2880,2288
6003007,1777,1831,1908,1957
4211437,2804,1856,3014,1986
4211437,3322,1419,3449,1557
654126,1205,1641,1350,1788
4181135,3389,1566,3822,2030
6252809,2933,1510,3625,2151
4548180,1834,1432,1906,1606
4211149,3221,1322,3404,1439
4655172,2549,978,2833,1241
