https://surfdrive.surf.nl/files/index.php/s/B7PEqFZSZZBPcW8/download?path=%2FData%2FInput%2FDatasets%2FHiba%2FImages&files=H_760.jpg,5184,3456
H_760,artificial_light,parquet_brown_medium,"[120, 120, 120]","['4550348', '4153827', '300421', '6003007', '4211437', '654126', '4181135', '6252809', '4211437', '4548180', '4211149', '4655172', '4529247']"
4550348,2238,1255,2354,1347
4153827,1948,1408,2241,1647
300421,2760,719,2876,784
6003007,1470,1452,1572,1503
4211437,2796,988,2892,1096
4211437,2663,468,2736,560
654126,1750,1820,1873,1930
4181135,2884,1244,3063,1591
6252809,2383,1107,2885,1509
4548180,3061,1438,3209,1570
4211149,2507,1011,2603,1116
4655172,3020,1262,3149,1435
4529247,2491,2567,2591,2685
