https://surfdrive.surf.nl/files/index.php/s/B7PEqFZSZZBPcW8/download?path=%2FData%2FInput%2FDatasets%2FHiba%2FImages&files=H_774.jpg,5184,3456
H_774,artificial_light,parquet_brown_medium,"[120, 120, 120]","['4550348', '4153827', '300421', '6003007', '4211437', '654126', '4181135', '6252809']"
4550348,1889,1940,2048,2063
4153827,2591,1523,2860,1689
300421,3079,1390,3231,1512
6003007,1775,1729,1896,1798
4211437,1853,2112,2027,2338
654126,2155,1783,2280,2041
4181135,3287,1538,3545,1831
6252809,2918,1380,3172,1800
