https://surfdrive.surf.nl/files/index.php/s/B7PEqFZSZZBPcW8/download?path=%2FData%2FInput%2FDatasets%2FHiba%2FImages&files=H_782.jpg,5184,3456
H_782,artificial_light,parquet_brown_medium,"[120, 120, 120]","['4114319', '300401', '6075075', '6151663', '306223', '4157124', '4181134', '4529247', '6252809', '6073026', '6229071', '4211221', '6074890']"
4114319,1971,1195,2335,1507
300401,2616,1039,2801,1200
6075075,2334,1545,2513,1662
6151663,2514,1617,2729,1751
306223,2962,1397,3046,1516
4157124,3082,2132,3317,2273
4181134,1605,1983,2274,2211
4529247,1272,1868,1420,1994
6252809,3022,1705,4096,1882
6073026,2226,2196,2352,2367
6229071,2712,1899,2928,2084
4211221,2759,2392,3035,2616
6074890,1758,1801,1877,1920
