https://surfdrive.surf.nl/files/index.php/s/B7PEqFZSZZBPcW8/download?path=%2FData%2FInput%2FDatasets%2FHiba%2FImages&files=H_795.jpg,5184,3456
H_795,artificial_light,parquet_brown_medium,"[120, 120, 120]","['4114319', '300401', '6075075', '6151663', '306223', '4157124', '4181134', '4529247', '6252809']"
4114319,2756,1727,3054,1922
300401,2390,1679,2544,1789
6075075,2488,647,2571,716
6151663,2572,2323,2668,2450
306223,2906,1477,2962,1551
4157124,2636,2462,2777,2596
4181134,2814,1899,3081,2269
4529247,2693,2289,2799,2390
6252809,2082,1698,2376,2281
