https://surfdrive.surf.nl/files/index.php/s/B7PEqFZSZZBPcW8/download?path=%2FData%2FInput%2FDatasets%2FHiba%2FImages&files=H_820.jpg,5184,3455
H_820,artificial_light,parquet_brown_medium,"[120, 120, 120]","['4109995', '4504381', '4211614', '4504369', '4165967', '4181144', '6238674', '6249125', '4118793']"
4109995,3157,1812,3376,2005
4504381,1677,1583,1784,1678
4211614,2551,1727,2674,1876
4504369,2031,1413,2121,1478
4165967,2666,1858,3022,2239
4181144,3176,1220,3397,1560
6238674,2419,1624,2535,1736
6249125,2000,1472,2112,1550
4118793,1913,2213,2057,2341
