Name,Labels,Blocks,Image
B_793,"['brick 1', 'brick 2', 'brick 3', 'brick 4', 'brick 5', 'brick 6', 'brick 7', 'brick 8', 'brick 9', 'brick 10', ]","['4181135', '6069259', '6003007', '4650630', '4504369', '4527943', '6062574', '4211166', '4211437', '4211614']",https://surfdrive.surf.nl/files/index.php/s/B7PEqFZSZZBPcW8/download?path=%2FData%2FInput%2FDatasets%2FBerend%2FImages&files=B_793.jpg
C_722,"['brick 1', 'brick 2', 'brick 3', 'brick 4', 'brick 5', 'brick 6', 'brick 7', ]","['4529240', '4211437', '4539099', '4211149', '300124', '6249125', '4160403']",https://surfdrive.surf.nl/files/index.php/s/B7PEqFZSZZBPcW8/download?path=%2FData%2FInput%2FDatasets%2FDavid%2FImages&files=C_722.jpg
H_203,"['brick 1', 'brick 2', 'brick 3', 'brick 4', 'brick 5', 'brick 6', 'brick 7', ]","['4548180', '4504381', '4517992', '4647553', '300821', '300124', '300401']",https://surfdrive.surf.nl/files/index.php/s/B7PEqFZSZZBPcW8/download?path=%2FData%2FInput%2FDatasets%2FHiba%2FImages&files=H_203.jpg
B_698,"['brick 1', 'brick 2', 'brick 3', 'brick 4', 'brick 5', 'brick 6', 'brick 7', 'brick 8', ]","['365901', '4567338', '4121967', '6223631', '4212454', '4153825', '4504381', '6035291']",https://surfdrive.surf.nl/files/index.php/s/B7PEqFZSZZBPcW8/download?path=%2FData%2FInput%2FDatasets%2FBerend%2FImages&files=B_698.jpg
C_776,"['brick 1', 'brick 2', ]","['4621545', '4210718']",https://surfdrive.surf.nl/files/index.php/s/B7PEqFZSZZBPcW8/download?path=%2FData%2FInput%2FDatasets%2FDavid%2FImages&files=C_776.jpg
H_420,"['brick 1', 'brick 2', 'brick 3', 'brick 4', 'brick 5', 'brick 6', 'brick 7', 'brick 8', 'brick 9', 'brick 10', ]","['4211166', '4647553', '4114319', '4550348', '4567338', '4211437', '4621545', '654126', '4211201', '6252809']",https://surfdrive.surf.nl/files/index.php/s/B7PEqFZSZZBPcW8/download?path=%2FData%2FInput%2FDatasets%2FHiba%2FImages&files=H_420.jpg
H_324,"['brick 1', 'brick 2', 'brick 3', 'brick 4', 'brick 5', ]","['4211437', '300821', '4647553', '4211166', '6073026']",https://surfdrive.surf.nl/files/index.php/s/B7PEqFZSZZBPcW8/download?path=%2FData%2FInput%2FDatasets%2FHiba%2FImages&files=H_324.jpg
B_244,"['brick 1', 'brick 2', 'brick 3', 'brick 4', 'brick 5', 'brick 6', 'brick 7', ]","['6138173', '4210718', '4121739', '4539099', '4211166', '300123', '6035291']",https://surfdrive.surf.nl/files/index.php/s/B7PEqFZSZZBPcW8/download?path=%2FData%2FInput%2FDatasets%2FBerend%2FImages&files=B_244.jpg
H_143,"['brick 1', 'brick 2', 'brick 3', 'brick 4', 'brick 5', ]","['4211054', '306201', '6229071', '6074890', '4621545']",https://surfdrive.surf.nl/files/index.php/s/B7PEqFZSZZBPcW8/download?path=%2FData%2FInput%2FDatasets%2FHiba%2FImages&files=H_143.jpg
H_328,"['brick 1', 'brick 2', 'brick 3', 'brick 4', 'brick 5', 'brick 6', ]","['4211437', '300821', '4647553', '4211166', '6073026', '6252809']",https://surfdrive.surf.nl/files/index.php/s/B7PEqFZSZZBPcW8/download?path=%2FData%2FInput%2FDatasets%2FHiba%2FImages&files=H_328.jpg
