https://surfdrive.surf.nl/files/index.php/s/B7PEqFZSZZBPcW8/download?path=%2FData%2FInput%2FDatasets%2FBerend%2FImages&files=B_244.jpg,4608,3072
B_244,daylight,wood,"[130, 130, 130]","['6138173', '4210718', '4210718', '4121739', '4539099', '4211166', '300123', '6035291']"
6138173,1355,1714,1629,2080
4210718,1590,1303,2144,1995
4121739,2164,872,2444,1094
4539099,2653,1270,2803,1499
4211166,2405,1982,2673,2322
300123,2647,1499,3012,2087
6035291,2875,1218,3084,1525
4210718,1766,1662,2614,2165
