https://surfdrive.surf.nl/files/index.php/s/B7PEqFZSZZBPcW8/download?path=%2FData%2FInput%2FDatasets%2FHiba%2FImages&files=H_143.jpg,5184,3456
H_143,daylight,wood,"[130, 130, 130]","['4211054', '4211054', '306201', '6229071', '6074890', '4621545']"
4211054,1886,2030,2267,2393
306201,2830,1073,2954,1210
6229071,2398,1741,2642,2030
4211054,2490,1562,2789,1805
4621545,3594,1245,3847,1470
6074890,2986,1465,3152,1588
