https://surfdrive.surf.nl/files/index.php/s/B7PEqFZSZZBPcW8/download?path=%2FData%2FInput%2FDatasets%2FBerend%2FImages&files=B_1087.jpg,4608,3072
B_1087,artificial_light,parquet_dark_brown,"[120, 120, 120]","['4529247', '6062574', '614321', '6022064', '6028324', '4211149', '4211412', '6138173', '4211511']"
6062574,490,971,697,1173
4211412,1916,1847,2024,2015
4211149,2514,1276,2730,1572
4211511,2553,1092,2686,1259
614321,2780,1025,2989,1247
6138173,2782,1399,3065,1650
4529247,2359,1252,2477,1436
6028324,2908,1222,3137,1456
6022064,3655,1380,3854,1754
