https://surfdrive.surf.nl/files/index.php/s/B7PEqFZSZZBPcW8/download?path=%2FData%2FInput%2FDatasets%2FBerend%2FImages&files=B_1015.jpg,4608,3072
B_1015,daylight,dirty_rug,"[120, 120, 120]","['4211201', '4211412', '4639693', '4153827', '4160403', '4539099', '300821', '300121', '4121967', '4181134', '300323', '4181135', '6229071']"
4153827,2127,1844,2298,2190
4181135,2349,1846,2810,2033
4539099,2400,1748,2476,1795
4211201,2455,1570,2783,1674
300323,1857,1697,2068,1874
4181134,1674,1476,2159,1699
4160403,1774,1399,2244,1595
300821,1534,1559,1998,2040
4121967,1202,1555,1362,1706
4211412,1259,1431,1357,1521
4639693,2302,882,2874,1205
6229071,3019,1270,3198,1433
300121,1662,697,1974,870
