https://surfdrive.surf.nl/files/index.php/s/B7PEqFZSZZBPcW8/download?path=%2FData%2FInput%2FDatasets%2FBerend%2FImages&files=B_1072.jpg,4608,3072
B_1072,daylight,dirty_rug,"[120, 120, 120]","['4109995', '300123', '623224', '4520632', '6025026', '4504369', '4157124']"
4520632,1591,1573,1924,1693
300123,2563,1750,2826,1927
6025026,2876,1955,2975,2033
4157124,2826,2133,2975,2225
4504369,2819,2267,2883,2338
623224,1924,1310,2088,1480
4109995,1953,1161,2116,1232
