https://surfdrive.surf.nl/files/index.php/s/B7PEqFZSZZBPcW8/download?path=%2FData%2FInput%2FDatasets%2FBerend%2FImages&files=B_1062.jpg,4607,3072
B_1062,daylight,dirty_rug,"[120, 120, 120]","['4109995', '300123', '623224', '4520632', '6025026', '4504369', '4157124', '4211511', '4621545', '365901']"
4621545,3071,1823,3298,2080
623224,2759,1859,3053,2188
4211511,2523,1983,2729,2146
4520632,2209,1662,2708,2116
4157124,2466,1325,2681,1485
4504369,2055,1730,2179,1839
4109995,1804,1688,2039,1957
365901,1492,1422,1701,1881
6025026,1501,1346,1722,1422
300123,1006,842,1457,1253
