https://surfdrive.surf.nl/files/index.php/s/B7PEqFZSZZBPcW8/download?path=%2FData%2FInput%2FDatasets%2FBerend%2FImages&files=B_1099.jpg,4607,3072
B_1099,artificial_light,parquet_dark_brown,"[120, 120, 120]","['6244886', '4211201', '4153827', '6229071', '300321', '4165967', '6225539', '4548180', '306201', '6028324']"
306201,590,1993,854,2194
4548180,1840,836,2098,1013
4211201,2241,486,2413,853
6028324,2854,509,3049,721
6244886,3021,887,3353,1157
300321,3582,824,3869,1008
4165967,3278,1008,3685,1415
4153827,2705,968,3221,1392
6225539,2883,1449,3697,1690
6229071,3278,1741,3565,1982
