https://surfdrive.surf.nl/files/index.php/s/B7PEqFZSZZBPcW8/download?path=%2FData%2FInput%2FDatasets%2FBerend%2FImages&files=B_101.jpg,4608,3072
B_101,daylight,wood,"[130, 130, 130]","['6022064', '4211221']"
6022064,1358,1357,1756,1857
4211221,2625,1217,3109,1697
