https://surfdrive.surf.nl/files/index.php/s/B7PEqFZSZZBPcW8/download?path=%2FData%2FInput%2FDatasets%2FBerend%2FImages&files=B_1025.jpg,4608,3072
B_1025,daylight,dirty_rug,"[120, 120, 120]","['4211201', '4211412', '4639693', '4153827', '4160403', '4539099', '300821', '300121', '4121967', '4181134']"
4539099,1183,1139,1298,1254
4160403,1606,587,1777,981
300121,1945,722,2284,956
4121967,1649,1094,1787,1282
4153827,2324,1053,2678,1223
4211201,2645,740,2974,936
4211412,1923,1504,2058,1578
4181134,2102,1435,2369,1906
300821,2451,1336,2741,1927
4639693,2662,1180,3273,1657
