https://surfdrive.surf.nl/files/index.php/s/B7PEqFZSZZBPcW8/download?path=%2FData%2FInput%2FDatasets%2FBerend%2FImages&files=B_1037.jpg,4608,3072
B_1037,daylight,dirty_rug,"[120, 120, 120]","['654126', '4504381', '4517992', '4211221', '6177697', '6022023', '4550325', '4114319', '4143562', '4655172', '4181134']"
4550325,3540,1933,3770,2134
4114319,2585,1674,2798,2071
4181134,2556,1220,2924,1668
4517992,2372,1323,2602,1553
6022023,2182,1720,2406,1887
4655172,1929,1852,2355,2140
4504381,1664,1697,1739,1818
4211221,1106,1421,1331,1657
6177697,1325,1156,1659,1432
654126,1561,823,1710,955
4143562,2901,673,3045,759
