https://surfdrive.surf.nl/files/index.php/s/B7PEqFZSZZBPcW8/download?path=%2FData%2FInput%2FDatasets%2FBerend%2FImages&files=B_1113.jpg,4608,3072
B_1113,artificial_light,parquet_dark_brown,"[120, 120, 120]","['6075075', '4160403', '6252809', '4651236', '300821', '4181144', '4655172', '4539099', '6022064', '6073026']"
300821,1303,1094,1726,1724
6075075,1303,1747,1514,1935
4160403,1862,1357,2469,1606
4651236,2412,1635,2534,1804
6073026,2234,1663,2408,1841
4539099,2379,1884,2473,2034
6022064,2666,1668,3019,1860
4181144,2614,1221,3226,1625
6252809,2069,1089,3061,1277
4655172,2840,817,3230,1080
