https://surfdrive.surf.nl/files/index.php/s/B7PEqFZSZZBPcW8/download?path=%2FData%2FInput%2FDatasets%2FBerend%2FImages&files=B_1169.jpg,4608,3072
B_1169,artificial_light,parquet_light,"[120, 120, 120]","['4210718', '6022023', '4211221', '654126', '4550325', '4109995', '6177697', '4529247', '654126', '6238674']"
6022023,2261,2484,2779,3002
4211221,3761,1676,4257,2184
4529247,1738,1867,2042,2077
654126,2544,532,2769,828
6177697,1773,1251,2486,1686
4210718,1649,973,2417,1472
6238674,1113,1195,1376,1440
4550325,917,935,1192,1319
4109995,1268,1002,1624,1301
654126,1503,914,1730,1053
