https://surfdrive.surf.nl/files/index.php/s/B7PEqFZSZZBPcW8/download?path=%2FData%2FInput%2FDatasets%2FBerend%2FImages&files=B_1159.jpg,4607,3072
B_1159,artificial_light,parquet_light,"[120, 120, 120]","['4210718', '6022023', '4211221', '654126', '4550325', '4109995', '6177697', '4529247', '654126', '6238674', '6022064', '6225539', '300124']"
6225539,1641,1737,1940,2255
6022064,1480,1657,1664,1916
4210718,1170,1663,1480,1979
4211221,1158,1490,1365,1709
4109995,997,1513,1158,1697
654126,704,1668,853,1812
6022023,1423,1450,1613,1645
6177697,1831,1490,2176,1783
300124,1774,1622,2061,2031
6238674,2614,2284,2752,2399
654126,3166,1237,3327,1404
4550325,2953,489,3131,616
4529247,1667,1650,1782,1765
