https://surfdrive.surf.nl/files/index.php/s/B7PEqFZSZZBPcW8/download?path=%2FData%2FInput%2FDatasets%2FBerend%2FImages&files=B_1205.jpg,4607,3072
B_1205,artificial_light,parquet_light,"[120, 120, 120]","['4211412', '623224', '6244886', '4153827', '4211201', '300323', '6069259', '6229071', '4211149', '4143562']"
4211412,1556,2018,1768,2205
4211149,2144,1734,2425,1961
300323,2083,1466,2426,1760
6069259,2373,1672,2637,1866
4153827,2355,1303,2897,1796
6229071,2835,1430,3095,1712
4211201,2738,1047,3179,1470
6244886,1920,1043,2206,1360
4143562,2140,920,2391,1193
623224,1981,572,2377,907
