https://surfdrive.surf.nl/files/index.php/s/B7PEqFZSZZBPcW8/download?path=%2FData%2FInput%2FDatasets%2FBerend%2FImages&files=B_140.jpg,4608,3072
B_140,daylight,wood,"[130, 130, 130]",['300421']
300421,1990,1218,2324,1640
