https://surfdrive.surf.nl/files/index.php/s/B7PEqFZSZZBPcW8/download?path=%2FData%2FInput%2FDatasets%2FBerend%2FImages&files=B_158.jpg,4608,3072
B_158,daylight,wood,"[130, 130, 130]","['300421', '6138173', '4114319', '4211221', '6004938', '4211166', '6069259']"
4211221,2233,2573,2581,2832
6004938,2587,2307,2714,2503
300421,2094,2048,2322,2307
4114319,1822,1530,2315,1953
6069259,1551,1289,1734,1448
4211166,1746,556,1930,765
6138173,2202,1587,2442,1827
