https://surfdrive.surf.nl/files/index.php/s/B7PEqFZSZZBPcW8/download?path=%2FData%2FInput%2FDatasets%2FBerend%2FImages&files=B_153.jpg,4608,3072
B_153,daylight,wood,"[130, 130, 130]","['300421', '6138173', '4114319', '4211221', '6004938', '4211166']"
4114319,2078,562,2756,1026
6004938,3506,740,3720,871
300421,3232,836,3423,1109
4211221,2887,1133,3220,1478
4211166,3042,1687,3315,1877
6138173,1137,2169,1375,2526
