https://surfdrive.surf.nl/files/index.php/s/B7PEqFZSZZBPcW8/download?path=%2FData%2FInput%2FDatasets%2FBerend%2FImages&files=B_214.jpg,4608,3072
B_214,daylight,wood,"[130, 130, 130]",['4109995']
4109995,2264,1496,2466,1764
