https://surfdrive.surf.nl/files/index.php/s/B7PEqFZSZZBPcW8/download?path=%2FData%2FInput%2FDatasets%2FBerend%2FImages&files=B_212.jpg,4607,3072
B_212,daylight,wood,"[130, 130, 130]","['4621545', '654126', '300124', '306201', '4212454', '614321']"
306201,1748,2336,1893,2545
4621545,1382,1877,1680,2158
654126,1748,2021,1957,2238
4212454,1965,1046,2144,1187
300124,2587,1753,3140,2132
614321,2298,575,2476,804
