https://surfdrive.surf.nl/files/index.php/s/B7PEqFZSZZBPcW8/download?path=%2FData%2FInput%2FDatasets%2FBerend%2FImages&files=B_239.jpg,4607,3072
B_239,daylight,wood,"[130, 130, 130]","['6138173', '4210718', '4210718', '4121739', '4539099', '4211166']"
4210718,2338,1449,2748,1674
4210718,2252,1800,2669,1965
4121739,2662,1667,2828,1820
6138173,1735,1634,1934,1833
4211166,2477,1310,2642,1429
4539099,1782,1316,1914,1436
