https://surfdrive.surf.nl/files/index.php/s/B7PEqFZSZZBPcW8/download?path=%2FData%2FInput%2FDatasets%2FBerend%2FImages&files=B_242.jpg,4608,3072
B_242,daylight,wood,"[130, 130, 130]","['6138173', '4210718', '4210718', '4121739', '4539099', '4211166', '300123']"
4210718,1979,1476,2401,2183
4210718,2710,1399,3387,1797
300123,2876,1838,3535,2248
4211166,2852,2177,3090,2492
4539099,646,1702,852,1881
4121739,2549,923,2878,1150
6138173,3049,1165,3338,1486
