https://surfdrive.surf.nl/files/index.php/s/B7PEqFZSZZBPcW8/download?path=%2FData%2FInput%2FDatasets%2FBerend%2FImages&files=B_256.jpg,4608,3072
B_256,daylight,wood,"[130, 130, 130]","['6025026', '6223631', '4211166', '4567338']"
6025026,2091,2402,2201,2554
6223631,3022,2341,3256,2609
4211166,3540,2099,3731,2266
4567338,3545,1837,3709,1929
