https://surfdrive.surf.nl/files/index.php/s/B7PEqFZSZZBPcW8/download?path=%2FData%2FInput%2FDatasets%2FBerend%2FImages&files=B_288.jpg,4608,3072
B_288,daylight,wood,"[130, 130, 130]","['4211614', '4121739', '300423', '300323', '6104154', '4211437', '6069259']"
4211614,3545,2014,3677,2136
6104154,2224,1952,2370,2081
6069259,2213,1604,2333,1693
300423,1482,1704,1577,1835
4121739,1615,1580,1746,1693
4211437,1280,1550,1373,1670
300323,1352,1574,1522,1743
