https://surfdrive.surf.nl/files/index.php/s/B7PEqFZSZZBPcW8/download?path=%2FData%2FInput%2FDatasets%2FBerend%2FImages&files=B_308.jpg,4608,3072
B_308,daylight,wood,"[130, 130, 130]","['4211412', '300123']"
300123,1253,1701,1567,1946
4211412,2952,1193,2997,1299
