https://surfdrive.surf.nl/files/index.php/s/B7PEqFZSZZBPcW8/download?path=%2FData%2FInput%2FDatasets%2FBerend%2FImages&files=B_300.jpg,4608,3072
B_300,daylight,wood,"[130, 130, 130]",['4143562']
4143562,2219,1550,2321,1730
