https://surfdrive.surf.nl/files/index.php/s/B7PEqFZSZZBPcW8/download?path=%2FData%2FInput%2FDatasets%2FBerend%2FImages&files=B_31.jpg,4608,3072
B_31,daylight,wood,"[130, 130, 130]",['306201']
306201,2055,1443,2178,1611
