https://surfdrive.surf.nl/files/index.php/s/B7PEqFZSZZBPcW8/download?path=%2FData%2FInput%2FDatasets%2FBerend%2FImages&files=B_327.jpg,4608,3072
B_327,daylight,wood,"[130, 130, 130]","['6003007', '4153827', '4621545', '6073026', '300401']"
4153827,1963,904,2504,1194
6073026,2544,966,2715,1072
300401,1926,757,2194,899
4621545,1696,1116,1977,1245
6003007,2677,1356,2859,1450
