https://surfdrive.surf.nl/files/index.php/s/B7PEqFZSZZBPcW8/download?path=%2FData%2FInput%2FDatasets%2FBerend%2FImages&files=B_358.jpg,4608,3072
B_358,daylight,wood,"[130, 130, 130]","['4639693', '4121967', '4157124', '4567338', '4650630']"
4639693,1650,1007,2115,1770
4650630,2171,1524,2441,1758
4121967,943,1452,1094,1663
4157124,1789,896,1948,1087
4567338,2119,2096,2318,2279
