https://surfdrive.surf.nl/files/index.php/s/B7PEqFZSZZBPcW8/download?path=%2FData%2FInput%2FDatasets%2FBerend%2FImages&files=B_365.jpg,4607,3072
B_365,daylight,wood,"[130, 130, 130]","['4655172', '300321']"
4655172,1649,705,2026,1221
300321,2096,1849,2428,2296
