https://surfdrive.surf.nl/files/index.php/s/B7PEqFZSZZBPcW8/download?path=%2FData%2FInput%2FDatasets%2FBerend%2FImages&files=B_404.jpg,4608,3072
B_404,daylight,wood,"[130, 130, 130]","['4548180', '4651236', '4529240']"
4548180,2727,695,2972,978
4651236,2266,1149,2630,1253
4529240,570,1618,845,1804
