https://surfdrive.surf.nl/files/index.php/s/B7PEqFZSZZBPcW8/download?path=%2FData%2FInput%2FDatasets%2FBerend%2FImages&files=B_487.jpg,4608,3072
B_487,daylight,wood,"[130, 130, 130]",['6075075']
6075075,2101,1322,2233,1503
