https://surfdrive.surf.nl/files/index.php/s/B7PEqFZSZZBPcW8/download?path=%2FData%2FInput%2FDatasets%2FBerend%2FImages&files=B_485.jpg,4608,3072
B_485,daylight,wood,"[130, 130, 130]","['6075079', '4211201', '4165967', '4647553', '4121967', '4211437', '4143562', '4550348']"
4121967,2280,609,2564,846
4211437,1778,677,2023,934
4143562,1285,1117,1728,1442
4647553,1884,1265,2231,1543
4165967,1740,1371,2345,2033
6075079,1754,1835,2150,2136
4550348,2962,1889,3379,2158
4211201,2717,982,3152,1635
