https://surfdrive.surf.nl/files/index.php/s/B7PEqFZSZZBPcW8/download?path=%2FData%2FInput%2FDatasets%2FBerend%2FImages&files=B_499.jpg,4608,3072
B_499,daylight,wood,"[130, 130, 130]","['6075075', '4649749', '300323', '4211149', '4621545']"
300323,1858,955,2240,1235
6075075,2269,988,2491,1202
4649749,2162,1324,2442,1509
4621545,2507,1397,2820,1582
4211149,2696,1595,3020,1871
