https://surfdrive.surf.nl/files/index.php/s/B7PEqFZSZZBPcW8/download?path=%2FData%2FInput%2FDatasets%2FBerend%2FImages&files=B_502.jpg,4608,3072
B_502,daylight,wood,"[130, 130, 130]","['6075075', '4649749', '300323', '4211149', '4621545', '300424']"
4621545,2919,634,3169,901
4649749,2833,1350,3174,1731
300424,3100,1351,3271,1462
4211149,2684,1209,2991,1478
300323,1950,1295,2137,1560
6075075,1394,2067,1645,2424
