https://surfdrive.surf.nl/files/index.php/s/B7PEqFZSZZBPcW8/download?path=%2FData%2FInput%2FDatasets%2FBerend%2FImages&files=B_51.jpg,4608,3072
B_51,daylight,wood,"[130, 130, 130]","['6075079', '4520632', '300421']"
300421,1155,1561,1480,1923
4520632,2223,1811,2822,2479
6075079,2966,1374,3234,1630
