https://surfdrive.surf.nl/files/index.php/s/B7PEqFZSZZBPcW8/download?path=%2FData%2FInput%2FDatasets%2FBerend%2FImages&files=B_522.jpg,4608,3072
B_522,daylight,wood,"[130, 130, 130]","['6035291', '4567338']"
4567338,2370,1888,2608,2211
6035291,1783,798,1970,1045
