https://surfdrive.surf.nl/files/index.php/s/B7PEqFZSZZBPcW8/download?path=%2FData%2FInput%2FDatasets%2FBerend%2FImages&files=B_596.jpg,4607,3072
B_596,daylight,wood,"[130, 130, 130]",['6238674']
6238674,2175,1456,2399,1675
