https://surfdrive.surf.nl/files/index.php/s/B7PEqFZSZZBPcW8/download?path=%2FData%2FInput%2FDatasets%2FBerend%2FImages&files=B_606.jpg,4608,3072
B_606,daylight,wood,"[130, 130, 130]","['6238674', '300323', '4153825', '4211054', '6062574']"
6238674,1788,1130,1971,1296
4211054,2254,976,2598,1247
4153825,1913,1370,2260,1645
6062574,2337,1550,2548,1731
300323,2052,1683,2399,2103
