https://surfdrive.surf.nl/files/index.php/s/B7PEqFZSZZBPcW8/download?path=%2FData%2FInput%2FDatasets%2FBerend%2FImages&files=B_635.jpg,4608,3072
B_635,daylight,wood,"[130, 130, 130]","['4118793', '4114319', '4558957', '4539099']"
4539099,1152,1311,1347,1501
4558957,1548,979,2086,1443
4114319,1708,2022,2298,2291
4118793,3227,1294,3433,1518
