https://surfdrive.surf.nl/files/index.php/s/B7PEqFZSZZBPcW8/download?path=%2FData%2FInput%2FDatasets%2FBerend%2FImages&files=B_663.jpg,4608,3072
B_663,daylight,wood,"[130, 130, 130]","['6223631', '4160403', '4527943', '4650630']"
4160403,1421,799,1700,1594
6223631,2043,627,2182,799
4650630,2386,1325,2696,1615
4527943,2043,2281,2268,2539
