https://surfdrive.surf.nl/files/index.php/s/B7PEqFZSZZBPcW8/download?path=%2FData%2FInput%2FDatasets%2FBerend%2FImages&files=B_727.jpg,4608,3072
B_727,daylight,wood,"[130, 130, 130]","['306201', '4527943', '6004938', '4121967', '4181144']"
306201,1413,871,1534,1083
4121967,1931,998,2052,1197
4181144,1662,1261,2215,1714
4527943,2599,1232,2854,1580
6004938,2329,934,2464,1126
