https://surfdrive.surf.nl/files/index.php/s/B7PEqFZSZZBPcW8/download?path=%2FData%2FInput%2FDatasets%2FBerend%2FImages&files=B_731.jpg,4607,3072
B_731,daylight,wood,"[130, 130, 130]","['306201', '4527943', '6004938', '4121967', '4181144', '4160403']"
6004938,784,2042,934,2186
4527943,2240,1939,2447,2163
306201,3338,1709,3471,1864
4160403,2729,1197,3269,1565
4181144,2136,851,2665,1179
4121967,1969,627,2055,817
