https://surfdrive.surf.nl/files/index.php/s/B7PEqFZSZZBPcW8/download?path=%2FData%2FInput%2FDatasets%2FBerend%2FImages&files=B_784.jpg,4607,3072
B_784,daylight,wood,"[130, 130, 130]","['4181135', '6069259', '6003007', '4650630', '4504369', '4527943', '6062574']"
4650630,2589,1219,2838,1453
4181135,2169,866,2838,1452
4527943,2015,1347,2130,1653
6003007,1818,1153,1962,1271
6062574,1548,983,1733,1196
6069259,1691,784,1868,994
4504369,3595,2030,3694,2264
