https://surfdrive.surf.nl/files/index.php/s/B7PEqFZSZZBPcW8/download?path=%2FData%2FInput%2FDatasets%2FBerend%2FImages&files=B_802.jpg,4608,3072
B_802,daylight,wood,"[130, 130, 130]","['6151663', '4550348', '6075079']"
4550348,1617,1068,1788,1363
6151663,2574,978,2763,1232
6075079,1944,1961,2255,2313
