https://surfdrive.surf.nl/files/index.php/s/B7PEqFZSZZBPcW8/download?path=%2FData%2FInput%2FDatasets%2FBerend%2FImages&files=B_80.jpg,4608,3072
B_80,daylight,wood,"[130, 130, 130]","['4211149', '4539099']"
4211149,1995,1144,2484,1653
4539099,2344,1457,2644,1786
