https://surfdrive.surf.nl/files/index.php/s/B7PEqFZSZZBPcW8/download?path=%2FData%2FInput%2FDatasets%2FBerend%2FImages&files=B_830.jpg,4608,3072
B_830,daylight,parquet_dark_brown,"[120, 120, 120]","['6225539', '4181134', '4655172', '623224', '4143562', '6028324', '6244886', '4165967', '4655172', '4567338']"
4165967,1851,2078,2337,2542
6028324,1629,1995,1882,2219
6244886,1349,1995,1568,2233
4181134,1653,1806,2386,2085
4655172,1907,1170,2160,1592
4567338,2878,1501,2970,1661
4143562,1218,968,1512,1196
4655172,2952,588,3360,941
6225539,2057,2050,2729,2442
623224,3693,1774,4004,2099
