https://surfdrive.surf.nl/files/index.php/s/B7PEqFZSZZBPcW8/download?path=%2FData%2FInput%2FDatasets%2FBerend%2FImages&files=B_909.jpg,4608,3072
B_909,daylight,parquet_light,"[120, 120, 120]","['6138173', '4520632', '6229071', '6177697', '300321', '4529247', '4639693', '4181144', '4211166', '4109995', '6177697', '4639693', '300423']"
4520632,2125,586,2463,830
4211166,2243,790,2366,940
4639693,2093,1270,2778,1507
300423,2089,1463,2278,1668
6177697,2190,1697,2562,1870
6229071,2718,1653,2921,1868
300321,1829,1523,2091,1769
6177697,1545,1290,1900,1452
4109995,1629,1283,1776,1499
4639693,1325,1474,1803,2124
4529247,1779,1752,1880,1897
6138173,1871,1716,2091,1919
4181144,1933,1831,2489,2311
