https://surfdrive.surf.nl/files/index.php/s/B7PEqFZSZZBPcW8/download?path=%2FData%2FInput%2FDatasets%2FBerend%2FImages&files=B_916.jpg,4607,3072
B_916,daylight,parquet_light,"[120, 120, 120]","['6138173', '4520632', '6229071', '6177697', '300321', '4529247', '4639693', '4181144', '4211166', '4109995', '6177697']"
300321,1112,2669,1388,2957
4639693,1630,1778,2343,2060
6229071,2573,1386,2792,1565
6177697,2481,1248,2780,1524
4529247,2654,1179,2723,1237
4211166,2504,1191,2631,1317
6138173,2268,1237,2401,1398
4520632,1929,1059,2217,1381
4109995,2234,288,2332,414
4181144,3114,1064,3568,1243
6177697,3453,1513,3781,1772
