https://surfdrive.surf.nl/files/index.php/s/B7PEqFZSZZBPcW8/download?path=%2FData%2FInput%2FDatasets%2FBerend%2FImages&files=B_925.jpg,4608,3072
B_925,daylight,parquet_light,"[120, 120, 120]","['6138173', '4520632', '6229071', '6177697', '300321', '4529247', '4639693', '4181144']"
6229071,3174,2004,3390,2244
4529247,1811,1731,1950,1855
6138173,2233,1596,2449,1783
6177697,2444,1476,2727,1827
300321,2396,1438,2579,1649
4639693,1463,492,1866,1073
4181144,2370,699,2893,1059
4520632,2351,1284,2720,1505
