https://surfdrive.surf.nl/files/index.php/s/B7PEqFZSZZBPcW8/download?path=%2FData%2FInput%2FDatasets%2FDavid%2FImages&files=C_10.jpg,5472,3648
C_10,daylight,coffee_table,"[130, 130, 130]","['300121', '4567338', '4211149', '6022023']"
300121,2414,1855,2965,2393
4211149,2975,2176,3253,2428
4567338,2692,1358,2874,1432
6022023,2753,1432,2975,1709
