https://surfdrive.surf.nl/files/index.php/s/B7PEqFZSZZBPcW8/download?path=%2FData%2FInput%2FDatasets%2FDavid%2FImages&files=C_107.jpg,5472,3648
C_107,daylight,armchair,"[130, 130, 130]",['300124']
300124,2593,1324,2969,1604
