https://surfdrive.surf.nl/files/index.php/s/B7PEqFZSZZBPcW8/download?path=%2FData%2FInput%2FDatasets%2FDavid%2FImages&files=C_113.jpg,5472,3648
C_113,daylight,armchair,"[130, 130, 130]","['300124', '4181134', '4114319']"
4114319,2222,1090,2674,1349
4181134,2291,1553,2824,1823
300124,3429,1801,3619,2567
