https://surfdrive.surf.nl/files/index.php/s/B7PEqFZSZZBPcW8/download?path=%2FData%2FInput%2FDatasets%2FDavid%2FImages&files=C_117.jpg,5472,3648
C_117,artificial,coffee_table,"[130, 130, 130]",['6238674']
6238674,2697,1704,2825,1907
