https://surfdrive.surf.nl/files/index.php/s/B7PEqFZSZZBPcW8/download?path=%2FData%2FInput%2FDatasets%2FDavid%2FImages&files=C_121.jpg,5472,3648
C_121,artificial,coffee_table,"[130, 130, 130]","['6238674', '4212454']"
4212454,2239,1632,2369,1837
6238674,2970,1690,3110,1922
