https://surfdrive.surf.nl/files/index.php/s/B7PEqFZSZZBPcW8/download?path=%2FData%2FInput%2FDatasets%2FDavid%2FImages&files=C_182.jpg,5472,3647
C_182,daylight,coffee_table,"[130, 130, 130]","['6252809', '4160403', '300423']"
6252809,2072,1040,2559,2050
300423,2944,1152,3200,1303
4160403,2664,1921,3084,2589
