https://surfdrive.surf.nl/files/index.php/s/B7PEqFZSZZBPcW8/download?path=%2FData%2FInput%2FDatasets%2FDavid%2FImages&files=C_194.jpg,5472,3648
C_194,daylight,coffee_table,"[130, 130, 130]",['6025026']
6025026,2544,1635,2887,2024
