https://surfdrive.surf.nl/files/index.php/s/B7PEqFZSZZBPcW8/download?path=%2FData%2FInput%2FDatasets%2FDavid%2FImages&files=C_20.jpg,5472,3648
C_20,daylight,coffee_table,"[130, 130, 130]","['300121', '4567338', '4211149', '6022023', '6075075', '4118793', '4647553']"
4211149,1497,2174,1775,2347
300121,1814,1482,2201,1836
4567338,1841,2186,2147,2413
6022023,2280,1890,2561,2041
4647553,2640,1376,2803,1485
6075075,3600,1731,3779,1852
4118793,3609,1166,3845,1280
