https://surfdrive.surf.nl/files/index.php/s/B7PEqFZSZZBPcW8/download?path=%2FData%2FInput%2FDatasets%2FDavid%2FImages&files=C_205.jpg,5472,3648
C_205,daylight,coffee_table,"[130, 130, 130]","['4212454', '4649749', '4157124', '4211437']"
4212454,3088,1090,3240,1253
4649749,1542,2346,1799,2595
4211437,1910,1773,2159,1903
4157124,2548,1793,2725,2009
