https://surfdrive.surf.nl/files/index.php/s/B7PEqFZSZZBPcW8/download?path=%2FData%2FInput%2FDatasets%2FDavid%2FImages&files=C_241.jpg,5472,3648
C_241,daylight,coffee_table,"[130, 130, 130]","['4118793', '4567338', '6073026', '4211054', '4121739', '300124', '6244886', '4211166']"
6244886,2615,1294,2917,1542
4211166,2560,1514,2735,1717
4121739,2381,1593,2611,1856
300124,2788,1651,3267,1973
4211054,2769,1572,3025,1679
4567338,3306,1642,3481,1769
4118793,2600,2194,2791,2418
6073026,2152,1886,2314,2076
