https://surfdrive.surf.nl/files/index.php/s/B7PEqFZSZZBPcW8/download?path=%2FData%2FInput%2FDatasets%2FDavid%2FImages&files=C_245.jpg,5472,3648
C_245,daylight,coffee_table,"[130, 130, 130]","['4118793', '4567338', '6073026', '4211054', '4121739', '300124', '6244886', '4211166', '300401']"
4567338,3477,1243,3553,1375
6073026,3976,1801,4152,1910
300401,2649,1224,2816,1363
6244886,2236,1050,2379,1174
300124,1674,1313,2058,1506
4118793,2882,2071,2959,2250
4211054,2433,1933,2667,2174
4121739,2123,2236,2360,2392
4211166,1226,2436,1394,2655
