https://surfdrive.surf.nl/files/index.php/s/B7PEqFZSZZBPcW8/download?path=%2FData%2FInput%2FDatasets%2FDavid%2FImages&files=C_260.jpg,5472,3647
C_260,daylight,coffee_table,"[130, 130, 130]","['6223631', '300424', '4153825', '654126']"
4153825,2144,1378,2421,1661
300424,2913,1475,3098,1787
654126,2700,1717,2891,1932
6223631,2714,2029,2856,2174
