https://surfdrive.surf.nl/files/index.php/s/B7PEqFZSZZBPcW8/download?path=%2FData%2FInput%2FDatasets%2FDavid%2FImages&files=C_277.jpg,5472,3648
C_277,daylight,coffee_table,"[130, 130, 130]","['6151663', '365901']"
6151663,2406,1671,2710,1829
365901,3033,1466,3562,1763
