https://surfdrive.surf.nl/files/index.php/s/B7PEqFZSZZBPcW8/download?path=%2FData%2FInput%2FDatasets%2FDavid%2FImages&files=C_283.jpg,5472,3648
C_283,daylight,coffee_table,"[130, 130, 130]","['6151663', '365901', '4211201', '300401']"
365901,1999,1690,2507,1980
300401,2775,1483,2982,1802
4211201,2334,1372,2859,1679
6151663,2881,1941,3105,2187
