https://surfdrive.surf.nl/files/index.php/s/B7PEqFZSZZBPcW8/download?path=%2FData%2FInput%2FDatasets%2FDavid%2FImages&files=C_292.jpg,5472,3648
C_292,daylight,coffee_table,"[130, 130, 130]","['6151663', '365901', '4211201', '300401', '6252809', '6249125', '4211054']"
6252809,2639,1823,3758,2303
365901,2026,2242,2510,2419
6151663,2247,2510,2487,2662
6249125,1821,2055,1973,2190
4211054,2268,1648,2538,1917
300401,3019,1306,3238,1555
4211201,1868,1441,2327,1913
