https://surfdrive.surf.nl/files/index.php/s/B7PEqFZSZZBPcW8/download?path=%2FData%2FInput%2FDatasets%2FDavid%2FImages&files=C_293.jpg,5472,3647
C_293,daylight,coffee_table,"[130, 130, 130]","['6151663', '365901', '4211201', '300401', '6252809', '6249125', '4211054']"
4211054,2579,1331,2811,1580
4211201,2366,1602,2821,1986
365901,3170,1566,3387,2028
6151663,3349,1720,3530,1885
6249125,2911,2042,3041,2180
300401,2424,961,2652,1132
6252809,1823,788,2081,1743
