https://surfdrive.surf.nl/files/index.php/s/B7PEqFZSZZBPcW8/download?path=%2FData%2FInput%2FDatasets%2FDavid%2FImages&files=C_309.jpg,5472,3648
C_309,daylight,living_room_floor,"[130, 130, 130]","['4650630', '6223631', '4181144']"
6223631,2883,1358,2976,1475
4650630,2518,1363,2698,1470
4181144,2411,1942,2990,2196
