https://surfdrive.surf.nl/files/index.php/s/B7PEqFZSZZBPcW8/download?path=%2FData%2FInput%2FDatasets%2FDavid%2FImages&files=C_366.jpg,5472,3648
C_366,daylight,living_room_floor,"[130, 130, 130]","['4118793', '6035291', '4211614', '4567338', '4211412', '6025026', '4548180', '4655172']"
4211614,1840,2075,2042,2264
4567338,2466,1911,2605,2041
4548180,2426,2161,2601,2357
6025026,2613,2111,2735,2275
4655172,2519,1669,2922,2036
6035291,3397,1851,3604,1979
4118793,2586,1367,2715,1513
4211412,2717,1625,2863,1714
