https://surfdrive.surf.nl/files/index.php/s/B7PEqFZSZZBPcW8/download?path=%2FData%2FInput%2FDatasets%2FDavid%2FImages&files=C_360.jpg,5472,3647
C_360,daylight,living_room_floor,"[130, 130, 130]","['4118793', '6035291', '4211614', '4567338', '4211412', '6025026']"
6025026,2468,1499,2633,1692
4211412,2488,1816,2592,1960
6035291,2640,1671,2777,1885
4211614,2784,1953,2998,2126
4118793,3094,1864,3239,2029
4567338,2853,2318,3046,2435
