https://surfdrive.surf.nl/files/index.php/s/B7PEqFZSZZBPcW8/download?path=%2FData%2FInput%2FDatasets%2FDavid%2FImages&files=C_397.jpg,5472,3648
C_397,daylight,living_room_floor,"[130, 130, 130]","['300421', '300321']"
300321,3192,1600,3439,1878
300421,2555,1748,2766,1891
