https://surfdrive.surf.nl/files/index.php/s/B7PEqFZSZZBPcW8/download?path=%2FData%2FInput%2FDatasets%2FDavid%2FImages&files=C_39.jpg,5472,3647
C_39,daylight,coffee_table,"[130, 130, 130]","['6104154', '4527943', '4157124']"
4527943,2869,1282,3088,1528
6104154,2516,1282,2687,1603
4157124,2176,2101,2514,2393
