https://surfdrive.surf.nl/files/index.php/s/B7PEqFZSZZBPcW8/download?path=%2FData%2FInput%2FDatasets%2FDavid%2FImages&files=C_408.jpg,5472,3648
C_408,daylight,living_room_floor,"[130, 130, 130]","['300421', '300321', '300424', '614321', '4153827', '4165967']"
300421,1786,1814,1894,1935
300321,2310,1709,2477,1850
614321,2408,1577,2531,1674
4165967,2561,1748,2822,1885
4153827,3447,2060,3721,2309
300424,2489,2273,2625,2410
