https://surfdrive.surf.nl/files/index.php/s/B7PEqFZSZZBPcW8/download?path=%2FData%2FInput%2FDatasets%2FDavid%2FImages&files=C_418.jpg,5472,3648
C_418,daylight,living_room_floor,"[130, 130, 130]","['4517992', '300821']"
300821,2524,1465,2896,2084
4517992,2972,1989,3197,2270
