https://surfdrive.surf.nl/files/index.php/s/B7PEqFZSZZBPcW8/download?path=%2FData%2FInput%2FDatasets%2FDavid%2FImages&files=C_422.jpg,5472,3648
C_422,daylight,living_room_floor,"[130, 130, 130]",['6028324']
6028324,2677,1677,2848,1855
