https://surfdrive.surf.nl/files/index.php/s/B7PEqFZSZZBPcW8/download?path=%2FData%2FInput%2FDatasets%2FDavid%2FImages&files=C_539.jpg,5472,3647
C_539,daylight,couch,"[130, 130, 130]","['6177697', '6223631', '6073026', '300124', '4647553', '6035291', '4109995']"
300124,2795,1483,3135,1870
4109995,2779,1455,2941,1652
6073026,2690,1425,2809,1568
6177697,2572,1645,2776,2000
6035291,2448,1739,2638,1828
4647553,2380,1845,2539,2051
6223631,2159,1711,2258,1819
