https://surfdrive.surf.nl/files/index.php/s/B7PEqFZSZZBPcW8/download?path=%2FData%2FInput%2FDatasets%2FDavid%2FImages&files=C_540.jpg,5472,3648
C_540,daylight,couch,"[130, 130, 130]","['6177697', '6223631', '6073026', '300124', '4647553', '6035291', '4109995', '4527943']"
6177697,2090,1495,2390,1686
6073026,2263,1425,2355,1496
300124,3301,1091,3583,1213
4109995,3315,1296,3462,1422
4527943,3535,1373,3679,1546
4647553,2607,1651,2752,1806
6223631,2705,1824,2773,1887
6035291,2085,2322,2267,2447
