https://surfdrive.surf.nl/files/index.php/s/B7PEqFZSZZBPcW8/download?path=%2FData%2FInput%2FDatasets%2FDavid%2FImages&files=C_564.jpg,5472,3648
C_564,daylight,window_sill,"[130, 130, 130]","['6003007', '365901', '4567338', '4211166', '4504381', '6025026']"
4211166,2560,1746,2791,1972
4504381,3947,1823,4038,2016
6003007,2168,1567,2253,1763
4567338,1892,1489,2008,1685
365901,3610,772,3779,1157
6025026,2703,1991,2986,2233
