https://surfdrive.surf.nl/files/index.php/s/B7PEqFZSZZBPcW8/download?path=%2FData%2FInput%2FDatasets%2FDavid%2FImages&files=C_595.jpg,5472,3648
C_595,daylight,window_sill,"[130, 130, 130]","['614321', '4211221', '4651236', '4621545', '6249125', '4143562', '6075075', '4109995', '4647553']"
4143562,3098,1905,3367,2188
4211221,3099,1340,3430,1699
4647553,2834,1603,2966,1901
6075075,2635,1809,2785,1954
614321,2167,1691,2404,1968
4621545,2102,1428,2293,1716
4651236,2140,1233,2399,1439
4109995,2380,1108,2654,1338
6249125,2157,1113,2382,1244
