https://surfdrive.surf.nl/files/index.php/s/B7PEqFZSZZBPcW8/download?path=%2FData%2FInput%2FDatasets%2FDavid%2FImages&files=C_609.jpg,5472,3648
C_609,daylight,window_sill,"[130, 130, 130]","['300423', '6073026', '4558957', '4527943']"
4558957,936,1514,1644,2162
6073026,2015,1884,2251,2154
300423,2479,1615,2875,1977
4527943,2892,1665,3229,2002
