https://surfdrive.surf.nl/files/index.php/s/B7PEqFZSZZBPcW8/download?path=%2FData%2FInput%2FDatasets%2FDavid%2FImages&files=C_628.jpg,5472,3648
C_628,daylight,coffee_table,"[130, 130, 130]","['6074890', '6073026', '4211221']"
6073026,1906,1910,2094,2120
6074890,2649,1709,2857,1905
4211221,3625,1888,4019,2306
