https://surfdrive.surf.nl/files/index.php/s/B7PEqFZSZZBPcW8/download?path=%2FData%2FInput%2FDatasets%2FDavid%2FImages&files=C_633.jpg,5472,3648
C_633,daylight,coffee_table,"[130, 130, 130]","['6074890', '6073026', '4211221', '4211166', '4181144']"
4211221,2668,1122,3014,1405
6073026,3580,1072,3770,1309
4211166,1311,1190,1594,1486
4181144,2488,1385,3030,2236
6074890,3117,1885,3283,2080
