https://surfdrive.surf.nl/files/index.php/s/B7PEqFZSZZBPcW8/download?path=%2FData%2FInput%2FDatasets%2FDavid%2FImages&files=C_687.jpg,5472,3648
C_687,daylight,coffee_table,"[130, 130, 130]","['4558957', '4539099', '300323', '6229071', '4157124']"
300323,1889,912,2114,1180
4539099,2786,1230,2915,1377
6229071,2831,1731,3024,1983
4558957,2039,1897,2483,2347
4157124,2602,1698,2762,1878
