https://surfdrive.surf.nl/files/index.php/s/B7PEqFZSZZBPcW8/download?path=%2FData%2FInput%2FDatasets%2FDavid%2FImages&files=C_68.jpg,5472,3648
C_68,daylight,coffee_table,"[130, 130, 130]","['4517992', '6074890', '4650630']"
4650630,1827,1646,2002,1992
6074890,2974,1704,3153,1820
4517992,2734,1832,2892,2197
