https://surfdrive.surf.nl/files/index.php/s/B7PEqFZSZZBPcW8/download?path=%2FData%2FInput%2FDatasets%2FDavid%2FImages&files=C_705.jpg,5472,3648
C_705,daylight,coffee_table,"[130, 130, 130]","['4529240', '4211437', '4211437']"
4211437,2030,1840,2249,2147
4211437,2697,1647,2933,1954
4529240,2519,1675,2641,1798
