https://surfdrive.surf.nl/files/index.php/s/B7PEqFZSZZBPcW8/download?path=%2FData%2FInput%2FDatasets%2FDavid%2FImages&files=C_727.jpg,5472,3648
C_727,daylight,armchair,"[130, 130, 130]",['6062574']
6062574,2681,1724,2867,1834
