https://surfdrive.surf.nl/files/index.php/s/B7PEqFZSZZBPcW8/download?path=%2FData%2FInput%2FDatasets%2FDavid%2FImages&files=C_746.jpg,5472,3648
C_746,daylight,couch,"[130, 130, 130]","['6069259', '4211054', '6177697', '6062574', '6223631']"
6177697,2576,1598,3009,1722
4211054,3468,1492,3706,1757
6062574,2964,1845,3141,1987
6069259,2161,2097,2311,2291
6223631,1940,2353,2019,2450
