https://surfdrive.surf.nl/files/index.php/s/B7PEqFZSZZBPcW8/download?path=%2FData%2FInput%2FDatasets%2FDavid%2FImages&files=C_757.jpg,5472,3648
C_757,daylight,couch,"[130, 130, 130]","['6074890', '4211511']"
4211511,2666,1704,2797,1875
6074890,2974,1460,3172,1618
