https://surfdrive.surf.nl/files/index.php/s/B7PEqFZSZZBPcW8/download?path=%2FData%2FInput%2FDatasets%2FDavid%2FImages&files=C_791.jpg,5472,3648
C_791,daylight,couch,"[130, 130, 130]","['4621545', '4210718', '4650630', '4529247', '4529247', '6151663', '300821']"
300821,1870,2018,2752,2561
4650630,3036,2264,3380,2574
4529247,2929,2125,3086,2295
4529247,3431,2124,3599,2293
4621545,3329,1743,3550,2016
4210718,2651,1151,3180,1417
6151663,1811,1817,1992,2013
