https://surfdrive.surf.nl/files/index.php/s/B7PEqFZSZZBPcW8/download?path=%2FData%2FInput%2FDatasets%2FDavid%2FImages&files=C_832.jpg,5472,3647
C_832,daylight,coffee-table,"[120, 120, 120]","['365901', '300821', '4212454', '4567338', '300423', '6104154', '4143562', '6244886', '4210718', '6075075', '300321']"
4212454,3367,2412,3489,2553
6075075,2951,2074,3113,2238
4567338,2482,2152,2604,2283
6104154,2254,2189,2447,2332
300821,2191,1940,2951,2206
4210718,1931,1841,2332,2160
365901,2889,1575,3236,1837
300321,2813,1509,3055,1673
6244886,2985,1021,3203,1200
4143562,2494,1026,2671,1149
300423,1943,715,2099,859
