https://surfdrive.surf.nl/files/index.php/s/B7PEqFZSZZBPcW8/download?path=%2FData%2FInput%2FDatasets%2FDavid%2FImages&files=C_850.jpg,5472,3648
C_850,daylight,coffee-table,"[120, 120, 120]","['6138173', '6069259', '6223631', '4211166', '6075079', '300424', '6177697', '4639693', '4504369', '4567338']"
6177697,1847,941,2226,1189
4504369,2352,1381,2478,1517
6069259,1685,1426,1897,1629
6075079,1781,1709,2019,1876
6138173,1902,1836,2069,2068
4211166,2428,1568,2590,1785
300424,2559,1437,2701,1583
4639693,2610,1563,2933,2331
4567338,3398,1679,3509,1831
6223631,1857,2225,2019,2381
