https://surfdrive.surf.nl/files/index.php/s/B7PEqFZSZZBPcW8/download?path=%2FData%2FInput%2FDatasets%2FDavid%2FImages&files=C_888.jpg,5472,3648
C_888,daylight,coffee-table,"[120, 120, 120]","['300123', '6225539', '6062574', '4160403', '4558957', '4548180', '614321', '4647553', '4153827', '6151663', '4118793']"
6151663,2699,2444,2866,2731
300123,3139,1411,3581,1839
4153827,2688,1219,3144,1587
4118793,2784,1132,2921,1247
4558957,2635,1654,3023,1934
4160403,2151,1680,2700,2164
614321,2370,1647,2524,1769
6062574,2183,1496,2323,1644
4548180,2145,1969,2364,2142
6225539,1559,1560,2119,2012
4647553,1663,1384,1879,1556
