https://surfdrive.surf.nl/files/index.php/s/B7PEqFZSZZBPcW8/download?path=%2FData%2FInput%2FDatasets%2FDavid%2FImages&files=C_898.jpg,5472,3648
C_898,daylight,coffee-table,"[120, 120, 120]","['4529240', '6074890', '623224', '6025026', '4650630', '6028324', '4211412', '300121', '4181134', '4153827', '6028324', '4567338']"
6074890,2958,2531,3090,2725
6025026,3118,2379,3241,2647
4567338,1943,2467,2115,2654
4650630,2127,1968,2415,2324
4211412,2158,1927,2357,2053
6028324,3115,1748,3352,1985
4181134,2668,1465,3269,2031
300121,2577,1386,3032,1763
623224,3206,1326,3380,1629
4153827,2266,1397,2554,1887
4529240,2554,1311,2688,1429
6028324,2115,1179,2269,1404
