https://surfdrive.surf.nl/files/index.php/s/B7PEqFZSZZBPcW8/download?path=%2FData%2FInput%2FDatasets%2FDavid%2FImages&files=C_92.jpg,5472,3648
C_92,daylight,coffee_table,"[130, 130, 130]","['4121739', '306223', '4210718', '6151663', '4529240', '4211054']"
4210718,1878,1251,2302,1516
306223,2317,1767,2386,1885
4211054,2347,1877,2662,2050
4529240,3050,1631,3180,1708
6151663,3232,2408,3483,2612
4121739,3850,1916,4056,2081
