https://surfdrive.surf.nl/files/index.php/s/B7PEqFZSZZBPcW8/download?path=%2FData%2FInput%2FDatasets%2FDavid%2FImages&files=C_928.jpg,5472,3648
C_928,daylight,couch,"[120, 120, 120]","['365901', '306201', '4529247', '300423', '6003007', '6244886', '6104154', '300421', '6062574', '6075075']"
4529247,2069,2069,2203,2245
6003007,2266,2294,2417,2466
6075075,2594,2148,2855,2323
6244886,2406,1994,2727,2237
6062574,2251,1894,2408,2103
300423,2675,1834,2862,2086
306201,2337,1467,2496,1613
300421,2756,1527,3008,1755
365901,2589,1464,2782,1925
6104154,3182,1184,3430,1430
