https://surfdrive.surf.nl/files/index.php/s/B7PEqFZSZZBPcW8/download?path=%2FData%2FInput%2FDatasets%2FDavid%2FImages&files=C_994.jpg,5472,3648
C_994,daylight,couch,"[120, 120, 120]","['4527943', '300401', '4550325', '4211201', '4121967', '306223', '4157124', '6022064', '614321']"
4121967,1628,2118,1812,2405
4157124,1847,2077,2045,2323
614321,1983,1804,2174,2063
306223,1655,1537,1853,1722
4527943,2311,1332,2496,1571
300401,2748,1100,2987,1359
4211201,2455,1653,3022,2077
6022064,2496,1988,2810,2371
4550325,3090,2008,3384,2234
