https://surfdrive.surf.nl/files/index.php/s/B7PEqFZSZZBPcW8/download?path=%2FData%2FInput%2FDatasets%2FHiba%2FImages&files=H_107.jpg,5184,3456
H_107,daylight,wood,"[130, 130, 130]","['6022064', '4558957']"
4558957,2813,1438,3377,1948
6022064,1597,1357,1803,1674
