https://surfdrive.surf.nl/files/index.php/s/B7PEqFZSZZBPcW8/download?path=%2FData%2FInput%2FDatasets%2FHiba%2FImages&files=H_114.jpg,5184,3456
H_114,daylight,wood,"[130, 130, 130]","['6022064', '4558957', '306223', '4527943', '6003007']"
306223,1500,2001,1652,2147
4558957,2293,1619,2741,2048
4527943,2975,2034,3283,2326
6003007,3699,2223,3883,2416
6022064,1040,2257,1442,2455
