https://surfdrive.surf.nl/files/index.php/s/B7PEqFZSZZBPcW8/download?path=%2FData%2FInput%2FDatasets%2FHiba%2FImages&files=H_173.jpg,5184,3456
H_173,daylight,wood,"[130, 130, 130]","['4211412', '4153825', '4210718', '6104154']"
6104154,1417,1932,1597,2205
4211412,2958,2357,3068,2532
4153825,2427,1586,2732,1886
4210718,3428,1466,3834,1720
