https://surfdrive.surf.nl/files/index.php/s/B7PEqFZSZZBPcW8/download?path=%2FData%2FInput%2FDatasets%2FHiba%2FImages&files=H_17.jpg,5184,3456
H_17,daylight,wood,"[130, 130, 130]","['623224', '6022023', '4121739', '4118793', '4529240']"
623224,3431,2065,3718,2306
4529240,1823,2077,1934,2204
4121739,2486,1563,2629,1714
6022023,1293,2197,1475,2392
4118793,1677,1504,1808,1594
