https://surfdrive.surf.nl/files/index.php/s/B7PEqFZSZZBPcW8/download?path=%2FData%2FInput%2FDatasets%2FHiba%2FImages&files=H_241.jpg,5184,3456
H_241,daylight,wood,"[130, 130, 130]","['6035291', '4160403', '6104154']"
6035291,3782,1619,3919,1701
6104154,2587,1705,2686,1798
4160403,1880,1585,2077,1823
