https://surfdrive.surf.nl/files/index.php/s/B7PEqFZSZZBPcW8/download?path=%2FData%2FInput%2FDatasets%2FHiba%2FImages&files=H_386.jpg,5184,3456
H_386,daylight,wood,"[130, 130, 130]","['365901', '300424', '4529247', '4211412', '6238674', '4539099', '4211054', '300323']"
300424,1571,1319,1737,1552
4539099,1906,1801,2033,1945
4211054,2183,1749,2476,2037
365901,2324,1959,2858,2291
4211412,2601,1835,2770,1937
300323,2501,1419,2656,1746
6238674,3124,1103,3285,1270
4529247,2338,1018,2443,1128
