https://surfdrive.surf.nl/files/index.php/s/B7PEqFZSZZBPcW8/download?path=%2FData%2FInput%2FDatasets%2FHiba%2FImages&files=H_39.jpg,5184,3455
H_39,daylight,wood,"[130, 130, 130]","['4210718', '6249125', '4504381']"
6249125,1894,1897,1935,1985
4504381,1704,1748,1776,1870
4210718,3731,1534,3979,1788
