https://surfdrive.surf.nl/files/index.php/s/B7PEqFZSZZBPcW8/download?path=%2FData%2FInput%2FDatasets%2FHiba%2FImages&files=H_406.jpg,5184,3456
H_406,daylight,wood,"[130, 130, 130]","['4211166', '4647553', '4114319', '4550348', '4567338']"
4114319,1158,1768,1732,2086
4550348,1788,1375,2056,1559
4567338,2609,1620,2821,1768
4647553,1860,2508,2228,2836
4211166,3772,1582,4024,1856
