https://surfdrive.surf.nl/files/index.php/s/B7PEqFZSZZBPcW8/download?path=%2FData%2FInput%2FDatasets%2FHiba%2FImages&files=H_415.jpg,5184,3456
H_415,daylight,wood,"[130, 130, 130]","['4211166', '4647553', '4114319', '4550348', '4567338', '4211437', '4621545', '654126']"
654126,862,2365,1169,2717
4211437,1726,1609,1926,1827
4550348,2272,1138,2849,1658
4621545,2387,1880,2791,2169
4567338,1672,1143,1894,1378
4211166,1948,903,2139,1152
4647553,2525,786,2774,968
4114319,3098,675,3204,826
