https://surfdrive.surf.nl/files/index.php/s/B7PEqFZSZZBPcW8/download?path=%2FData%2FInput%2FDatasets%2FHiba%2FImages&files=H_44.jpg,5184,3456
H_44,daylight,wood,"[130, 130, 130]","['4210718', '6249125', '4504381', '4558957']"
4504381,3159,2029,3288,2172
4558957,2638,1555,3106,1992
6249125,2369,1709,2490,1861
4210718,1586,1760,1780,2291
