https://surfdrive.surf.nl/files/index.php/s/B7PEqFZSZZBPcW8/download?path=%2FData%2FInput%2FDatasets%2FHiba%2FImages&files=H_475.jpg,5184,3455
H_475,daylight,parquet_brown_medium,"[120, 120, 120]","['6028324', '4114319', '6004938', '300121', '300421', '6249125', '306223', '6003007', '300424']"
300421,2711,970,2821,1121
306223,2250,1318,2357,1386
4114319,2384,1453,2697,1748
6003007,3103,1613,3164,1732
6249125,2639,2026,2748,2106
6004938,2889,2097,3008,2255
6028324,2357,2332,2515,2500
300424,1309,2264,1518,2400
300121,1228,1761,1499,2077
