https://surfdrive.surf.nl/files/index.php/s/B7PEqFZSZZBPcW8/download?path=%2FData%2FInput%2FDatasets%2FHiba%2FImages&files=H_477.jpg,5184,3456
H_477,daylight,parquet_brown_medium,"[120, 120, 120]","['6028324', '4114319', '6004938', '300121', '300421', '6249125', '306223', '6003007']"
300121,1136,2117,1511,2403
300421,2059,1809,2239,1994
306223,1906,1542,2009,1619
4114319,2316,1515,2691,1804
6004938,2546,1369,2639,1480
6249125,2913,998,3003,1062
6003007,3785,1086,3881,1169
6028324,2519,1872,2625,2013
