https://surfdrive.surf.nl/files/index.php/s/B7PEqFZSZZBPcW8/download?path=%2FData%2FInput%2FDatasets%2FHiba%2FImages&files=H_488.jpg,5184,3455
H_488,daylight,parquet_brown_medium,"[120, 120, 120]","['4639693', '4211437', '4649749', '6062574', '4517992', '300124', '4153827', '4211412', '4118793', '4558957', '4181144', '6151663']"
4649749,2683,2616,2775,2780
4558957,2566,2280,2874,2528
4517992,3456,1896,3660,2106
4211412,3039,1474,3141,1555
4118793,2433,1018,2528,1116
4211437,2616,1589,2726,1675
4181144,2414,1688,2754,2072
300124,2208,1716,2512,1937
4153827,1867,1670,2036,1933
6151663,1907,1524,2041,1611
4639693,1573,1258,2100,1608
6062574,1644,1982,1737,2084
