https://surfdrive.surf.nl/files/index.php/s/B7PEqFZSZZBPcW8/download?path=%2FData%2FInput%2FDatasets%2FHiba%2FImages&files=H_526.jpg,5184,3455
H_526,daylight,parquet_brown_medium,"[120, 120, 120]","['4520632', '4181134', '4211201', '4504369', '6025026', '6244886']"
4520632,2290,1664,2605,1865
6244886,2772,1712,2893,1900
4211201,2273,1329,2540,1507
4181134,3076,1378,3404,1642
6025026,3800,1481,3942,1549
4504369,1548,1630,1645,1670
