https://surfdrive.surf.nl/files/index.php/s/B7PEqFZSZZBPcW8/download?path=%2FData%2FInput%2FDatasets%2FHiba%2FImages&files=H_575.jpg,5184,3455
H_575,daylight,table_plastic_grey,"[120, 120, 120]","['6138173', '6075079', '4650630', '300424', '300321', '4121967', '6223631', '614321', '4121739', '4527943']"
4650630,1840,1804,2077,1983
6138173,2090,2033,2256,2133
4527943,2606,1971,2777,2171
300321,2844,1575,3035,1721
300424,2111,1409,2273,1525
4121967,2714,1450,2864,1588
6223631,3416,1416,3478,1502
614321,2779,1198,2920,1296
4121739,2579,1123,2675,1237
6075079,2791,933,2927,1006
