https://surfdrive.surf.nl/files/index.php/s/B7PEqFZSZZBPcW8/download?path=%2FData%2FInput%2FDatasets%2FHiba%2FImages&files=H_599.jpg,5184,3455
H_599,daylight,table_plastic_grey,"[120, 120, 120]","['4639693', '4517992', '6074890', '4211437', '6062574', '4529240', '4655172', '6028324', '4649749', '4211149', '4143562', '4210718', '4157124']"
6074890,1883,2468,2044,2578
4649749,1696,921,1870,1043
4157124,1973,1346,2121,1514
4210718,2902,1920,3340,2204
6028324,2302,1030,2444,1166
4655172,1986,637,2283,798
6062574,2876,560,2979,689
4211437,2902,753,3011,837
4639693,3056,444,3566,792
4517992,3301,876,3463,1030
4529240,3482,972,3566,1088
4143562,3211,1192,3424,1346
4211149,3637,1333,3746,1456
