https://surfdrive.surf.nl/files/index.php/s/B7PEqFZSZZBPcW8/download?path=%2FData%2FInput%2FDatasets%2FHiba%2FImages&files=H_62.jpg,5184,3456
H_62,daylight,wood,"[130, 130, 130]","['4211511', '4529240', '614321', '300423', '4212454']"
300423,1654,1184,1822,1351
4529240,1822,1538,1930,1686
614321,2512,958,2738,1145
4212454,3063,1912,3251,2079
4211511,3004,2050,3172,2187
