https://surfdrive.surf.nl/files/index.php/s/B7PEqFZSZZBPcW8/download?path=%2FData%2FInput%2FDatasets%2FHiba%2FImages&files=H_653.jpg,5184,3456
H_653,daylight,parquet_brown_light,"[120, 120, 120]","['4109995', '6249125', '365901', '306201', '300423', '4212454', '4211201', '300821', '4529240', '4567338']"
300821,2327,923,3184,1164
4211201,2967,1152,3402,1442
365901,3655,1273,4090,1575
4567338,3657,1669,3826,1772
4529240,2714,1700,2920,1869
306201,2418,1687,2485,1851
300423,2243,1234,2473,1379
6249125,1645,1440,1796,1579
4109995,1953,2122,2237,2370
4212454,1633,2074,1875,2225
