https://surfdrive.surf.nl/files/index.php/s/B7PEqFZSZZBPcW8/download?path=%2FData%2FInput%2FDatasets%2FHiba%2FImages&files=H_689.jpg,5184,3456
H_689,daylight,parquet_brown_light,"[120, 120, 120]","['6138173', '6229071', '6075079', '4650630', '300424', '4527943', '300321', '4153825', '306201']"
306201,1870,1256,2036,1428
6138173,2252,1269,2529,1488
300424,2326,1505,2596,1701
4153825,2947,1505,3281,1836
4527943,3322,1256,3585,1546
6075079,3143,2076,3382,2363
300321,2579,1978,2886,2309
6229071,1972,1613,2238,1910
4650630,1546,1792,1881,2147
