https://surfdrive.surf.nl/files/index.php/s/B7PEqFZSZZBPcW8/download?path=%2FData%2FInput%2FDatasets%2FHiba%2FImages&files=H_694.jpg,5184,3456
H_694,daylight,parquet_brown_light,"[120, 120, 120]","['6138173', '6229071', '6075079', '4650630', '300424', '4527943', '300321', '4153825']"
300424,1811,979,2048,1175
4650630,3074,1293,3300,1461
6138173,2097,1042,2320,1188
4153825,3382,1455,3652,1717
6229071,2378,1450,2606,1684
6075079,2221,1670,2466,1862
300321,2049,1818,2407,2179
4527943,3122,2184,3397,2421
