https://surfdrive.surf.nl/files/index.php/s/B7PEqFZSZZBPcW8/download?path=%2FData%2FInput%2FDatasets%2FHiba%2FImages&files=H_707.jpg,5184,3455
H_707,daylight,parquet_brown_light,"[120, 120, 120]","['4160403', '4211221', '614321', '6073026', '6035291', '6025026', '4520632', '6177697', '4639693']"
614321,1038,2165,1232,2468
4160403,1889,1024,2025,1527
6025026,2031,1856,2244,2017
4211221,2373,1624,2631,1901
6177697,2270,856,2444,1217
4639693,2631,1076,3385,1765
6035291,2463,2010,2715,2152
6073026,2960,1682,3140,1862
4520632,3160,1088,3624,1501
