https://surfdrive.surf.nl/files/index.php/s/B7PEqFZSZZBPcW8/download?path=%2FData%2FInput%2FDatasets%2FHiba%2FImages&files=H_700.jpg,5184,3456
H_700,daylight,parquet_brown_light,"[120, 120, 120]","['4160403', '4211221', '614321', '6073026', '6035291', '6025026', '4520632', '6177697', '4639693', '6022023', '4211614', '4118793']"
4118793,2623,2298,2830,2505
6035291,2358,2220,2617,2375
6025026,2409,2097,2649,2233
4211221,3523,2071,3788,2375
4639693,2332,1631,3199,2200
6073026,1762,1540,1918,1734
6022023,2151,1262,2332,1398
614321,1956,673,2092,835
6177697,2481,1036,2843,1217
4211614,2830,1158,2998,1281
4520632,3264,1294,3730,1631
4160403,3367,990,3736,1353
