https://surfdrive.surf.nl/files/index.php/s/B7PEqFZSZZBPcW8/download?path=%2FData%2FInput%2FDatasets%2FHiba%2FImages&files=H_746.jpg,5184,3455
H_746,artificial_light,parquet_brown_medium,"[120, 120, 120]","['300323', '6028324', '4651236', '300124', '6004938', '4211412', '300121', '623224', '4550325', '4121967']"
300121,1650,1208,2042,1453
4121967,2437,1017,2596,1194
300323,3395,1338,3680,1604
300124,3249,1619,3715,1882
6004938,2449,1808,2611,1993
4651236,2312,1676,2440,1861
4550325,2431,1625,2662,1831
4211412,1698,1864,1818,2014
6028324,2904,1341,3093,1523
623224,2865,1775,3129,2113
