https://surfdrive.surf.nl/files/index.php/s/B7PEqFZSZZBPcW8/download?path=%2FData%2FInput%2FDatasets%2FHiba%2FImages&files=H_740.jpg,5184,3456
H_740,artificial_light,parquet_brown_medium,"[120, 120, 120]","['300323', '6028324', '4651236', '300124', '6004938', '4211412', '300121', '623224', '4550325', '4121967', '6104154', '4527943']"
4651236,2785,1118,3004,1373
4211412,2816,1417,3028,1728
6004938,2993,1555,3189,1762
6028324,2127,1376,2277,1541
300124,3540,1201,3691,1336
623224,2891,1917,3036,2054
4550325,2912,2098,3028,2226
4121967,2190,2162,2317,2265
6104154,1868,1976,2020,2087
300323,1637,1272,1715,1368
300121,2876,1768,3013,1882
4527943,1929,1804,1991,1936
