https://surfdrive.surf.nl/files/index.php/s/B7PEqFZSZZBPcW8/download?path=%2FData%2FInput%2FDatasets%2FHiba%2FImages&files=H_753.jpg,5184,3456
H_753,artificial_light,parquet_brown_medium,"[120, 120, 120]","['300323', '6028324', '4651236', '300124', '6004938', '4211412', '300121', '623224']"
300121,3110,1034,3394,1309
4651236,3644,992,3727,1117
300124,3168,1484,3385,1735
6004938,2976,1593,3110,1710
623224,2592,2227,2826,2545
6028324,2267,1484,2450,1660
300323,2484,1393,2626,1559
4211412,2350,1034,2417,1134
