https://surfdrive.surf.nl/files/index.php/s/B7PEqFZSZZBPcW8/download?path=%2FData%2FInput%2FDatasets%2FHiba%2FImages&files=H_786.jpg,5183,3456
H_786,artificial_light,parquet_brown_medium,"[120, 120, 120]","['4114319', '300401', '6075075', '6151663', '306223', '4157124', '4181134', '4529247', '6252809', '6073026', '6229071', '4211221']"
4181134,2164,2055,2797,2546
4529247,3366,2340,3487,2446
300401,3195,2183,3415,2361
4114319,3508,1977,3764,2368
4211221,3487,1714,3671,1956
6252809,2975,1060,3287,1643
6073026,2683,1180,2761,1287
6151663,2512,1344,2626,1500
4157124,2448,1621,2619,1707
6229071,1730,1628,1936,1792
6075075,2086,1408,2242,1557
306223,1431,1052,1567,1166
