https://surfdrive.surf.nl/files/index.php/s/B7PEqFZSZZBPcW8/download?path=%2FData%2FInput%2FDatasets%2FHiba%2FImages&files=H_797.jpg,5184,3456
H_797,artificial_light,parquet_brown_medium,"[120, 120, 120]","['4114319', '300401', '6075075', '6151663', '306223', '4157124', '4181134', '4529247']"
6151663,1411,1813,1552,1910
306223,1608,2454,1693,2575
300401,1866,1793,1975,1930
4529247,2128,1019,2213,1080
4181134,2306,1640,2531,2059
4114319,2511,1599,2684,1890
4157124,2696,2002,2854,2139
6075075,2882,2051,3043,2164
