https://surfdrive.surf.nl/files/index.php/s/B7PEqFZSZZBPcW8/download?path=%2FData%2FInput%2FDatasets%2FHiba%2FImages&files=H_801.jpg,5184,3456
H_801,artificial_light,parquet_brown_medium,"[120, 120, 120]","['4114319', '300401', '6075075', '6151663', '306223', '4157124', '4181134']"
4114319,2742,1597,3050,1935
4181134,2425,1618,2630,2097
6151663,2017,1610,2192,1697
4157124,2244,893,2384,1008
306223,2061,1823,2184,1944
6075075,2051,2104,2181,2295
300401,2356,2216,2539,2441
