https://surfdrive.surf.nl/files/index.php/s/B7PEqFZSZZBPcW8/download?path=%2FData%2FInput%2FDatasets%2FHiba%2FImages&files=H_809.jpg,5184,3456
H_809,artificial_light,parquet_brown_medium,"[120, 120, 120]","['4109995', '4504381', '4211614', '4504369', '4165967', '4181144', '6238674', '6249125', '4118793', '4181135', '4211054', '300124']"
4211614,2100,2304,2313,2432
6238674,2313,2254,2406,2404
4504369,1951,1721,2057,1835
4181144,1780,1259,2320,1636
4118793,1595,889,1702,1003
300124,2847,754,3181,1003
4504381,2320,1223,2448,1308
4211054,2847,1095,3017,1280
4165967,3110,1017,3231,1344
4181135,3110,1536,3650,1849
6249125,2505,1842,2626,1934
4109995,2406,1636,2605,1785
