https://surfdrive.surf.nl/files/index.php/s/B7PEqFZSZZBPcW8/download?path=%2FData%2FInput%2FDatasets%2FHiba%2FImages&files=H_812.jpg,5184,3455
H_812,artificial_light,parquet_brown_medium,"[120, 120, 120]","['4109995', '4504381', '4211614', '4504369', '4165967', '4181144', '6238674', '6249125', '4118793', '4181135', '4211054']"
4118793,2575,840,2716,987
4211054,2265,1454,2500,1701
4211614,2571,1326,2694,1523
4504369,1291,1741,1429,1854
6238674,1295,1852,1424,2000
4504381,1841,1847,1939,1948
6249125,2130,2077,2252,2174
4109995,3058,1842,3285,2082
4165967,3498,1515,3659,1902
4181135,2167,1538,2754,1954
4181144,2238,1786,2860,2180
