https://surfdrive.surf.nl/files/index.php/s/B7PEqFZSZZBPcW8/download?path=%2FData%2FInput%2FDatasets%2FHiba%2FImages&files=H_84.jpg,5184,3456
H_84,daylight,wood,"[130, 130, 130]",['6223631']
6223631,2482,1785,2644,1908
