https://surfdrive.surf.nl/files/index.php/s/B7PEqFZSZZBPcW8/download?path=%2FData%2FInput%2FDatasets%2FBerend%2FImages&files=B_1041.jpg,4607,3072
B_1041,daylight,dirty_rug,"[120, 120, 120]","['654126', '4504381', '4517992', '4211221', '6177697', '6022023', '4550325', '4114319', '4143562']"
654126,3288,1806,3425,1949
4504381,735,1203,849,1312
4517992,2597,696,2804,904
4211221,1714,1406,1901,1651
6177697,1480,1777,1827,2097
6022023,1910,1708,2118,1926
4550325,2378,1588,2562,1711
4114319,2041,1430,2375,1802
4143562,2096,1975,2282,2156
