https://surfdrive.surf.nl/files/index.php/s/B7PEqFZSZZBPcW8/download?path=%2FData%2FInput%2FDatasets%2FBerend%2FImages&files=B_1069.jpg,4608,3072
B_1069,daylight,dirty_rug,"[120, 120, 120]","['4109995', '300123', '623224', '4520632', '6025026', '4504369', '4157124', '4211511']"
4109995,1488,1611,1679,1796
300123,1481,1371,1804,1679
623224,2723,1672,2979,1901
4520632,1630,1277,1954,1487
6025026,2808,1483,2974,1620
4504369,2116,1876,2215,1955
4157124,2761,1601,2930,1720
4211511,2021,1984,2151,2124
