https://surfdrive.surf.nl/files/index.php/s/B7PEqFZSZZBPcW8/download?path=%2FData%2FInput%2FDatasets%2FBerend%2FImages&files=B_1016.jpg,4608,3072
B_1016,daylight,dirty_rug,"[120, 120, 120]","['4211201', '4211412', '4639693', '4153827', '4160403', '4539099', '300821', '300121', '4121967', '4181134', '300323', '4181135', '6229071']"
4211201,1781,670,1997,968
4211412,906,1047,1031,1142
4639693,2034,438,2575,854
4153827,1952,1766,2311,1970
4160403,2621,1856,2809,2364
4539099,2937,2058,3037,2192
300821,1289,1120,1621,1680
300121,1688,1129,1952,1461
4121967,1184,1420,1303,1599
4181134,1802,1603,2342,1756
300323,1279,1615,1538,1853
4181135,1551,1763,2106,2196
6229071,2951,1205,3101,1360
