https://surfdrive.surf.nl/files/index.php/s/B7PEqFZSZZBPcW8/download?path=%2FData%2FInput%2FDatasets%2FBerend%2FImages&files=B_1002.jpg,4608,3072
B_1002,daylight,dirty_rug,"[120, 120, 120]","['4504369', '4181135', '4520632', '4529247', '300321', '6075075', '6252809', '4181144', '6244886', '6004938', '4157124']"
4504369,2616,1517,2796,1714
4181135,1047,1090,1499,1582
4520632,1887,1727,2318,1939
4529247,1800,1947,1942,2099
300321,2829,1580,3053,1763
6075075,2576,2216,2712,2350
6252809,1950,1417,2785,2080
4181144,1816,955,2378,1150
6244886,2298,2003,2559,2277
6004938,2144,2067,2295,2218
4157124,2821,1808,2954,1978
