https://surfdrive.surf.nl/files/index.php/s/B7PEqFZSZZBPcW8/download?path=%2FData%2FInput%2FDatasets%2FBerend%2FImages&files=B_1042.jpg,4608,3072
B_1042,daylight,dirty_rug,"[120, 120, 120]","['654126', '4504381', '4517992', '4211221', '6177697', '6022023', '4550325', '4114319', '4143562']"
654126,2962,1320,3063,1459
4504381,2715,1050,2779,1175
4517992,2141,1035,2377,1283
4211221,2507,2089,2728,2330
6177697,1914,855,2272,1033
6022023,1745,1492,1919,1716
4550325,2559,1157,2738,1341
4114319,1770,1680,2206,2033
4143562,1278,1611,1516,1807
