https://surfdrive.surf.nl/files/index.php/s/B7PEqFZSZZBPcW8/download?path=%2FData%2FInput%2FDatasets%2FBerend%2FImages&files=B_1191.jpg,4608,3072
B_1191,artificial_light,parquet_light,"[120, 120, 120]","['4517992', '4504369', '4504381', '4165967', '6138173', '300321', '4212454', '4520632', '4211614']"
4517992,3182,883,3508,1197
4504369,931,2205,1089,2398
4504381,1552,1775,1710,1898
4165967,1895,1084,2335,1595
6138173,3023,756,3248,1036
300321,2970,1274,3208,1622
4212454,2233,2020,2356,2197
4520632,2448,1370,3013,1808
4211614,552,1440,809,1584
