https://surfdrive.surf.nl/files/index.php/s/B7PEqFZSZZBPcW8/download?path=%2FData%2FInput%2FDatasets%2FBerend%2FImages&files=B_1217.jpg,4607,3072
B_1217,artificial_light,parquet_light,"[120, 120, 120]","['4157124', '4121967', '6075075', '4181144', '4655172', '4153825', '614321', '300821', '4181135', '4550325', '4153825']"
4157124,1255,600,1351,715
4121967,2010,717,2169,830
6075075,1681,1400,1840,1534
4181144,2532,900,2733,1341
4655172,2793,1047,2954,1334
4153825,1675,1191,1851,1391
4153825,2953,1833,3167,2045
614321,2561,2282,2734,2445
300821,1268,1045,1601,1592
4181135,1856,1208,2053,1682
4550325,3362,593,3533,708
