https://surfdrive.surf.nl/files/index.php/s/B7PEqFZSZZBPcW8/download?path=%2FData%2FInput%2FDatasets%2FBerend%2FImages&files=B_1207.jpg,4608,3072
B_1207,artificial_light,parquet_light,"[120, 120, 120]","['4211412', '623224', '6244886', '4153827', '4211201', '300323', '6069259', '6229071', '4211149']"
4211412,1955,1538,2133,1692
623224,2989,1428,3202,1700
6244886,2483,1824,2768,2021
4153827,2847,1802,3392,2072
4211201,2066,1478,2635,1861
300323,2895,2128,3159,2383
6069259,2557,2361,2822,2632
6229071,2984,677,3212,851
4211149,1131,1076,1355,1321
