https://surfdrive.surf.nl/files/index.php/s/B7PEqFZSZZBPcW8/download?path=%2FData%2FInput%2FDatasets%2FBerend%2FImages&files=B_203.jpg,4608,3072
B_203,daylight,wood,"[130, 130, 130]","['4621545', '654126', '300124']"
4621545,2844,1599,2962,1761
654126,2801,2200,2926,2336
300124,2776,1065,2953,1322
