https://surfdrive.surf.nl/files/index.php/s/B7PEqFZSZZBPcW8/download?path=%2FData%2FInput%2FDatasets%2FBerend%2FImages&files=B_278.jpg,4608,3072
B_278,daylight,wood,"[130, 130, 130]","['4211614', '4121739', '300423']"
4211614,2421,1415,2684,1588
4121739,1674,1215,1926,1418
300423,1671,1824,1970,2091
