https://surfdrive.surf.nl/files/index.php/s/B7PEqFZSZZBPcW8/download?path=%2FData%2FInput%2FDatasets%2FBerend%2FImages&files=B_407.jpg,4607,3072
B_407,daylight,wood,"[130, 130, 130]","['4548180', '4651236', '4529240', '4121739']"
4548180,2136,257,2441,425
4651236,3377,1039,3657,1356
4529240,740,2273,979,2528
4121739,3525,2073,3820,2478
