https://surfdrive.surf.nl/files/index.php/s/B7PEqFZSZZBPcW8/download?path=%2FData%2FInput%2FDatasets%2FBerend%2FImages&files=B_493.jpg,4608,3072
B_493,daylight,wood,"[130, 130, 130]","['6075075', '4649749', '300323']"
6075075,1338,1170,1538,1389
4649749,2308,1563,2545,1850
300323,2219,1454,2511,1733
