https://surfdrive.surf.nl/files/index.php/s/B7PEqFZSZZBPcW8/download?path=%2FData%2FInput%2FDatasets%2FBerend%2FImages&files=B_532.jpg,4607,3072
B_532,daylight,wood,"[130, 130, 130]",['4212454']
4212454,2424,1129,2561,1270
