https://surfdrive.surf.nl/files/index.php/s/B7PEqFZSZZBPcW8/download?path=%2FData%2FInput%2FDatasets%2FBerend%2FImages&files=B_554.jpg,4607,3072
B_554,daylight,wood,"[130, 130, 130]",['4550325']
4550325,2068,1510,2413,1794
