https://surfdrive.surf.nl/files/index.php/s/B7PEqFZSZZBPcW8/download?path=%2FData%2FInput%2FDatasets%2FBerend%2FImages&files=B_607.jpg,4608,3072
B_607,daylight,wood,"[130, 130, 130]","['6238674', '300323', '4153825', '4211054', '6062574']"
6238674,2271,1727,2479,1924
300323,2830,1353,3128,1784
4153825,2376,1221,2772,1611
4211054,2203,1909,2564,2179
6062574,1042,843,1230,1034
