https://surfdrive.surf.nl/files/index.php/s/B7PEqFZSZZBPcW8/download?path=%2FData%2FInput%2FDatasets%2FBerend%2FImages&files=B_657.jpg,4608,3072
B_657,daylight,wood,"[130, 130, 130]","['6223631', '4160403']"
6223631,2064,1361,2480,1658
4160403,1938,1383,2609,1835
