https://surfdrive.surf.nl/files/index.php/s/B7PEqFZSZZBPcW8/download?path=%2FData%2FInput%2FDatasets%2FBerend%2FImages&files=B_666.jpg,4608,3072
B_666,daylight,wood,"[130, 130, 130]","['6223631', '4160403', '4527943', '4650630', '300424']"
6223631,1696,327,1810,488
4160403,2611,2006,3104,2803
4527943,1651,1630,1938,1918
4650630,1126,1837,1450,2138
300424,1812,971,2078,1242
