https://surfdrive.surf.nl/files/index.php/s/B7PEqFZSZZBPcW8/download?path=%2FData%2FInput%2FDatasets%2FBerend%2FImages&files=B_671.jpg,4608,3072
B_671,daylight,wood,"[130, 130, 130]","['6223631', '4160403', '4527943', '4650630', '300424', '300321']"
6223631,2481,1423,2644,1577
4160403,1865,1641,2216,2530
4527943,3268,1256,3559,1594
4650630,873,928,1201,1226
300424,1906,1319,2260,1597
300321,1558,1773,1896,2135
