https://surfdrive.surf.nl/files/index.php/s/B7PEqFZSZZBPcW8/download?path=%2FData%2FInput%2FDatasets%2FBerend%2FImages&files=B_674.jpg,4608,3072
B_674,daylight,wood,"[130, 130, 130]","['6223631', '4160403', '4527943', '4650630', '300424', '300321', '4650630']"
6223631,2239,898,2459,1089
4160403,1337,1352,2319,1713
4527943,1550,2242,1907,2646
4650630,2310,1582,2702,1802
4650630,1516,976,1918,1368
300424,2626,1911,2978,2181
300321,2427,1134,2793,1613
