https://surfdrive.surf.nl/files/index.php/s/B7PEqFZSZZBPcW8/download?path=%2FData%2FInput%2FDatasets%2FBerend%2FImages&files=B_704.jpg,4608,3072
B_704,daylight,wood,"[130, 130, 130]","['365901', '4567338', '4121967', '6223631', '4212454', '4153825', '4504381', '6035291', '4558957', '4529247']"
365901,2911,626,3408,832
4567338,1356,2369,1570,2528
4121967,2430,1412,2606,1684
6223631,2121,1384,2239,1533
4212454,3920,840,4055,1010
4153825,2302,1716,2660,2056
4504381,1868,1538,1982,1665
6035291,2785,1508,3088,1752
4558957,468,1074,965,1443
4529247,3690,1424,3800,1589
