https://surfdrive.surf.nl/files/index.php/s/B7PEqFZSZZBPcW8/download?path=%2FData%2FInput%2FDatasets%2FBerend%2FImages&files=B_738.jpg,4607,3072
B_738,daylight,wood,"[130, 130, 130]","['306201', '4527943', '6004938', '4121967', '4181144', '4160403', '300423', '6151663', '6073026']"
306201,1451,1926,1615,2044
4527943,1888,1691,2147,1947
6004938,2575,1824,2740,1991
4121967,2415,1266,2654,1419
4181144,2227,1297,2968,1748
4160403,1618,986,1966,1553
300423,2173,1129,2323,1331
6151663,2072,1889,2319,2137
6073026,1946,1994,2112,2160
