https://surfdrive.surf.nl/files/index.php/s/B7PEqFZSZZBPcW8/download?path=%2FData%2FInput%2FDatasets%2FBerend%2FImages&files=B_775.jpg,4608,3072
B_775,daylight,wood,"[130, 130, 130]","['4181135', '6069259', '6003007', '4650630']"
4181135,1975,919,2411,1433
6069259,2395,1545,2570,1685
6003007,1562,1115,1656,1200
4650630,2644,1117,2887,1356
