https://surfdrive.surf.nl/files/index.php/s/B7PEqFZSZZBPcW8/download?path=%2FData%2FInput%2FDatasets%2FBerend%2FImages&files=B_781.jpg,4608,3072
B_781,daylight,wood,"[130, 130, 130]","['4181135', '6069259', '6003007', '4650630', '4504369', '4527943']"
4181135,2269,1285,3202,1948
6069259,2773,2091,3038,2344
6003007,2456,2176,2681,2400
4650630,1997,1712,2436,2001
4504369,1740,1318,1927,1394
4527943,1722,1372,2014,1700
