https://surfdrive.surf.nl/files/index.php/s/B7PEqFZSZZBPcW8/download?path=%2FData%2FInput%2FDatasets%2FBerend%2FImages&files=B_848.jpg,4608,3072
B_848,daylight,parquet_dark_brown,"[120, 120, 120]","['6225539', '4181134', '4520632', '4639693', '300321', '6177697', '654126', '4153827', '4121739', '4550325', '6223631']"
6225539,1686,1746,1890,2154
4181134,2029,1408,2321,1817
4520632,2241,1877,2425,2176
4639693,2294,1562,2899,2008
300321,1602,1417,1785,1592
6177697,2214,2166,2576,2311
654126,2309,836,2389,929
4153827,3022,1716,3398,1966
4121739,2644,1251,2814,1376
4550325,2447,2046,2587,2196
6223631,1594,1060,1681,1147
