https://surfdrive.surf.nl/files/index.php/s/B7PEqFZSZZBPcW8/download?path=%2FData%2FInput%2FDatasets%2FBerend%2FImages&files=B_846.jpg,4608,3072
B_846,daylight,parquet_dark_brown,"[120, 120, 120]","['6225539', '4181134', '4520632', '4639693', '300321', '6177697', '654126', '4153827', '4121739', '4550325', '6223631']"
6225539,2020,1632,2379,2025
4181134,1987,1261,2312,1638
4520632,2727,1481,3009,1771
4639693,2240,1563,2857,2053
300321,596,2402,850,2628
6177697,2329,1844,2511,2122
654126,2218,1304,2328,1383
4153827,3200,1857,3394,2152
4121739,2112,2021,2286,2138
4550325,2576,1617,2751,1744
6223631,2527,796,2618,888
