https://surfdrive.surf.nl/files/index.php/s/B7PEqFZSZZBPcW8/download?path=%2FData%2FInput%2FDatasets%2FBerend%2FImages&files=B_863.jpg,4608,3072
B_863,daylight,parquet_dark_brown,"[120, 120, 120]","['4517992', '300121', '6022023', '300821', '300123', '6028324', '4143562', '6244886', '6022064', '4655172', '4118793', '306223', '4527943']"
4517992,2068,1588,2304,1806
300121,1742,1497,2101,1699
6022023,2954,967,3150,1111
300821,2569,1336,3144,1657
300123,2207,1491,2545,1759
6028324,2467,1265,2602,1381
4143562,1294,1600,1462,1760
6244886,717,1053,935,1190
6022064,2255,1750,2525,1868
4655172,2304,1549,2660,1815
4118793,3340,1396,3436,1497
306223,2571,1821,2697,1946
4527943,2418,1482,2577,1618
