https://surfdrive.surf.nl/files/index.php/s/B7PEqFZSZZBPcW8/download?path=%2FData%2FInput%2FDatasets%2FBerend%2FImages&files=B_942.jpg,4608,3072
B_942,daylight,parquet_light,"[120, 120, 120]","['654126', '4153827', '4160403', '4651236', '4655172', '4550325', '4517992', '4211201', '4550348']"
654126,2176,1530,2355,1684
4153827,2250,1565,2780,2027
4160403,766,544,918,1075
4651236,2118,1869,2362,2073
4655172,2973,1236,3259,1660
4550325,2732,1961,3030,2234
4517992,3109,1591,3334,1899
4211201,2498,1403,2988,1880
4550348,1900,1962,2130,2216
