https://surfdrive.surf.nl/files/index.php/s/B7PEqFZSZZBPcW8/download?path=%2FData%2FInput%2FDatasets%2FBerend%2FImages&files=B_958.jpg,4608,3072
B_958,daylight,parquet_light,"[120, 120, 120]","['6244886', '6022023', '300821', '4181134', '300121', '4143562', '300123', '4114319', '6075079', '4157124', '306223', '4181144']"
6244886,2733,1997,3025,2210
6022023,2526,2070,2790,2361
300821,1882,1449,2208,2117
4181134,2007,1012,2589,1262
300121,1766,1772,2068,2163
4143562,1539,678,1723,877
300123,1187,1799,1607,1983
4114319,2259,1448,2680,1676
6075079,1751,1672,1858,1801
4157124,2092,1483,2222,1653
306223,2627,1743,2729,1884
4181144,2323,1670,2637,2224
