https://surfdrive.surf.nl/files/index.php/s/B7PEqFZSZZBPcW8/download?path=%2FData%2FInput%2FDatasets%2FDavid%2FImages&files=C_109.jpg,5472,3648
C_109,daylight,armchair,"[130, 130, 130]","['300124', '4181134']"
300124,917,1464,1510,1882
4181134,3238,1412,4071,2030
