https://surfdrive.surf.nl/files/index.php/s/B7PEqFZSZZBPcW8/download?path=%2FData%2FInput%2FDatasets%2FDavid%2FImages&files=C_134.jpg,5472,3648
C_134,artificial,coffee_table,"[130, 130, 130]","['6238674', '4212454', '4504369', '4550348', '4527943', '6074890']"
6238674,2744,2079,2959,2198
4212454,3062,2137,3201,2297
4504369,2861,2243,3017,2350
4550348,1613,2079,1912,2296
4527943,2623,1616,2867,1857
6074890,2605,1431,2785,1525
