https://surfdrive.surf.nl/files/index.php/s/B7PEqFZSZZBPcW8/download?path=%2FData%2FInput%2FDatasets%2FDavid%2FImages&files=C_184.jpg,5472,3648
C_184,daylight,coffee_table,"[130, 130, 130]",['300323']
300323,2511,1610,2810,1908
