https://surfdrive.surf.nl/files/index.php/s/B7PEqFZSZZBPcW8/download?path=%2FData%2FInput%2FDatasets%2FDavid%2FImages&files=C_183.jpg,5472,3647
C_183,daylight,coffee_table,"[130, 130, 130]",['300323']
300323,2466,1651,2862,2027
