https://surfdrive.surf.nl/files/index.php/s/B7PEqFZSZZBPcW8/download?path=%2FData%2FInput%2FDatasets%2FDavid%2FImages&files=C_208.jpg,5472,3648
C_208,daylight,coffee_table,"[130, 130, 130]","['4212454', '4649749', '4157124', '4211437', '306223']"
4212454,3298,1850,3428,2054
4649749,1419,1631,1681,1813
4157124,2256,1418,2493,1618
4211437,2087,1572,2271,1803
306223,2757,1604,2891,1795
