https://surfdrive.surf.nl/files/index.php/s/B7PEqFZSZZBPcW8/download?path=%2FData%2FInput%2FDatasets%2FDavid%2FImages&files=C_298.jpg,5472,3647
C_298,daylight,coffee_table,"[130, 130, 130]","['6151663', '365901', '4211201', '300401', '6252809', '6249125', '4211054', '6022064', '300323']"
6151663,2630,2637,2911,2901
365901,2629,1812,3125,2172
4211201,1411,1581,1959,2043
300401,2666,1169,2921,1357
6252809,1771,1371,2957,1540
6249125,2002,693,2136,785
4211054,1850,1249,2115,1397
6022064,2500,1290,2853,1375
300323,2628,1467,2907,1714
