https://surfdrive.surf.nl/files/index.php/s/B7PEqFZSZZBPcW8/download?path=%2FData%2FInput%2FDatasets%2FDavid%2FImages&files=C_385.jpg,5472,3648
C_385,daylight,living_room_floor,"[130, 130, 130]","['300401', '300423', '4529240', '6004938', '4550348']"
300401,2934,2482,3200,2684
300423,2562,1680,2798,1830
4529240,2692,1144,2852,1238
6004938,2512,1432,2670,1584
4550348,3508,2604,3778,2763
