https://surfdrive.surf.nl/files/index.php/s/B7PEqFZSZZBPcW8/download?path=%2FData%2FInput%2FDatasets%2FDavid%2FImages&files=C_463.jpg,5472,3648
C_463,daylight,dining_table,"[130, 130, 130]","['6075079', '306201', '4211614', '4181135', '6003007', '6138173']"
6075079,2638,1488,2788,1684
306201,2462,2072,2709,2249
4211614,3701,2005,3982,2342
4181135,3080,1252,3872,1570
6003007,3649,1649,3857,1758
6138173,2604,1630,2901,1892
