https://surfdrive.surf.nl/files/index.php/s/B7PEqFZSZZBPcW8/download?path=%2FData%2FInput%2FDatasets%2FDavid%2FImages&files=C_607.jpg,5472,3648
C_607,daylight,window_sill,"[130, 130, 130]","['300423', '6073026', '4558957']"
300423,2636,1726,2790,1989
6073026,2204,1346,2388,1542
4558957,3170,1914,3782,2484
