https://surfdrive.surf.nl/files/index.php/s/B7PEqFZSZZBPcW8/download?path=%2FData%2FInput%2FDatasets%2FDavid%2FImages&files=C_662.jpg,5472,3648
C_662,daylight,coffee_table,"[130, 130, 130]","['6075079', '300423', '4121967', '300424']"
6075079,2489,1762,2813,1946
300423,2763,2007,3060,2340
4121967,3172,1654,3511,1867
300424,2703,1068,2927,1329
