https://surfdrive.surf.nl/files/index.php/s/B7PEqFZSZZBPcW8/download?path=%2FData%2FInput%2FDatasets%2FDavid%2FImages&files=C_660.jpg,5472,3647
C_660,daylight,coffee_table,"[130, 130, 130]","['6075079', '300423', '4121967', '300424']"
6075079,2710,1688,2884,1926
300423,1790,2458,2155,2666
4121967,3596,1769,3830,2012
300424,2497,1224,2672,1480
