https://surfdrive.surf.nl/files/index.php/s/B7PEqFZSZZBPcW8/download?path=%2FData%2FInput%2FDatasets%2FDavid%2FImages&files=C_693.jpg,5472,3647
C_693,daylight,coffee_table,"[130, 130, 130]","['4558957', '4539099', '300323', '6229071', '4157124', '4504369', '4649749']"
4558957,2569,1553,3015,1965
4539099,3666,1560,3769,1711
300323,2583,779,2856,1033
6229071,2269,1757,2472,1985
4157124,1331,2670,1615,2972
4504369,2902,2005,3032,2086
4649749,3101,1218,3352,1367
