https://surfdrive.surf.nl/files/index.php/s/B7PEqFZSZZBPcW8/download?path=%2FData%2FInput%2FDatasets%2FDavid%2FImages&files=C_824.jpg,5472,3648
C_824,daylight,coffee-table,"[120, 120, 120]","['4109995', '4504381', '4211614', '4504369', '4165967', '4181144']"
4109995,2065,1632,2348,1898
4504381,3088,2076,3217,2190
4211614,2190,1877,2361,2168
4504369,2720,2282,2885,2441
4165967,1697,1620,2182,2083
4181144,2641,1071,3300,1299
