https://surfdrive.surf.nl/files/index.php/s/B7PEqFZSZZBPcW8/download?path=%2FData%2FInput%2FDatasets%2FDavid%2FImages&files=C_909.jpg,5472,3648
C_909,daylight,coffee-table,"[120, 120, 120]","['4529240', '6074890', '623224', '6025026', '4650630', '6028324', '4211412', '300121', '4181134']"
4529240,1736,1878,1903,2019
6074890,1674,2031,1853,2142
623224,2488,1173,2588,1496
6025026,1938,2248,2231,2491
4650630,2194,1022,2486,1199
6028324,3203,2243,3424,2425
4211412,2417,1488,2575,1665
300121,1855,1344,2408,1765
4181134,2499,1433,3022,2137
