https://surfdrive.surf.nl/files/index.php/s/B7PEqFZSZZBPcW8/download?path=%2FData%2FInput%2FDatasets%2FDavid%2FImages&files=C_929.jpg,5472,3648
C_929,daylight,couch,"[120, 120, 120]","['365901', '306201', '4529247', '300423', '6003007', '6244886', '6104154', '300421', '6062574', '6075075']"
365901,2577,1600,3071,1846
306201,2869,1437,3037,1561
4529247,2860,1540,3012,1620
300423,3205,1750,3470,1967
6003007,2362,2078,2478,2252
6244886,2481,1777,2755,2039
6104154,3157,1592,3391,1797
300421,2913,1757,3184,1977
6062574,2653,1601,2824,1712
6075075,2513,2058,2740,2313
