https://surfdrive.surf.nl/files/index.php/s/B7PEqFZSZZBPcW8/download?path=%2FData%2FInput%2FDatasets%2FDavid%2FImages&files=C_939.jpg,5472,3648
C_939,daylight,couch,"[120, 120, 120]","['365901', '306201', '4529247', '300423', '6003007', '6244886', '6104154']"
365901,2442,1635,2819,2044
306201,2960,1322,3094,1404
4529247,3215,1832,3312,1980
300423,2732,1764,2972,1950
6003007,2873,1628,3020,1786
6244886,2245,1594,2480,1821
6104154,2579,1468,2770,1671
