https://surfdrive.surf.nl/files/index.php/s/B7PEqFZSZZBPcW8/download?path=%2FData%2FInput%2FDatasets%2FDavid%2FImages&files=C_944.jpg,5472,3648
C_944,daylight,couch,"[120, 120, 120]","['300821', '4143562', '4211149', '4655172', '300321', '6249125', '4550348', '4211221', '300323', '4550348', '4504381', '300321', '4639693']"
300821,2464,1362,3201,1697
4143562,2321,1844,2557,2026
4211149,2472,1741,2677,1948
4655172,2160,1363,2560,1630
300321,1985,1755,2218,1952
300321,2086,2013,2375,2297
6249125,2708,1600,2804,1742
4550348,3146,1626,3324,1788
4550348,2312,2025,2490,2165
4211221,2701,1817,2916,2069
300323,2250,1627,2448,1817
4504381,3510,1842,3663,1980
4639693,2541,1918,3130,2699
