https://surfdrive.surf.nl/files/index.php/s/B7PEqFZSZZBPcW8/download?path=%2FData%2FInput%2FDatasets%2FDavid%2FImages&files=C_950.jpg,5472,3648
C_950,daylight,couch,"[120, 120, 120]","['300821', '4143562', '4211149', '4655172', '300321', '6249125', '4550348', '4211221', '300323', '4550348', '4504381']"
300821,2918,1423,3449,2271
4143562,2616,2075,2891,2325
4211149,3342,1721,3607,1929
4655172,1847,1576,2199,2030
300321,2729,1572,3051,1868
6249125,3407,1499,3517,1618
4550348,2910,1866,3114,2083
4550348,3603,1723,3776,1927
4211221,2510,1351,2806,1597
300323,2427,1563,2719,1843
4504381,3757,1745,3881,1847
