https://surfdrive.surf.nl/files/index.php/s/B7PEqFZSZZBPcW8/download?path=%2FData%2FInput%2FDatasets%2FDavid%2FImages&files=C_965.jpg,5472,3648
C_965,daylight,couch,"[120, 120, 120]","['654126', '6004938', '4210718', '6238674', '4539099', '4651236', '4153825', '4114319', '4211149', '4647553', '6177697']"
654126,2060,1649,2189,1782
6004938,3313,1701,3464,1840
4210718,2241,1363,2723,1672
6238674,2763,1518,2927,1641
4539099,2444,1714,2573,1809
4651236,3414,1864,3639,2021
4153825,2655,2120,2964,2446
4114319,1952,1216,2155,1589
4211149,2711,1742,2946,1969
4647553,2495,2004,2668,2243
6177697,2263,1760,2704,1982
