https://surfdrive.surf.nl/files/index.php/s/B7PEqFZSZZBPcW8/download?path=%2FData%2FInput%2FDatasets%2FDavid%2FImages&files=C_964.jpg,5472,3648
C_964,daylight,couch,"[120, 120, 120]","['654126', '6004938', '4210718', '6238674', '4539099', '4651236', '4153825', '4114319', '4211149', '4647553', '6177697']"
654126,3369,2645,3557,2851
6004938,3733,2053,3898,2206
4210718,2691,943,3183,1228
6238674,3087,2092,3239,2277
4539099,2701,1963,2830,2134
4651236,3541,2217,3743,2458
4153825,3295,1917,3622,2201
4114319,2759,1247,3240,1467
4211149,1966,1718,2226,1968
4647553,3122,1779,3279,2011
6177697,2613,1445,3064,1780
