https://surfdrive.surf.nl/files/index.php/s/B7PEqFZSZZBPcW8/download?path=%2FData%2FInput%2FDatasets%2FHiba%2FImages&files=H_118.jpg,5184,3456
H_118,daylight,wood,"[130, 130, 130]","['6022064', '4558957', '306223', '4527943', '6003007', '4211614']"
6022064,2014,1821,2276,2085
4558957,2744,1916,3132,2311
306223,1919,1543,2007,1653
4527943,2619,1800,2816,2017
6003007,2327,1633,2441,1761
4211614,2673,873,2847,1023
