https://surfdrive.surf.nl/files/index.php/s/B7PEqFZSZZBPcW8/download?path=%2FData%2FInput%2FDatasets%2FHiba%2FImages&files=H_122.jpg,5184,3456
H_122,daylight,wood,"[130, 130, 130]","['6022064', '4558957', '306223', '4527943', '6003007', '4211614', '6151663']"
6022064,1839,1769,2020,1982
4558957,2319,1604,2661,1869
306223,3815,1126,3930,1222
4527943,1368,1854,1526,1999
6003007,3008,1747,3101,1869
4211614,2188,2249,2333,2481
6151663,3988,2239,4196,2343
