https://surfdrive.surf.nl/files/index.php/s/B7PEqFZSZZBPcW8/download?path=%2FData%2FInput%2FDatasets%2FHiba%2FImages&files=H_170.jpg,5184,3456
H_170,daylight,wood,"[130, 130, 130]","['4211412', '4153825', '4210718']"
4211412,2470,1773,2606,1968
4153825,3128,1347,3490,1644
4210718,1564,1208,2108,1646
