https://surfdrive.surf.nl/files/index.php/s/B7PEqFZSZZBPcW8/download?path=%2FData%2FInput%2FDatasets%2FHiba%2FImages&files=H_190.jpg,5184,3455
H_190,daylight,wood,"[130, 130, 130]","['4548180', '4504381', '4517992']"
4548180,1852,1853,2068,2150
4504381,2537,1741,2753,1882
4517992,1895,1217,2239,1601
