https://surfdrive.surf.nl/files/index.php/s/B7PEqFZSZZBPcW8/download?path=%2FData%2FInput%2FDatasets%2FHiba%2FImages&files=H_234.jpg,5184,3456
H_234,daylight,wood,"[130, 130, 130]",['6035291']
6035291,2551,1648,2749,1758
