https://surfdrive.surf.nl/files/index.php/s/B7PEqFZSZZBPcW8/download?path=%2FData%2FInput%2FDatasets%2FHiba%2FImages&files=H_252.jpg,5184,3456
H_252,daylight,wood,"[130, 130, 130]","['6035291', '4160403', '6104154', '300123', '6069259', '6075079', '4649749']"
6035291,3859,2009,3961,2194
4160403,2028,1691,2594,1894
6104154,1762,930,1926,1041
300123,3027,1306,3282,1560
6069259,1972,2135,2156,2328
6075079,2519,1899,2719,2060
4649749,3467,2053,3609,2204
