https://surfdrive.surf.nl/files/index.php/s/B7PEqFZSZZBPcW8/download?path=%2FData%2FInput%2FDatasets%2FHiba%2FImages&files=H_285.jpg,5184,3456
H_285,daylight,wood,"[130, 130, 130]","['4211614', '4211614', '4529240']"
4211614,2598,1818,2797,1960
4211614,3144,1692,3286,1829
4529240,2296,1794,2434,1884
