https://surfdrive.surf.nl/files/index.php/s/B7PEqFZSZZBPcW8/download?path=%2FData%2FInput%2FDatasets%2FHiba%2FImages&files=H_304.jpg,5184,3456
H_304,daylight,wood,"[130, 130, 130]",['4550348']
4550348,2493,1639,2682,1885
