https://surfdrive.surf.nl/files/index.php/s/B7PEqFZSZZBPcW8/download?path=%2FData%2FInput%2FDatasets%2FHiba%2FImages&files=H_461.jpg,5184,3456
H_461,daylight,parquet_brown_medium,"[120, 120, 120]","['6028324', '4114319', '6004938', '300121', '300421', '6249125', '306223', '6003007', '300424', '6252809', '6229071', '4160403', '4558957']"
6028324,3350,1022,3472,1128
4114319,2708,1685,2997,1869
6004938,3110,1103,3203,1224
300121,2604,1496,2894,1790
300421,2385,1338,2539,1452
6249125,2836,1730,2917,1800
306223,1887,1646,1959,1730
6003007,2463,1808,2522,1906
300424,2309,1042,2463,1166
6252809,1716,918,2542,1256
6229071,2044,1758,2200,1888
4160403,1703,1252,1914,1695
4558957,1538,1868,1826,2160
