https://surfdrive.surf.nl/files/index.php/s/B7PEqFZSZZBPcW8/download?path=%2FData%2FInput%2FDatasets%2FHiba%2FImages&files=H_472.jpg,5184,3456
H_472,daylight,parquet_brown_medium,"[120, 120, 120]","['6028324', '4114319', '6004938', '300121', '300421', '6249125', '306223', '6003007', '300424', '6252809']"
6028324,3138,1475,3267,1609
4114319,2037,1287,2236,1534
6004938,1521,2000,1634,2094
300121,2357,1623,2684,1868
300421,4022,1787,4168,1915
6249125,2992,2419,3120,2510
306223,3105,2374,3231,2503
6003007,3289,1864,3411,1928
300424,2428,2553,2650,2703
6252809,1545,1517,2348,1785
