https://surfdrive.surf.nl/files/index.php/s/B7PEqFZSZZBPcW8/download?path=%2FData%2FInput%2FDatasets%2FHiba%2FImages&files=H_496.jpg,5184,3455
H_496,daylight,parquet_brown_medium,"[120, 120, 120]","['4639693', '4211437', '4649749', '6062574', '4517992', '300124', '4153827', '4211412', '4118793', '4558957']"
4639693,1165,2048,1840,2347
4211437,2555,1695,2673,1856
4649749,3131,2308,3320,2453
6062574,2025,1671,2113,1773
4517992,2008,2106,2202,2322
300124,1983,1472,2283,1640
4153827,1699,1795,2026,2007
4211412,2825,1752,2930,1820
4118793,3374,1658,3487,1779
4558957,1218,1507,1469,1701
