https://surfdrive.surf.nl/files/index.php/s/B7PEqFZSZZBPcW8/download?path=%2FData%2FInput%2FDatasets%2FHiba%2FImages&files=H_52.jpg,5184,3456
H_52,daylight,wood,"[130, 130, 130]","['4211511', '4529240']"
4211511,1229,1440,1443,1669
4529240,3252,1548,3419,1752
