https://surfdrive.surf.nl/files/index.php/s/B7PEqFZSZZBPcW8/download?path=%2FData%2FInput%2FDatasets%2FHiba%2FImages&files=H_524.jpg,5184,3456
H_524,daylight,parquet_brown_medium,"[120, 120, 120]","['4520632', '4181134', '4211201', '4504369', '6025026', '6244886']"
4520632,2240,1811,2582,2074
4181134,3005,1047,3163,1332
4211201,1801,1434,2049,1673
4504369,3967,1476,4041,1544
6025026,3768,1840,3933,1927
6244886,1377,1772,1569,1943
