https://surfdrive.surf.nl/files/index.php/s/B7PEqFZSZZBPcW8/download?path=%2FData%2FInput%2FDatasets%2FHiba%2FImages&files=H_533.jpg,5184,3456
H_533,daylight,table_plastic_grey,"[120, 120, 120]","['4504381', '4165967', '4211221', '6177697', '4210718', '6035291', '6069259', '4109995', '4504381', '4527943', '4212454']"
4504381,2360,1872,2470,1958
4504381,2736,1178,2828,1267
4165967,2818,1334,3198,1564
4211221,3425,1008,3598,1099
6177697,3538,882,3734,1123
4210718,3537,1483,3918,1670
6035291,4002,1703,4192,1838
6069259,1887,1162,1985,1300
4109995,2751,984,2934,1110
4527943,1543,942,1701,1068
4212454,3209,1047,3335,1126
