https://surfdrive.surf.nl/files/index.php/s/B7PEqFZSZZBPcW8/download?path=%2FData%2FInput%2FDatasets%2FHiba%2FImages&files=H_590.jpg,5184,3456
H_590,daylight,table_plastic_grey,"[120, 120, 120]","['4157124', '4211511', '6022064', '4211149', '4550348', '4651236', '4539099', '4550325', '4548180', '623224']"
4157124,2942,1097,3058,1217
4211511,2039,2488,2172,2658
6022064,2764,1343,3085,1536
4211149,2517,1830,2758,2053
4550348,1415,2044,1601,2254
4651236,3262,663,3435,754
4539099,1995,1519,2092,1645
4550325,2728,1634,2882,1838
4548180,1638,1502,1829,1720
623224,2077,726,2287,915
