https://surfdrive.surf.nl/files/index.php/s/B7PEqFZSZZBPcW8/download?path=%2FData%2FInput%2FDatasets%2FHiba%2FImages&files=H_602.jpg,5184,3456
H_602,daylight,table_plastic_grey,"[120, 120, 120]","['4639693', '4517992', '6074890', '4211437', '6062574', '4529240', '4655172', '6028324', '4649749', '4211149', '4143562', '4210718']"
4639693,1048,1378,1812,1628
4517992,2465,2081,2747,2336
6074890,3786,918,3907,1000
4211437,2566,1100,2751,1212
6062574,4132,504,4243,581
4529240,2219,768,2337,845
4655172,3148,2018,3470,2449
6028324,3167,1238,3452,1480
4649749,2099,910,2282,1040
4211149,2374,1754,2614,1917
4143562,2910,838,3150,1024
4210718,2946,1212,3180,1422
