https://surfdrive.surf.nl/files/index.php/s/B7PEqFZSZZBPcW8/download?path=%2FData%2FInput%2FDatasets%2FHiba%2FImages&files=H_620.jpg,5184,3456
H_620,daylight,table_plastic_grey,"[120, 120, 120]","['300124', '4181135', '6004938', '4114319', '300323', '6104154', '6003007', '4153827', '4211511', '4649749', '4211054']"
300124,2279,1327,2651,1689
4181135,3038,1572,3548,2119
6004938,2094,1448,2231,1595
4114319,1884,1617,2338,1943
300323,4080,1324,4273,1515
6104154,3704,1073,3888,1260
6003007,2044,2228,2213,2384
4153827,2683,1147,2969,1486
4211511,1359,1699,1504,1829
4649749,2852,2116,3069,2312
4211054,2423,1782,2699,2065
