https://surfdrive.surf.nl/files/index.php/s/B7PEqFZSZZBPcW8/download?path=%2FData%2FInput%2FDatasets%2FHiba%2FImages&files=H_636.jpg,5184,3456
H_636,daylight,parquet_brown_light,"[120, 120, 120]","['4211412', '300421', '300121', '4529247', '300401', '6075075', '6151663', '6022023', '6223631', '4121967', '4211166']"
4211412,3372,1515,3540,1615
300421,2616,2348,2948,2656
300121,3244,997,3659,1257
4529247,1949,1413,2036,1554
300401,3727,1323,3955,1540
6075075,1549,1137,1709,1274
6151663,1525,1385,1772,1554
6022023,2913,877,3096,1104
6223631,3131,1417,3241,1520
4121967,1054,1659,1295,1841
4211166,1802,982,1942,1173
