https://surfdrive.surf.nl/files/index.php/s/B7PEqFZSZZBPcW8/download?path=%2FData%2FInput%2FDatasets%2FHiba%2FImages&files=H_654.jpg,5184,3456
H_654,daylight,parquet_brown_light,"[120, 120, 120]","['4109995', '6249125', '365901', '306201', '300423', '4212454', '4211201', '300821', '4529240', '4567338']"
4109995,2110,1166,2374,1337
6249125,1675,956,1791,1041
365901,2382,1568,2601,2013
306201,2138,2382,2273,2535
300423,2186,1027,2425,1154
4212454,2440,999,2587,1114
4211201,3258,833,3604,1175
300821,2948,613,3193,1183
4529240,2834,1428,2924,1558
4567338,3449,1248,3608,1326
