https://surfdrive.surf.nl/files/index.php/s/B7PEqFZSZZBPcW8/download?path=%2FData%2FInput%2FDatasets%2FHiba%2FImages&files=H_690.jpg,5184,3456
H_690,daylight,parquet_brown_light,"[120, 120, 120]","['6138173', '6229071', '6075079', '4650630', '300424', '4527943', '300321', '4153825', '306201']"
6138173,2455,1090,2680,1279
6229071,1564,1588,1786,1766
6075079,2870,1750,3125,1924
4650630,1862,1231,2062,1476
300424,2164,1131,2394,1285
4527943,3253,871,3442,1019
300321,2642,1268,2893,1472
4153825,3226,1370,3506,1608
306201,2504,1828,2692,1978
