https://surfdrive.surf.nl/files/index.php/s/B7PEqFZSZZBPcW8/download?path=%2FData%2FInput%2FDatasets%2FHiba%2FImages&files=H_704.jpg,5184,3456
H_704,daylight,parquet_brown_light,"[120, 120, 120]","['4160403', '4211221', '614321', '6073026', '6035291', '6025026', '4520632', '6177697', '4639693', '6022023']"
4160403,3005,1163,3645,1515
4211221,1226,787,1573,1125
614321,1626,800,1850,1068
6073026,3510,1555,3707,1743
6035291,1351,1869,1635,2155
6025026,1658,1976,1847,2275
4520632,760,1264,1261,1842
6177697,2628,1016,3129,1291
4639693,2266,1300,2753,2324
6022023,2611,1544,2845,1913
