https://surfdrive.surf.nl/files/index.php/s/B7PEqFZSZZBPcW8/download?path=%2FData%2FInput%2FDatasets%2FHiba%2FImages&files=H_775.jpg,5184,3456
H_775,artificial_light,parquet_brown_medium,"[120, 120, 120]","['4550348', '4153827', '300421', '6003007', '4211437', '654126', '4181135', '6252809']"
4550348,2492,1697,2629,1825
4153827,3137,1611,3409,1765
300421,2524,2170,2686,2343
6003007,1746,1566,1858,1666
4211437,3144,1508,3279,1597
654126,2955,1478,3051,1588
4181135,3020,1821,3411,2155
6252809,2230,976,2766,1320
