https://surfdrive.surf.nl/files/index.php/s/B7PEqFZSZZBPcW8/download?path=%2FData%2FInput%2FDatasets%2FHiba%2FImages&files=H_785.jpg,5183,3456
H_785,artificial_light,parquet_brown_medium,"[120, 120, 120]","['4114319', '300401', '6075075', '6151663', '306223', '4157124', '4181134', '4529247', '6252809', '6073026', '6229071', '4211221']"
4114319,2587,1300,2988,1416
300401,2857,1482,2990,1565
6075075,3315,1166,3435,1234
6151663,1407,1338,1555,1455
306223,2494,905,2584,984
4157124,1984,2420,2126,2563
4181134,1811,1082,2066,1188
4529247,2689,2309,2805,2447
6252809,3288,1779,3537,2453
6073026,3703,1498,3790,1584
6229071,2577,1636,2703,1750
4211221,3326,1622,3485,1762
