https://surfdrive.surf.nl/files/index.php/s/B7PEqFZSZZBPcW8/download?path=%2FData%2FInput%2FDatasets%2FHiba%2FImages&files=H_818.jpg,5184,3456
H_818,artificial_light,parquet_brown_medium,"[120, 120, 120]","['4109995', '4504381', '4211614', '4504369', '4165967', '4181144', '6238674', '6249125', '4118793']"
4109995,2380,1278,2495,1373
4504381,2202,1645,2270,1722
4211614,2474,1925,2584,2022
4504369,2069,1900,2135,1954
4165967,2207,2179,2491,2384
4181144,2972,1912,3327,2158
6238674,2534,1687,2584,1756
6249125,2280,2101,2344,2155
4118793,2740,2175,2832,2270
