https://surfdrive.surf.nl/files/index.php/s/B7PEqFZSZZBPcW8/download?path=%2FData%2FInput%2FDatasets%2FHiba%2FImages&files=H_821.jpg,5184,3456
H_821,artificial_light,parquet_brown_medium,"[120, 120, 120]","['4109995', '4504381', '4211614', '4504369', '4165967', '4181144', '6238674', '6249125']"
4109995,3258,2152,3415,2312
4504381,2190,1516,2273,1587
4211614,2308,1854,2439,1994
4504369,2461,1553,2541,1646
4165967,2973,2440,3370,2602
4181144,3325,1632,3584,2061
6238674,2537,1608,2666,1693
6249125,2610,1784,2694,1846
