https://surfdrive.surf.nl/files/index.php/s/B7PEqFZSZZBPcW8/download?path=%2FData%2FInput%2FDatasets%2FBerend%2FImages&files=B_478.jpg,4607,3072
B_478,daylight,wood,"[130, 130, 130]","['6075079', '4211201', '4165967', '4647553', '4121967', '4211437']"
6075079,3930,1634,4243,1896
4211201,3601,1023,4315,1336
4165967,3385,1300,4130,1747
4647553,2871,1151,3210,1398
4121967,319,1321,699,1547
4211437,2549,1480,2806,1824
