https://surfdrive.surf.nl/files/index.php/s/B7PEqFZSZZBPcW8/download?path=%2FData%2FInput%2FDatasets%2FBerend%2FImages&files=B_672.jpg,4608,3072
B_672,daylight,wood,"[130, 130, 130]","['6223631', '4160403', '4527943', '4650630', '300424', '300321', '4650630']"
6223631,918,1030,1101,1238
4160403,1825,1701,2262,2678
4527943,1325,884,1654,1269
4650630,2865,1282,3109,1789
4650630,2839,1337,3039,1776
300424,2010,564,2369,919
300321,3124,1347,3579,1861
