https://surfdrive.surf.nl/files/index.php/s/B7PEqFZSZZBPcW8/download?path=%2FData%2FInput%2FDatasets%2FDavid%2FImages&files=C_123.jpg,5472,3648
C_123,artificial,coffee_table,"[130, 130, 130]","['6238674', '4212454', '4504369']"
6238674,2692,1692,2879,1788
4212454,2184,1869,2297,2009
4504369,3287,2144,3468,2259
