https://surfdrive.surf.nl/files/index.php/s/B7PEqFZSZZBPcW8/download?path=%2FData%2FInput%2FDatasets%2FDavid%2FImages&files=C_123.jpg,5472,3647
C_123,artificial,coffee_table,"[130, 130, 130]","['6238674', '4212454', '4504369']"
6238674,2691,1685,2879,1814
4212454,2156,1864,2307,2015
4504369,3284,2136,3468,2315
