https://surfdrive.surf.nl/files/index.php/s/B7PEqFZSZZBPcW8/download?path=%2FData%2FInput%2FDatasets%2FDavid%2FImages&files=C_257.jpg,5472,3648
C_257,daylight,coffee_table,"[130, 130, 130]","['6223631', '300424', '4153825']"
6223631,2605,1933,2798,2084
300424,2695,1905,3018,2256
4153825,2729,1279,3060,1630
