https://surfdrive.surf.nl/files/index.php/s/B7PEqFZSZZBPcW8/download?path=%2FData%2FInput%2FDatasets%2FDavid%2FImages&files=C_375.jpg,5472,3648
C_375,daylight,living_room_floor,"[130, 130, 130]","['300401', '300423']"
300401,2621,1802,2768,1927
300423,2722,1662,2881,1821
