https://surfdrive.surf.nl/files/index.php/s/B7PEqFZSZZBPcW8/download?path=%2FData%2FInput%2FDatasets%2FDavid%2FImages&files=C_535.jpg,5472,3648
C_535,daylight,couch,"[130, 130, 130]","['6177697', '6223631', '6073026', '300124', '4647553', '6035291']"
6177697,2786,1706,3187,1920
6223631,2885,1864,2983,1986
6073026,3000,1791,3144,1958
300124,2464,1518,2789,1841
4647553,2659,1494,2839,1674
6035291,2498,1816,2650,1960
