https://surfdrive.surf.nl/files/index.php/s/B7PEqFZSZZBPcW8/download?path=%2FData%2FInput%2FDatasets%2FDavid%2FImages&files=C_731.jpg,5472,3648
C_731,daylight,armchair,"[130, 130, 130]","['6062574', '306201']"
6062574,3398,1833,3476,1970
306201,2000,1521,2106,1642
