https://surfdrive.surf.nl/files/index.php/s/B7PEqFZSZZBPcW8/download?path=%2FData%2FInput%2FDatasets%2FDavid%2FImages&files=C_737.jpg,5472,3648
C_737,daylight,couch,"[130, 130, 130]","['6069259', '4211054']"
6069259,2887,1273,2971,1547
4211054,2953,1808,3192,2144
