https://surfdrive.surf.nl/files/index.php/s/B7PEqFZSZZBPcW8/download?path=%2FData%2FInput%2FDatasets%2FDavid%2FImages&files=C_781.jpg,5472,3648
C_781,daylight,couch,"[130, 130, 130]","['4621545', '4210718', '4650630', '4529247']"
4621545,2886,1875,3174,2093
4210718,2311,1676,3087,1785
4650630,2125,1942,2410,2206
4529247,2920,1072,3113,1226
