https://surfdrive.surf.nl/files/index.php/s/B7PEqFZSZZBPcW8/download?path=%2FData%2FInput%2FDatasets%2FHiba%2FImages&files=H_110.jpg,5184,3456
H_110,daylight,wood,"[130, 130, 130]","['6022064', '4558957', '306223']"
6022064,2882,1949,3012,2244
4558957,2342,1692,2701,2018
306223,3152,1526,3282,1618
