https://surfdrive.surf.nl/files/index.php/s/B7PEqFZSZZBPcW8/download?path=%2FData%2FInput%2FDatasets%2FHiba%2FImages&files=H_409.jpg,5184,3456
H_409,daylight,wood,"[130, 130, 130]","['4211166', '4647553', '4114319', '4550348', '4567338', '4211437']"
4211166,629,1817,993,2036
4647553,2940,1470,3193,1602
4114319,2900,1927,3642,2346
4550348,2158,1413,2410,1573
4567338,1936,1584,2143,1743
4211437,2484,1324,2764,1518
