https://surfdrive.surf.nl/files/index.php/s/B7PEqFZSZZBPcW8/download?path=%2FData%2FInput%2FDatasets%2FHiba%2FImages&files=H_98.jpg,5184,3456
H_98,daylight,wood,"[130, 130, 130]","['6074890', '6035291']"
6074890,1917,1817,2074,1962
6035291,2903,1787,3022,1984
