https://surfdrive.surf.nl/files/index.php/s/B7PEqFZSZZBPcW8/download?path=%2FData%2FInput%2FDatasets%2FBerend%2FImages&files=B_14.jpg,4608,3072
B_14,daylight,wood,"[130, 130, 130]","['4650630', '6252809', '4211054', '4548180', '4649749']"
4650630,1606,2203,2063,2538
6252809,844,1247,1998,2580
4211054,2670,1332,3192,1650
4548180,1389,550,1720,837
4649749,3126,1591,3514,1831
