https://surfdrive.surf.nl/files/index.php/s/B7PEqFZSZZBPcW8/download?path=%2FData%2FInput%2FDatasets%2FBerend%2FImages&files=B_143.jpg,4608,3072
B_143,daylight,wood,"[130, 130, 130]","['300421', '6138173']"
300421,1004,1236,1211,1479
6138173,3288,1207,3424,1425
