https://surfdrive.surf.nl/files/index.php/s/B7PEqFZSZZBPcW8/download?path=%2FData%2FInput%2FDatasets%2FBerend%2FImages&files=B_248.jpg,4608,3072
B_248,daylight,wood,"[130, 130, 130]",['6025026']
6025026,1918,1289,2260,1505
