https://surfdrive.surf.nl/files/index.php/s/B7PEqFZSZZBPcW8/download?path=%2FData%2FInput%2FDatasets%2FBerend%2FImages&files=B_282.jpg,4608,3072
B_282,daylight,wood,"[130, 130, 130]","['4211614', '4121739', '300423', '300323', '6104154']"
4211614,2423,1523,2542,1727
4121739,1963,1678,2083,1857
300423,1938,1490,2132,1658
300323,2498,1660,2752,1939
6104154,1660,1728,1890,1971
