https://surfdrive.surf.nl/files/index.php/s/B7PEqFZSZZBPcW8/download?path=%2FData%2FInput%2FDatasets%2FBerend%2FImages&files=B_329.jpg,4608,3072
B_329,daylight,wood,"[130, 130, 130]","['6003007', '4153827', '4621545', '6073026', '300401']"
6003007,2454,1730,2644,1849
4153827,2277,1269,2745,1686
4621545,2934,1448,3227,1687
6073026,2721,1487,2885,1698
300401,2383,890,2603,1136
