https://surfdrive.surf.nl/files/index.php/s/B7PEqFZSZZBPcW8/download?path=%2FData%2FInput%2FDatasets%2FBerend%2FImages&files=B_384.jpg,4607,3072
B_384,daylight,wood,"[130, 130, 130]","['4181144', '6238674', '6025026', '6074890']"
4181144,1496,1747,2150,2218
6238674,1928,1595,2098,1706
6025026,1874,1255,2093,1392
6074890,2036,1438,2196,1577
