https://surfdrive.surf.nl/files/index.php/s/B7PEqFZSZZBPcW8/download?path=%2FData%2FInput%2FDatasets%2FBerend%2FImages&files=B_453.jpg,4608,3072
B_453,daylight,wood,"[130, 130, 130]","['300423', '4165967', '4647553', '4211614', '4529247']"
300423,1655,1430,2075,1764
4165967,2159,1278,2842,1788
4647553,2583,1772,2948,2112
4211614,3418,1880,3748,2126
4529247,232,1240,456,1410
