https://surfdrive.surf.nl/files/index.php/s/B7PEqFZSZZBPcW8/download?path=%2FData%2FInput%2FDatasets%2FBerend%2FImages&files=B_474.jpg,4608,3072
B_474,daylight,wood,"[130, 130, 130]","['6075079', '4211201', '4165967', '4647553', '4121967']"
6075079,1124,1706,1483,1990
4211201,2940,1024,3610,1375
4165967,2752,660,3415,1144
4647553,3864,1352,4170,1705
4121967,1721,1524,2099,1884
