https://surfdrive.surf.nl/files/index.php/s/B7PEqFZSZZBPcW8/download?path=%2FData%2FInput%2FDatasets%2FBerend%2FImages&files=B_595.jpg,4608,3072
B_595,daylight,wood,"[130, 130, 130]",['6238674']
6238674,2086,1414,2261,1601
