https://surfdrive.surf.nl/files/index.php/s/B7PEqFZSZZBPcW8/download?path=%2FData%2FInput%2FDatasets%2FBerend%2FImages&files=B_7.jpg,4608,3072
B_7,daylight,wood,"[130, 130, 130]","['4650630', '6252809', '4211054']"
4650630,2820,880,3154,1242
6252809,940,860,2131,1967
4211054,3202,1733,3665,2180
