https://surfdrive.surf.nl/files/index.php/s/B7PEqFZSZZBPcW8/download?path=%2FData%2FInput%2FDatasets%2FBerend%2FImages&files=B_720.jpg,4608,3072
B_720,daylight,wood,"[130, 130, 130]","['306201', '4527943', '6004938']"
306201,1976,730,2090,923
4527943,2121,1811,2396,2066
6004938,2233,1350,2470,1605
