https://surfdrive.surf.nl/files/index.php/s/B7PEqFZSZZBPcW8/download?path=%2FData%2FInput%2FDatasets%2FDavid%2FImages&files=C_165.jpg,5472,3648
C_165,daylight,coffee_table,"[130, 130, 130]","['4121739', '6025026', '6238674', '6104154', '4121739', '4529240', '4550325', '6225539']"
4121739,2318,1160,2674,1509
4121739,3180,1458,3566,1816
6025026,2028,1178,2336,1414
6238674,2364,1720,2526,1946
6104154,2646,1328,2981,1630
4529240,2000,1298,2230,1448
4550325,2105,1870,2406,2261
6225539,2788,1357,3258,2330
