https://surfdrive.surf.nl/files/index.php/s/B7PEqFZSZZBPcW8/download?path=%2FData%2FInput%2FDatasets%2FDavid%2FImages&files=C_22.jpg,5472,3648
C_22,daylight,coffee_table,"[130, 130, 130]","['300121', '4567338', '4211149', '6022023', '6075075', '4118793', '4647553', '4655172']"
300121,1831,1598,2154,1798
4567338,3616,1600,3708,1662
4211149,2477,1130,2585,1270
6022023,3053,1504,3247,1647
6075075,2796,1160,2940,1277
4118793,2518,1736,2596,1855
4647553,2678,1105,2785,1246
4655172,1664,674,1801,868
