https://surfdrive.surf.nl/files/index.php/s/B7PEqFZSZZBPcW8/download?path=%2FData%2FInput%2FDatasets%2FDavid%2FImages&files=C_259.jpg,5472,3648
C_259,daylight,coffee_table,"[130, 130, 130]","['6223631', '300424', '4153825', '654126']"
6223631,2690,1822,2860,1979
300424,2755,2054,3034,2250
4153825,2902,1282,3191,1598
654126,2051,1931,2258,2148
