https://surfdrive.surf.nl/files/index.php/s/B7PEqFZSZZBPcW8/download?path=%2FData%2FInput%2FDatasets%2FDavid%2FImages&files=C_357.jpg,5472,3648
C_357,daylight,living_room_floor,"[130, 130, 130]","['4118793', '6035291', '4211614', '4567338', '4211412']"
4118793,2734,567,2856,694
6035291,2678,1753,2803,1926
4211614,2350,1863,2564,2011
4567338,2302,2290,2445,2373
4211412,1992,1893,2133,2009
