https://surfdrive.surf.nl/files/index.php/s/B7PEqFZSZZBPcW8/download?path=%2FData%2FInput%2FDatasets%2FDavid%2FImages&files=C_406.jpg,5472,3647
C_406,daylight,living_room_floor,"[130, 130, 130]","['300421', '300321', '300424', '614321', '4153827']"
300421,2315,1796,2494,1928
300321,2800,891,2959,1095
300424,2708,670,2844,850
614321,2633,1817,2802,1977
4153827,3673,1833,3874,2173
