https://surfdrive.surf.nl/files/index.php/s/B7PEqFZSZZBPcW8/download?path=%2FData%2FInput%2FDatasets%2FDavid%2FImages&files=C_462.jpg,5472,3648
C_462,daylight,dining_table,"[130, 130, 130]","['6075079', '306201', '4211614', '4181135', '6003007', '6138173']"
6075079,2693,1741,2807,1932
306201,2459,1528,2591,1672
4211614,2246,1746,2410,1992
4181135,2818,1261,3058,1870
6003007,2506,1455,2621,1599
6138173,2252,1536,2456,1768
