https://surfdrive.surf.nl/files/index.php/s/B7PEqFZSZZBPcW8/download?path=%2FData%2FInput%2FDatasets%2FDavid%2FImages&files=C_575.jpg,5472,3648
C_575,daylight,window_sill,"[130, 130, 130]","['614321', '4211221']"
614321,2705,1608,2932,1857
4211221,1858,1561,2153,1737
