https://surfdrive.surf.nl/files/index.php/s/B7PEqFZSZZBPcW8/download?path=%2FData%2FInput%2FDatasets%2FDavid%2FImages&files=C_589.jpg,5472,3648
C_589,daylight,window_sill,"[130, 130, 130]","['614321', '4211221', '4651236', '4621545', '6249125', '4143562', '6075075']"
614321,2119,746,2358,1008
4211221,2268,1735,2521,2072
4651236,1891,1461,2108,1679
4621545,2742,1082,2920,1320
6249125,2715,1712,2884,1912
4143562,2824,1708,2964,1806
6075075,2809,2364,2971,2636
