https://surfdrive.surf.nl/files/index.php/s/B7PEqFZSZZBPcW8/download?path=%2FData%2FInput%2FDatasets%2FDavid%2FImages&files=C_611.jpg,5472,3648
C_611,daylight,window_sill,"[130, 130, 130]","['300423', '6073026', '4558957', '4527943']"
300423,3507,1040,3804,1353
6073026,3305,1428,3492,1675
4558957,2525,1554,3054,2043
4527943,1546,1224,1808,1470
