https://surfdrive.surf.nl/files/index.php/s/B7PEqFZSZZBPcW8/download?path=%2FData%2FInput%2FDatasets%2FDavid%2FImages&files=C_658.jpg,5472,3648
C_658,daylight,coffee_table,"[130, 130, 130]","['6075079', '300423', '4121967']"
6075079,2596,1737,2844,2016
300423,3090,1604,3435,1950
4121967,2438,2011,2821,2273
