https://surfdrive.surf.nl/files/index.php/s/B7PEqFZSZZBPcW8/download?path=%2FData%2FInput%2FDatasets%2FDavid%2FImages&files=C_689.jpg,5472,3648
C_689,daylight,coffee_table,"[130, 130, 130]","['4558957', '4539099', '300323', '6229071', '4157124']"
4558957,2312,1421,2821,1810
4539099,1876,1934,2096,2116
300323,2844,1371,3123,1738
6229071,2197,2040,2479,2319
4157124,2712,2108,2938,2394
