https://surfdrive.surf.nl/files/index.php/s/B7PEqFZSZZBPcW8/download?path=%2FData%2FInput%2FDatasets%2FHiba%2FImages&files=H_1.jpg,5184,3456
H_1,daylight,wood,"[130, 130, 130]",['4211201']
4211201,2412,1560,2779,1781
