https://surfdrive.surf.nl/files/index.php/s/B7PEqFZSZZBPcW8/download?path=%2FData%2FInput%2FDatasets%2FHiba%2FImages&files=H_165.jpg,5184,3456
H_165,daylight,wood,"[130, 130, 130]","['4211412', '4153825']"
4211412,3313,1210,3491,1388
4153825,2316,1471,2690,1903
