https://surfdrive.surf.nl/files/index.php/s/B7PEqFZSZZBPcW8/download?path=%2FData%2FInput%2FDatasets%2FHiba%2FImages&files=H_197.jpg,5184,3456
H_197,daylight,wood,"[130, 130, 130]","['4548180', '4504381', '4517992', '4647553', '300821']"
4548180,1840,1885,2019,2164
4504381,2487,1773,2650,1944
4517992,2734,1156,2994,1436
4647553,3206,1578,3374,1844
300821,1428,756,2046,1305
