https://surfdrive.surf.nl/files/index.php/s/B7PEqFZSZZBPcW8/download?path=%2FData%2FInput%2FDatasets%2FHiba%2FImages&files=H_277.jpg,5184,3456
H_277,daylight,wood,"[130, 130, 130]","['4143562', '300123', '4109995', '614321', '4211221']"
4143562,2314,1188,2506,1346
300123,2173,1781,2564,2138
4109995,1429,1814,1615,1970
614321,3617,1526,3753,1665
4211221,1984,1749,2206,2008
