https://surfdrive.surf.nl/files/index.php/s/B7PEqFZSZZBPcW8/download?path=%2FData%2FInput%2FDatasets%2FHiba%2FImages&files=H_278.jpg,5184,3456
H_278,daylight,wood,"[130, 130, 130]","['4143562', '300123', '4109995', '614321', '4211221']"
4143562,3294,1891,3513,2117
300123,1548,2146,1863,2525
4109995,2953,1999,3092,2183
614321,2562,1627,2730,1801
4211221,2223,2314,2423,2528
