https://surfdrive.surf.nl/files/index.php/s/B7PEqFZSZZBPcW8/download?path=%2FData%2FInput%2FDatasets%2FHiba%2FImages&files=H_290.jpg,5184,3456
H_290,daylight,wood,"[130, 130, 130]",['4558957']
4558957,2482,1673,2768,1931
