https://surfdrive.surf.nl/files/index.php/s/B7PEqFZSZZBPcW8/download?path=%2FData%2FInput%2FDatasets%2FHiba%2FImages&files=H_311.jpg,5184,3456
H_311,daylight,wood,"[130, 130, 130]","['4550348', '4121967', '6028324']"
4550348,2162,1079,2429,1204
4121967,2248,1004,2516,1162
6028324,3009,2188,3283,2453
