https://surfdrive.surf.nl/files/index.php/s/B7PEqFZSZZBPcW8/download?path=%2FData%2FInput%2FDatasets%2FHiba%2FImages&files=H_358.jpg,5184,3456
H_358,daylight,wood,"[130, 130, 130]","['6035291', '6151663', '4181144', '4649749', '4639693', '300124']"
6035291,2221,562,2380,614
6151663,3630,1496,3858,1639
4181144,1564,2294,2254,2893
4649749,2282,1132,2472,1277
4639693,2778,1348,3182,2005
300124,1500,1482,1796,1820
