https://surfdrive.surf.nl/files/index.php/s/B7PEqFZSZZBPcW8/download?path=%2FData%2FInput%2FDatasets%2FBerend%2FImages&files=B_1024.jpg,4608,3072
B_1024,daylight,dirty_rug,"[120, 120, 120]","['4211201', '4211412', '4639693', '4153827', '4160403', '4539099', '300821', '300121', '4121967', '4181134']"
4211201,2596,572,2783,909
4211412,2184,887,2307,1012
4639693,2158,1275,2607,2092
4153827,1672,1056,2091,1413
4160403,1743,648,2282,793
4539099,1496,839,1615,936
300821,2399,943,2718,1573
300121,1530,868,1810,1215
4121967,1667,2078,1916,2240
4181134,2037,943,2439,1434
