https://surfdrive.surf.nl/files/index.php/s/B7PEqFZSZZBPcW8/download?path=%2FData%2FInput%2FDatasets%2FBerend%2FImages&files=B_1068.jpg,4607,3072
B_1068,daylight,dirty_rug,"[120, 120, 120]","['4109995', '300123', '623224', '4520632', '6025026', '4504369', '4157124', '4211511']"
4109995,1561,1039,1720,1179
300123,1957,1581,2276,1765
623224,2657,1951,2876,2187
4520632,2155,1303,2454,1583
6025026,2634,1902,2799,2001
4504369,2192,1891,2279,1979
4157124,2923,1869,3021,2034
4211511,2261,1882,2384,2012
