https://surfdrive.surf.nl/files/index.php/s/B7PEqFZSZZBPcW8/download?path=%2FData%2FInput%2FDatasets%2FBerend%2FImages&files=B_1031.jpg,4608,3072
B_1031,daylight,dirty_rug,"[120, 120, 120]","['654126', '4504381', '4517992', '4211221', '6177697', '6022023', '4550325', '4114319', '4143562', '4655172', '4181134', '6223631', '300321']"
654126,2303,2118,2461,2297
4504381,2880,1992,3032,2142
4517992,1847,1389,2150,1666
4211221,2579,1471,2874,1766
6177697,1049,1458,1410,1835
6022023,1716,1628,2007,1869
4550325,1358,1502,1562,1719
4114319,2091,976,2527,1351
4143562,1936,1750,2212,1998
4655172,2861,1602,3315,2018
4181134,1179,1101,1838,1554
6223631,1924,2232,2074,2370
300321,1940,854,2172,1073
