https://surfdrive.surf.nl/files/index.php/s/B7PEqFZSZZBPcW8/download?path=%2FData%2FInput%2FDatasets%2FBerend%2FImages&files=B_1096.jpg,4608,3072
B_1096,artificial_light,parquet_dark_brown,"[120, 120, 120]","['6244886', '4211201', '4153827', '6229071', '300321', '4165967', '6225539', '4548180', '306201', '6028324', '614321']"
6244886,2209,1408,2462,1722
4211201,1926,616,2434,891
4153827,2342,1116,2848,1294
6229071,3390,1556,3622,1795
300321,2348,816,2596,987
4165967,1906,1001,2311,1388
6225539,2703,576,2830,1062
4548180,1666,1204,1774,1392
306201,1256,1148,1436,1294
6028324,1950,1494,2135,1682
614321,2512,1939,2758,2093
