https://surfdrive.surf.nl/files/index.php/s/B7PEqFZSZZBPcW8/download?path=%2FData%2FInput%2FDatasets%2FBerend%2FImages&files=B_104.jpg,4607,3072
B_104,daylight,wood,"[130, 130, 130]","['6022064', '4211221', '4211511']"
6022064,1083,1681,1576,1867
4211221,2702,1368,2980,1542
4211511,2432,1768,2656,1999
