https://surfdrive.surf.nl/files/index.php/s/B7PEqFZSZZBPcW8/download?path=%2FData%2FInput%2FDatasets%2FBerend%2FImages&files=B_1153.jpg,4608,3072
B_1153,artificial_light,desk_black_wood,"[120, 120, 120]","['300121', '365901', '300421', '4211149', '300124', '6062574', '4639693', '300123', '6025026', '4651236']"
300121,2987,973,3332,1210
365901,2343,1564,2774,1804
300421,2424,1297,2645,1420
4211149,3064,1908,3222,2102
300124,3057,1498,3310,1879
6062574,2039,1459,2241,1661
4639693,2286,912,2990,1390
300123,2832,1274,3050,1689
6025026,2410,1796,2520,2004
4651236,1890,1242,2107,1424
