https://surfdrive.surf.nl/files/index.php/s/B7PEqFZSZZBPcW8/download?path=%2FData%2FInput%2FDatasets%2FBerend%2FImages&files=B_1100.jpg,4608,3072
B_1100,artificial_light,parquet_dark_brown,"[120, 120, 120]","['6244886', '4211201', '4153827', '6229071', '300321', '4165967', '6225539', '4548180', '306201', '6028324']"
6244886,1389,1210,1706,1469
4211201,2049,308,2480,555
4153827,1987,702,2291,1166
6229071,2973,1663,3204,1941
300321,3158,787,3430,1015
4165967,2533,1161,3008,1560
6225539,1035,1379,1359,2019
4548180,1506,1993,1712,2185
306201,803,2319,974,2466
6028324,3457,1027,3665,1210
