https://surfdrive.surf.nl/files/index.php/s/B7PEqFZSZZBPcW8/download?path=%2FData%2FInput%2FDatasets%2FBerend%2FImages&files=B_11.jpg,4608,3072
B_11,daylight,wood,"[130, 130, 130]","['4650630', '6252809', '4211054', '4548180']"
4650630,1295,2004,1634,2409
6252809,1840,1664,3452,2007
4211054,1166,1581,1531,1957
4548180,3022,799,3284,1098
