https://surfdrive.surf.nl/files/index.php/s/B7PEqFZSZZBPcW8/download?path=%2FData%2FInput%2FDatasets%2FBerend%2FImages&files=B_1107.jpg,4608,3072
B_1107,artificial_light,parquet_dark_brown,"[120, 120, 120]","['6075075', '4160403', '6252809', '4651236', '300821', '4181144', '4655172', '4539099', '6022064', '6073026', '300323', '6104154']"
6075075,2498,1999,2657,2206
4160403,1984,1843,2143,2364
6252809,2079,551,2766,1101
4651236,1441,1297,1631,1430
300821,2409,1300,3157,1683
4181144,2037,1333,2645,1638
4655172,1555,1829,1961,2182
4539099,2982,1138,3101,1227
6022064,2182,417,2323,641
6073026,2580,1877,2729,2019
300323,3025,843,3218,1032
6104154,2683,856,2861,983
