https://surfdrive.surf.nl/files/index.php/s/B7PEqFZSZZBPcW8/download?path=%2FData%2FInput%2FDatasets%2FBerend%2FImages&files=B_1171.jpg,4607,3072
B_1171,artificial_light,parquet_light,"[120, 120, 120]","['4210718', '6022023', '4211221', '654126', '4550325', '4109995', '6177697', '4529247', '654126']"
4210718,3181,918,3506,1390
6022023,2270,1511,2595,1828
4211221,2246,410,2531,676
654126,2109,1158,2295,1324
654126,1017,416,1180,595
4550325,2436,2474,2721,2770
4109995,2410,1200,2670,1377
6177697,2753,575,3253,869
4529247,1916,1290,2063,1484
