https://surfdrive.surf.nl/files/index.php/s/B7PEqFZSZZBPcW8/download?path=%2FData%2FInput%2FDatasets%2FBerend%2FImages&files=B_136.jpg,4607,3072
B_136,daylight,wood,"[130, 130, 130]","['6062574', '6022023']"
6062574,2131,1569,2376,1809
6022023,2119,997,2518,1318
