https://surfdrive.surf.nl/files/index.php/s/B7PEqFZSZZBPcW8/download?path=%2FData%2FInput%2FDatasets%2FBerend%2FImages&files=B_152.jpg,4607,3072
B_152,daylight,wood,"[130, 130, 130]","['300421', '6138173', '4114319', '4211221', '6004938']"
300421,2241,1039,2454,1186
6138173,2190,1784,2424,1932
4114319,2308,1421,2780,1735
4211221,1702,1704,1945,1827
6004938,1853,1431,1996,1561
