https://surfdrive.surf.nl/files/index.php/s/B7PEqFZSZZBPcW8/download?path=%2FData%2FInput%2FDatasets%2FBerend%2FImages&files=B_161.jpg,4607,3072
B_161,daylight,wood,"[130, 130, 130]","['300421', '6138173', '4114319', '4211221', '6004938', '4211166', '6069259', '4212454']"
300421,1715,1428,1837,1585
6138173,2150,1656,2318,1808
4114319,2176,1358,2518,1601
4211221,2362,1620,2588,1850
6004938,2532,1814,2640,1925
4211166,1543,1425,1664,1540
6069259,1285,1539,1415,1709
4212454,2799,1922,2923,2009
