https://surfdrive.surf.nl/files/index.php/s/B7PEqFZSZZBPcW8/download?path=%2FData%2FInput%2FDatasets%2FBerend%2FImages&files=B_201.jpg,4608,3072
B_201,daylight,wood,"[130, 130, 130]","['4621545', '654126', '300124']"
4621545,2292,789,2582,1106
654126,1257,1000,1471,1205
300124,1992,1938,2740,2458
