https://surfdrive.surf.nl/files/index.php/s/B7PEqFZSZZBPcW8/download?path=%2FData%2FInput%2FDatasets%2FBerend%2FImages&files=B_261.jpg,4608,3072
B_261,daylight,wood,"[130, 130, 130]","['6025026', '6223631', '4211166', '4567338', '4211054', '6249125']"
6025026,2626,1911,2704,2043
6223631,1283,1258,1357,1323
4211166,2212,1816,2342,1961
4567338,1914,1239,2009,1302
4211054,2247,1676,2416,1825
6249125,2782,1892,2845,1933
