https://surfdrive.surf.nl/files/index.php/s/B7PEqFZSZZBPcW8/download?path=%2FData%2FInput%2FDatasets%2FBerend%2FImages&files=B_29.jpg,4608,3072
B_29,daylight,wood,"[130, 130, 130]","['4650630', '6252809', '4211054', '4548180', '4649749', '300401', '6075075', '4548180', '6151663', '4520632']"
4650630,3094,1600,3430,1875
6252809,1603,2105,2941,2650
4211054,3193,877,3530,1217
4548180,1222,2146,1504,2380
4548180,2144,2018,2430,2244
4649749,794,1591,1019,1815
300401,2235,975,2428,1244
6075075,1865,1927,2150,2150
6151663,423,1689,712,1888
4520632,1982,1268,2515,1703
