https://surfdrive.surf.nl/files/index.php/s/B7PEqFZSZZBPcW8/download?path=%2FData%2FInput%2FDatasets%2FBerend%2FImages&files=B_324.jpg,4608,3072
B_324,daylight,wood,"[130, 130, 130]","['6003007', '4153827', '4621545', '6073026']"
6003007,2382,1222,2538,1384
4153827,2092,1344,2408,1766
4621545,1925,1908,2250,2155
6073026,2826,1391,3025,1563
