https://surfdrive.surf.nl/files/index.php/s/B7PEqFZSZZBPcW8/download?path=%2FData%2FInput%2FDatasets%2FBerend%2FImages&files=B_338.jpg,4608,3072
B_338,daylight,wood,"[130, 130, 130]","['6003007', '4153827', '4621545', '6073026', '300401', '6074890', '4550325', '4118793']"
6003007,932,1782,1157,1919
4153827,1246,2193,1920,2679
4621545,1526,2198,1968,2509
6073026,3546,301,3664,474
300401,1670,1936,1957,2241
6074890,562,1810,730,2000
4550325,1830,2535,2084,2844
4118793,824,2132,1064,2368
