https://surfdrive.surf.nl/files/index.php/s/B7PEqFZSZZBPcW8/download?path=%2FData%2FInput%2FDatasets%2FBerend%2FImages&files=B_362.jpg,4608,3072
B_362,daylight,wood,"[130, 130, 130]",['4655172']
4655172,2505,1322,2639,1520
