https://surfdrive.surf.nl/files/index.php/s/B7PEqFZSZZBPcW8/download?path=%2FData%2FInput%2FDatasets%2FBerend%2FImages&files=B_370.jpg,4608,3072
B_370,daylight,wood,"[130, 130, 130]","['4655172', '300321', '4517992', '300821']"
4655172,1556,1187,1911,1833
300321,1061,590,1338,822
4517992,1900,1701,2325,2047
300821,2527,788,2992,1716
