https://surfdrive.surf.nl/files/index.php/s/B7PEqFZSZZBPcW8/download?path=%2FData%2FInput%2FDatasets%2FBerend%2FImages&files=B_406.jpg,4607,3072
B_406,daylight,wood,"[130, 130, 130]","['4548180', '4651236', '4529240', '4121739']"
4548180,1996,567,2273,987
4651236,1065,2440,1392,2893
4529240,2570,681,2859,867
4121739,1789,1818,2265,2280
