https://surfdrive.surf.nl/files/index.php/s/B7PEqFZSZZBPcW8/download?path=%2FData%2FInput%2FDatasets%2FBerend%2FImages&files=B_447.jpg,4608,3072
B_447,daylight,wood,"[130, 130, 130]","['300423', '4165967', '4647553']"
300423,1378,1428,1604,1778
4165967,2284,1417,2794,1855
4647553,2695,1186,2928,1528
