https://surfdrive.surf.nl/files/index.php/s/B7PEqFZSZZBPcW8/download?path=%2FData%2FInput%2FDatasets%2FBerend%2FImages&files=B_446.jpg,4607,3072
B_446,daylight,wood,"[130, 130, 130]","['300423', '4165967']"
300423,2746,398,2920,733
4165967,1306,2162,2004,2877
