https://surfdrive.surf.nl/files/index.php/s/B7PEqFZSZZBPcW8/download?path=%2FData%2FInput%2FDatasets%2FBerend%2FImages&files=B_462.jpg,4608,3072
B_462,daylight,wood,"[130, 130, 130]",['6075079']
6075079,2114,1327,2329,1501
