https://surfdrive.surf.nl/files/index.php/s/B7PEqFZSZZBPcW8/download?path=%2FData%2FInput%2FDatasets%2FBerend%2FImages&files=B_481.jpg,4607,3072
B_481,daylight,wood,"[130, 130, 130]","['6075079', '4211201', '4165967', '4647553', '4121967', '4211437', '4143562']"
6075079,1468,1423,1835,1669
4211201,2106,926,2351,1516
4165967,2610,962,3256,1570
4647553,3005,1690,3429,1981
4121967,2480,1248,2746,1571
4211437,2336,2160,2608,2542
4143562,2392,925,2565,1203
