https://surfdrive.surf.nl/files/index.php/s/B7PEqFZSZZBPcW8/download?path=%2FData%2FInput%2FDatasets%2FBerend%2FImages&files=B_511.jpg,4608,3072
B_511,daylight,wood,"[130, 130, 130]","['6075075', '4649749', '300323', '4211149', '4621545', '300424', '6244886', '300124', '300424']"
6075075,532,1981,828,2186
4649749,1790,1276,2043,1414
300323,2381,1338,2710,1569
4211149,2645,1664,2902,1862
4621545,2540,1224,2722,1372
300424,2289,1583,2547,1799
300424,1801,1418,2062,1565
6244886,2905,1769,3263,2115
300124,2161,1059,2493,1413
