https://surfdrive.surf.nl/files/index.php/s/B7PEqFZSZZBPcW8/download?path=%2FData%2FInput%2FDatasets%2FBerend%2FImages&files=B_526.jpg,4608,3072
B_526,daylight,wood,"[130, 130, 130]","['6035291', '4567338', '6177697']"
6035291,1670,1280,1933,1409
4567338,2202,1731,2383,1924
6177697,2318,1203,2607,1709
