https://surfdrive.surf.nl/files/index.php/s/B7PEqFZSZZBPcW8/download?path=%2FData%2FInput%2FDatasets%2FBerend%2FImages&files=B_537.jpg,4607,3072
B_537,daylight,wood,"[130, 130, 130]","['4212454', '6028324', '4550325']"
4212454,1797,1365,1974,1530
6028324,2036,1255,2267,1467
4550325,2909,1722,3210,1964
