https://surfdrive.surf.nl/files/index.php/s/B7PEqFZSZZBPcW8/download?path=%2FData%2FInput%2FDatasets%2FBerend%2FImages&files=B_530.jpg,4607,3072
B_530,daylight,wood,"[130, 130, 130]","['6035291', '4567338', '6177697', '4529240']"
6035291,2526,1620,2830,1898
4567338,2146,1183,2252,1362
6177697,2252,1149,2749,1589
4529240,2416,1074,2596,1162
