https://surfdrive.surf.nl/files/index.php/s/B7PEqFZSZZBPcW8/download?path=%2FData%2FInput%2FDatasets%2FBerend%2FImages&files=B_561.jpg,4608,3072
B_561,daylight,wood,"[130, 130, 130]","['4550325', '6229071', '4639693', '6004938']"
4550325,1509,953,1841,1145
6229071,1586,1102,1868,1367
4639693,862,1717,2260,2348
6004938,3535,1632,3781,1867
