https://surfdrive.surf.nl/files/index.php/s/B7PEqFZSZZBPcW8/download?path=%2FData%2FInput%2FDatasets%2FBerend%2FImages&files=B_579.jpg,4608,3072
B_579,daylight,wood,"[130, 130, 130]","['300401', '654126', '4211149']"
300401,1537,1851,1884,2163
654126,2364,1111,2596,1303
4211149,2404,1552,2695,1837
