https://surfdrive.surf.nl/files/index.php/s/B7PEqFZSZZBPcW8/download?path=%2FData%2FInput%2FDatasets%2FBerend%2FImages&files=B_604.jpg,4608,3072
B_604,daylight,wood,"[130, 130, 130]","['6238674', '300323', '4153825', '4211054']"
6238674,2490,1866,2704,2092
300323,1611,713,1889,1035
4153825,1973,1243,2270,1588
4211054,2436,1053,2808,1378
