https://surfdrive.surf.nl/files/index.php/s/B7PEqFZSZZBPcW8/download?path=%2FData%2FInput%2FDatasets%2FBerend%2FImages&files=B_624.jpg,4607,3072
B_624,daylight,wood,"[130, 130, 130]",['4118793']
4118793,2163,1330,2438,1577
