https://surfdrive.surf.nl/files/index.php/s/B7PEqFZSZZBPcW8/download?path=%2FData%2FInput%2FDatasets%2FBerend%2FImages&files=B_633.jpg,4608,3072
B_633,daylight,wood,"[130, 130, 130]","['4118793', '4114319', '4558957', '4539099']"
4118793,2315,1928,2485,2096
4114319,1969,1994,2416,2614
4558957,1633,1319,2064,1815
4539099,1741,698,1940,816
