https://surfdrive.surf.nl/files/index.php/s/B7PEqFZSZZBPcW8/download?path=%2FData%2FInput%2FDatasets%2FBerend%2FImages&files=B_638.jpg,4608,3072
B_638,daylight,wood,"[130, 130, 130]","['4118793', '4114319', '4558957', '4539099', '6104154']"
4118793,2483,2163,2647,2403
4114319,1602,2349,2290,2860
4558957,2240,911,2701,1306
4539099,2118,546,2306,720
6104154,1532,1112,1852,1384
