https://surfdrive.surf.nl/files/index.php/s/B7PEqFZSZZBPcW8/download?path=%2FData%2FInput%2FDatasets%2FBerend%2FImages&files=B_672.jpg,4608,3072
B_672,daylight,wood,"[130, 130, 130]","['6223631', '4160403', '4527943', '4650630', '300424', '300321', '4650630']"
6223631,912,1034,1095,1238
4160403,1834,1717,2275,2681
4527943,1316,884,1644,1271
4650630,2863,1304,3109,1776
4650630,2840,1314,3078,1782
300424,2013,565,2369,917
300321,3128,1362,3528,1851
