https://surfdrive.surf.nl/files/index.php/s/B7PEqFZSZZBPcW8/download?path=%2FData%2FInput%2FDatasets%2FBerend%2FImages&files=B_732.jpg,4607,3072
B_732,daylight,wood,"[130, 130, 130]","['306201', '4527943', '6004938', '4121967', '4181144', '4160403', '300423']"
306201,2111,1201,2281,1331
4527943,3389,1361,3517,1552
6004938,1670,892,1820,1054
4121967,2219,1770,2443,1933
4181144,1354,1621,2083,2004
4160403,1469,1507,2171,1775
300423,1522,1343,1708,1567
