https://surfdrive.surf.nl/files/index.php/s/B7PEqFZSZZBPcW8/download?path=%2FData%2FInput%2FDatasets%2FBerend%2FImages&files=B_740.jpg,4608,3072
B_740,daylight,wood,"[130, 130, 130]","['306201', '4527943', '6004938', '4121967', '4181144', '4160403', '300423', '6151663', '6073026']"
306201,2436,1483,2564,1618
4527943,2808,1612,2994,1734
6004938,2538,957,2668,1083
4121967,2640,1328,2830,1455
4181144,2072,1857,2788,2220
4160403,1698,1299,2186,1718
300423,2174,2371,2403,2529
6151663,1299,1499,1522,1574
6073026,1866,1809,2034,1954
