https://surfdrive.surf.nl/files/index.php/s/B7PEqFZSZZBPcW8/download?path=%2FData%2FInput%2FDatasets%2FBerend%2FImages&files=B_741.jpg,4608,3072
B_741,daylight,wood,"[130, 130, 130]","['306201', '4527943', '6004938', '4121967', '4181144', '4160403', '300423', '6151663', '6073026', '6244886']"
306201,1168,1659,1329,1749
4527943,2629,1935,2849,2127
6004938,1769,1725,1928,1916
4121967,2778,718,2996,882
4181144,2171,1257,2307,1888
4160403,1815,1567,2200,2133
300423,1801,1927,1936,2173
6151663,1143,1945,1365,2137
6073026,1381,2128,1556,2332
6244886,2283,1848,2572,2164
