https://surfdrive.surf.nl/files/index.php/s/B7PEqFZSZZBPcW8/download?path=%2FData%2FInput%2FDatasets%2FBerend%2FImages&files=B_756.jpg,4608,3072
B_756,daylight,wood,"[130, 130, 130]","['6035291', '4118793', '4109995', '6022064']"
6035291,1182,196,1384,478
4118793,1581,2228,1856,2564
4109995,2570,1904,3008,2282
6022064,3217,2366,3440,2948
