https://surfdrive.surf.nl/files/index.php/s/B7PEqFZSZZBPcW8/download?path=%2FData%2FInput%2FDatasets%2FBerend%2FImages&files=B_769.jpg,4608,3072
B_769,daylight,wood,"[130, 130, 130]","['4181135', '6069259']"
4181135,2298,1234,3173,1580
6069259,1679,1053,1838,1304
