https://surfdrive.surf.nl/files/index.php/s/B7PEqFZSZZBPcW8/download?path=%2FData%2FInput%2FDatasets%2FBerend%2FImages&files=B_761.jpg,4608,3072
B_761,daylight,wood,"[130, 130, 130]","['6035291', '4118793', '4109995', '6022064', '6249125']"
6035291,1682,1217,1848,1405
4118793,2079,1190,2217,1358
4109995,1462,1218,1687,1421
6022064,1742,1482,2067,1657
6249125,2447,1468,2555,1572
