https://surfdrive.surf.nl/files/index.php/s/B7PEqFZSZZBPcW8/download?path=%2FData%2FInput%2FDatasets%2FBerend%2FImages&files=B_774.jpg,4608,3072
B_774,daylight,wood,"[130, 130, 130]","['4181135', '6069259', '6003007', '4650630']"
4181135,2134,1419,2969,1783
6069259,2491,1050,2761,1238
6003007,2997,702,3191,824
4650630,2648,1257,2933,1486
