https://surfdrive.surf.nl/files/index.php/s/B7PEqFZSZZBPcW8/download?path=%2FData%2FInput%2FDatasets%2FBerend%2FImages&files=B_812.jpg,4608,3072
B_812,daylight,wood,"[130, 130, 130]","['614321', '4550348', '6104154']"
614321,2088,1359,2293,1583
4550348,2291,909,2499,1021
6104154,1624,1089,1848,1269
