https://surfdrive.surf.nl/files/index.php/s/B7PEqFZSZZBPcW8/download?path=%2FData%2FInput%2FDatasets%2FBerend%2FImages&files=B_845.jpg,4608,3072
B_845,daylight,parquet_dark_brown,"[120, 120, 120]","['6225539', '4181134', '4520632', '4639693', '300321', '6177697', '654126', '4153827', '4121739', '4550325', '6223631', '4153825']"
6225539,1919,1373,2322,1751
4181134,1580,1668,2186,1937
4520632,3365,718,3686,983
4639693,1840,734,2530,1007
300321,1223,2119,1497,2352
6177697,2497,1452,2882,1602
654126,2417,628,2531,729
4153827,1228,970,1542,1249
4121739,1630,1377,1735,1533
4550325,2808,1350,3008,1469
6223631,1807,1464,1880,1562
4153825,3076,1649,3282,1842
