https://surfdrive.surf.nl/files/index.php/s/B7PEqFZSZZBPcW8/download?path=%2FData%2FInput%2FDatasets%2FBerend%2FImages&files=B_859.jpg,4608,3072
B_859,daylight,parquet_dark_brown,"[120, 120, 120]","['6225539', '4181134', '4520632', '4639693', '300321', '6177697', '654126']"
6225539,1791,1164,2226,1504
4181134,941,875,1475,1110
4520632,2675,1493,3061,1747
4639693,1978,1053,2574,1502
300321,3126,1151,3296,1280
6177697,1449,1216,1815,1376
654126,1848,678,1952,768
