https://surfdrive.surf.nl/files/index.php/s/B7PEqFZSZZBPcW8/download?path=%2FData%2FInput%2FDatasets%2FBerend%2FImages&files=B_887.jpg,4608,3072
B_887,daylight,parquet_dark_brown,"[120, 120, 120]","['4165967', '623224', '6075075', '6225539', '4504369', '6252809', '4181135', '4211511', '4181134', '4529240', '4550348', '306223', '4211412']"
4165967,1587,2070,1994,2512
623224,2539,919,2764,1105
6075075,1058,2190,1266,2342
6225539,1812,1799,2349,2180
4504369,1596,2298,1644,2358
6252809,1979,635,2148,1278
4181135,1704,1302,2099,1771
4211511,1672,1767,1810,1917
4181134,2699,1665,3294,2082
4529240,2166,390,2265,493
4550348,1572,1955,1789,2132
306223,1124,2098,1268,2187
4211412,1074,1979,1197,2124
