https://surfdrive.surf.nl/files/index.php/s/B7PEqFZSZZBPcW8/download?path=%2FData%2FInput%2FDatasets%2FBerend%2FImages&files=B_891.jpg,4608,3072
B_891,daylight,parquet_dark_brown,"[120, 120, 120]","['4165967', '623224', '6075075', '6225539', '4504369', '6252809', '4181135', '4211511', '4181134', '4529240', '4550348']"
4165967,2719,1426,3028,1767
623224,2108,679,2338,861
6075075,1815,1600,1990,1746
6225539,2604,991,2988,1397
4504369,1761,1465,1865,1556
6252809,2297,1547,2725,2429
4181135,2467,530,2921,874
4211511,3184,1297,3297,1397
4181134,2450,1501,2764,2016
4529240,1746,1387,1875,1466
4550348,1880,1340,2003,1479
