https://surfdrive.surf.nl/files/index.php/s/B7PEqFZSZZBPcW8/download?path=%2FData%2FInput%2FDatasets%2FBerend%2FImages&files=B_896.jpg,4607,3072
B_896,daylight,parquet_dark_brown,"[120, 120, 120]","['4165967', '623224', '6075075', '6225539', '4504369', '6252809', '4181135', '4211511', '4181134', '4529240']"
4165967,1562,781,1865,953
623224,2115,916,2299,1064
6075075,1931,541,2041,616
6225539,1757,1570,2218,1724
4504369,1578,746,1668,796
6252809,1716,1182,2373,1510
4181135,1739,1671,2215,1896
4211511,3107,1367,3198,1471
4181134,2263,1244,2676,1539
4529240,2174,2304,2301,2429
