https://surfdrive.surf.nl/files/index.php/s/B7PEqFZSZZBPcW8/download?path=%2FData%2FInput%2FDatasets%2FDavid%2FImages&files=C_1005.jpg,5472,3647
C_1005,daylight,couch,"[120, 120, 120]","['4527943', '300401', '4550325', '4211201', '4121967', '306223']"
4527943,1986,2043,2244,2306
300401,1998,2380,2284,2574
4550325,2742,1529,3013,1740
4211201,2617,1948,3092,2494
4121967,2784,987,3021,1139
306223,3400,2541,3575,2753
