https://surfdrive.surf.nl/files/index.php/s/B7PEqFZSZZBPcW8/download?path=%2FData%2FInput%2FDatasets%2FDavid%2FImages&files=C_1016.jpg,5472,3648
C_1016,daylight,couch,"[120, 120, 120]","['4109995', '6073026', '4165967', '300124', '6225539', '4211511', '4181144', '4520632', '300321', '4550325']"
4109995,1775,1068,2134,1471
6073026,2135,1659,2668,2016
4165967,3124,1570,3543,2116
300124,1427,1674,2012,2054
6225539,1743,1765,2608,2218
4211511,1692,1425,2492,1704
4181144,1883,1556,2456,1891
4520632,3571,1357,3779,1601
300321,2341,1754,2563,2020
4550325,1606,2378,1812,2612
