https://surfdrive.surf.nl/files/index.php/s/B7PEqFZSZZBPcW8/download?path=%2FData%2FInput%2FDatasets%2FDavid%2FImages&files=C_172.jpg,5472,3648
C_172,daylight,coffee_table,"[130, 130, 130]","['4121739', '6025026', '6238674', '6104154', '4121739', '4529240', '4550325', '6225539', '623224', '4157124']"
4121739,2290,934,2466,1178
4121739,3174,1677,3495,1957
6025026,2560,2169,2892,2458
6238674,2017,1948,2205,2179
6104154,2170,1652,2524,1928
4529240,1868,1587,2067,1710
4550325,1597,1206,1906,1406
6225539,2431,1534,3076,2287
623224,3352,2036,3760,2343
4157124,1966,1296,2250,1501
