https://surfdrive.surf.nl/files/index.php/s/B7PEqFZSZZBPcW8/download?path=%2FData%2FInput%2FDatasets%2FDavid%2FImages&files=C_18.jpg,5472,3648
C_18,daylight,coffee_table,"[130, 130, 130]","['300121', '4567338', '4211149', '6022023', '6075075', '4118793', '4647553']"
300121,2004,1142,2431,1395
4567338,2021,1351,2178,1442
4211149,1931,2410,2209,2655
6022023,864,1840,1142,2105
6075075,3728,1980,3919,2184
4118793,1555,692,1687,792
4647553,2674,1620,2853,1856
