https://surfdrive.surf.nl/files/index.php/s/B7PEqFZSZZBPcW8/download?path=%2FData%2FInput%2FDatasets%2FDavid%2FImages&files=C_199.jpg,5472,3648
C_199,daylight,coffee_table,"[130, 130, 130]","['4212454', '4649749']"
4212454,2714,1669,2917,1802
4649749,2497,1667,2788,1988
