https://surfdrive.surf.nl/files/index.php/s/B7PEqFZSZZBPcW8/download?path=%2FData%2FInput%2FDatasets%2FDavid%2FImages&files=C_240.jpg,5472,3648
C_240,daylight,coffee_table,"[130, 130, 130]","['4118793', '4567338', '6073026', '4211054', '4121739', '300124', '6244886', '4211166']"
4118793,2910,2468,3117,2708
4567338,2224,883,2346,1043
6073026,3163,2065,3365,2296
4211054,2492,1622,2821,1889
4121739,2890,1967,3148,2279
300124,3021,1549,3471,2017
6244886,2416,1597,2696,1859
4211166,2333,1930,2615,2174
