https://surfdrive.surf.nl/files/index.php/s/B7PEqFZSZZBPcW8/download?path=%2FData%2FInput%2FDatasets%2FDavid%2FImages&files=C_256.jpg,5472,3648
C_256,daylight,coffee_table,"[130, 130, 130]","['6223631', '300424', '4153825']"
6223631,2125,1880,2279,2030
300424,2426,1871,2608,2130
4153825,3303,1401,3509,1720
