https://surfdrive.surf.nl/files/index.php/s/B7PEqFZSZZBPcW8/download?path=%2FData%2FInput%2FDatasets%2FDavid%2FImages&files=C_337.jpg,5472,3647
C_337,daylight,living_room_floor,"[130, 130, 130]","['4211614', '4153825', '6151663', '6004938', '306223', '6022064']"
4211614,2662,1719,2757,1852
4153825,3075,1273,3317,1513
6151663,2467,1188,2596,1360
6004938,2149,1736,2258,1867
306223,3480,1243,3599,1351
6022064,2247,2035,2525,2237
