https://surfdrive.surf.nl/files/index.php/s/B7PEqFZSZZBPcW8/download?path=%2FData%2FInput%2FDatasets%2FDavid%2FImages&files=C_342.jpg,5472,3648
C_342,daylight,living_room_floor,"[130, 130, 130]","['4211614', '4153825', '6151663', '6004938', '306223', '6022064', '4639693', '4181135']"
4211614,2630,1882,2802,2056
4153825,2466,1090,2781,1350
6151663,2955,1187,3141,1337
6004938,2547,1809,2684,1947
306223,2732,1761,2856,1867
6022064,3694,889,3779,1159
4639693,3083,1230,3812,1760
4181135,2480,1041,3020,1444
