https://surfdrive.surf.nl/files/index.php/s/B7PEqFZSZZBPcW8/download?path=%2FData%2FInput%2FDatasets%2FDavid%2FImages&files=C_35.jpg,5472,3648
C_35,daylight,coffee_table,"[130, 130, 130]",['6104154']
6104154,2670,1734,2801,1949
