https://surfdrive.surf.nl/files/index.php/s/B7PEqFZSZZBPcW8/download?path=%2FData%2FInput%2FDatasets%2FDavid%2FImages&files=C_353.jpg,5472,3648
C_353,daylight,living_room_floor,"[130, 130, 130]","['4118793', '6035291', '4211614']"
4118793,3910,1248,4033,1400
6035291,2671,1751,2888,1900
4211614,1930,1822,2095,2073
