https://surfdrive.surf.nl/files/index.php/s/B7PEqFZSZZBPcW8/download?path=%2FData%2FInput%2FDatasets%2FDavid%2FImages&files=C_362.jpg,5472,3647
C_362,daylight,living_room_floor,"[130, 130, 130]","['4118793', '6035291', '4211614', '4567338', '4211412', '6025026']"
4118793,2972,1588,3132,1721
6035291,2812,1737,3006,1864
4211614,2671,1623,2883,1754
4567338,2596,1764,2782,1821
4211412,2856,1588,3043,1720
6025026,2635,1782,2845,1899
