https://surfdrive.surf.nl/files/index.php/s/B7PEqFZSZZBPcW8/download?path=%2FData%2FInput%2FDatasets%2FDavid%2FImages&files=C_369.jpg,5472,3648
C_369,daylight,living_room_floor,"[130, 130, 130]","['4118793', '6035291', '4211614', '4567338', '4211412', '6025026', '4548180', '4655172', '4647553']"
4118793,2440,1807,2531,1912
6035291,2865,1870,2998,1986
4211614,2064,1572,2187,1694
4567338,2843,1284,2918,1364
4211412,3192,1572,3275,1655
6025026,2850,1824,2980,1909
4548180,2692,1761,2801,1879
4655172,1663,2019,1966,2212
4647553,3251,1526,3373,1655
