https://surfdrive.surf.nl/files/index.php/s/B7PEqFZSZZBPcW8/download?path=%2FData%2FInput%2FDatasets%2FDavid%2FImages&files=C_485.jpg,5472,3648
C_485,daylight,coffee_table,"[130, 130, 130]",['300424']
300424,2458,1702,2729,1968
