https://surfdrive.surf.nl/files/index.php/s/B7PEqFZSZZBPcW8/download?path=%2FData%2FInput%2FDatasets%2FDavid%2FImages&files=C_508.jpg,5472,3648
C_508,daylight,coffee_table,"[130, 130, 130]","['300424', '6004938', '306201', '4211166', '4621545', '300121', '4118793', '4548180', '4539099']"
300424,1812,1493,2084,1649
6004938,1296,1366,1468,1509
306201,1818,1394,1985,1497
4211166,1934,1684,2161,1885
4621545,2220,1613,2499,1845
300121,1543,1147,2026,1335
4118793,2259,1472,2432,1607
4548180,2055,1301,2288,1446
4539099,3789,1686,3929,1852
