https://surfdrive.surf.nl/files/index.php/s/B7PEqFZSZZBPcW8/download?path=%2FData%2FInput%2FDatasets%2FDavid%2FImages&files=C_503.jpg,5472,3648
C_503,daylight,coffee_table,"[130, 130, 130]","['300424', '6004938', '306201', '4211166', '4621545', '300121', '4118793']"
300424,2040,1235,2351,1470
6004938,2432,1806,2636,1971
306201,2956,1542,3141,1726
4211166,3062,2162,3375,2461
4621545,2161,1378,2490,1672
300121,3268,1604,3566,2124
4118793,2675,1691,2888,1891
