https://surfdrive.surf.nl/files/index.php/s/B7PEqFZSZZBPcW8/download?path=%2FData%2FInput%2FDatasets%2FDavid%2FImages&files=C_55.jpg,5472,3648
C_55,daylight,coffee_table,"[130, 130, 130]","['6104154', '4527943', '4157124', '4211201', '4211614', '4504381', '300421', '4649749']"
6104154,1512,1897,1683,2132
4527943,1938,1199,2176,1378
4157124,2275,2285,2498,2543
4211201,1692,1870,2273,2156
4211614,3861,1469,4156,1681
4504381,3497,1915,3666,2097
300421,2740,939,2983,1102
4649749,1864,2488,2165,2640
