https://surfdrive.surf.nl/files/index.php/s/B7PEqFZSZZBPcW8/download?path=%2FData%2FInput%2FDatasets%2FDavid%2FImages&files=C_585.jpg,5472,3648
C_585,daylight,window_sill,"[130, 130, 130]","['614321', '4211221', '4651236', '4621545', '6249125', '4143562']"
614321,1944,1207,2198,1498
4211221,2102,1131,2400,1384
4651236,3101,1468,3382,1699
4621545,1808,2012,2139,2313
6249125,2686,1774,2830,1862
4143562,1738,2348,2126,2678
