https://surfdrive.surf.nl/files/index.php/s/B7PEqFZSZZBPcW8/download?path=%2FData%2FInput%2FDatasets%2FDavid%2FImages&files=C_605.jpg,5472,3648
C_605,daylight,window_sill,"[130, 130, 130]","['300423', '6073026']"
300423,2680,1618,2864,1911
6073026,2428,2248,2638,2476
