https://surfdrive.surf.nl/files/index.php/s/B7PEqFZSZZBPcW8/download?path=%2FData%2FInput%2FDatasets%2FDavid%2FImages&files=C_615.jpg,5472,3647
C_615,daylight,window_sill,"[130, 130, 130]","['300423', '6073026', '4558957', '4527943', '4121967', '6249125']"
300423,3833,1566,4091,1789
6073026,2796,1737,2965,1970
4558957,3420,1133,3868,1556
4527943,2090,1141,2321,1347
4121967,3151,1240,3391,1421
6249125,3497,1607,3657,1735
