https://surfdrive.surf.nl/files/index.php/s/B7PEqFZSZZBPcW8/download?path=%2FData%2FInput%2FDatasets%2FDavid%2FImages&files=C_688.jpg,5472,3647
C_688,daylight,coffee_table,"[130, 130, 130]","['4558957', '4539099', '300323', '6229071', '4157124']"
4558957,3808,1636,4081,2061
4539099,2633,1728,2731,1890
300323,2086,1167,2336,1446
6229071,3315,2005,3559,2333
4157124,1748,2046,2039,2214
