https://surfdrive.surf.nl/files/index.php/s/B7PEqFZSZZBPcW8/download?path=%2FData%2FInput%2FDatasets%2FDavid%2FImages&files=C_714.jpg,5472,3648
C_714,daylight,coffee_table,"[130, 130, 130]","['4529240', '4211437', '4211437', '4539099', '4211149', '300124']"
4529240,2541,2093,2661,2256
4211437,2656,2090,2968,2261
4211437,2566,1764,2770,2027
4539099,2655,1671,2816,1805
4211149,2720,1343,2973,1633
300124,2991,1533,3189,2131
