https://surfdrive.surf.nl/files/index.php/s/B7PEqFZSZZBPcW8/download?path=%2FData%2FInput%2FDatasets%2FDavid%2FImages&files=C_760.jpg,5472,3648
C_760,daylight,couch,"[130, 130, 130]","['6074890', '4211511', '4520632']"
6074890,3281,1926,3467,2012
4211511,2122,1738,2282,1847
4520632,3123,1346,3636,1598
