https://surfdrive.surf.nl/files/index.php/s/B7PEqFZSZZBPcW8/download?path=%2FData%2FInput%2FDatasets%2FDavid%2FImages&files=C_776.jpg,5472,3647
C_776,daylight,couch,"[130, 130, 130]","['4621545', '4210718']"
4621545,2419,1948,2734,2249
4210718,2491,1486,3113,1948
