https://surfdrive.surf.nl/files/index.php/s/B7PEqFZSZZBPcW8/download?path=%2FData%2FInput%2FDatasets%2FDavid%2FImages&files=C_831.jpg,5472,3648
C_831,daylight,coffee-table,"[120, 120, 120]","['365901', '300821', '4212454', '4567338', '300423', '6104154', '4143562', '6244886', '4210718', '6075075', '300321', '300323']"
365901,2665,2021,3117,2453
300821,1931,1866,2895,2058
4212454,2573,1178,2715,1281
4567338,2946,2703,3137,2809
300423,2671,2507,2954,2729
6104154,1785,2014,1990,2190
4143562,3156,2611,3425,2846
6244886,2510,1977,2785,2135
4210718,2086,2191,2620,2567
6075075,2922,2496,3137,2662
300321,2937,2206,3241,2481
300323,1960,1504,2196,1641
