https://surfdrive.surf.nl/files/index.php/s/B7PEqFZSZZBPcW8/download?path=%2FData%2FInput%2FDatasets%2FDavid%2FImages&files=C_854.jpg,5472,3648
C_854,daylight,coffee-table,"[120, 120, 120]","['6138173', '6069259', '6223631', '4211166', '6075079', '300424', '6177697', '4639693', '4504369']"
6138173,2910,1926,3196,2140
6069259,2798,1296,2969,1501
6223631,2474,1663,2581,1781
4211166,2533,1403,2750,1587
6075079,2604,1718,2824,1893
300424,3233,1221,3514,1402
6177697,2745,1294,3160,1642
4639693,2181,1376,2455,2265
4504369,2464,2267,2633,2391
