https://surfdrive.surf.nl/files/index.php/s/B7PEqFZSZZBPcW8/download?path=%2FData%2FInput%2FDatasets%2FDavid%2FImages&files=C_872.jpg,5472,3647
C_872,daylight,coffee-table,"[120, 120, 120]","['4539099', '4153825', '6022064', '4211511', '4517992', '6022023', '4621545', '4520632', '6229071', '6035291', '4527943']"
4539099,2400,1584,2526,1672
4153825,2353,1959,2645,2215
6022064,3184,2268,3301,2571
4211511,2228,1898,2370,2055
4517992,2634,1694,2856,1887
6022023,2802,2100,3071,2368
4621545,1712,1667,1938,1824
4520632,2693,1063,2922,1379
6229071,1778,1198,1945,1379
6035291,2231,2182,2460,2335
4527943,1949,1328,2118,1532
