https://surfdrive.surf.nl/files/index.php/s/B7PEqFZSZZBPcW8/download?path=%2FData%2FInput%2FDatasets%2FDavid%2FImages&files=C_89.jpg,5472,3648
C_89,daylight,coffee_table,"[130, 130, 130]","['4121739', '306223', '4210718', '6151663', '4529240']"
4121739,2480,2354,2846,2570
306223,2716,1200,2897,1314
4210718,1628,1173,2076,1796
6151663,2705,2769,3095,3051
4529240,2945,1054,3060,1225
