https://surfdrive.surf.nl/files/index.php/s/B7PEqFZSZZBPcW8/download?path=%2FData%2FInput%2FDatasets%2FDavid%2FImages&files=C_981.jpg,5472,3648
C_981,daylight,couch,"[120, 120, 120]","['654126', '6004938', '4210718', '6238674', '4539099', '4651236']"
654126,2327,1677,2518,1889
6004938,2560,1863,2774,2064
4210718,2640,1528,3278,1879
6238674,2336,1886,2508,2066
4539099,2218,1438,2392,1567
4651236,2909,1968,3184,2148
