https://surfdrive.surf.nl/files/index.php/s/B7PEqFZSZZBPcW8/download?path=%2FData%2FInput%2FDatasets%2FDavid%2FImages&files=C_992.jpg,5472,3648
C_992,daylight,couch,"[120, 120, 120]","['4527943', '300401', '4550325', '4211201', '4121967', '306223', '4157124', '6022064', '614321', '6069259']"
4527943,2535,1607,2731,1787
300401,2865,1812,2998,2024
4550325,2811,1476,3005,1609
4211201,2409,1273,2655,1615
4121967,3195,1618,3383,1801
306223,2840,1640,2940,1768
4157124,2615,2192,2720,2400
6022064,2725,1976,3061,2210
614321,2437,1768,2622,1952
6069259,2563,1993,2728,2180
