https://surfdrive.surf.nl/files/index.php/s/B7PEqFZSZZBPcW8/download?path=%2FData%2FInput%2FDatasets%2FHiba%2FImages&files=H_101.jpg,5184,3456
H_101,daylight,wood,"[130, 130, 130]","['6074890', '6035291', '6022023']"
6074890,2460,1746,2598,1838
6035291,1809,1365,1982,1515
6022023,2863,2362,3184,2614
