https://surfdrive.surf.nl/files/index.php/s/B7PEqFZSZZBPcW8/download?path=%2FData%2FInput%2FDatasets%2FHiba%2FImages&files=H_117.jpg,5184,3456
H_117,daylight,wood,"[130, 130, 130]","['6022064', '4558957', '306223', '4527943', '6003007', '4211614']"
6022064,2969,1509,3208,1669
4558957,2183,1629,2498,1924
306223,3059,1784,3151,1919
4527943,2194,1308,2331,1464
6003007,2872,1325,2974,1424
4211614,2419,1859,2612,2008
