https://surfdrive.surf.nl/files/index.php/s/B7PEqFZSZZBPcW8/download?path=%2FData%2FInput%2FDatasets%2FHiba%2FImages&files=H_159.jpg,5184,3456
H_159,daylight,wood,"[130, 130, 130]","['4109995', '6025026', '6025026']"
4109995,3616,1884,3802,2125
6025026,3301,1667,3538,1804
6025026,1466,1800,1716,1898
