https://surfdrive.surf.nl/files/index.php/s/B7PEqFZSZZBPcW8/download?path=%2FData%2FInput%2FDatasets%2FHiba%2FImages&files=H_171.jpg,5184,3456
H_171,daylight,wood,"[130, 130, 130]","['4211412', '4153825', '4210718', '6104154']"
4211412,1594,2131,1891,2334
4153825,3309,1159,3624,1453
4210718,2123,1023,2666,1567
6104154,3501,1455,3792,1756
