https://surfdrive.surf.nl/files/index.php/s/B7PEqFZSZZBPcW8/download?path=%2FData%2FInput%2FDatasets%2FHiba%2FImages&files=H_216.jpg,5184,3456
H_216,daylight,wood,"[130, 130, 130]",['300124']
300124,2371,1555,2788,2105
