https://surfdrive.surf.nl/files/index.php/s/B7PEqFZSZZBPcW8/download?path=%2FData%2FInput%2FDatasets%2FHiba%2FImages&files=H_230.jpg,5184,3456
H_230,daylight,wood,"[130, 130, 130]","['300124', '300401', '6249125', '4121739', '6249125']"
300124,2474,1040,2866,1410
300401,2445,1779,2619,2027
6249125,2368,1682,2496,1837
6249125,2627,1987,2776,2088
4121739,2715,720,2856,886
