https://surfdrive.surf.nl/files/index.php/s/B7PEqFZSZZBPcW8/download?path=%2FData%2FInput%2FDatasets%2FHiba%2FImages&files=H_250.jpg,5184,3456
H_250,daylight,wood,"[130, 130, 130]","['6035291', '4160403', '6104154', '300123', '6069259', '6075079']"
6035291,3714,2450,3899,2552
4160403,2364,1658,2832,1846
6104154,2102,2134,2237,2330
300123,1948,1870,2290,2195
6069259,2588,1779,2776,1944
6075079,2535,2490,2732,2658
