https://surfdrive.surf.nl/files/index.php/s/B7PEqFZSZZBPcW8/download?path=%2FData%2FInput%2FDatasets%2FHiba%2FImages&files=H_271.jpg,5183,3456
H_271,daylight,wood,"[130, 130, 130]","['4143562', '300123', '4109995']"
4143562,2211,2338,2398,2496
300123,1708,1408,1922,1648
4109995,3715,1061,3859,1150
