https://surfdrive.surf.nl/files/index.php/s/B7PEqFZSZZBPcW8/download?path=%2FData%2FInput%2FDatasets%2FHiba%2FImages&files=H_270.jpg,5184,3456
H_270,daylight,wood,"[130, 130, 130]","['4143562', '300123', '4109995']"
4143562,2538,1922,2766,2078
300123,2424,1577,2734,1890
4109995,1692,1495,1831,1662
