https://surfdrive.surf.nl/files/index.php/s/B7PEqFZSZZBPcW8/download?path=%2FData%2FInput%2FDatasets%2FHiba%2FImages&files=H_344.jpg,5183,3456
H_344,daylight,wood,"[130, 130, 130]",['6035291']
6035291,2461,1667,2591,2020
