https://surfdrive.surf.nl/files/index.php/s/B7PEqFZSZZBPcW8/download?path=%2FData%2FInput%2FDatasets%2FHiba%2FImages&files=H_350.jpg,5184,3456
H_350,daylight,wood,"[130, 130, 130]","['6035291', '6151663', '4181144']"
6035291,1299,2146,1572,2326
6151663,2400,1345,2600,1462
4181144,2553,1440,2709,2036
