https://surfdrive.surf.nl/files/index.php/s/B7PEqFZSZZBPcW8/download?path=%2FData%2FInput%2FDatasets%2FHiba%2FImages&files=H_375.jpg,5184,3456
H_375,daylight,wood,"[130, 130, 130]","['365901', '300424', '4529247', '4211412', '6238674']"
365901,2658,1716,3105,2202
300424,2398,1689,2718,1971
4529247,1993,1173,2089,1336
4211412,2226,1918,2408,2130
6238674,2726,1611,2942,1782
