https://surfdrive.surf.nl/files/index.php/s/B7PEqFZSZZBPcW8/download?path=%2FData%2FInput%2FDatasets%2FHiba%2FImages&files=H_379.jpg,5184,3456
H_379,daylight,wood,"[130, 130, 130]","['365901', '300424', '4529247', '4211412', '6238674', '4539099']"
365901,980,1858,1693,2256
300424,2834,1152,3146,1388
4529247,2577,1575,2773,1730
4211412,2849,2635,3161,2820
6238674,2240,1479,2466,1675
4539099,2412,1609,2545,1790
