https://surfdrive.surf.nl/files/index.php/s/B7PEqFZSZZBPcW8/download?path=%2FData%2FInput%2FDatasets%2FHiba%2FImages&files=H_390.jpg,5184,3455
H_390,daylight,wood,"[130, 130, 130]","['4181134', '4212454']"
4181134,1808,1638,2663,2187
4212454,2569,1535,2744,1696
