https://surfdrive.surf.nl/files/index.php/s/B7PEqFZSZZBPcW8/download?path=%2FData%2FInput%2FDatasets%2FHiba%2FImages&files=H_398.jpg,5184,3455
H_398,daylight,wood,"[130, 130, 130]","['4211166', '4647553']"
4211166,2426,971,2692,1289
4647553,2422,1614,2697,2028
