https://surfdrive.surf.nl/files/index.php/s/B7PEqFZSZZBPcW8/download?path=%2FData%2FInput%2FDatasets%2FHiba%2FImages&files=H_401.jpg,5184,3455
H_401,daylight,wood,"[130, 130, 130]","['4211166', '4647553', '4114319']"
4211166,3119,899,3374,1111
4647553,1180,1522,1504,1824
4114319,2577,1908,3239,2699
