https://surfdrive.surf.nl/files/index.php/s/B7PEqFZSZZBPcW8/download?path=%2FData%2FInput%2FDatasets%2FHiba%2FImages&files=H_413.jpg,5184,3456
H_413,daylight,wood,"[130, 130, 130]","['4211166', '4647553', '4114319', '4550348', '4567338', '4211437', '4621545']"
4211166,2459,1518,2749,1736
4647553,1850,1187,2059,1362
4114319,1688,1517,2028,1849
4550348,2488,1408,2772,1608
4567338,2057,1520,2254,1725
4211437,2392,1705,2578,1990
4621545,906,2040,1342,2713
