https://surfdrive.surf.nl/files/index.php/s/B7PEqFZSZZBPcW8/download?path=%2FData%2FInput%2FDatasets%2FHiba%2FImages&files=H_505.jpg,5184,3455
H_505,daylight,parquet_brown_medium,"[120, 120, 120]","['4520632', '4181134', '4211201', '4504369', '6025026', '6244886', '623224', '4529247', '654126', '4211511', '6075075', '300321', '6074890']"
4520632,2214,1353,2485,1496
4181134,2769,1072,2952,1335
4211201,1928,1575,2208,1737
4504369,2665,1747,2747,1829
6025026,2334,1907,2482,2023
6244886,3272,1338,3435,1478
623224,2325,1599,2499,1723
4529247,3104,2132,3163,2236
654126,2589,1238,2669,1280
4211511,1418,2167,1511,2253
6075075,2812,1600,2909,1716
300321,2044,1999,2234,2151
6074890,2761,2131,2827,2214
