https://surfdrive.surf.nl/files/index.php/s/B7PEqFZSZZBPcW8/download?path=%2FData%2FInput%2FDatasets%2FHiba%2FImages&files=H_589.jpg,5184,3455
H_589,daylight,table_plastic_grey,"[120, 120, 120]","['4157124', '4211511', '6022064', '4211149', '4550348', '4651236', '4539099', '4550325', '4548180', '623224', '4121967']"
4157124,2782,1866,2898,2063
4211511,3042,607,3176,728
6022064,3389,1752,3592,2097
4211149,2324,844,2440,1012
4550348,2118,1798,2330,1920
4651236,2012,2647,2258,2864
4539099,3078,1471,3199,1563
4550325,1645,2238,1825,2472
4548180,2412,1498,2613,1584
623224,2944,877,3169,1082
4121967,2726,718,2883,847
