https://surfdrive.surf.nl/files/index.php/s/B7PEqFZSZZBPcW8/download?path=%2FData%2FInput%2FDatasets%2FHiba%2FImages&files=H_580.jpg,5184,3456
H_580,daylight,table_plastic_grey,"[120, 120, 120]","['6138173', '6075079', '4650630', '300424', '300321', '4121967', '6223631', '614321', '4121739']"
6138173,2209,1513,2283,1647
6075079,2272,831,2442,948
4650630,2652,1700,2845,1870
300424,3239,1494,3410,1639
300321,3780,1744,3985,1899
4121967,3424,908,3583,994
6223631,2185,1558,2322,1644
614321,1325,1083,1464,1205
4121739,2505,1768,2640,1874
