https://surfdrive.surf.nl/files/index.php/s/B7PEqFZSZZBPcW8/download?path=%2FData%2FInput%2FDatasets%2FHiba%2FImages&files=H_592.jpg,5184,3456
H_592,daylight,table_plastic_grey,"[120, 120, 120]","['4157124', '4211511', '6022064', '4211149', '4550348', '4651236', '4539099', '4550325', '4548180', '623224']"
4157124,3461,1597,3550,1740
4211511,2235,1512,2348,1639
6022064,1481,1874,1731,1966
4211149,3312,2179,3514,2354
4550348,2689,1249,2846,1345
4651236,2733,1054,2853,1155
4539099,2784,857,2866,931
4550325,3111,1357,3265,1495
4548180,2229,1224,2370,1339
623224,2876,1723,3098,1899
