https://surfdrive.surf.nl/files/index.php/s/B7PEqFZSZZBPcW8/download?path=%2FData%2FInput%2FDatasets%2FHiba%2FImages&files=H_604.jpg,5183,3456
H_604,daylight,table_plastic_grey,"[120, 120, 120]","['4639693', '4517992', '6074890', '4211437', '6062574', '4529240', '4655172', '6028324', '4649749', '4211149', '4143562', '4210718']"
4639693,1195,1415,1454,2060
4517992,1662,1620,1886,1848
6074890,1538,1004,1661,1103
4211437,2655,1059,2822,1173
6062574,2501,1723,2647,1870
4529240,2453,1658,2586,1737
4655172,2551,2536,2989,2816
6028324,2492,780,2636,901
4649749,2253,1021,2442,1098
4211149,2013,1562,2211,1719
4143562,3677,1375,3915,1572
4210718,3047,1427,3261,1767
