https://surfdrive.surf.nl/files/index.php/s/B7PEqFZSZZBPcW8/download?path=%2FData%2FInput%2FDatasets%2FHiba%2FImages&files=H_631.jpg,5184,3456
H_631,daylight,parquet_brown_light,"[120, 120, 120]","['4211412', '300421', '300121', '4529247', '300401', '6075075', '6151663', '6022023', '6223631', '4121967', '4211166', '6252809', '4211511']"
4211412,1351,2014,1495,2122
300421,2446,1581,2623,1741
300121,2334,1844,2751,2031
4529247,1613,2491,1746,2654
300401,4066,1548,4267,1641
6075075,2466,1080,2614,1197
6151663,2912,1946,3127,2067
6022023,3076,2087,3324,2376
6223631,2495,1320,2559,1409
4121967,3429,486,3501,621
4211166,1627,1247,1786,1383
6252809,3386,1279,3531,1969
4211511,3982,1403,4066,1504
