https://surfdrive.surf.nl/files/index.php/s/B7PEqFZSZZBPcW8/download?path=%2FData%2FInput%2FDatasets%2FHiba%2FImages&files=H_64.jpg,5184,3456
H_64,daylight,wood,"[130, 130, 130]","['4211511', '4529240', '614321', '300423', '4212454', '6062574']"
4211511,3187,2244,3302,2396
4529240,1884,1411,2003,1507
614321,1941,2133,2169,2315
300423,2510,1635,2728,1742
4212454,2537,1008,2640,1089
6062574,2206,1234,2349,1355
