https://surfdrive.surf.nl/files/index.php/s/B7PEqFZSZZBPcW8/download?path=%2FData%2FInput%2FDatasets%2FHiba%2FImages&files=H_679.jpg,5184,3456
H_679,daylight,parquet_brown_light,"[120, 120, 120]","['6138173', '6229071', '6075079', '4650630', '300424', '4527943', '300321', '4153825', '306201', '4558957', '4650630', '4529240', '4114319']"
6138173,2409,1826,2649,2061
6229071,1453,1964,1697,2143
6075079,1690,1370,1891,1455
4650630,3132,852,3322,1106
4650630,3233,1150,3420,1302
300424,1931,1370,2150,1517
4527943,2471,1577,2685,1758
300321,3008,1478,3230,1694
4153825,2813,1658,3084,1909
306201,3075,2134,3238,2265
4558957,2012,1025,2383,1319
4529240,1801,1216,1910,1344
4114319,3487,1199,3853,1561
