https://surfdrive.surf.nl/files/index.php/s/B7PEqFZSZZBPcW8/download?path=%2FData%2FInput%2FDatasets%2FHiba%2FImages&files=H_673.jpg,5184,3456
H_673,daylight,parquet_brown_light,"[120, 120, 120]","['6069259', '4165967', '6238674', '4181144', '4558957', '4181134', '6244886', '4504369', '4143562', '4210718']"
6069259,1292,2457,1566,2653
4165967,3654,1501,4142,1767
6238674,1601,1444,1758,1530
4181144,3512,1094,4148,1324
4558957,2828,737,3184,971
4181134,3145,1566,3880,1939
6244886,3112,2369,3462,2760
4504369,1688,1682,1806,1790
4143562,2104,1163,2359,1349
4210718,2403,1477,2949,1795
