https://surfdrive.surf.nl/files/index.php/s/B7PEqFZSZZBPcW8/download?path=%2FData%2FInput%2FDatasets%2FHiba%2FImages&files=H_728.jpg,5184,3456
H_728,daylight,parquet_brown_light,"[120, 120, 120]","['6062574', '300123', '4655172', '6225539', '4517992', '6074890', '6022064', '4621545', '4211201', '4539099']"
6062574,2861,1553,2995,1661
300123,1946,1382,2188,1722
4655172,2204,958,2436,1238
6225539,2468,1904,2943,2415
4517992,3305,1652,3443,1858
6074890,2475,2073,2554,2190
6022064,2541,1097,2726,1294
4621545,2886,1203,3087,1326
4211201,2690,1253,3083,1513
4539099,1829,1529,1945,1629
