https://surfdrive.surf.nl/files/index.php/s/B7PEqFZSZZBPcW8/download?path=%2FData%2FInput%2FDatasets%2FHiba%2FImages&files=H_749.jpg,5183,3456
H_749,artificial_light,parquet_brown_medium,"[120, 120, 120]","['300323', '6028324', '4651236', '300124', '6004938', '4211412', '300121', '623224', '4550325']"
300323,3428,2136,3667,2323
6028324,2392,1094,2492,1178
4651236,2188,1791,2334,1916
300124,2395,1488,2730,1710
6004938,2685,1884,2814,1968
4211412,2036,2243,2172,2302
300121,2081,1353,2413,1537
623224,1334,1861,1507,1990
4550325,3018,1124,3138,1211
