https://surfdrive.surf.nl/files/index.php/s/B7PEqFZSZZBPcW8/download?path=%2FData%2FInput%2FDatasets%2FHiba%2FImages&files=H_772.jpg,5184,3455
H_772,artificial_light,parquet_brown_medium,"[120, 120, 120]","['4550348', '4153827', '300421', '6003007', '4211437', '654126', '4181135', '6252809', '4211437']"
4550348,1802,1721,1912,1825
4153827,2445,1252,2691,1374
300421,3231,2198,3399,2336
6003007,2299,1137,2387,1193
4211437,2228,1492,2355,1588
4211437,3062,1670,3186,1784
654126,1999,1779,2093,1870
4181135,2483,1661,2745,2017
6252809,2330,1448,2565,1954
