https://surfdrive.surf.nl/files/index.php/s/B7PEqFZSZZBPcW8/download?path=%2FData%2FInput%2FDatasets%2FBerend%2FImages&files=B_229.jpg,4608,3072
B_229,daylight,wood,"[130, 130, 130]","['6138173', '4210718', '4210718']"
6138173,2089,962,2289,1211
4210718,1524,1605,2033,2126
4210718,1894,1289,2385,1771
