https://surfdrive.surf.nl/files/index.php/s/B7PEqFZSZZBPcW8/download?path=%2FData%2FInput%2FDatasets%2FBerend%2FImages&files=B_298.jpg,4608,3072
B_298,daylight,wood,"[130, 130, 130]","['4211614', '4121739', '300423', '300323', '6104154', '4211437', '6069259', '4211614', '306223', '300421']"
4211614,2523,905,2603,1002
4211614,2326,1698,2416,1829
4121739,2475,1418,2588,1517
300423,2399,1466,2530,1607
300323,1042,1778,1199,1940
6104154,2100,899,2184,999
4211437,2808,1247,2903,1371
6069259,2270,1578,2380,1682
306223,2009,1535,2086,1596
300421,2881,1606,3012,1712
