https://surfdrive.surf.nl/files/index.php/s/B7PEqFZSZZBPcW8/download?path=%2FData%2FInput%2FDatasets%2FBerend%2FImages&files=B_328.jpg,4608,3072
B_328,daylight,wood,"[130, 130, 130]","['6003007', '4153827', '4621545', '6073026', '300401']"
6003007,1608,1936,1816,2106
4153827,2245,1374,2801,1791
4621545,2906,1336,3260,1662
6073026,2682,689,2841,859
300401,1946,1150,2181,1384
