https://surfdrive.surf.nl/files/index.php/s/B7PEqFZSZZBPcW8/download?path=%2FData%2FInput%2FDatasets%2FBerend%2FImages&files=B_397.jpg,4608,3072
B_397,daylight,wood,"[130, 130, 130]",['4548180']
4548180,2040,1360,2416,1601
