https://surfdrive.surf.nl/files/index.php/s/B7PEqFZSZZBPcW8/download?path=%2FData%2FInput%2FDatasets%2FBerend%2FImages&files=B_422.jpg,4607,3072
B_422,daylight,wood,"[130, 130, 130]","['6003007', '4153827', '300124']"
6003007,1788,1584,1896,1744
4153827,1901,1416,2363,1729
300124,2181,1074,2434,1447
