https://surfdrive.surf.nl/files/index.php/s/B7PEqFZSZZBPcW8/download?path=%2FData%2FInput%2FDatasets%2FBerend%2FImages&files=B_440.jpg,4608,3072
B_440,daylight,wood,"[130, 130, 130]","['306201', '4153825', '4647553', '306223', '6151663', '6004938']"
306201,2797,1086,2934,1188
4153825,2336,1816,2562,2123
4647553,2969,2430,3115,2668
306223,430,462,549,588
6151663,3272,1760,3403,1947
6004938,1592,1947,1738,2105
