https://surfdrive.surf.nl/files/index.php/s/B7PEqFZSZZBPcW8/download?path=%2FData%2FInput%2FDatasets%2FBerend%2FImages&files=B_605.jpg,4607,3072
B_605,daylight,wood,"[130, 130, 130]","['6238674', '300323', '4153825', '4211054']"
6238674,3170,1236,3307,1410
300323,2647,1241,2997,1628
4153825,2400,889,2753,1265
4211054,2028,1632,2389,1908
