https://surfdrive.surf.nl/files/index.php/s/B7PEqFZSZZBPcW8/download?path=%2FData%2FInput%2FDatasets%2FBerend%2FImages&files=B_60.jpg,4608,3072
B_60,daylight,wood,"[130, 130, 130]","['6075079', '4520632', '300421', '6073026', '365901', '6062574']"
6075079,2432,1670,2678,1786
4520632,1359,1540,1880,1840
300421,1684,1371,1947,1636
6073026,2203,1356,2385,1568
365901,2356,1731,2807,2172
6062574,3093,1755,3231,1965
