https://surfdrive.surf.nl/files/index.php/s/B7PEqFZSZZBPcW8/download?path=%2FData%2FInput%2FDatasets%2FBerend%2FImages&files=B_626.jpg,4608,3072
B_626,daylight,wood,"[130, 130, 130]",['4118793']
4118793,2210,1404,2479,1775
