https://surfdrive.surf.nl/files/index.php/s/B7PEqFZSZZBPcW8/download?path=%2FData%2FInput%2FDatasets%2FBerend%2FImages&files=B_640.jpg,4608,3072
B_640,daylight,wood,"[130, 130, 130]","['4118793', '4114319', '4558957', '4539099', '6104154', '4109995']"
4118793,1464,1367,1569,1492
4114319,2027,1748,2221,2123
4558957,2018,1363,2328,1653
4539099,2362,1768,2446,1885
6104154,1874,1446,1997,1600
4109995,1884,1271,1993,1411
