https://surfdrive.surf.nl/files/index.php/s/B7PEqFZSZZBPcW8/download?path=%2FData%2FInput%2FDatasets%2FBerend%2FImages&files=B_689.jpg,4608,3072
B_689,daylight,wood,"[130, 130, 130]","['365901', '4567338', '4121967', '6223631', '4212454']"
365901,1413,1847,2034,2309
4567338,1643,1499,1869,1648
4121967,2636,1361,2979,1664
6223631,1495,1644,1669,1793
4212454,2190,1160,2372,1356
