https://surfdrive.surf.nl/files/index.php/s/B7PEqFZSZZBPcW8/download?path=%2FData%2FInput%2FDatasets%2FBerend%2FImages&files=B_756.jpg,4608,3072
B_756,daylight,wood,"[130, 130, 130]","['6035291', '4118793', '4109995', '6022064']"
6035291,1182,196,1386,477
4118793,1579,2227,1855,2564
4109995,2569,1902,3008,2282
6022064,3218,2359,3437,2936
