https://surfdrive.surf.nl/files/index.php/s/B7PEqFZSZZBPcW8/download?path=%2FData%2FInput%2FDatasets%2FBerend%2FImages&files=B_789.jpg,4607,3072
B_789,daylight,wood,"[130, 130, 130]","['4181135', '6069259', '6003007', '4650630', '4504369', '4527943', '6062574', '4211166', '4211437']"
4181135,1345,1012,1857,1819
6069259,1855,1620,2152,1926
6003007,3377,512,3602,671
4650630,1779,1216,2158,1624
4504369,1977,2127,2194,2335
4527943,1031,848,1329,1118
6062574,1623,1986,1894,2275
4211166,1110,1262,1391,1585
4211437,1425,750,1691,966
