https://surfdrive.surf.nl/files/index.php/s/B7PEqFZSZZBPcW8/download?path=%2FData%2FInput%2FDatasets%2FDavid%2FImages&files=C_129.jpg,5472,3648
C_129,artificial,coffee_table,"[130, 130, 130]","['6238674', '4212454', '4504369', '4550348', '4527943']"
6238674,2170,2116,2319,2263
4212454,2411,1771,2567,1889
4504369,2351,1873,2470,1950
4550348,2395,1912,2621,2092
4527943,2827,1431,2988,1622
