https://surfdrive.surf.nl/files/index.php/s/B7PEqFZSZZBPcW8/download?path=%2FData%2FInput%2FDatasets%2FDavid%2FImages&files=C_199.jpg,5472,3648
C_199,daylight,coffee_table,"[130, 130, 130]","['4212454', '4649749']"
4212454,2719,1668,2913,1805
4649749,2494,1667,2785,1987
