https://surfdrive.surf.nl/files/index.php/s/B7PEqFZSZZBPcW8/download?path=%2FData%2FInput%2FDatasets%2FDavid%2FImages&files=C_19.jpg,5472,3648
C_19,daylight,coffee_table,"[130, 130, 130]","['300121', '4567338', '4211149', '6022023', '6075075', '4118793', '4647553']"
300121,1950,1267,2228,1669
4567338,2888,1353,3051,1448
4211149,1046,2117,1362,2324
6022023,1693,1470,1953,1692
6075075,3669,2035,3937,2218
4118793,3456,1300,3578,1440
4647553,2546,1638,2810,1858
