https://surfdrive.surf.nl/files/index.php/s/B7PEqFZSZZBPcW8/download?path=%2FData%2FInput%2FDatasets%2FDavid%2FImages&files=C_213.jpg,5472,3648
C_213,daylight,coffee_table,"[130, 130, 130]","['4212454', '4649749', '4157124', '4211437', '306223', '4212454', '4211149']"
4212454,3063,1427,3254,1594
4212454,2915,1489,3094,1686
4649749,2397,2389,2750,2654
4157124,3041,2156,3234,2468
4211437,2321,1157,2632,1386
306223,2677,2236,2853,2486
4211149,2004,1421,2325,1667
