https://surfdrive.surf.nl/files/index.php/s/B7PEqFZSZZBPcW8/download?path=%2FData%2FInput%2FDatasets%2FDavid%2FImages&files=C_228.jpg,5472,3648
C_228,daylight,coffee_table,"[130, 130, 130]","['4118793', '4567338', '6073026', '4211054']"
4118793,2576,1438,2790,1659
4567338,2618,1795,2789,2012
6073026,2618,1799,2795,2017
4211054,2704,1593,2923,1939
