https://surfdrive.surf.nl/files/index.php/s/B7PEqFZSZZBPcW8/download?path=%2FData%2FInput%2FDatasets%2FDavid%2FImages&files=C_429.jpg,5472,3648
C_429,daylight,living_room_floor,"[130, 130, 130]","['6028324', '4558957', '6104154', '4651236']"
6028324,2624,1705,2852,1956
4558957,1948,1159,2376,1584
6104154,3581,1222,3869,1511
4651236,2039,1153,2282,1334
