https://surfdrive.surf.nl/files/index.php/s/B7PEqFZSZZBPcW8/download?path=%2FData%2FInput%2FDatasets%2FDavid%2FImages&files=C_493.jpg,5472,3648
C_493,daylight,coffee_table,"[130, 130, 130]","['300424', '6004938', '306201', '4211166']"
300424,2871,1745,3133,2120
6004938,2984,1188,3171,1426
306201,2710,1312,2935,1452
4211166,2784,1497,2997,1832
