https://surfdrive.surf.nl/files/index.php/s/B7PEqFZSZZBPcW8/download?path=%2FData%2FInput%2FDatasets%2FDavid%2FImages&files=C_510.jpg,5472,3648
C_510,daylight,coffee_table,"[130, 130, 130]","['300424', '6004938', '306201', '4211166', '4621545', '300121', '4118793', '4548180', '4539099', '654126']"
300424,2530,1627,2894,2029
6004938,1909,1674,2147,1971
306201,587,1663,852,1815
4211166,2827,1424,3147,1796
4621545,3492,1177,3841,1541
300121,2366,783,2750,1401
4118793,3034,1184,3277,1433
4548180,3403,1191,3675,1439
4539099,2049,1864,2184,2117
654126,2595,1498,2797,1743
