https://surfdrive.surf.nl/files/index.php/s/B7PEqFZSZZBPcW8/download?path=%2FData%2FInput%2FDatasets%2FDavid%2FImages&files=C_637.jpg,5472,3648
C_637,daylight,coffee_table,"[130, 130, 130]","['6074890', '6073026', '4211221', '4211166', '4181144', '4211149']"
6074890,3571,2055,3747,2151
6073026,2280,1762,2433,1958
4211221,2627,1659,2852,1893
4211166,2881,1781,3091,2024
4181144,2457,1282,3146,1685
4211149,3523,2162,3787,2363
