https://surfdrive.surf.nl/files/index.php/s/B7PEqFZSZZBPcW8/download?path=%2FData%2FInput%2FDatasets%2FDavid%2FImages&files=C_95.jpg,5472,3648
C_95,daylight,coffee_table,"[130, 130, 130]","['4121739', '306223', '4210718', '6151663', '4529240', '4211054', '6075079']"
4121739,2408,2413,2678,2720
306223,2144,1773,2262,1864
4210718,2946,1096,3291,1419
6151663,2027,1448,2258,1640
4529240,1944,2054,2158,2190
4211054,2119,1923,2356,2141
6075079,1851,2150,2097,2316
