https://surfdrive.surf.nl/files/index.php/s/B7PEqFZSZZBPcW8/download?path=%2FData%2FInput%2FDatasets%2FHiba%2FImages&files=H_106.jpg,5184,3456
H_106,daylight,wood,"[130, 130, 130]","['6022064', '4558957']"
6022064,2736,2350,2973,2708
4558957,2093,963,2468,1194
