https://surfdrive.surf.nl/files/index.php/s/B7PEqFZSZZBPcW8/download?path=%2FData%2FInput%2FDatasets%2FHiba%2FImages&files=H_110.jpg,5184,3456
H_110,daylight,wood,"[130, 130, 130]","['6022064', '4558957', '306223']"
6022064,2993,1777,3121,1987
4558957,2323,1677,2723,2038
306223,3019,1713,3150,1908
