https://surfdrive.surf.nl/files/index.php/s/B7PEqFZSZZBPcW8/download?path=%2FData%2FInput%2FDatasets%2FHiba%2FImages&files=H_219.jpg,5184,3456
H_219,daylight,wood,"[130, 130, 130]","['300124', '300401']"
300124,2280,1712,2921,2215
300401,2523,1531,2745,1783
