https://surfdrive.surf.nl/files/index.php/s/B7PEqFZSZZBPcW8/download?path=%2FData%2FInput%2FDatasets%2FHiba%2FImages&files=H_243.jpg,5184,3456
H_243,daylight,wood,"[130, 130, 130]","['6035291', '4160403', '6104154', '300123']"
6035291,2590,1114,2708,1452
4160403,2778,1427,3054,1895
6104154,1747,1539,1990,1755
300123,2205,1309,2460,1598
