https://surfdrive.surf.nl/files/index.php/s/B7PEqFZSZZBPcW8/download?path=%2FData%2FInput%2FDatasets%2FHiba%2FImages&files=H_277.jpg,5184,3456
H_277,daylight,wood,"[130, 130, 130]","['4143562', '300123', '4109995', '614321', '4211221']"
4143562,2310,1189,2513,1344
300123,2172,1785,2560,2146
4109995,1436,1815,1612,1975
614321,3625,1545,3758,1666
4211221,1992,1757,2204,2006
