https://surfdrive.surf.nl/files/index.php/s/B7PEqFZSZZBPcW8/download?path=%2FData%2FInput%2FDatasets%2FHiba%2FImages&files=H_319.jpg,5184,3456
H_319,daylight,wood,"[130, 130, 130]","['4211437', '300821', '4647553']"
4211437,2195,2224,2424,2490
300821,3470,973,4027,1467
4647553,2393,1613,2655,1860
