https://surfdrive.surf.nl/files/index.php/s/B7PEqFZSZZBPcW8/download?path=%2FData%2FInput%2FDatasets%2FHiba%2FImages&files=H_334.jpg,5184,3456
H_334,daylight,wood,"[130, 130, 130]","['6022064', '300421']"
6022064,1571,1719,2001,1922
300421,3639,1591,3857,1845
