https://surfdrive.surf.nl/files/index.php/s/B7PEqFZSZZBPcW8/download?path=%2FData%2FInput%2FDatasets%2FHiba%2FImages&files=H_414.jpg,5184,3456
H_414,daylight,wood,"[130, 130, 130]","['4211166', '4647553', '4114319', '4550348', '4567338', '4211437', '4621545', '654126']"
4211166,4097,1455,4422,1780
4647553,2929,1331,3269,1641
4114319,1946,1807,2696,2282
4550348,1754,1303,1997,1573
4567338,2205,1396,2438,1512
4211437,3158,1484,3345,1797
4621545,891,1921,1317,2274
654126,3193,2204,3439,2522
