https://surfdrive.surf.nl/files/index.php/s/B7PEqFZSZZBPcW8/download?path=%2FData%2FInput%2FDatasets%2FHiba%2FImages&files=H_69.jpg,5184,3456
H_69,daylight,wood,"[130, 130, 130]","['4211511', '4529240', '614321', '300423', '4212454', '6062574', '4650630', '4529247']"
4211511,4123,1546,4346,1752
4529240,2186,1305,2344,1452
614321,3231,1563,3451,1819
300423,2615,725,2841,955
4212454,2388,1882,2577,2075
6062574,2543,1773,2698,1950
4650630,2597,1105,2852,1381
4529247,1234,1293,1397,1433
