https://surfdrive.surf.nl/files/index.php/s/B7PEqFZSZZBPcW8/download?path=%2FData%2FInput%2FDatasets%2FHiba%2FImages&files=H_9.jpg,5184,3456
H_9,daylight,wood,"[130, 130, 130]","['623224', '6022023', '4121739']"
623224,3207,2222,3506,2519
6022023,2400,1556,2598,1646
4121739,1581,1895,1777,2096
