https://surfdrive.surf.nl/files/index.php/s/B7PEqFZSZZBPcW8/download?path=%2FData%2FInput%2FDatasets%2FBerend%2FImages&files=B_114.jpg,4608,3072
B_114,daylight,wood,"[130, 130, 130]","['6022064', '4211221', '4211511', '6073026', '4550348', '6022023', '4621545']"
6022064,1391,2244,1881,2670
4211221,1918,2015,2296,2239
4211511,1204,1925,1572,2276
6073026,2458,1459,2916,1666
4550348,2629,1166,2751,1389
6022023,1598,1906,1804,2122
4621545,1518,1617,1757,1750
