https://surfdrive.surf.nl/files/index.php/s/B7PEqFZSZZBPcW8/download?path=%2FData%2FInput%2FDatasets%2FBerend%2FImages&files=B_132.jpg,4608,3072
B_132,daylight,wood,"[130, 130, 130]",['6062574']
6062574,2134,1351,2378,1654
