https://surfdrive.surf.nl/files/index.php/s/B7PEqFZSZZBPcW8/download?path=%2FData%2FInput%2FDatasets%2FBerend%2FImages&files=B_145.jpg,4608,3072
B_145,daylight,wood,"[130, 130, 130]","['300421', '6138173', '4114319']"
300421,1151,678,1457,885
6138173,1010,2292,1366,2630
4114319,2411,1139,3002,1567
