https://surfdrive.surf.nl/files/index.php/s/B7PEqFZSZZBPcW8/download?path=%2FData%2FInput%2FDatasets%2FBerend%2FImages&files=B_157.jpg,4608,3072
B_157,daylight,wood,"[130, 130, 130]","['300421', '6138173', '4114319', '4211221', '6004938', '4211166', '6069259']"
300421,3613,1890,3789,2157
6138173,1120,995,1391,1214
4114319,2189,1002,2725,1467
4211221,2319,1603,2567,1905
6004938,2863,1805,3045,2046
4211166,2080,1496,2283,1658
6069259,1529,1287,1714,1551
