https://surfdrive.surf.nl/files/index.php/s/B7PEqFZSZZBPcW8/download?path=%2FData%2FInput%2FDatasets%2FBerend%2FImages&files=B_16.jpg,4608,3072
B_16,daylight,wood,"[130, 130, 130]","['4650630', '6252809', '4211054', '4548180', '4649749', '300401']"
4650630,2023,2365,2425,2646
6252809,2731,2391,3202,2685
4211054,2940,1657,3211,2040
4548180,3274,1912,3752,2279
4649749,3131,1138,4118,2359
300401,760,639,977,926
