https://surfdrive.surf.nl/files/index.php/s/B7PEqFZSZZBPcW8/download?path=%2FData%2FInput%2FDatasets%2FBerend%2FImages&files=B_160.jpg,4608,3072
B_160,daylight,wood,"[130, 130, 130]","['300421', '6138173', '4114319', '4211221', '6004938', '4211166', '6069259', '4212454']"
300421,2627,1801,2804,2033
6138173,2215,1683,2443,1872
4114319,2443,1592,2828,1844
4211221,2710,1246,2934,1455
6004938,3009,1797,3146,1962
4211166,1424,1065,1652,1274
6069259,2254,1478,2435,1588
4212454,2240,1617,2401,1707
