https://surfdrive.surf.nl/files/index.php/s/B7PEqFZSZZBPcW8/download?path=%2FData%2FInput%2FDatasets%2FBerend%2FImages&files=B_196.jpg,4608,3072
B_196,daylight,wood,"[130, 130, 130]",['4621545']
4621545,1895,1445,2042,1639
