https://surfdrive.surf.nl/files/index.php/s/B7PEqFZSZZBPcW8/download?path=%2FData%2FInput%2FDatasets%2FBerend%2FImages&files=B_199.jpg,4608,3072
B_199,daylight,wood,"[130, 130, 130]","['4621545', '654126']"
4621545,1680,1162,1906,1423
654126,934,1953,1085,2129
