https://surfdrive.surf.nl/files/index.php/s/B7PEqFZSZZBPcW8/download?path=%2FData%2FInput%2FDatasets%2FBerend%2FImages&files=B_210.jpg,4608,3072
B_210,daylight,wood,"[130, 130, 130]","['4621545', '654126', '300124', '306201', '4212454', '614321']"
4621545,2456,1497,2604,1809
654126,1897,1619,2060,1813
300124,2161,1466,2257,1584
306201,2023,1469,2141,1592
4212454,1835,1353,1927,1428
614321,1924,1297,2016,1392
