https://surfdrive.surf.nl/files/index.php/s/B7PEqFZSZZBPcW8/download?path=%2FData%2FInput%2FDatasets%2FBerend%2FImages&files=B_218.jpg,4608,3072
B_218,daylight,wood,"[130, 130, 130]","['4109995', '4651236']"
4109995,2650,1623,2912,1983
4651236,2624,1007,2908,1280
