https://surfdrive.surf.nl/files/index.php/s/B7PEqFZSZZBPcW8/download?path=%2FData%2FInput%2FDatasets%2FBerend%2FImages&files=B_21.jpg,4608,3072
B_21,daylight,wood,"[130, 130, 130]","['4650630', '6252809', '4211054', '4548180', '4649749', '300401', '6075075', '4548180']"
4650630,2690,1012,2998,1324
6252809,1944,1254,2280,2481
4211054,2559,1476,2867,1718
4548180,1748,2091,1957,2378
4548180,2453,1156,2629,1439
4649749,1666,1648,1981,1915
300401,2539,783,2756,1123
6075075,2904,1447,3240,1664
