https://surfdrive.surf.nl/files/index.php/s/B7PEqFZSZZBPcW8/download?path=%2FData%2FInput%2FDatasets%2FBerend%2FImages&files=B_219.jpg,4608,3072
B_219,daylight,wood,"[130, 130, 130]","['4109995', '4651236', '6177697']"
4109995,1534,851,1869,1206
4651236,1521,1521,1861,1813
6177697,2674,1358,2927,1996
