https://surfdrive.surf.nl/files/index.php/s/B7PEqFZSZZBPcW8/download?path=%2FData%2FInput%2FDatasets%2FBerend%2FImages&files=B_243.jpg,4608,3072
B_243,daylight,wood,"[130, 130, 130]","['6138173', '4210718', '4210718', '4121739', '4539099', '4211166', '300123', '6035291']"
6138173,1387,1515,1594,1820
4210718,1726,1108,2032,1580
4210718,1992,1803,2619,2193
4121739,2146,1597,2422,1868
4539099,1603,1990,1743,2150
4211166,2680,2122,2912,2311
300123,2711,1562,3298,1934
6035291,1564,1767,1785,1999
