https://surfdrive.surf.nl/files/index.php/s/B7PEqFZSZZBPcW8/download?path=%2FData%2FInput%2FDatasets%2FBerend%2FImages&files=B_270.jpg,4608,3072
B_270,daylight,wood,"[130, 130, 130]",['4211614']
4211614,1858,1552,2038,1677
