https://surfdrive.surf.nl/files/index.php/s/B7PEqFZSZZBPcW8/download?path=%2FData%2FInput%2FDatasets%2FBerend%2FImages&files=B_284.jpg,4608,3072
B_284,daylight,wood,"[130, 130, 130]","['4211614', '4121739', '300423', '300323', '6104154']"
4211614,970,1812,1202,1955
4121739,2748,2071,2898,2323
300423,1767,1283,1906,1484
300323,2420,1145,2616,1362
6104154,1506,1717,1627,1913
