https://surfdrive.surf.nl/files/index.php/s/B7PEqFZSZZBPcW8/download?path=%2FData%2FInput%2FDatasets%2FBerend%2FImages&files=B_294.jpg,4608,3072
B_294,daylight,wood,"[130, 130, 130]","['4211614', '4121739', '300423', '300323', '6104154', '4211437', '6069259', '4211614', '306223']"
4211614,2504,1434,2677,1563
4211614,2582,1683,2703,1822
4121739,2122,1396,2269,1473
300423,1973,1629,2148,1791
300323,2284,1610,2478,1764
6104154,1816,1268,1967,1428
4211437,2158,1575,2325,1745
6069259,1886,1597,2058,1684
306223,2697,1604,2807,1694
