https://surfdrive.surf.nl/files/index.php/s/B7PEqFZSZZBPcW8/download?path=%2FData%2FInput%2FDatasets%2FBerend%2FImages&files=B_328.jpg,4608,3072
B_328,daylight,wood,"[130, 130, 130]","['6003007', '4153827', '4621545', '6073026', '300401']"
6003007,1604,1933,1817,2110
4153827,2241,1371,2803,1831
4621545,3006,1384,3268,1659
6073026,2673,685,2842,860
300401,1938,1150,2182,1416
