https://surfdrive.surf.nl/files/index.php/s/B7PEqFZSZZBPcW8/download?path=%2FData%2FInput%2FDatasets%2FBerend%2FImages&files=B_328.jpg,4608,3072
B_328,daylight,wood,"[130, 130, 130]","['6003007', '4153827', '4621545', '6073026', '300401']"
6003007,1705,779,3167,2021
4153827,1745,741,3092,1914
4621545,1812,849,3200,2008
6073026,1745,849,3039,2089
300401,1610,674,3295,1968
