https://surfdrive.surf.nl/files/index.php/s/B7PEqFZSZZBPcW8/download?path=%2FData%2FInput%2FDatasets%2FBerend%2FImages&files=B_329.jpg,4608,3072
B_329,daylight,wood,"[130, 130, 130]","['6003007', '4153827', '4621545', '6073026', '300401']"
6003007,2454,1730,2635,1852
4153827,2281,1230,2741,1722
4621545,2934,1451,3229,1675
6073026,2726,1478,2883,1702
300401,2376,880,2604,1132
