https://surfdrive.surf.nl/files/index.php/s/B7PEqFZSZZBPcW8/download?path=%2FData%2FInput%2FDatasets%2FBerend%2FImages&files=B_38.jpg,4608,3072
B_38,daylight,wood,"[130, 130, 130]","['306201', '4649749', '6025026']"
306201,3083,949,3261,1134
4649749,1930,2052,2235,2228
6025026,1483,2027,1718,2312
