https://surfdrive.surf.nl/files/index.php/s/B7PEqFZSZZBPcW8/download?path=%2FData%2FInput%2FDatasets%2FBerend%2FImages&files=B_384.jpg,4608,3072
B_384,daylight,wood,"[130, 130, 130]","['4181144', '6238674', '6025026', '6074890']"
4181144,1487,1743,2195,2247
6238674,1927,1593,2106,1714
6025026,2291,1472,2450,1625
6074890,1851,1236,2106,1433
