https://surfdrive.surf.nl/files/index.php/s/B7PEqFZSZZBPcW8/download?path=%2FData%2FInput%2FDatasets%2FBerend%2FImages&files=B_389.jpg,4608,3072
B_389,daylight,wood,"[130, 130, 130]","['4181144', '6238674', '6025026', '6074890', '4647553']"
4181144,1071,1275,1681,1937
6238674,1202,1114,1392,1254
6025026,2497,2341,2770,2564
6074890,1640,1510,1818,1651
4647553,2080,1927,2388,2205
