https://surfdrive.surf.nl/files/index.php/s/B7PEqFZSZZBPcW8/download?path=%2FData%2FInput%2FDatasets%2FBerend%2FImages&files=B_39.jpg,4608,3072
B_39,daylight,wood,"[130, 130, 130]","['306201', '4649749', '6025026', '6229071']"
306201,990,1602,1174,1732
4649749,3181,2095,3322,2309
6025026,2263,1084,2486,1234
6229071,2206,1334,2379,1569
