https://surfdrive.surf.nl/files/index.php/s/B7PEqFZSZZBPcW8/download?path=%2FData%2FInput%2FDatasets%2FBerend%2FImages&files=B_442.jpg,4608,3072
B_442,daylight,wood,"[130, 130, 130]",['300423']
300423,2033,1147,2250,1340
