https://surfdrive.surf.nl/files/index.php/s/B7PEqFZSZZBPcW8/download?path=%2FData%2FInput%2FDatasets%2FBerend%2FImages&files=B_489.jpg,4608,3072
B_489,daylight,wood,"[130, 130, 130]","['6075075', '4649749']"
6075075,2545,1565,2789,1679
4649749,1875,1230,2034,1412
