https://surfdrive.surf.nl/files/index.php/s/B7PEqFZSZZBPcW8/download?path=%2FData%2FInput%2FDatasets%2FBerend%2FImages&files=B_48.jpg,4608,3072
B_48,daylight,wood,"[130, 130, 130]","['6075079', '4520632']"
None,988,1638,1657,2292
None,2809,1170,3025,1491
