https://surfdrive.surf.nl/files/index.php/s/B7PEqFZSZZBPcW8/download?path=%2FData%2FInput%2FDatasets%2FBerend%2FImages&files=B_497.jpg,4608,3072
B_497,daylight,wood,"[130, 130, 130]","['6075075', '4649749', '300323', '4211149']"
6075075,1613,967,1839,1202
4649749,2371,1500,2610,1703
300323,2655,1458,3000,1827
4211149,1861,1399,2103,1769
