https://surfdrive.surf.nl/files/index.php/s/B7PEqFZSZZBPcW8/download?path=%2FData%2FInput%2FDatasets%2FBerend%2FImages&files=B_518.jpg,4608,3072
B_518,daylight,wood,"[130, 130, 130]","['300421', '4157124']"
300421,1970,1249,2164,1438
4157124,2317,1469,2490,1624
