https://surfdrive.surf.nl/files/index.php/s/B7PEqFZSZZBPcW8/download?path=%2FData%2FInput%2FDatasets%2FBerend%2FImages&files=B_530.jpg,4608,3072
B_530,daylight,wood,"[130, 130, 130]","['6035291', '4567338', '6177697', '4529240']"
6035291,2529,1620,2829,1889
4567338,2147,1189,2255,1377
6177697,2258,1134,2768,1617
4529240,2414,1076,2595,1164
