https://surfdrive.surf.nl/files/index.php/s/B7PEqFZSZZBPcW8/download?path=%2FData%2FInput%2FDatasets%2FBerend%2FImages&files=B_56.jpg,4607,3072
B_56,daylight,wood,"[130, 130, 130]","['6075079', '4520632', '300421', '6073026']"
6075079,1801,980,1951,1136
4520632,2236,1295,2651,1572
300421,2637,1547,2833,1702
6073026,1774,1750,1987,1892
