https://surfdrive.surf.nl/files/index.php/s/B7PEqFZSZZBPcW8/download?path=%2FData%2FInput%2FDatasets%2FBerend%2FImages&files=B_582.jpg,4608,3072
B_582,daylight,wood,"[130, 130, 130]","['300401', '654126', '4211149', '300423']"
300401,1445,2302,1871,2664
654126,2435,922,2637,1202
4211149,1878,1422,2116,1805
300423,2648,2057,3036,2378
