https://surfdrive.surf.nl/files/index.php/s/B7PEqFZSZZBPcW8/download?path=%2FData%2FInput%2FDatasets%2FBerend%2FImages&files=B_61.jpg,4608,3072
B_61,daylight,wood,"[130, 130, 130]","['6075079', '4520632', '300421', '6073026', '365901', '6062574']"
6075079,1998,1392,2277,1594
4520632,1523,900,1688,1412
300421,2213,1963,2486,2169
6073026,2126,1657,2324,1879
365901,2294,1609,2779,1953
6062574,2755,1673,2934,1889
