https://surfdrive.surf.nl/files/index.php/s/B7PEqFZSZZBPcW8/download?path=%2FData%2FInput%2FDatasets%2FBerend%2FImages&files=B_661.jpg,4608,3072
B_661,daylight,wood,"[130, 130, 130]","['6223631', '4160403', '4527943']"
6223631,2686,1329,2838,1456
4160403,1474,1585,2399,2095
4527943,1690,1489,1945,1665
