https://surfdrive.surf.nl/files/index.php/s/B7PEqFZSZZBPcW8/download?path=%2FData%2FInput%2FDatasets%2FBerend%2FImages&files=B_678.jpg,4608,3072
B_678,daylight,wood,"[130, 130, 130]","['365901', '4567338']"
365901,1952,1122,2385,1681
4567338,2189,1546,2416,1726
