https://surfdrive.surf.nl/files/index.php/s/B7PEqFZSZZBPcW8/download?path=%2FData%2FInput%2FDatasets%2FBerend%2FImages&files=B_720.jpg,4608,3072
B_720,daylight,wood,"[130, 130, 130]","['306201', '4527943', '6004938']"
306201,1978,745,2087,922
4527943,2223,1357,2454,1656
6004938,2114,1805,2427,2145
