https://surfdrive.surf.nl/files/index.php/s/B7PEqFZSZZBPcW8/download?path=%2FData%2FInput%2FDatasets%2FBerend%2FImages&files=B_741.jpg,4608,3072
B_741,daylight,wood,"[130, 130, 130]","['306201', '4527943', '6004938', '4121967', '4181144', '4160403', '300423', '6151663', '6073026', '6244886']"
306201,1169,1659,1323,1750
4527943,2647,1944,2839,2149
6004938,1772,1735,1923,1920
4121967,2782,726,2994,879
4181144,2178,1260,2315,1883
4160403,1814,1571,2203,2138
300423,1800,1929,1934,2173
6151663,1139,1945,1317,2139
6073026,1378,2128,1552,2328
6244886,2295,1847,2568,2159
