https://surfdrive.surf.nl/files/index.php/s/B7PEqFZSZZBPcW8/download?path=%2FData%2FInput%2FDatasets%2FBerend%2FImages&files=B_747.jpg,4607,3072
B_747,daylight,wood,"[130, 130, 130]",['6035291']
6035291,2133,1322,2297,1612
