https://surfdrive.surf.nl/files/index.php/s/B7PEqFZSZZBPcW8/download?path=%2FData%2FInput%2FDatasets%2FBerend%2FImages&files=B_742.jpg,4608,3072
B_742,daylight,wood,"[130, 130, 130]","['306201', '4527943', '6004938', '4121967', '4181144', '4160403', '300423', '6151663', '6073026', '6244886']"
306201,1619,1377,1793,1540
4527943,1184,1866,1409,2062
6004938,2984,1064,3153,1224
4121967,2994,1345,3223,1511
4181144,2492,1501,3187,1997
4160403,2437,1167,3089,1326
300423,2505,1259,2735,1455
6151663,1002,1751,1234,1999
6073026,2517,928,2621,1091
6244886,2045,684,2291,856
