https://surfdrive.surf.nl/files/index.php/s/B7PEqFZSZZBPcW8/download?path=%2FData%2FInput%2FDatasets%2FBerend%2FImages&files=B_81.jpg,4608,3072
B_81,daylight,wood,"[130, 130, 130]","['4211149', '4539099', '6025026']"
4211149,1727,975,2215,1407
4539099,1884,1498,2093,1809
6025026,2553,1667,3028,1974
