https://surfdrive.surf.nl/files/index.php/s/B7PEqFZSZZBPcW8/download?path=%2FData%2FInput%2FDatasets%2FBerend%2FImages&files=B_96.jpg,4608,3072
B_96,daylight,wood,"[130, 130, 130]",['6022064']
6022064,1941,1367,2488,1739
