https://surfdrive.surf.nl/files/index.php/s/B7PEqFZSZZBPcW8/download?path=%2FData%2FInput%2FDatasets%2FBerend%2FImages&files=B_97.jpg,4608,3072
B_97,daylight,wood,"[130, 130, 130]",['6022064']
None,2102,1298,2538,1903
