https://surfdrive.surf.nl/files/index.php/s/B7PEqFZSZZBPcW8/download?path=%2FData%2FInput%2FDatasets%2FDavid%2FImages&files=C_110.jpg,5472,3648
C_110,daylight,armchair,"[130, 130, 130]","['300124', '4181134']"
300124,1065,1667,1475,2133
4181134,3252,1819,3876,2411
