https://surfdrive.surf.nl/files/index.php/s/B7PEqFZSZZBPcW8/download?path=%2FData%2FInput%2FDatasets%2FDavid%2FImages&files=C_131.jpg,5472,3648
C_131,artificial,coffee_table,"[130, 130, 130]","['6238674', '4212454', '4504369', '4550348', '4527943']"
6238674,2429,1496,2516,1678
4212454,2544,1496,2644,1651
4504369,2534,1883,2699,2071
4550348,2583,1748,2872,1912
4527943,2915,1813,3192,2156
