https://surfdrive.surf.nl/files/index.php/s/B7PEqFZSZZBPcW8/download?path=%2FData%2FInput%2FDatasets%2FDavid%2FImages&files=C_149.jpg,5472,3648
C_149,daylight,coffee_table,"[130, 130, 130]","['4121739', '6025026']"
4121739,2458,1506,2756,1823
6025026,2658,1853,2942,2130
