https://surfdrive.surf.nl/files/index.php/s/B7PEqFZSZZBPcW8/download?path=%2FData%2FInput%2FDatasets%2FDavid%2FImages&files=C_143.jpg,5472,3648
C_143,artificial,coffee_table,"[130, 130, 130]","['6238674', '4212454', '4504369', '4550348', '4527943', '6074890', '6244886', '4651236', '4114319']"
6238674,1072,1840,1269,2046
4212454,4119,2091,4258,2335
4504369,2184,1621,2338,1732
4550348,2489,1190,2665,1462
4527943,2100,1781,2435,2046
6074890,1568,1117,1781,1293
6244886,2839,2050,3169,2344
4651236,2266,877,2534,1071
4114319,2969,628,3536,1035
