https://surfdrive.surf.nl/files/index.php/s/B7PEqFZSZZBPcW8/download?path=%2FData%2FInput%2FDatasets%2FDavid%2FImages&files=C_175.jpg,5472,3648
C_175,daylight,coffee_table,"[130, 130, 130]",['6252809']
6252809,2450,1158,2927,2400
