https://surfdrive.surf.nl/files/index.php/s/B7PEqFZSZZBPcW8/download?path=%2FData%2FInput%2FDatasets%2FDavid%2FImages&files=C_236.jpg,5472,3648
C_236,daylight,coffee_table,"[130, 130, 130]","['4118793', '4567338', '6073026', '4211054', '4121739', '300124']"
4118793,1788,1566,1953,1738
4567338,3416,2153,3519,2255
6073026,1862,2018,2013,2231
4211054,2899,2110,3252,2415
4121739,2176,1054,2408,1335
300124,2519,1683,3086,2127
