https://surfdrive.surf.nl/files/index.php/s/B7PEqFZSZZBPcW8/download?path=%2FData%2FInput%2FDatasets%2FDavid%2FImages&files=C_256.jpg,5472,3648
C_256,daylight,coffee_table,"[130, 130, 130]","['6223631', '300424', '4153825']"
6223631,2120,1875,2291,2030
300424,2424,1868,2629,2169
4153825,3285,1400,3521,1766
