https://surfdrive.surf.nl/files/index.php/s/B7PEqFZSZZBPcW8/download?path=%2FData%2FInput%2FDatasets%2FDavid%2FImages&files=C_282.jpg,5472,3648
C_282,daylight,coffee_table,"[130, 130, 130]","['6151663', '365901', '4211201', '300401']"
6151663,3107,2142,3336,2429
365901,1944,1962,2533,2240
4211201,2586,1173,3117,1655
300401,3141,1432,3302,1752
