https://surfdrive.surf.nl/files/index.php/s/B7PEqFZSZZBPcW8/download?path=%2FData%2FInput%2FDatasets%2FDavid%2FImages&files=C_289.jpg,5472,3648
C_289,daylight,coffee_table,"[130, 130, 130]","['6151663', '365901', '4211201', '300401', '6252809', '6249125']"
6151663,3156,1752,3378,1983
365901,1988,1481,2360,1911
4211201,1708,2003,2258,2350
300401,2615,723,2823,974
6252809,2384,2026,3634,2634
6249125,2297,1992,2427,2113
