https://surfdrive.surf.nl/files/index.php/s/B7PEqFZSZZBPcW8/download?path=%2FData%2FInput%2FDatasets%2FDavid%2FImages&files=C_284.jpg,5472,3648
C_284,daylight,coffee_table,"[130, 130, 130]","['6151663', '365901', '4211201', '300401']"
6151663,3095,1370,3302,1768
365901,2282,1257,2887,1711
4211201,2149,1522,2773,2015
300401,2792,1996,3076,2375
