https://surfdrive.surf.nl/files/index.php/s/B7PEqFZSZZBPcW8/download?path=%2FData%2FInput%2FDatasets%2FDavid%2FImages&files=C_310.jpg,5472,3648
C_310,daylight,living_room_floor,"[130, 130, 130]","['4650630', '6223631', '4181144']"
4650630,2463,1742,2613,1930
6223631,3041,1784,3120,1886
4181144,2778,1491,2980,1965
