https://surfdrive.surf.nl/files/index.php/s/B7PEqFZSZZBPcW8/download?path=%2FData%2FInput%2FDatasets%2FDavid%2FImages&files=C_341.jpg,5472,3648
C_341,daylight,living_room_floor,"[130, 130, 130]","['4211614', '4153825', '6151663', '6004938', '306223', '6022064', '4639693']"
4211614,1838,995,2450,1379
4153825,1651,1813,1788,1969
6151663,1895,1725,2067,1846
6004938,1918,1778,2158,2025
306223,2462,1971,2580,2164
6022064,2691,1758,2961,1910
4639693,2937,1462,3056,1548
