https://surfdrive.surf.nl/files/index.php/s/B7PEqFZSZZBPcW8/download?path=%2FData%2FInput%2FDatasets%2FDavid%2FImages&files=C_357.jpg,5472,3648
C_357,daylight,living_room_floor,"[130, 130, 130]","['4118793', '6035291', '4211614', '4567338', '4211412']"
4118793,2737,568,2856,689
6035291,2679,1742,2805,1929
4211614,2355,1865,2567,2020
4567338,2302,2286,2441,2375
4211412,1994,1888,2133,2005
