https://surfdrive.surf.nl/files/index.php/s/B7PEqFZSZZBPcW8/download?path=%2FData%2FInput%2FDatasets%2FDavid%2FImages&files=C_378.jpg,5472,3648
C_378,daylight,living_room_floor,"[130, 130, 130]","['300401', '300423', '4529240']"
300401,2493,2182,2673,2319
300423,3054,1415,3155,1600
4529240,2278,1836,2410,1943
