https://surfdrive.surf.nl/files/index.php/s/B7PEqFZSZZBPcW8/download?path=%2FData%2FInput%2FDatasets%2FDavid%2FImages&files=C_425.jpg,5472,3648
C_425,daylight,living_room_floor,"[130, 130, 130]","['6028324', '4558957']"
6028324,2672,1795,2795,1945
4558957,3141,1098,3382,1285
