https://surfdrive.surf.nl/files/index.php/s/B7PEqFZSZZBPcW8/download?path=%2FData%2FInput%2FDatasets%2FDavid%2FImages&files=C_450.jpg,5472,3648
C_450,daylight,dining_table,"[130, 130, 130]","['6075079', '306201']"
6075079,2667,1763,2800,1993
306201,2278,1677,2451,1808
