https://surfdrive.surf.nl/files/index.php/s/B7PEqFZSZZBPcW8/download?path=%2FData%2FInput%2FDatasets%2FDavid%2FImages&files=C_462.jpg,5472,3648
C_462,daylight,dining_table,"[130, 130, 130]","['6075079', '306201', '4211614', '4181135', '6003007', '6138173']"
6075079,2684,1738,2810,1923
306201,2440,1519,2601,1679
4211614,2231,1743,2411,2006
4181135,2825,1251,3059,1864
6003007,2504,1412,2640,1577
6138173,2241,1528,2460,1762
