https://surfdrive.surf.nl/files/index.php/s/B7PEqFZSZZBPcW8/download?path=%2FData%2FInput%2FDatasets%2FDavid%2FImages&files=C_469.jpg,5472,3648
C_469,daylight,dining_table,"[130, 130, 130]","['6075079', '306201', '4211614', '4181135', '6003007', '6138173', '300421', '6028324']"
6075079,2725,1992,3017,2208
306201,1590,1891,1801,2125
4211614,3453,1381,3674,1676
4181135,2649,1270,3399,1980
6003007,1837,1721,2071,1893
6138173,3116,1590,3456,1916
300421,2218,1661,2468,1996
6028324,2427,1554,2712,1848
