https://surfdrive.surf.nl/files/index.php/s/B7PEqFZSZZBPcW8/download?path=%2FData%2FInput%2FDatasets%2FDavid%2FImages&files=C_478.jpg,5472,3648
C_478,daylight,dining_table,"[130, 130, 130]","['4153825', '4621545', '306201']"
4153825,1450,1736,1938,2157
4621545,2913,1955,3135,2315
306201,2644,1700,2814,1877
