https://surfdrive.surf.nl/files/index.php/s/B7PEqFZSZZBPcW8/download?path=%2FData%2FInput%2FDatasets%2FDavid%2FImages&files=C_493.jpg,5472,3648
C_493,daylight,coffee_table,"[130, 130, 130]","['300424', '6004938', '306201', '4211166']"
300424,2864,1739,3124,2135
6004938,3026,1126,3200,1354
306201,2719,1311,2935,1475
4211166,2735,1557,3007,1882
