https://surfdrive.surf.nl/files/index.php/s/B7PEqFZSZZBPcW8/download?path=%2FData%2FInput%2FDatasets%2FDavid%2FImages&files=C_494.jpg,5472,3648
C_494,daylight,coffee_table,"[130, 130, 130]","['300424', '6004938', '306201', '4211166']"
300424,2371,1898,2660,2360
6004938,2915,1169,3204,1465
306201,2598,1596,2805,1871
4211166,1979,1279,2323,1678
