https://surfdrive.surf.nl/files/index.php/s/B7PEqFZSZZBPcW8/download?path=%2FData%2FInput%2FDatasets%2FDavid%2FImages&files=C_493.jpg,5472,3648
C_493,daylight,coffee_table,"[130, 130, 130]","['300424', '6004938', '306201', '4211166']"
300424,2862,1742,3135,2043
6004938,2732,1560,3014,1859
306201,2708,1309,2923,1486
4211166,3033,1122,3198,1343
