https://surfdrive.surf.nl/files/index.php/s/B7PEqFZSZZBPcW8/download?path=%2FData%2FInput%2FDatasets%2FDavid%2FImages&files=C_493.jpg,5472,3648
C_493,daylight,coffee_table,"[130, 130, 130]","['300424', '6004938', '306201', '4211166']"
300424,2872,1745,3133,2132
6004938,3026,1126,3197,1354
306201,2710,1312,2937,1447
4211166,2744,1557,2964,1911
