https://surfdrive.surf.nl/files/index.php/s/B7PEqFZSZZBPcW8/download?path=%2FData%2FInput%2FDatasets%2FDavid%2FImages&files=C_506.jpg,5472,3648
C_506,daylight,coffee_table,"[130, 130, 130]","['300424', '6004938', '306201', '4211166', '4621545', '300121', '4118793', '4548180']"
300424,2450,1599,2796,1913
6004938,3323,1496,3494,1689
306201,2097,1700,2242,1868
4211166,2666,1905,2962,2140
4621545,2809,2165,3151,2550
300121,2125,997,2718,1446
4118793,2951,1249,3112,1469
4548180,3198,1087,3384,1361
