https://surfdrive.surf.nl/files/index.php/s/B7PEqFZSZZBPcW8/download?path=%2FData%2FInput%2FDatasets%2FDavid%2FImages&files=C_523.jpg,5472,3647
C_523,daylight,couch,"[130, 130, 130]","['6177697', '6223631']"
6177697,2706,1524,2970,1970
6223631,2854,1717,2958,1839
