https://surfdrive.surf.nl/files/index.php/s/B7PEqFZSZZBPcW8/download?path=%2FData%2FInput%2FDatasets%2FDavid%2FImages&files=C_53.jpg,5472,3648
C_53,daylight,coffee_table,"[130, 130, 130]","['6104154', '4527943', '4157124', '4211201', '4211614', '4504381', '300421']"
6104154,2429,1486,2703,1749
4527943,1633,1769,1889,2062
4157124,3236,1583,3387,1843
4211201,1364,2085,1764,2670
4211614,2996,1919,3257,2133
4504381,1447,2777,1624,2968
300421,2103,1038,2328,1209
