https://surfdrive.surf.nl/files/index.php/s/B7PEqFZSZZBPcW8/download?path=%2FData%2FInput%2FDatasets%2FDavid%2FImages&files=C_558.jpg,5472,3648
C_558,daylight,window_sill,"[130, 130, 130]","['6003007', '365901', '4567338', '4211166']"
6003007,2556,1951,2634,2169
365901,2481,1455,3039,1877
4567338,2506,1713,2713,1880
4211166,2668,1806,2977,2150
