https://surfdrive.surf.nl/files/index.php/s/B7PEqFZSZZBPcW8/download?path=%2FData%2FInput%2FDatasets%2FDavid%2FImages&files=C_557.jpg,5472,3647
C_557,daylight,window_sill,"[130, 130, 130]","['6003007', '365901', '4567338']"
6003007,3184,1535,3378,1720
365901,2489,1548,2836,2107
4567338,2286,1945,2502,2125
