https://surfdrive.surf.nl/files/index.php/s/B7PEqFZSZZBPcW8/download?path=%2FData%2FInput%2FDatasets%2FDavid%2FImages&files=C_562.jpg,5472,3648
C_562,daylight,window_sill,"[130, 130, 130]","['6003007', '365901', '4567338', '4211166', '4504381']"
6003007,3369,1777,3472,1951
365901,1883,1918,2408,2058
4567338,2376,2223,2469,2396
4211166,2680,1693,2905,1904
4504381,1982,1773,2094,1871
