https://surfdrive.surf.nl/files/index.php/s/B7PEqFZSZZBPcW8/download?path=%2FData%2FInput%2FDatasets%2FDavid%2FImages&files=C_573.jpg,5472,3648
C_573,daylight,window_sill,"[130, 130, 130]","['614321', '4211221']"
614321,1742,1389,2081,1751
4211221,2497,1696,2816,2063
