https://surfdrive.surf.nl/files/index.php/s/B7PEqFZSZZBPcW8/download?path=%2FData%2FInput%2FDatasets%2FDavid%2FImages&files=C_584.jpg,5472,3648
C_584,daylight,window_sill,"[130, 130, 130]","['614321', '4211221', '4651236', '4621545', '6249125']"
614321,3299,646,3553,907
4211221,3079,1142,3332,1357
4651236,1936,2182,2168,2455
4621545,2194,401,2413,567
6249125,2674,1724,2813,1835
