https://surfdrive.surf.nl/files/index.php/s/B7PEqFZSZZBPcW8/download?path=%2FData%2FInput%2FDatasets%2FDavid%2FImages&files=C_587.jpg,5472,3648
C_587,daylight,window_sill,"[130, 130, 130]","['614321', '4211221', '4651236', '4621545', '6249125', '4143562']"
614321,2067,1522,2221,1802
4211221,2622,1739,2922,1918
4651236,3059,1230,3374,1484
4621545,3303,1674,3409,1824
6249125,3492,1657,3768,1869
4143562,2614,2405,2901,2665
