https://surfdrive.surf.nl/files/index.php/s/B7PEqFZSZZBPcW8/download?path=%2FData%2FInput%2FDatasets%2FDavid%2FImages&files=C_614.jpg,5472,3648
C_614,daylight,window_sill,"[130, 130, 130]","['300423', '6073026', '4558957', '4527943', '4121967']"
300423,1830,1400,2127,1711
6073026,3005,1969,3226,2207
4558957,2864,1165,3377,1668
4527943,1305,1002,1583,1295
4121967,2643,1703,2929,1920
