https://surfdrive.surf.nl/files/index.php/s/B7PEqFZSZZBPcW8/download?path=%2FData%2FInput%2FDatasets%2FDavid%2FImages&files=C_614.jpg,5472,3648
C_614,daylight,window_sill,"[130, 130, 130]","['300423', '6073026', '4558957', '4527943', '4121967']"
300423,1313,1034,1538,1184
6073026,1830,1413,2111,1647
4558957,2650,1735,2915,1862
4527943,3018,1976,3212,2162
4121967,2951,1229,3350,1498
