https://surfdrive.surf.nl/files/index.php/s/B7PEqFZSZZBPcW8/download?path=%2FData%2FInput%2FDatasets%2FDavid%2FImages&files=C_642.jpg,5472,3648
C_642,daylight,coffee_table,"[130, 130, 130]","['6074890', '6073026', '4211221', '4211166', '4181144', '4211149', '6062574', '4548180']"
6074890,3185,1438,3365,1602
6073026,2751,1816,2915,2037
4211221,3222,1182,3561,1517
4211166,2635,1614,2890,1822
4181144,2246,1337,2769,2069
4211149,3584,1373,3847,1597
6062574,3125,1163,3299,1372
4548180,2720,2060,3005,2324
