https://surfdrive.surf.nl/files/index.php/s/B7PEqFZSZZBPcW8/download?path=%2FData%2FInput%2FDatasets%2FDavid%2FImages&files=C_64.jpg,5472,3648
C_64,daylight,coffee_table,"[130, 130, 130]","['4517992', '6074890']"
4517992,2917,1577,3254,2032
6074890,1399,1671,1561,1837
