https://surfdrive.surf.nl/files/index.php/s/B7PEqFZSZZBPcW8/download?path=%2FData%2FInput%2FDatasets%2FDavid%2FImages&files=C_644.jpg,5472,3648
C_644,daylight,coffee_table,"[130, 130, 130]","['6074890', '6073026', '4211221', '4211166', '4181144', '4211149', '6062574', '4548180']"
6074890,3489,686,3575,793
6073026,1585,1648,1742,1842
4211221,1353,1108,1649,1386
4211166,2089,1926,2308,2175
4181144,2379,757,2814,1263
4211149,3163,1439,3401,1674
6062574,1216,1853,1417,2056
4548180,2223,1385,2445,1574
