https://surfdrive.surf.nl/files/index.php/s/B7PEqFZSZZBPcW8/download?path=%2FData%2FInput%2FDatasets%2FDavid%2FImages&files=C_657.jpg,5472,3647
C_657,daylight,coffee_table,"[130, 130, 130]","['6075079', '300423', '4121967']"
6075079,4326,1951,4614,2182
300423,1996,1218,2214,1534
4121967,2825,1652,2988,2000
