https://surfdrive.surf.nl/files/index.php/s/B7PEqFZSZZBPcW8/download?path=%2FData%2FInput%2FDatasets%2FDavid%2FImages&files=C_661.jpg,5472,3648
C_661,daylight,coffee_table,"[130, 130, 130]","['6075079', '300423', '4121967', '300424']"
6075079,1579,2036,1841,2302
300423,2596,1689,2792,1936
4121967,3160,1674,3448,1891
300424,3022,1346,3292,1580
