https://surfdrive.surf.nl/files/index.php/s/B7PEqFZSZZBPcW8/download?path=%2FData%2FInput%2FDatasets%2FDavid%2FImages&files=C_689.jpg,5472,3647
C_689,daylight,coffee_table,"[130, 130, 130]","['4558957', '4539099', '300323', '6229071', '4157124']"
4558957,2295,1389,2840,1813
4539099,1874,1933,2085,2122
300323,2845,1377,3117,1733
6229071,2195,2036,2489,2291
4157124,2718,2119,2933,2339
