https://surfdrive.surf.nl/files/index.php/s/B7PEqFZSZZBPcW8/download?path=%2FData%2FInput%2FDatasets%2FDavid%2FImages&files=C_689.jpg,5472,3648
C_689,daylight,coffee_table,"[130, 130, 130]","['4558957', '4539099', '300323', '6229071', '4157124']"
4558957,2294,1432,2846,1758
4539099,1887,1933,2106,2120
300323,2844,1364,3127,1742
6229071,2184,2021,2486,2307
4157124,2705,2099,2936,2418
