https://surfdrive.surf.nl/files/index.php/s/B7PEqFZSZZBPcW8/download?path=%2FData%2FInput%2FDatasets%2FDavid%2FImages&files=C_6.jpg,5472,3648
C_6,daylight,coffee_table,"[130, 130, 130]","['300121', '4567338', '4211149']"
300121,2257,1039,2712,1453
4567338,3248,1415,3393,1581
4211149,3360,1409,3619,1698
