https://surfdrive.surf.nl/files/index.php/s/B7PEqFZSZZBPcW8/download?path=%2FData%2FInput%2FDatasets%2FDavid%2FImages&files=C_765.jpg,5472,3648
C_765,daylight,couch,"[130, 130, 130]","['6074890', '4211511', '4520632', '300421', '4558957']"
6074890,2994,1125,3173,1267
4211511,2238,2045,2432,2231
4520632,2443,1878,2822,2506
300421,2040,2271,2343,2618
4558957,2630,1518,3176,2006
