https://surfdrive.surf.nl/files/index.php/s/B7PEqFZSZZBPcW8/download?path=%2FData%2FInput%2FDatasets%2FDavid%2FImages&files=C_775.jpg,5472,3648
C_775,daylight,couch,"[130, 130, 130]","['4621545', '4210718']"
4621545,2425,1650,2627,1910
4210718,2769,1576,3153,2053
