https://surfdrive.surf.nl/files/index.php/s/B7PEqFZSZZBPcW8/download?path=%2FData%2FInput%2FDatasets%2FDavid%2FImages&files=C_785.jpg,5472,3648
C_785,daylight,couch,"[130, 130, 130]","['4621545', '4210718', '4650630', '4529247', '4529247']"
4621545,2116,1606,2393,1878
4210718,2614,1650,2873,2137
4650630,2779,1409,3060,1622
4529247,2979,1834,3078,2012
4529247,3066,1735,3218,1894
