https://surfdrive.surf.nl/files/index.php/s/B7PEqFZSZZBPcW8/download?path=%2FData%2FInput%2FDatasets%2FDavid%2FImages&files=C_78.jpg,5472,3648
C_78,daylight,coffee_table,"[130, 130, 130]","['4121739', '306223']"
4121739,2461,1400,2618,1594
306223,2381,1734,2473,1817
