https://surfdrive.surf.nl/files/index.php/s/B7PEqFZSZZBPcW8/download?path=%2FData%2FInput%2FDatasets%2FDavid%2FImages&files=C_88.jpg,5472,3648
C_88,daylight,coffee_table,"[130, 130, 130]","['4121739', '306223', '4210718', '6151663', '4529240']"
4121739,2158,2148,2476,2564
306223,3193,1638,3364,1892
4210718,1839,1079,2187,1841
6151663,2957,2042,3346,2294
4529240,2949,1095,3090,1322
