https://surfdrive.surf.nl/files/index.php/s/B7PEqFZSZZBPcW8/download?path=%2FData%2FInput%2FDatasets%2FDavid%2FImages&files=C_95.jpg,5472,3648
C_95,daylight,coffee_table,"[130, 130, 130]","['4121739', '306223', '4210718', '6151663', '4529240', '4211054', '6075079']"
4121739,2343,2627,2530,2882
306223,2170,1825,2260,1870
4210718,3010,1060,3294,1360
6151663,2028,1450,2230,1607
4529240,1990,2065,2118,2147
4211054,2133,1930,2298,2087
6075079,1870,2155,2080,2275
