https://surfdrive.surf.nl/files/index.php/s/B7PEqFZSZZBPcW8/download?path=%2FData%2FInput%2FDatasets%2FHiba%2FImages&files=H_101.jpg,5184,3455
H_101,daylight,wood,"[130, 130, 130]","['6074890', '6035291', '6022023']"
6074890,2461,1752,2601,1831
6035291,1812,1371,1981,1520
6022023,2865,2374,3186,2642
