https://surfdrive.surf.nl/files/index.php/s/B7PEqFZSZZBPcW8/download?path=%2FData%2FInput%2FDatasets%2FHiba%2FImages&files=H_119.jpg,5184,3456
H_119,daylight,wood,"[130, 130, 130]","['6022064', '4558957', '306223', '4527943', '6003007', '4211614']"
6022064,2602,2352,2920,2466
4558957,2123,2053,2260,2167
306223,1985,1801,2129,1867
4527943,2003,2208,2147,2280
6003007,2470,1436,2728,1663
4211614,2734,1448,2866,1567
