https://surfdrive.surf.nl/files/index.php/s/B7PEqFZSZZBPcW8/download?path=%2FData%2FInput%2FDatasets%2FHiba%2FImages&files=H_119.jpg,5184,3456
H_119,daylight,wood,"[130, 130, 130]","['6022064', '4558957', '306223', '4527943', '6003007', '4211614']"
6022064,2615,2344,2918,2456
4558957,2407,1405,2757,1709
306223,2010,2196,2164,2301
4527943,2098,2066,2291,2215
6003007,1982,1780,2122,1880
4211614,2717,1443,2874,1613
