https://surfdrive.surf.nl/files/index.php/s/B7PEqFZSZZBPcW8/download?path=%2FData%2FInput%2FDatasets%2FHiba%2FImages&files=H_116.jpg,5184,3456
H_116,daylight,wood,"[130, 130, 130]","['6022064', '4558957', '306223', '4527943', '6003007']"
6022064,2385,1501,2695,1653
4558957,1146,1358,1501,1731
306223,1885,1796,1954,1927
4527943,3426,2072,3623,2285
6003007,2534,1398,2656,1509
