https://surfdrive.surf.nl/files/index.php/s/B7PEqFZSZZBPcW8/download?path=%2FData%2FInput%2FDatasets%2FHiba%2FImages&files=H_110.jpg,5184,3456
H_110,daylight,wood,"[130, 130, 130]","['6022064', '4558957', '306223']"
6022064,2890,1959,3010,2237
4558957,2322,1698,2714,2021
306223,3157,1537,3276,1607
