https://surfdrive.surf.nl/files/index.php/s/B7PEqFZSZZBPcW8/download?path=%2FData%2FInput%2FDatasets%2FHiba%2FImages&files=H_145.jpg,5184,2912
H_145,daylight,wood,"[130, 130, 130]","['4211054', '4211054', '306201', '6229071', '6074890', '4621545', '6062574']"
4211054,2837,559,3037,747
4211054,3155,571,3408,782
306201,2337,787,2489,903
6229071,3649,1125,3884,1364
6074890,2785,1123,2885,1283
4621545,2647,382,2816,571
6062574,2013,2029,2179,2242
