https://surfdrive.surf.nl/files/index.php/s/B7PEqFZSZZBPcW8/download?path=%2FData%2FInput%2FDatasets%2FHiba%2FImages&files=H_153.jpg,5184,3456
H_153,daylight,wood,"[130, 130, 130]",['4109995']
4109995,2420,1686,2776,2037
