https://surfdrive.surf.nl/files/index.php/s/B7PEqFZSZZBPcW8/download?path=%2FData%2FInput%2FDatasets%2FHiba%2FImages&files=H_215.jpg,5184,3456
H_215,daylight,wood,"[130, 130, 130]","['6069259', '6073026']"
6069259,4126,1209,4303,1387
6073026,1752,2032,2014,2242
