https://surfdrive.surf.nl/files/index.php/s/B7PEqFZSZZBPcW8/download?path=%2FData%2FInput%2FDatasets%2FHiba%2FImages&files=H_231.jpg,5184,3456
H_231,daylight,wood,"[130, 130, 130]","['300124', '300401', '6249125', '4121739', '6249125', '6028324']"
300124,2311,1562,2777,1805
300401,3885,2212,4192,2475
6249125,2275,2258,2374,2400
6249125,2650,1978,2769,2089
4121739,1885,1345,2101,1583
6028324,2062,1285,2245,1476
