https://surfdrive.surf.nl/files/index.php/s/B7PEqFZSZZBPcW8/download?path=%2FData%2FInput%2FDatasets%2FHiba%2FImages&files=H_265.jpg,5184,3456
H_265,daylight,wood,"[130, 130, 130]",['4143562']
4143562,2397,1706,2723,1957
