https://surfdrive.surf.nl/files/index.php/s/B7PEqFZSZZBPcW8/download?path=%2FData%2FInput%2FDatasets%2FHiba%2FImages&files=H_311.jpg,5184,3456
H_311,daylight,wood,"[130, 130, 130]","['4550348', '4121967', '6028324']"
4550348,2078,1146,2338,1250
4121967,2330,926,2608,1159
6028324,2987,2188,3291,2496
