https://surfdrive.surf.nl/files/index.php/s/B7PEqFZSZZBPcW8/download?path=%2FData%2FInput%2FDatasets%2FHiba%2FImages&files=H_326.jpg,5184,3456
H_326,daylight,wood,"[130, 130, 130]","['4211437', '300821', '4647553', '4211166', '6073026']"
4211437,2169,2348,2329,2587
300821,3148,2029,3597,2663
4647553,3815,2201,4012,2340
4211166,2444,1832,2594,1960
6073026,2619,642,2706,710
