https://surfdrive.surf.nl/files/index.php/s/B7PEqFZSZZBPcW8/download?path=%2FData%2FInput%2FDatasets%2FHiba%2FImages&files=H_330.jpg,5184,3456
H_330,daylight,wood,"[130, 130, 130]",['6022064']
6022064,2357,1626,2663,1948
