https://surfdrive.surf.nl/files/index.php/s/B7PEqFZSZZBPcW8/download?path=%2FData%2FInput%2FDatasets%2FHiba%2FImages&files=H_376.jpg,5184,3456
H_376,daylight,wood,"[130, 130, 130]","['365901', '300424', '4529247', '4211412', '6238674']"
365901,3728,1270,4042,1688
300424,1714,1944,1952,2292
4529247,2082,1008,2183,1140
4211412,2527,1888,2763,2041
6238674,2272,1462,2485,1620
