https://surfdrive.surf.nl/files/index.php/s/B7PEqFZSZZBPcW8/download?path=%2FData%2FInput%2FDatasets%2FHiba%2FImages&files=H_370.jpg,5184,3456
H_370,daylight,wood,"[130, 130, 130]","['365901', '300424', '4529247']"
365901,2259,1519,2948,1975
300424,2248,1760,2623,2159
4529247,2047,878,2171,1005
