https://surfdrive.surf.nl/files/index.php/s/B7PEqFZSZZBPcW8/download?path=%2FData%2FInput%2FDatasets%2FHiba%2FImages&files=H_414.jpg,5184,3456
H_414,daylight,wood,"[130, 130, 130]","['4211166', '4647553', '4114319', '4550348', '4567338', '4211437', '4621545', '654126']"
4211166,4134,1488,4384,1746
4647553,2920,1323,3280,1636
4114319,1950,1814,2700,2280
4550348,1753,1299,1995,1571
4567338,2205,1401,2437,1520
4211437,3145,1488,3344,1801
4621545,898,1920,1326,2255
654126,3177,2199,3458,2517
