https://surfdrive.surf.nl/files/index.php/s/B7PEqFZSZZBPcW8/download?path=%2FData%2FInput%2FDatasets%2FHiba%2FImages&files=H_53.jpg,5184,3456
H_53,daylight,wood,"[130, 130, 130]","['4211511', '4529240']"
4211511,2566,1614,2702,1732
4529240,2067,2411,2223,2502
