https://surfdrive.surf.nl/files/index.php/s/B7PEqFZSZZBPcW8/download?path=%2FData%2FInput%2FDatasets%2FHiba%2FImages&files=H_58.jpg,5184,3456
H_58,daylight,wood,"[130, 130, 130]","['4211511', '4529240', '614321', '300423']"
4211511,1810,1517,1905,1591
4529240,2266,2174,2388,2240
614321,2523,1703,2670,1888
300423,3075,1703,3247,1893
