https://surfdrive.surf.nl/files/index.php/s/B7PEqFZSZZBPcW8/download?path=%2FData%2FInput%2FDatasets%2FHiba%2FImages&files=H_59.jpg,5184,3456
H_59,daylight,wood,"[130, 130, 130]","['4211511', '4529240', '614321', '300423']"
4211511,2485,1817,2641,1945
4529240,3272,1547,3392,1702
614321,1672,1324,1851,1522
300423,2983,1290,3086,1527
