https://surfdrive.surf.nl/files/index.php/s/B7PEqFZSZZBPcW8/download?path=%2FData%2FInput%2FDatasets%2FHiba%2FImages&files=H_65.jpg,5184,3456
H_65,daylight,wood,"[130, 130, 130]","['4211511', '4529240', '614321', '300423', '4212454', '6062574']"
4211511,4047,1969,4180,2102
4529240,1703,1514,1773,1646
614321,2256,554,2385,703
300423,3982,2204,4188,2363
4212454,1580,1510,1674,1599
6062574,1001,2027,1111,2165
