https://surfdrive.surf.nl/files/index.php/s/B7PEqFZSZZBPcW8/download?path=%2FData%2FInput%2FDatasets%2FHiba%2FImages&files=H_71.jpg,5184,3456
H_71,daylight,wood,"[130, 130, 130]","['4211511', '4529240', '614321', '300423', '4212454', '6062574', '4650630', '4529247']"
4211511,2049,1993,2235,2123
4529240,2491,1062,2615,1167
614321,1400,651,1543,812
300423,2564,1582,2723,1831
4212454,2865,2427,3033,2599
6062574,2650,1829,2797,2017
4650630,2361,1781,2625,2009
4529247,2013,1709,2100,1845
