https://surfdrive.surf.nl/files/index.php/s/B7PEqFZSZZBPcW8/download?path=%2FData%2FInput%2FDatasets%2FHiba%2FImages&files=H_85.jpg,5184,3456
H_85,daylight,wood,"[130, 130, 130]",['6223631']
6223631,2505,1692,2637,1830
