https://surfdrive.surf.nl/files/index.php/s/B7PEqFZSZZBPcW8/download?path=%2FData%2FInput%2FDatasets%2FHiba%2FImages&files=H_89.jpg,3456,5184
H_89,daylight,wood,"[130, 130, 130]","['6223631', '300421']"
6223631,1770,2668,1910,2751
300421,1449,2460,1715,2698
