https://surfdrive.surf.nl/files/index.php/s/B7PEqFZSZZBPcW8/download?path=%2FData%2FInput%2FDatasets%2FBerend%2FImages&files=B_572.jpg,4608,3072
6074890,1369,1211,1586,1375
6004938,1484,951,1726,1242
6229071,1574,1357,1901,1720
4639693,1574,1351,2591,2411
6069259,2446,1890,2797,2302
4550325,2742,1387,3069,1750
4211412,3250,463,3456,699
