https://surfdrive.surf.nl/files/index.php/s/B7PEqFZSZZBPcW8/download?path=%2FData%2FInput%2FDatasets%2FDavid%2FImages&files=C_803.jpg,5472,3648
4504381,2396,2007,2567,2173
4647553,2854,1431,3147,1701
4153827,2405,1616,2949,1984
4520632,3052,1602,3520,2169
