https://surfdrive.surf.nl/files/index.php/s/B7PEqFZSZZBPcW8/download?path=%2FData%2FInput%2FDatasets%2FHiba%2FImages&files=H_29.jpg,5184,3456
4181135,2464,1360,2945,1956
6238674,1889,1709,3060,2097
300321,2042,1211,3388,1978
