https://surfdrive.surf.nl/files/index.php/s/B7PEqFZSZZBPcW8/download?path=%2FData%2FInput%2FDatasets%2FBerend%2FImages&files=B_123.jpg,4608,3072
B_123,daylight,wood,"[130, 130, 130]","['6022064', '4211221', '4211511', '6073026', '4550348', '6022023', '4621545', '4529240', '6238674', '4529247']"
6022064,1911,1140,2160,1399
4211221,2078,1186,2323,1581
4211511,1848,1626,2091,1890
6073026,3452,1611,3648,1846
4550348,1119,1495,1391,1762
6022023,1484,1465,1882,1855
4621545,1441,1188,1691,1491
4529240,1665,1158,1857,1357
6238674,1840,1514,2050,1658
4529247,1360,1518,1509,1708
