https://surfdrive.surf.nl/files/index.php/s/B7PEqFZSZZBPcW8/download?path=%2FData%2FInput%2FDatasets%2FBerend%2FImages&files=B_387.jpg,4608,3072
B_387,daylight,wood,"[130, 130, 130]","['4181144', '6238674', '6025026', '6074890', '4647553']"
4181144,2161,1968,2751,2439
6238674,1490,1643,1630,1781
6025026,2314,1951,2523,2054
6074890,843,1613,980,1752
4647553,2173,2194,2349,2417
