https://surfdrive.surf.nl/files/index.php/s/B7PEqFZSZZBPcW8/download?path=%2FData%2FInput%2FDatasets%2FBerend%2FImages&files=B_49.jpg,4608,3072
B_49,daylight,wood,"[130, 130, 130]","['6075079', '4520632']"
6075079,2266,2151,2584,2480
4520632,1742,517,2304,1156
