https://surfdrive.surf.nl/files/index.php/s/B7PEqFZSZZBPcW8/download?path=%2FData%2FInput%2FDatasets%2FBerend%2FImages&files=B_695.jpg,4608,3072
B_695,daylight,wood,"[130, 130, 130]","['365901', '4567338', '4121967', '6223631', '4212454', '4153825', '4504381']"
365901,2213,1747,2811,2003
4567338,1947,1734,2174,1885
4121967,1896,1296,2172,1606
6223631,2207,1210,2378,1381
4212454,2591,1654,2802,1768
4153825,2296,1342,2661,1736
4504381,2046,1836,2205,1983
