https://surfdrive.surf.nl/files/index.php/s/B7PEqFZSZZBPcW8/download?path=%2FData%2FInput%2FDatasets%2FDavid%2FImages&files=C_0.jpg,5472,3648
C_0,daylight,coffee_table,"[130, 130, 130]",['300121']
300121,2629,1680,2887,1967
