https://surfdrive.surf.nl/files/index.php/s/B7PEqFZSZZBPcW8/download?path=%2FData%2FInput%2FDatasets%2FDavid%2FImages&files=C_111.jpg,5472,3648
C_111,daylight,armchair,"[130, 130, 130]","['300124', '4181134', '4114319']"
300124,1653,2101,2051,2468
4181134,2992,1302,3486,1497
4114319,1872,2515,2245,2734
