https://surfdrive.surf.nl/files/index.php/s/B7PEqFZSZZBPcW8/download?path=%2FData%2FInput%2FDatasets%2FDavid%2FImages&files=C_159.jpg,5472,3648
C_159,daylight,coffee_table,"[130, 130, 130]","['4121739', '6025026', '6238674', '6104154', '4121739', '4529240']"
4121739,1424,1733,1742,2093
4121739,3244,2216,3602,2584
6025026,3309,1212,3583,1479
6238674,2856,788,3063,963
6104154,1433,1408,1779,1741
4529240,2379,1343,2580,1527
