https://surfdrive.surf.nl/files/index.php/s/B7PEqFZSZZBPcW8/download?path=%2FData%2FInput%2FDatasets%2FDavid%2FImages&files=C_161.jpg,5472,3648
C_161,daylight,coffee_table,"[130, 130, 130]","['4121739', '6025026', '6238674', '6104154', '4121739', '4529240']"
4121739,1636,2127,1923,2360
4121739,2207,1732,2498,1974
6025026,2696,1897,2971,2130
6238674,3729,1544,3921,1700
6104154,2090,1906,2384,2141
4529240,2301,1414,2476,1574
