https://surfdrive.surf.nl/files/index.php/s/B7PEqFZSZZBPcW8/download?path=%2FData%2FInput%2FDatasets%2FDavid%2FImages&files=C_193.jpg,5472,3648
C_193,daylight,coffee_table,"[130, 130, 130]",['6025026']
6025026,2617,1664,2861,1996
