https://surfdrive.surf.nl/files/index.php/s/B7PEqFZSZZBPcW8/download?path=%2FData%2FInput%2FDatasets%2FDavid%2FImages&files=C_238.jpg,5472,3648
C_238,daylight,coffee_table,"[130, 130, 130]","['4118793', '4567338', '6073026', '4211054', '4121739', '300124', '6244886']"
4118793,2415,2299,2625,2543
4567338,2842,1335,2983,1499
6073026,3125,1920,3331,2142
4211054,2935,1389,3189,1636
4121739,2114,1678,2365,1885
300124,2635,1996,3046,2571
6244886,2412,1274,2716,1553
