https://surfdrive.surf.nl/files/index.php/s/B7PEqFZSZZBPcW8/download?path=%2FData%2FInput%2FDatasets%2FDavid%2FImages&files=C_391.jpg,5472,3648
C_391,daylight,living_room_floor,"[130, 130, 130]","['300401', '300423', '4529240', '6004938', '4550348', '6229071', '6035291']"
300401,2937,2688,3189,2994
300423,2849,2421,3115,2662
4529240,2558,1823,2693,1974
6004938,3758,1515,3930,1688
4550348,3085,1169,3291,1305
6229071,3759,1309,3977,1531
6035291,3529,1776,3746,1967
