https://surfdrive.surf.nl/files/index.php/s/B7PEqFZSZZBPcW8/download?path=%2FData%2FInput%2FDatasets%2FDavid%2FImages&files=C_641.jpg,5472,3648
C_641,daylight,coffee_table,"[130, 130, 130]","['6074890', '6073026', '4211221', '4211166', '4181144', '4211149', '6062574']"
6074890,2741,1532,2881,1723
6073026,3659,1719,3878,1978
4211221,3022,916,3376,1278
4181144,2300,1512,2645,2423
4211149,4068,1140,4342,1466
4211166,2699,1711,2990,2038
6062574,3321,1391,3503,1633
