https://surfdrive.surf.nl/files/index.php/s/B7PEqFZSZZBPcW8/download?path=%2FData%2FInput%2FDatasets%2FDavid%2FImages&files=C_696.jpg,5472,3648
C_696,daylight,coffee_table,"[130, 130, 130]","['4558957', '4539099', '300323', '6229071', '4157124', '4504369', '4649749', '6225539']"
4558957,1694,1143,2226,1613
4539099,2828,2350,3063,2541
300323,1267,1059,1646,1415
6229071,2716,1170,2989,1465
4157124,2032,1757,2275,2019
4504369,2835,1421,2992,1568
4649749,1188,1543,1382,1817
6225539,2342,1659,3156,2190
