https://surfdrive.surf.nl/files/index.php/s/B7PEqFZSZZBPcW8/download?path=%2FData%2FInput%2FDatasets%2FDavid%2FImages&files=C_79.jpg,5472,3648
C_79,daylight,coffee_table,"[130, 130, 130]","['4121739', '306223']"
4121739,2413,1689,2766,2030
306223,1712,1498,1873,1718
