https://surfdrive.surf.nl/files/index.php/s/B7PEqFZSZZBPcW8/download?path=%2FData%2FInput%2FDatasets%2FHiba%2FImages&files=H_133.jpg,5184,3456
H_133,daylight,wood,"[130, 130, 130]","['4211054', '4211054', '306201']"
4211054,2928,1331,3195,1609
306201,1345,1990,1500,2179
4211054,2537,968,2804,1204
