https://surfdrive.surf.nl/files/index.php/s/B7PEqFZSZZBPcW8/download?path=%2FData%2FInput%2FDatasets%2FHiba%2FImages&files=H_15.jpg,5184,3456
H_15,daylight,wood,"[130, 130, 130]","['623224', '6022023', '4121739', '4118793', '4529240']"
623224,2432,1491,2733,1880
6022023,1034,1285,1371,1588
4121739,3590,1458,3914,1726
4118793,3342,1724,3574,1944
4529240,2243,817,2411,958
