https://surfdrive.surf.nl/files/index.php/s/B7PEqFZSZZBPcW8/download?path=%2FData%2FInput%2FDatasets%2FHiba%2FImages&files=H_173.jpg,5184,3456
H_173,daylight,wood,"[130, 130, 130]","['4211412', '4153825', '4210718', '6104154']"
4211412,2954,2346,3105,2567
4153825,2410,1587,2759,1896
4210718,3314,1459,3929,1736
6104154,1419,1927,1624,2210
