https://surfdrive.surf.nl/files/index.php/s/B7PEqFZSZZBPcW8/download?path=%2FData%2FInput%2FDatasets%2FHiba%2FImages&files=H_177.jpg,5184,3456
H_177,daylight,wood,"[130, 130, 130]","['4211412', '4153825', '4210718', '6104154', '4157124', '4121739']"
4211412,3605,1567,3781,1725
4153825,2303,1379,2483,1703
4210718,1047,1998,1703,2517
6104154,895,1218,1065,1426
4157124,2961,1981,3224,2173
4121739,2573,1913,2871,2192
