https://surfdrive.surf.nl/files/index.php/s/B7PEqFZSZZBPcW8/download?path=%2FData%2FInput%2FDatasets%2FHiba%2FImages&files=H_203.jpg,5184,3456
H_203,daylight,wood,"[130, 130, 130]","['4548180', '4504381', '4517992', '4647553', '300821', '300124', '300401']"
4548180,2261,1044,2531,1223
4504381,2071,1440,2268,1631
4517992,2950,617,3264,897
4647553,3466,1249,3745,1510
