https://surfdrive.surf.nl/files/index.php/s/B7PEqFZSZZBPcW8/download?path=%2FData%2FInput%2FDatasets%2FHiba%2FImages&files=H_371.jpg,5184,3456
H_371,daylight,wood,"[130, 130, 130]","['365901', '300424', '4529247']"
365901,2583,1356,2823,1751
300424,2507,1836,2802,2126
4529247,2074,1454,2244,1579
