https://surfdrive.surf.nl/files/index.php/s/B7PEqFZSZZBPcW8/download?path=%2FData%2FInput%2FDatasets%2FHiba%2FImages&files=H_419.jpg,5184,3456
H_419,daylight,wood,"[130, 130, 130]","['4211166', '4647553', '4114319', '4550348', '4567338', '4211437', '4621545', '654126', '4211201']"
4211166,2463,1622,2685,1875
4647553,2579,1195,2743,1434
4114319,1665,2202,2214,2735
4550348,1863,1478,2068,1649
4567338,1046,1443,1201,1547
4211437,2584,1552,2751,1789
4621545,2143,1489,2374,1680
654126,2189,1633,2349,1821
4211201,3330,1778,3683,2231
