https://surfdrive.surf.nl/files/index.php/s/B7PEqFZSZZBPcW8/download?path=%2FData%2FInput%2FDatasets%2FDavid%2FImages&files=C_569.jpg,5472,3648
365901,2881,2310,3041,2945
6025026,2108,2650,2434,3001
4211166,1755,2499,2087,2839
4121967,1845,2143,2160,2370
4567338,1053,1881,1253,2022
4504381,2567,1704,2775,1898
6003007,1383,1222,1580,1402
