https://surfdrive.surf.nl/files/index.php/s/B7PEqFZSZZBPcW8/download?path=%2FData%2FInput%2FDatasets%2FDavid%2FImages&files=C_115.jpg,5472,3648
4529247,2542,2632,2774,2784
4181134,1958,1244,2771,2027
4114319,1904,1627,2542,2197
300124,3163,1213,3769,1627
