https://surfdrive.surf.nl/files/index.php/s/B7PEqFZSZZBPcW8/download?path=%2FData%2FInput%2FDatasets%2FBerend%2FImages&files=B_754.jpg,4608,3072
6035291,1865,1143,2180,1502
4118793,1703,1578,2059,1862
4109995,2168,1120,2562,1551
