https://surfdrive.surf.nl/files/index.php/s/B7PEqFZSZZBPcW8/download?path=%2FData%2FInput%2FDatasets%2FBerend%2FImages&files=B_103.jpg,4608,3072
B_103,daylight,wood,"[130, 130, 130]","['6022064', '4211221', '4211511']"
6022064,863,1265,1313,1684
4211221,2938,792,3283,1132
4211511,2717,1644,2969,1899
