https://surfdrive.surf.nl/files/index.php/s/B7PEqFZSZZBPcW8/download?path=%2FData%2FInput%2FDatasets%2FBerend%2FImages&files=B_1068.jpg,4607,3072
B_1068,daylight,dirty_rug,"[120, 120, 120]","['4109995', '300123', '623224', '4520632', '6025026', '4504369', '4157124', '4211511']"
4109995,1565,1042,1718,1176
300123,1959,1583,2273,1752
623224,2661,1954,2876,2170
4520632,2160,1306,2452,1573
6025026,2636,1902,2796,1996
4504369,2192,1895,2278,1979
4157124,2925,1871,3019,2026
4211511,2264,1883,2378,2006
