https://surfdrive.surf.nl/files/index.php/s/B7PEqFZSZZBPcW8/download?path=%2FData%2FInput%2FDatasets%2FBerend%2FImages&files=B_1083.jpg,4608,3072
B_1083,artificial_light,parquet_dark_brown,"[120, 120, 120]","['4529247', '6062574', '614321', '6022064', '6028324', '4211149', '4211412', '6138173', '4211511', '4210718']"
4529247,3053,1596,3169,1682
6062574,2747,1549,2862,1688
614321,1381,902,1530,1032
6022064,2344,877,2470,1047
6028324,2461,900,2594,1019
4211149,1981,1313,2170,1434
4211412,1855,1594,1956,1707
6138173,2493,1460,2678,1611
4211511,3290,1988,3437,2085
4210718,2694,1250,2955,1544
