https://surfdrive.surf.nl/files/index.php/s/B7PEqFZSZZBPcW8/download?path=%2FData%2FInput%2FDatasets%2FBerend%2FImages&files=B_1036.jpg,4608,3072
B_1036,daylight,dirty_rug,"[120, 120, 120]","['654126', '4504381', '4517992', '4211221', '6177697', '6022023', '4550325', '4114319', '4143562', '4655172', '4181134']"
654126,328,498,469,613
4504381,2887,1675,2975,1797
4517992,1989,1666,2203,1891
4211221,2796,1704,2925,1925
6177697,2900,1723,3143,2001
6022023,2193,983,2380,1130
4550325,3138,1706,3290,1836
4114319,2916,1949,3369,2366
4143562,3446,1080,3619,1175
4655172,2628,2062,3093,2452
4181134,3004,1851,3384,2238
