https://surfdrive.surf.nl/files/index.php/s/B7PEqFZSZZBPcW8/download?path=%2FData%2FInput%2FDatasets%2FBerend%2FImages&files=B_1031.jpg,4608,3072
B_1031,daylight,dirty_rug,"[120, 120, 120]","['654126', '4504381', '4517992', '4211221', '6177697', '6022023', '4550325', '4114319', '4143562', '4655172', '4181134', '6223631', '300321']"
654126,2300,2115,2462,2319
4504381,2592,2060,2748,2213
4517992,1847,1385,2153,1687
4211221,2573,1464,2896,1776
6177697,1046,1454,1416,1858
6022023,1714,1625,2035,1898
4550325,1353,1497,1565,1736
4114319,2085,969,2533,1380
4143562,1928,1741,2221,2004
4655172,2853,1596,3323,2041
4181134,1174,1093,1844,1581
6223631,2192,2163,2348,2305
300321,1940,851,2174,1088
