https://surfdrive.surf.nl/files/index.php/s/B7PEqFZSZZBPcW8/download?path=%2FData%2FInput%2FDatasets%2FBerend%2FImages&files=B_1061.jpg,4607,3072
B_1061,daylight,dirty_rug,"[120, 120, 120]","['4109995', '300123', '623224', '4520632', '6025026', '4504369', '4157124', '4211511', '4621545', '365901', '4639693']"
4109995,2982,1659,3247,1846
300123,2401,1736,2922,2024
623224,2714,2034,3044,2335
4520632,1134,1802,1570,2279
6025026,1768,1512,1940,1703
4504369,1843,1986,1996,2116
4157124,1511,1481,1683,1631
4211511,2333,1580,2455,1732
4621545,2144,1334,2293,1501
365901,1989,1305,2272,1707
4639693,2012,1002,2838,1606
