https://surfdrive.surf.nl/files/index.php/s/B7PEqFZSZZBPcW8/download?path=%2FData%2FInput%2FDatasets%2FBerend%2FImages&files=B_1174.jpg,4608,3072
B_1174,artificial_light,parquet_light,"[120, 120, 120]","['4210718', '6022023', '4211221', '654126', '4550325', '4109995', '6177697', '4529247']"
4210718,2196,1520,2747,1859
6022023,2339,1278,2737,1520
4211221,1204,480,1468,768
654126,3279,1439,3466,1645
4550325,3166,2425,3326,2770
4109995,2654,2072,2947,2316
6177697,1729,1754,2300,2035
4529247,1195,2027,1358,2196
