https://surfdrive.surf.nl/files/index.php/s/B7PEqFZSZZBPcW8/download?path=%2FData%2FInput%2FDatasets%2FBerend%2FImages&files=B_11.jpg,4608,3072
B_11,daylight,wood,"[130, 130, 130]","['4650630', '6252809', '4211054', '4548180']"
4650630,1281,1999,1641,2399
6252809,1844,1610,3476,1962
4211054,1125,1590,1527,1965
4548180,3024,812,3290,1108
