https://surfdrive.surf.nl/files/index.php/s/B7PEqFZSZZBPcW8/download?path=%2FData%2FInput%2FDatasets%2FBerend%2FImages&files=B_1178.jpg,4608,3072
B_1178,artificial_light,parquet_light,"[120, 120, 120]","['4210718', '6022023', '4211221', '654126', '4550325', '4109995', '6177697']"
4210718,2585,870,3120,1315
6022023,2346,769,2635,1059
4211221,1073,1122,1343,1519
654126,2243,1439,2463,1647
4550325,1798,1762,2095,2065
4109995,1485,1538,1806,1795
6177697,1609,1548,2133,2000
