https://surfdrive.surf.nl/files/index.php/s/B7PEqFZSZZBPcW8/download?path=%2FData%2FInput%2FDatasets%2FBerend%2FImages&files=B_1151.jpg,4607,3072
B_1151,artificial_light,desk_black_wood,"[120, 120, 120]","['300121', '365901', '300421', '4211149', '300124', '6062574', '4639693', '300123', '6025026', '4651236', '6104154']"
300121,2321,1334,2779,1553
365901,2346,1095,2702,1313
300421,2595,1582,2864,1795
4211149,1849,687,2073,888
300124,1995,1129,2488,1469
6062574,2395,1602,2548,1749
4639693,1153,919,2056,1443
300123,2599,1046,3028,1455
6025026,2092,1491,2333,1671
4651236,1677,882,1890,1000
6104154,1780,1192,2001,1378
