https://surfdrive.surf.nl/files/index.php/s/B7PEqFZSZZBPcW8/download?path=%2FData%2FInput%2FDatasets%2FBerend%2FImages&files=B_1112.jpg,4608,3072
B_1112,artificial_light,parquet_dark_brown,"[120, 120, 120]","['6075075', '4160403', '6252809', '4651236', '300821', '4181144', '4655172', '4539099', '6022064', '6073026', '300323']"
6075075,1837,2088,1935,2232
4160403,1101,2428,1354,2968
6252809,1969,1145,2585,1553
4651236,1181,2002,1342,2140
300821,1969,1852,2677,1967
4181144,2107,1444,2527,1778
4655172,2803,978,3114,1197
4539099,3068,1910,3206,2048
6022064,1342,1461,1624,1588
6073026,1659,299,1751,420
300323,2815,1513,2976,1634
