https://surfdrive.surf.nl/files/index.php/s/B7PEqFZSZZBPcW8/download?path=%2FData%2FInput%2FDatasets%2FBerend%2FImages&files=B_1179.jpg,4608,3072
B_1179,artificial_light,parquet_light,"[120, 120, 120]","['4517992', '4504369', '4504381', '4165967', '6138173', '300321', '4212454', '4520632', '4211614', '300123', '4212454', '6022064', '6229071']"
4517992,1900,1000,2157,1193
4504369,2241,1325,2360,1430
4504381,1036,522,1171,660
4165967,1950,1462,2177,1818
6138173,2821,1225,3061,1441
300321,3527,1642,3791,1844
4212454,3186,1596,3343,1724
4212454,2899,1650,3002,1781
4520632,3118,1899,3579,2278
4211614,2750,1977,2901,2216
300123,2014,2006,2444,2393
6022064,2124,750,2333,942
6229071,2575,2366,2764,2539
