https://surfdrive.surf.nl/files/index.php/s/B7PEqFZSZZBPcW8/download?path=%2FData%2FInput%2FDatasets%2FBerend%2FImages&files=B_1201.jpg,4608,3072
B_1201,artificial_light,parquet_light,"[120, 120, 120]","['4211412', '623224', '6244886', '4153827', '4211201', '300323', '6069259', '6229071', '4211149', '4143562', '4650630']"
4211412,1720,2097,1966,2207
623224,2669,1200,3062,1536
6244886,3088,825,3340,1150
4153827,2014,997,2580,1601
4211201,3057,1307,3613,1921
300323,2496,1438,2664,1868
6069259,1290,452,1568,677
6229071,2700,1942,2957,2277
4211149,3125,1034,3293,1312
4143562,2900,1858,3172,2078
4650630,2139,1622,2412,1968
