https://surfdrive.surf.nl/files/index.php/s/B7PEqFZSZZBPcW8/download?path=%2FData%2FInput%2FDatasets%2FBerend%2FImages&files=B_225.jpg,4607,3072
B_225,daylight,wood,"[130, 130, 130]","['6138173', '4210718']"
6138173,2394,780,2651,1047
4210718,1631,2339,2321,2794
