https://surfdrive.surf.nl/files/index.php/s/B7PEqFZSZZBPcW8/download?path=%2FData%2FInput%2FDatasets%2FBerend%2FImages&files=B_233.jpg,4607,3072
B_233,daylight,wood,"[130, 130, 130]","['6138173', '4210718', '4210718', '4121739']"
6138173,1392,1549,1685,1806
4210718,2194,765,2682,1258
4210718,2367,1561,2652,2155
4121739,1887,732,2133,902
