https://surfdrive.surf.nl/files/index.php/s/B7PEqFZSZZBPcW8/download?path=%2FData%2FInput%2FDatasets%2FBerend%2FImages&files=B_36.jpg,4607,3072
B_36,daylight,wood,"[130, 130, 130]","['306201', '4649749', '6025026']"
306201,1759,1551,1976,1760
4649749,2530,1482,2736,1742
6025026,1869,1447,2111,1665
