https://surfdrive.surf.nl/files/index.php/s/B7PEqFZSZZBPcW8/download?path=%2FData%2FInput%2FDatasets%2FBerend%2FImages&files=B_385.jpg,4608,3072
B_385,daylight,wood,"[130, 130, 130]","['4181144', '6238674', '6025026', '6074890']"
4181144,1974,1406,2453,1868
6238674,1785,1219,2005,1417
6025026,2962,1250,3182,1449
6074890,3038,1416,3498,1884
