https://surfdrive.surf.nl/files/index.php/s/B7PEqFZSZZBPcW8/download?path=%2FData%2FInput%2FDatasets%2FBerend%2FImages&files=B_384.jpg,4607,3072
B_384,daylight,wood,"[130, 130, 130]","['4181144', '6238674', '6025026', '6074890']"
4181144,1502,1746,2136,2210
6238674,2050,1558,2203,1661
6025026,1887,1259,2108,1404
6074890,2191,1517,2295,1640
