https://surfdrive.surf.nl/files/index.php/s/B7PEqFZSZZBPcW8/download?path=%2FData%2FInput%2FDatasets%2FBerend%2FImages&files=B_449.jpg,4608,3072
B_449,daylight,wood,"[130, 130, 130]","['300423', '4165967', '4647553']"
300423,2216,2385,2424,2696
4165967,1418,690,1940,1142
4647553,2301,452,2481,719
