https://surfdrive.surf.nl/files/index.php/s/B7PEqFZSZZBPcW8/download?path=%2FData%2FInput%2FDatasets%2FBerend%2FImages&files=B_469.jpg,4607,3072
B_469,daylight,wood,"[130, 130, 130]","['6075079', '4211201', '4165967']"
6075079,2732,1491,3016,1805
4211201,430,751,1100,1211
4165967,3837,939,4211,1328
