https://surfdrive.surf.nl/files/index.php/s/B7PEqFZSZZBPcW8/download?path=%2FData%2FInput%2FDatasets%2FBerend%2FImages&files=B_475.jpg,4608,3072
B_475,daylight,wood,"[130, 130, 130]","['6075079', '4211201', '4165967', '4647553', '4121967']"
6075079,532,1559,873,1764
4211201,3473,1629,4205,2194
4165967,2765,1197,3181,1746
4647553,3041,1704,3425,1971
4121967,2939,2173,3282,2586
