https://surfdrive.surf.nl/files/index.php/s/B7PEqFZSZZBPcW8/download?path=%2FData%2FInput%2FDatasets%2FBerend%2FImages&files=B_508.jpg,4608,3072
B_508,daylight,wood,"[130, 130, 130]","['6075075', '4649749', '300323', '4211149', '4621545', '300424', '6244886', '300124']"
6075075,2331,1596,2697,1946
4649749,2664,1353,2938,1546
300323,1980,1370,2209,1585
4211149,1584,1357,1840,1613
4621545,2143,1513,2418,1741
300424,1779,1582,2007,1870
6244886,1576,1187,1830,1411
300124,2033,1388,2521,1743
