https://surfdrive.surf.nl/files/index.php/s/B7PEqFZSZZBPcW8/download?path=%2FData%2FInput%2FDatasets%2FBerend%2FImages&files=B_549.jpg,4608,3072
B_549,daylight,wood,"[130, 130, 130]","['4504369', '4211149', '4118793']"
4504369,1698,1169,1969,1522
4211149,2154,1110,2424,1481
4118793,1893,1387,2105,1650
