https://surfdrive.surf.nl/files/index.php/s/B7PEqFZSZZBPcW8/download?path=%2FData%2FInput%2FDatasets%2FBerend%2FImages&files=B_551.jpg,4608,3072
B_551,daylight,wood,"[130, 130, 130]","['4504369', '4211149', '4118793']"
4504369,1825,1028,2044,1265
4211149,2020,1258,2366,1587
4118793,2182,1766,2421,1974
