https://surfdrive.surf.nl/files/index.php/s/B7PEqFZSZZBPcW8/download?path=%2FData%2FInput%2FDatasets%2FBerend%2FImages&files=B_56.jpg,4607,3072
B_56,daylight,wood,"[130, 130, 130]","['6075079', '4520632', '300421', '6073026']"
6075079,1771,1766,1985,1884
4520632,2244,1300,2650,1551
300421,2636,1553,2826,1695
6073026,1805,983,1935,1124
