https://surfdrive.surf.nl/files/index.php/s/B7PEqFZSZZBPcW8/download?path=%2FData%2FInput%2FDatasets%2FBerend%2FImages&files=B_599.jpg,4608,3072
B_599,daylight,wood,"[130, 130, 130]","['6238674', '300323']"
6238674,1819,1339,2027,1467
300323,2459,1475,2802,1824
