https://surfdrive.surf.nl/files/index.php/s/B7PEqFZSZZBPcW8/download?path=%2FData%2FInput%2FDatasets%2FBerend%2FImages&files=B_594.jpg,4608,3072
B_594,daylight,wood,"[130, 130, 130]",['6238674']
6238674,2201,1425,2342,1630
