https://surfdrive.surf.nl/files/index.php/s/B7PEqFZSZZBPcW8/download?path=%2FData%2FInput%2FDatasets%2FBerend%2FImages&files=B_61.jpg,4608,3072
B_61,daylight,wood,"[130, 130, 130]","['6075079', '4520632', '300421', '6073026', '365901', '6062574']"
6075079,2005,1433,2274,1601
4520632,1522,893,1676,1415
300421,2215,1965,2482,2178
6073026,2131,1657,2319,1882
365901,2297,1605,2775,1961
6062574,2759,1676,2936,1877
