https://surfdrive.surf.nl/files/index.php/s/B7PEqFZSZZBPcW8/download?path=%2FData%2FInput%2FDatasets%2FBerend%2FImages&files=B_7.jpg,4608,3072
B_7,daylight,wood,"[130, 130, 130]","['4650630', '6252809', '4211054']"
4650630,2816,883,3156,1237
6252809,939,860,2133,1971
4211054,3200,1735,3688,2181
