https://surfdrive.surf.nl/files/index.php/s/B7PEqFZSZZBPcW8/download?path=%2FData%2FInput%2FDatasets%2FBerend%2FImages&files=B_719.jpg,4608,3072
B_719,daylight,wood,"[130, 130, 130]","['306201', '4527943']"
306201,2164,1460,2349,1675
4527943,1862,1577,2052,1729
