https://surfdrive.surf.nl/files/index.php/s/B7PEqFZSZZBPcW8/download?path=%2FData%2FInput%2FDatasets%2FBerend%2FImages&files=B_725.jpg,4608,3072
B_725,daylight,wood,"[130, 130, 130]","['306201', '4527943', '6004938', '4121967']"
306201,1794,1674,2028,1897
4527943,2648,1740,2952,2039
6004938,1438,1038,1662,1304
4121967,1915,1732,2256,1986
