https://surfdrive.surf.nl/files/index.php/s/B7PEqFZSZZBPcW8/download?path=%2FData%2FInput%2FDatasets%2FBerend%2FImages&files=B_730.jpg,4608,3072
B_730,daylight,wood,"[130, 130, 130]","['306201', '4527943', '6004938', '4121967', '4181144', '4160403']"
306201,729,1096,867,1259
4527943,3407,1380,3694,1624
6004938,2862,1518,3002,1725
4121967,2277,993,2519,1169
4181144,2552,1127,3307,1718
4160403,2357,1746,3068,2278
