https://surfdrive.surf.nl/files/index.php/s/B7PEqFZSZZBPcW8/download?path=%2FData%2FInput%2FDatasets%2FBerend%2FImages&files=B_800.jpg,4608,3072
B_800,daylight,wood,"[130, 130, 130]","['6151663', '4550348']"
6151663,2342,1443,2652,1820
4550348,1899,1146,2353,1491
