https://surfdrive.surf.nl/files/index.php/s/B7PEqFZSZZBPcW8/download?path=%2FData%2FInput%2FDatasets%2FBerend%2FImages&files=B_855.jpg,4608,3072
B_855,daylight,parquet_dark_brown,"[120, 120, 120]","['6225539', '4181134', '4520632', '4639693', '300321', '6177697', '654126', '4153827']"
6225539,1381,1548,1987,1726
4181134,1735,953,2190,1384
4520632,2396,1175,2728,1530
4639693,2001,923,2516,1520
300321,2329,816,2527,1007
6177697,2348,1019,2614,1203
654126,1590,1025,1711,1136
4153827,1944,808,2315,1054
