https://surfdrive.surf.nl/files/index.php/s/B7PEqFZSZZBPcW8/download?path=%2FData%2FInput%2FDatasets%2FBerend%2FImages&files=B_859.jpg,4608,3072
B_859,daylight,parquet_dark_brown,"[120, 120, 120]","['6225539', '4181134', '4520632', '4639693', '300321', '6177697', '654126']"
6225539,1791,1163,2226,1506
4181134,1138,896,1646,1135
4520632,2678,1498,3068,1752
4639693,1969,1046,2572,1504
300321,3126,1152,3296,1280
6177697,1444,1215,1813,1378
654126,1845,682,1951,781
