https://surfdrive.surf.nl/files/index.php/s/B7PEqFZSZZBPcW8/download?path=%2FData%2FInput%2FDatasets%2FBerend%2FImages&files=B_854.jpg,4608,3072
B_854,daylight,parquet_dark_brown,"[120, 120, 120]","['6225539', '4181134', '4520632', '4639693', '300321', '6177697', '654126', '4153827', '4121739']"
6225539,2450,1604,3021,1856
4181134,1476,990,2035,1262
4520632,2240,1418,2647,1664
4639693,2347,1008,3057,1184
300321,1948,1244,2152,1382
6177697,2228,1226,2448,1484
654126,1340,1505,1451,1611
4153827,2675,1301,3034,1446
4121739,2594,1545,2804,1671
