https://surfdrive.surf.nl/files/index.php/s/B7PEqFZSZZBPcW8/download?path=%2FData%2FInput%2FDatasets%2FBerend%2FImages&files=B_899.jpg,4608,3072
B_899,daylight,parquet_dark_brown,"[120, 120, 120]","['4165967', '623224', '6075075', '6225539', '4504369', '6252809', '4181135', '4211511', '4181134']"
4165967,1610,1168,1817,1297
623224,2550,1051,2920,1234
6075075,1618,1064,1713,1151
6225539,1788,1249,2024,1548
4504369,1713,1223,1854,1430
6252809,2022,990,2549,1260
4181135,2368,1457,2542,1784
4211511,2443,1657,2549,1757
4181134,2100,1347,2352,1712
