https://surfdrive.surf.nl/files/index.php/s/B7PEqFZSZZBPcW8/download?path=%2FData%2FInput%2FDatasets%2FBerend%2FImages&files=B_912.jpg,4607,3072
B_912,daylight,parquet_light,"[120, 120, 120]","['6138173', '4520632', '6229071', '6177697', '300321', '4529247', '4639693', '4181144', '4211166', '4109995', '6177697', '4639693']"
6138173,1874,2135,2028,2305
4520632,2112,1196,2404,1439
6229071,2063,2221,2224,2370
6177697,2754,1686,3059,1914
6177697,1691,1481,2013,1613
300321,1677,1524,1878,1699
4529247,2453,2205,2560,2315
4639693,1552,1453,1913,1922
4639693,1696,1570,2017,2069
4181144,2333,1877,2838,2067
4211166,2140,1439,2275,1561
4109995,2256,589,2399,697
