https://surfdrive.surf.nl/files/index.php/s/B7PEqFZSZZBPcW8/download?path=%2FData%2FInput%2FDatasets%2FBerend%2FImages&files=B_959.jpg,4608,3072
B_959,daylight,parquet_light,"[120, 120, 120]","['6244886', '6022023', '300821', '4181134', '300121', '4143562', '300123', '4114319', '6075079', '4157124', '306223', '4181144']"
6244886,2790,1560,3076,1836
6022023,2727,1836,3041,2163
300821,2436,1594,2827,2356
4181134,2250,871,2635,1420
300121,1798,1180,2246,1501
4143562,1765,1549,1994,1748
300123,1376,1359,1809,1767
4114319,2582,961,2849,1398
6075079,1353,2351,1602,2535
4157124,2814,1103,3002,1264
306223,2971,1504,3072,1644
4181144,1868,1720,2561,2166
