https://surfdrive.surf.nl/files/index.php/s/B7PEqFZSZZBPcW8/download?path=%2FData%2FInput%2FDatasets%2FDavid%2FImages&files=C_109.jpg,5472,3648
C_109,daylight,armchair,"[130, 130, 130]","['300124', '4181134']"
300124,904,1467,1524,1888
4181134,3234,1408,4073,2042
