https://surfdrive.surf.nl/files/index.php/s/B7PEqFZSZZBPcW8/download?path=%2FData%2FInput%2FDatasets%2FDavid%2FImages&files=C_139.jpg,5472,3648
C_139,artificial,coffee_table,"[130, 130, 130]","['6238674', '4212454', '4504369', '4550348', '4527943', '6074890', '6244886', '4651236']"
6238674,3202,1790,3378,2027
4212454,2696,1774,2954,2012
4504369,2460,1752,2688,1970
4550348,2164,1641,2510,1875
4527943,2722,1322,3043,1610
6074890,2529,1571,2790,1765
6244886,2433,1206,2873,1515
4651236,2215,1251,2458,1533
