https://surfdrive.surf.nl/files/index.php/s/B7PEqFZSZZBPcW8/download?path=%2FData%2FInput%2FDatasets%2FDavid%2FImages&files=C_131.jpg,5472,3648
C_131,artificial,coffee_table,"[130, 130, 130]","['6238674', '4212454', '4504369', '4550348', '4527943']"
6238674,2412,1492,2519,1681
4212454,2534,1488,2647,1663
4504369,2536,1879,2701,2056
4550348,2579,1759,2863,1914
4527943,2916,1830,3183,2144
