https://surfdrive.surf.nl/files/index.php/s/B7PEqFZSZZBPcW8/download?path=%2FData%2FInput%2FDatasets%2FDavid%2FImages&files=C_135.jpg,5472,3648
C_135,artificial,coffee_table,"[130, 130, 130]","['6238674', '4212454', '4504369', '4550348', '4527943', '6074890', '6244886']"
6238674,2305,1741,2573,1999
4212454,2556,2226,2766,2388
4504369,2101,2287,2354,2553
4550348,2032,2016,2318,2294
4527943,3066,1919,3353,2251
6074890,2580,2015,2804,2148
6244886,2672,1227,3000,1527
