https://surfdrive.surf.nl/files/index.php/s/B7PEqFZSZZBPcW8/download?path=%2FData%2FInput%2FDatasets%2FDavid%2FImages&files=C_144.jpg,5472,3648
C_144,daylight,coffee_table,"[130, 130, 130]",['4121739']
4121739,2535,1720,2809,1924
