https://surfdrive.surf.nl/files/index.php/s/B7PEqFZSZZBPcW8/download?path=%2FData%2FInput%2FDatasets%2FDavid%2FImages&files=C_157.jpg,5472,3648
C_157,daylight,coffee_table,"[130, 130, 130]","['4121739', '6025026', '6238674', '6104154', '4121739']"
4121739,2210,1350,2497,1634
4121739,3027,1981,3335,2240
6025026,1997,1551,2249,1693
6238674,2002,1642,2191,1749
6104154,2546,2076,2815,2282
