https://surfdrive.surf.nl/files/index.php/s/B7PEqFZSZZBPcW8/download?path=%2FData%2FInput%2FDatasets%2FDavid%2FImages&files=C_207.jpg,5472,3648
C_207,daylight,coffee_table,"[130, 130, 130]","['4212454', '4649749', '4157124', '4211437', '306223']"
4212454,2714,1374,2882,1529
4649749,2580,2015,2884,2351
4157124,2573,1546,2766,1726
4211437,2482,1727,2794,1945
306223,2808,1484,2986,1646
