https://surfdrive.surf.nl/files/index.php/s/B7PEqFZSZZBPcW8/download?path=%2FData%2FInput%2FDatasets%2FDavid%2FImages&files=C_214.jpg,5472,3648
C_214,daylight,coffee_table,"[130, 130, 130]","['4212454', '4649749', '4157124', '4211437', '306223', '4212454', '4211149']"
4212454,2368,1852,2482,2040
4212454,3064,1949,3285,2121
4649749,2157,1747,2342,2047
4157124,2007,2266,2216,2525
4211437,3130,1569,3408,1782
306223,2381,1240,2569,1376
4211149,2845,1482,3107,1799
