https://surfdrive.surf.nl/files/index.php/s/B7PEqFZSZZBPcW8/download?path=%2FData%2FInput%2FDatasets%2FDavid%2FImages&files=C_239.jpg,5472,3648
C_239,daylight,coffee_table,"[130, 130, 130]","['4118793', '4567338', '6073026', '4211054', '4121739', '300124', '6244886']"
4118793,2169,2633,2352,2822
4567338,2571,1212,2698,1386
6073026,2905,1939,3120,2177
4211054,2682,1276,2941,1561
4121739,2407,1953,2718,2258
300124,3295,1234,3550,1787
6244886,2052,1175,2378,1481
