https://surfdrive.surf.nl/files/index.php/s/B7PEqFZSZZBPcW8/download?path=%2FData%2FInput%2FDatasets%2FDavid%2FImages&files=C_243.jpg,5472,3648
C_243,daylight,coffee_table,"[130, 130, 130]","['4118793', '4567338', '6073026', '4211054', '4121739', '300124', '6244886', '4211166', '300401']"
4118793,2823,1526,2927,1634
4567338,3198,2020,3293,2135
6073026,1584,1909,1664,2002
4211054,1900,1655,2124,1887
4121739,2903,1392,3002,1554
300124,2206,1947,2536,2116
6244886,2593,1305,2747,1472
4211166,3283,1942,3437,2065
300401,2831,2592,2989,2755
