https://surfdrive.surf.nl/files/index.php/s/B7PEqFZSZZBPcW8/download?path=%2FData%2FInput%2FDatasets%2FDavid%2FImages&files=C_247.jpg,5472,3648
C_247,daylight,coffee_table,"[130, 130, 130]","['4118793', '4567338', '6073026', '4211054', '4121739', '300124', '6244886', '4211166', '300401', '4504369']"
4118793,1938,2767,2132,2975
4567338,3108,1094,3203,1259
6073026,3657,1262,3799,1450
4211054,1483,1548,1862,1848
4121739,2805,2334,3101,2543
300124,2491,1184,2984,1644
6244886,2379,1597,2727,1846
4211166,2892,970,3099,1179
300401,1863,1832,2179,2144
4504369,2591,1089,2733,1214
