https://surfdrive.surf.nl/files/index.php/s/B7PEqFZSZZBPcW8/download?path=%2FData%2FInput%2FDatasets%2FDavid%2FImages&files=C_256.jpg,5472,3648
C_256,daylight,coffee_table,"[130, 130, 130]","['6223631', '300424', '4153825']"
6223631,2127,1888,2261,2028
300424,2428,1873,2599,2111
4153825,3316,1402,3505,1662
