https://surfdrive.surf.nl/files/index.php/s/B7PEqFZSZZBPcW8/download?path=%2FData%2FInput%2FDatasets%2FDavid%2FImages&files=C_262.jpg,5472,3648
C_262,daylight,coffee_table,"[130, 130, 130]","['6223631', '300424', '4153825', '654126', '4529247']"
6223631,2146,2326,2290,2486
300424,2629,1890,2850,2179
4153825,2002,1629,2330,1917
654126,2012,2044,2205,2265
4529247,2896,1197,2969,1364
