https://surfdrive.surf.nl/files/index.php/s/B7PEqFZSZZBPcW8/download?path=%2FData%2FInput%2FDatasets%2FDavid%2FImages&files=C_326.jpg,5472,3648
C_326,daylight,living_room_floor,"[130, 130, 130]","['4211614', '4153825']"
4211614,2141,1303,2284,1494
4153825,2524,1682,2744,1981
