https://surfdrive.surf.nl/files/index.php/s/B7PEqFZSZZBPcW8/download?path=%2FData%2FInput%2FDatasets%2FDavid%2FImages&files=C_386.jpg,5472,3648
C_386,daylight,living_room_floor,"[130, 130, 130]","['300401', '300423', '4529240', '6004938', '4550348']"
300401,2381,2446,2566,2712
300423,2708,1698,2928,1835
4529240,3677,1183,3798,1308
6004938,3396,2606,3526,2767
4550348,2535,1839,2745,1960
