https://surfdrive.surf.nl/files/index.php/s/B7PEqFZSZZBPcW8/download?path=%2FData%2FInput%2FDatasets%2FDavid%2FImages&files=C_394.jpg,5472,3648
C_394,daylight,living_room_floor,"[130, 130, 130]",['300421']
300421,2720,1731,2915,1951
