https://surfdrive.surf.nl/files/index.php/s/B7PEqFZSZZBPcW8/download?path=%2FData%2FInput%2FDatasets%2FDavid%2FImages&files=C_417.jpg,5472,3647
C_417,daylight,living_room_floor,"[130, 130, 130]","['4517992', '300821']"
4517992,3102,1486,3291,1693
300821,2454,1561,2835,2205
