https://surfdrive.surf.nl/files/index.php/s/B7PEqFZSZZBPcW8/download?path=%2FData%2FInput%2FDatasets%2FDavid%2FImages&files=C_420.jpg,5472,3647
C_420,daylight,living_room_floor,"[130, 130, 130]",['6028324']
6028324,2662,1734,2795,1869
