https://surfdrive.surf.nl/files/index.php/s/B7PEqFZSZZBPcW8/download?path=%2FData%2FInput%2FDatasets%2FDavid%2FImages&files=C_439.jpg,5472,3648
C_439,daylight,living_room_floor,"[130, 130, 130]","['6069259', '6035291']"
6069259,2596,1799,2766,1945
6035291,3479,1377,3672,1506
