https://surfdrive.surf.nl/files/index.php/s/B7PEqFZSZZBPcW8/download?path=%2FData%2FInput%2FDatasets%2FDavid%2FImages&files=C_467.jpg,5472,3648
C_467,daylight,dining_table,"[130, 130, 130]","['6075079', '306201', '4211614', '4181135', '6003007', '6138173', '300421']"
6075079,2274,2345,2465,2536
306201,3190,1622,3343,1729
4211614,3696,1678,3874,1908
4181135,2653,1333,3175,1786
6003007,2377,1825,2521,1960
6138173,3819,2046,4031,2272
300421,2628,1785,2870,1969
