https://surfdrive.surf.nl/files/index.php/s/B7PEqFZSZZBPcW8/download?path=%2FData%2FInput%2FDatasets%2FDavid%2FImages&files=C_473.jpg,5472,3648
C_473,daylight,dining_table,"[130, 130, 130]",['4153825']
4153825,2626,1648,2914,1946
