https://surfdrive.surf.nl/files/index.php/s/B7PEqFZSZZBPcW8/download?path=%2FData%2FInput%2FDatasets%2FDavid%2FImages&files=C_501.jpg,5472,3648
C_501,daylight,coffee_table,"[130, 130, 130]","['300424', '6004938', '306201', '4211166', '4621545', '300121', '4118793']"
300424,3614,2053,3958,2447
6004938,2627,2449,2907,2734
306201,3132,1740,3362,1907
4211166,2255,2239,2576,2558
4621545,1619,1415,1863,1701
300121,2559,1617,3035,2226
4118793,2717,2308,2969,2513
