https://surfdrive.surf.nl/files/index.php/s/B7PEqFZSZZBPcW8/download?path=%2FData%2FInput%2FDatasets%2FDavid%2FImages&files=C_50.jpg,5472,3648
C_50,daylight,coffee_table,"[130, 130, 130]","['6104154', '4527943', '4157124', '4211201', '4211614', '4504381']"
6104154,2059,2262,2363,2655
4527943,1715,1881,2018,2147
4157124,3058,2372,3213,2579
4211201,2686,846,3266,1316
4211614,3733,1760,3938,2094
4504381,1608,2275,1834,2463
