https://surfdrive.surf.nl/files/index.php/s/B7PEqFZSZZBPcW8/download?path=%2FData%2FInput%2FDatasets%2FDavid%2FImages&files=C_51.jpg,5472,3648
C_51,daylight,coffee_table,"[130, 130, 130]","['6104154', '4527943', '4157124', '4211201', '4211614', '4504381', '300421']"
6104154,3701,2425,3960,2731
4527943,2078,1309,2283,1487
4157124,2388,1436,2611,1578
4211201,1746,1429,2255,1763
4211614,2953,1788,3218,1912
4504381,2134,1047,2254,1138
300421,1395,1492,1631,1699
