https://surfdrive.surf.nl/files/index.php/s/B7PEqFZSZZBPcW8/download?path=%2FData%2FInput%2FDatasets%2FDavid%2FImages&files=C_523.jpg,5472,3648
C_523,daylight,couch,"[130, 130, 130]","['6177697', '6223631']"
6177697,2699,1511,2959,1894
6223631,2890,1687,2974,1802
