https://surfdrive.surf.nl/files/index.php/s/B7PEqFZSZZBPcW8/download?path=%2FData%2FInput%2FDatasets%2FDavid%2FImages&files=C_541.jpg,5472,3648
C_541,daylight,couch,"[130, 130, 130]","['6177697', '6223631', '6073026', '300124', '4647553', '6035291', '4109995', '4527943']"
6177697,2709,1257,3085,1428
6223631,2296,2107,2414,2239
6073026,4076,1089,4213,1181
300124,2957,1063,3330,1405
4647553,3019,1536,3193,1721
6035291,2730,1667,2832,1851
4109995,2308,1531,2485,1670
4527943,3267,1282,3395,1480
