https://surfdrive.surf.nl/files/index.php/s/B7PEqFZSZZBPcW8/download?path=%2FData%2FInput%2FDatasets%2FDavid%2FImages&files=C_56.jpg,5472,3648
C_56,daylight,coffee_table,"[130, 130, 130]","['6104154', '4527943', '4157124', '4211201', '4211614', '4504381', '300421', '4649749']"
6104154,2647,2630,2902,2832
4527943,2268,1682,2430,1840
4157124,2475,1801,2663,1945
4211201,1631,1609,1919,1932
4211614,2740,1384,2908,1513
4504381,2694,1558,2812,1639
300421,3151,987,3367,1160
4649749,2505,1590,2695,1758
