https://surfdrive.surf.nl/files/index.php/s/B7PEqFZSZZBPcW8/download?path=%2FData%2FInput%2FDatasets%2FDavid%2FImages&files=C_624.jpg,5472,3647
C_624,daylight,coffee_table,"[130, 130, 130]","['6074890', '6073026']"
6074890,2283,1844,2448,2047
6073026,2671,1648,2865,1843
