https://surfdrive.surf.nl/files/index.php/s/B7PEqFZSZZBPcW8/download?path=%2FData%2FInput%2FDatasets%2FDavid%2FImages&files=C_63.jpg,5472,3648
C_63,daylight,coffee_table,"[130, 130, 130]","['4517992', '6074890']"
4517992,2482,1175,2892,1489
6074890,2754,1829,2958,2036
