https://surfdrive.surf.nl/files/index.php/s/B7PEqFZSZZBPcW8/download?path=%2FData%2FInput%2FDatasets%2FDavid%2FImages&files=C_631.jpg,5472,3648
C_631,daylight,coffee_table,"[130, 130, 130]","['6074890', '6073026', '4211221', '4211166']"
6074890,2705,2115,2872,2284
6073026,2972,1467,3159,1651
4211221,2585,1675,2881,1996
4211166,2732,1540,2929,1765
