https://surfdrive.surf.nl/files/index.php/s/B7PEqFZSZZBPcW8/download?path=%2FData%2FInput%2FDatasets%2FDavid%2FImages&files=C_658.jpg,5472,3648
C_658,daylight,coffee_table,"[130, 130, 130]","['6075079', '300423', '4121967']"
6075079,2597,1736,2839,2024
300423,3089,1606,3432,1967
4121967,2437,2012,2823,2291
