https://surfdrive.surf.nl/files/index.php/s/B7PEqFZSZZBPcW8/download?path=%2FData%2FInput%2FDatasets%2FDavid%2FImages&files=C_657.jpg,5472,3648
C_657,daylight,coffee_table,"[130, 130, 130]","['6075079', '300423', '4121967']"
6075079,4321,1964,4611,2183
300423,1995,1221,2217,1537
4121967,2796,1662,2990,1988
