https://surfdrive.surf.nl/files/index.php/s/B7PEqFZSZZBPcW8/download?path=%2FData%2FInput%2FDatasets%2FDavid%2FImages&files=C_660.jpg,5472,3647
C_660,daylight,coffee_table,"[130, 130, 130]","['6075079', '300423', '4121967', '300424']"
6075079,2631,1520,2810,1783
300423,1788,2454,2169,2680
4121967,3191,1717,3486,1980
300424,2857,1415,3098,1707
