https://surfdrive.surf.nl/files/index.php/s/B7PEqFZSZZBPcW8/download?path=%2FData%2FInput%2FDatasets%2FDavid%2FImages&files=C_697.jpg,5472,3648
C_697,daylight,coffee_table,"[130, 130, 130]","['4558957', '4539099', '300323', '6229071', '4157124', '4504369', '4649749', '6225539']"
4558957,1860,1278,2303,1619
4539099,3199,2053,3344,2231
300323,1653,1500,1924,1852
6229071,2771,1126,2932,1366
4157124,2660,2022,2854,2247
4504369,3035,1609,3194,1692
4649749,2158,2223,2243,2484
6225539,2718,1626,3523,1928
