https://surfdrive.surf.nl/files/index.php/s/B7PEqFZSZZBPcW8/download?path=%2FData%2FInput%2FDatasets%2FDavid%2FImages&files=C_717.jpg,5472,3648
C_717,daylight,coffee_table,"[130, 130, 130]","['4529240', '4211437', '4211437', '4539099', '4211149', '300124', '6249125']"
4529240,3006,1875,3241,2062
4211437,2575,1594,2909,1746
4211437,2504,1558,2843,1744
4539099,2468,1632,2683,1788
4211149,2034,2129,2298,2490
300124,2201,1745,2873,2005
6249125,3056,1486,3208,1610
