https://surfdrive.surf.nl/files/index.php/s/B7PEqFZSZZBPcW8/download?path=%2FData%2FInput%2FDatasets%2FDavid%2FImages&files=C_71.jpg,5472,3648
C_71,daylight,coffee_table,"[130, 130, 130]","['4517992', '6074890', '4650630', '6004938']"
4517992,3527,1675,3852,1915
6074890,3354,1658,3520,1818
4650630,1747,1393,1996,1702
6004938,1814,2015,2017,2153
