https://surfdrive.surf.nl/files/index.php/s/B7PEqFZSZZBPcW8/download?path=%2FData%2FInput%2FDatasets%2FDavid%2FImages&files=C_736.jpg,5472,3648
C_736,daylight,couch,"[130, 130, 130]","['6069259', '4211054']"
6069259,2746,1683,2890,1928
4211054,2356,2020,2531,2310
