https://surfdrive.surf.nl/files/index.php/s/B7PEqFZSZZBPcW8/download?path=%2FData%2FInput%2FDatasets%2FDavid%2FImages&files=C_740.jpg,5472,3647
C_740,daylight,couch,"[130, 130, 130]","['6069259', '4211054', '6177697']"
6069259,2835,1604,3121,1762
4211054,2407,1419,2603,1724
6177697,2613,1832,3133,2056
