https://surfdrive.surf.nl/files/index.php/s/B7PEqFZSZZBPcW8/download?path=%2FData%2FInput%2FDatasets%2FDavid%2FImages&files=C_781.jpg,5472,3648
C_781,daylight,couch,"[130, 130, 130]","['4621545', '4210718', '4650630', '4529247']"
4621545,2885,1872,3174,2096
4210718,2321,1606,3073,1850
4650630,2123,1938,2408,2207
4529247,2922,1073,3111,1225
