https://surfdrive.surf.nl/files/index.php/s/B7PEqFZSZZBPcW8/download?path=%2FData%2FInput%2FDatasets%2FDavid%2FImages&files=C_811.jpg,5472,3648
C_811,daylight,couch,"[130, 130, 130]","['4504381', '4647553', '4153827', '4520632', '4647553', '4550325', '6244886']"
4504381,3119,1459,3246,1557
4647553,1584,1822,1824,2027
4647553,1359,2078,1531,2287
4153827,1968,2025,2247,2395
4520632,2410,1505,2637,1751
4550325,3519,1510,3722,1650
6244886,1938,1752,2128,1924
