https://surfdrive.surf.nl/files/index.php/s/B7PEqFZSZZBPcW8/download?path=%2FData%2FInput%2FDatasets%2FDavid%2FImages&files=C_831.jpg,5472,3648
C_831,daylight,coffee-table,"[120, 120, 120]","['365901', '300821', '4212454', '4567338', '300423', '6104154', '4143562', '6244886', '4210718', '6075075', '300321', '300323']"
365901,2664,2024,3144,2453
300821,1933,1857,2899,2060
4212454,2569,1174,2710,1282
4567338,2950,2703,3138,2810
300423,2674,2496,2963,2729
6104154,1881,1724,2103,1901
4143562,3141,2603,3444,2876
6244886,2496,1965,2790,2152
4210718,2076,2170,2634,2595
6075075,2914,2492,3143,2663
300321,2942,2200,3244,2481
300323,1865,1772,2064,1957
