https://surfdrive.surf.nl/files/index.php/s/B7PEqFZSZZBPcW8/download?path=%2FData%2FInput%2FDatasets%2FDavid%2FImages&files=C_860.jpg,5472,3647
C_860,daylight,coffee-table,"[120, 120, 120]","['6138173', '6069259', '6223631', '4211166', '6075079', '300424', '6177697']"
6138173,2160,1277,2404,1503
6069259,1931,983,2056,1202
6223631,1603,1190,1694,1328
4211166,2619,2427,2838,2660
6075079,2686,1783,2914,1955
300424,2254,1346,2441,1580
6177697,2526,1219,2948,1395
