https://surfdrive.surf.nl/files/index.php/s/B7PEqFZSZZBPcW8/download?path=%2FData%2FInput%2FDatasets%2FDavid%2FImages&files=C_870.jpg,5472,3648
C_870,daylight,coffee-table,"[120, 120, 120]","['4539099', '4153825', '6022064', '4211511', '4517992', '6022023', '4621545', '4520632', '6229071', '6035291', '4527943', '4651236']"
4539099,2691,2466,2838,2601
4153825,1811,1178,2027,1374
6022064,2346,2323,2493,2538
4211511,2862,2154,3016,2262
4517992,1699,1749,1955,1972
6022023,1925,2613,2219,2895
4621545,2621,1672,2792,1863
4520632,2110,1260,2552,1583
6229071,1762,2149,1949,2353
6035291,1363,1501,1473,1661
4527943,2108,2001,2290,2173
4651236,1963,1954,2104,2131
