https://surfdrive.surf.nl/files/index.php/s/B7PEqFZSZZBPcW8/download?path=%2FData%2FInput%2FDatasets%2FDavid%2FImages&files=C_877.jpg,5472,3648
C_877,daylight,coffee-table,"[120, 120, 120]","['4539099', '4153825', '6022064', '4211511', '4517992', '6022023', '4621545', '4520632', '6229071']"
4539099,2127,1593,2310,1685
4153825,2450,1184,2707,1446
6022064,2846,1977,3250,2257
4211511,2294,1727,2444,1931
4517992,2751,1727,3026,2024
6022023,2712,1461,3004,1705
4621545,2505,1450,2745,1632
4520632,2479,2003,3033,2597
6229071,2499,1742,2738,2041
