https://surfdrive.surf.nl/files/index.php/s/B7PEqFZSZZBPcW8/download?path=%2FData%2FInput%2FDatasets%2FDavid%2FImages&files=C_88.jpg,5472,3648
C_88,daylight,coffee_table,"[130, 130, 130]","['4121739', '306223', '4210718', '6151663', '4529240']"
4121739,2161,2146,2457,2559
306223,3195,1638,3360,1891
4210718,1857,1086,2170,1810
6151663,2959,2042,3342,2289
4529240,2953,1095,3086,1314
