https://surfdrive.surf.nl/files/index.php/s/B7PEqFZSZZBPcW8/download?path=%2FData%2FInput%2FDatasets%2FDavid%2FImages&files=C_887.jpg,5472,3648
C_887,daylight,coffee-table,"[120, 120, 120]","['300123', '6225539', '6062574', '4160403', '4558957', '4548180', '614321', '4647553', '4153827', '6151663', '4118793']"
300123,1830,2009,2268,2397
6225539,1936,1971,2325,2370
6062574,2657,1500,2818,1668
4160403,2348,1761,2645,2346
4558957,1976,2425,2483,2925
4548180,1444,2458,1706,2688
614321,2784,1867,2859,2092
4647553,2370,1653,2587,1883
4153827,2843,1473,3229,1704
6151663,1747,2481,1839,2727
4118793,3202,1398,3333,1570
