https://surfdrive.surf.nl/files/index.php/s/B7PEqFZSZZBPcW8/download?path=%2FData%2FInput%2FDatasets%2FDavid%2FImages&files=C_947.jpg,5472,3648
C_947,daylight,couch,"[120, 120, 120]","['300821', '4143562', '4211149', '4655172', '300321', '6249125', '4550348', '4211221', '300323', '4550348', '4504381', '300321']"
300821,2765,1843,3656,2075
4143562,2708,1992,2965,2278
4211149,3092,1672,3252,1880
4655172,2639,1566,3081,1885
300321,2300,1819,2568,2137
300321,2255,1753,2511,1998
6249125,3898,1708,4034,1822
4550348,3645,1918,3809,2137
4550348,2160,2276,2414,2499
4211221,2430,1022,2595,1278
300323,2386,1721,2639,1944
4504381,3785,1794,3943,1920
