https://surfdrive.surf.nl/files/index.php/s/B7PEqFZSZZBPcW8/download?path=%2FData%2FInput%2FDatasets%2FDavid%2FImages&files=C_976.jpg,5472,3647
C_976,daylight,couch,"[120, 120, 120]","['654126', '6004938', '4210718', '6238674', '4539099', '4651236', '4153825']"
654126,2377,1517,2558,1670
6004938,3152,1990,3293,2134
4210718,2557,1647,3092,2094
6238674,2491,1935,2601,2074
4539099,3115,2241,3328,2403
4651236,2757,2170,3015,2333
4153825,2728,1472,3024,1788
