https://surfdrive.surf.nl/files/index.php/s/B7PEqFZSZZBPcW8/download?path=%2FData%2FInput%2FDatasets%2FDavid%2FImages&files=C_981.jpg,5472,3648
C_981,daylight,couch,"[120, 120, 120]","['654126', '6004938', '4210718', '6238674', '4539099', '4651236']"
654126,2389,1790,2576,2027
6004938,2367,2154,2555,2371
4210718,2722,1504,3226,1829
6238674,2350,1884,2500,2064
4539099,2226,1430,2385,1570
4651236,2909,1971,3191,2148
