https://surfdrive.surf.nl/files/index.php/s/B7PEqFZSZZBPcW8/download?path=%2FData%2FInput%2FDatasets%2FHiba%2FImages&files=H_106.jpg,5184,3456
H_106,daylight,wood,"[130, 130, 130]","['6022064', '4558957']"
6022064,2731,2346,2972,2717
4558957,2098,945,2466,1220
