https://surfdrive.surf.nl/files/index.php/s/B7PEqFZSZZBPcW8/download?path=%2FData%2FInput%2FDatasets%2FHiba%2FImages&files=H_137.jpg,5184,3455
H_137,daylight,wood,"[130, 130, 130]","['4211054', '4211054', '306201', '6229071']"
4211054,2282,1543,2527,1790
4211054,2939,1492,3184,1720
306201,3515,2058,3653,2240
6229071,2517,1055,2708,1244
