https://surfdrive.surf.nl/files/index.php/s/B7PEqFZSZZBPcW8/download?path=%2FData%2FInput%2FDatasets%2FHiba%2FImages&files=H_149.jpg,5184,3456
H_149,daylight,wood,"[130, 130, 130]","['4211054', '4211054', '306201', '6229071', '6074890', '4621545', '6062574', '300401']"
4211054,2082,1060,2388,1330
4211054,2415,1254,2664,1561
306201,2699,1102,2833,1251
6229071,3066,1065,3285,1260
6074890,1631,1394,1823,1547
4621545,1293,1122,1536,1339
6062574,2571,1750,2788,1970
300401,3314,1213,3600,1418
