https://surfdrive.surf.nl/files/index.php/s/B7PEqFZSZZBPcW8/download?path=%2FData%2FInput%2FDatasets%2FHiba%2FImages&files=H_154.jpg,5184,3456
H_154,daylight,wood,"[130, 130, 130]",['4109995']
4109995,2421,1619,2773,1878
