https://surfdrive.surf.nl/files/index.php/s/B7PEqFZSZZBPcW8/download?path=%2FData%2FInput%2FDatasets%2FHiba%2FImages&files=H_16.jpg,5184,3456
H_16,daylight,wood,"[130, 130, 130]","['623224', '6022023', '4121739', '4118793', '4529240']"
623224,3546,1687,3753,1898
6022023,2314,1722,2510,1939
4121739,2818,829,2962,957
4118793,2202,1385,2295,1494
4529240,2987,1481,3100,1551
