https://surfdrive.surf.nl/files/index.php/s/B7PEqFZSZZBPcW8/download?path=%2FData%2FInput%2FDatasets%2FHiba%2FImages&files=H_198.jpg,5184,3456
H_198,daylight,wood,"[130, 130, 130]","['4548180', '4504381', '4517992', '4647553', '300821', '300124']"
4548180,2809,2544,3100,2704
4504381,2506,1716,2625,1864
4517992,1897,1968,2221,2315
4647553,1829,1763,2031,2015
300821,2654,2098,3747,2567
300124,1684,1903,2025,2490
