https://surfdrive.surf.nl/files/index.php/s/B7PEqFZSZZBPcW8/download?path=%2FData%2FInput%2FDatasets%2FHiba%2FImages&files=H_192.jpg,5184,3456
H_192,daylight,wood,"[130, 130, 130]","['4548180', '4504381', '4517992', '4647553']"
4548180,2450,1747,2746,1886
4504381,1653,1495,1810,1668
4517992,3163,1537,3468,1864
4647553,1365,1011,1633,1255
