https://surfdrive.surf.nl/files/index.php/s/B7PEqFZSZZBPcW8/download?path=%2FData%2FInput%2FDatasets%2FHiba%2FImages&files=H_209.jpg,5184,3455
H_209,daylight,wood,"[130, 130, 130]","['4548180', '4504381', '4517992', '4647553', '300821', '300124', '300401', '4211437', '6229071']"
4548180,695,1614,930,1867
4504381,1859,1300,2035,1425
4517992,3803,1378,4150,1713
4647553,1650,901,1885,1076
300821,2770,1441,3857,1972
300124,2490,675,2951,1031
300401,4440,1231,4713,1490
4211437,2458,1670,2751,1936
6229071,2675,1215,2895,1485
