https://surfdrive.surf.nl/files/index.php/s/B7PEqFZSZZBPcW8/download?path=%2FData%2FInput%2FDatasets%2FHiba%2FImages&files=H_231.jpg,5184,3456
H_231,daylight,wood,"[130, 130, 130]","['300124', '300401', '6249125', '4121739', '6249125', '6028324']"
300124,2319,1561,2797,1823
300401,3883,2207,4207,2494
6249125,2273,2261,2384,2411
6249125,2651,1975,2769,2095
4121739,1892,1353,2112,1575
6028324,2082,1299,2241,1451
