https://surfdrive.surf.nl/files/index.php/s/B7PEqFZSZZBPcW8/download?path=%2FData%2FInput%2FDatasets%2FHiba%2FImages&files=H_230.jpg,5184,3456
H_230,daylight,wood,"[130, 130, 130]","['300124', '300401', '6249125', '4121739', '6249125']"
300124,2464,1017,2861,1442
300401,2443,1779,2620,2056
6249125,2366,1681,2504,1847
6249125,2629,1990,2780,2096
4121739,2709,680,2875,890
