https://surfdrive.surf.nl/files/index.php/s/B7PEqFZSZZBPcW8/download?path=%2FData%2FInput%2FDatasets%2FHiba%2FImages&files=H_284.jpg,5183,3456
H_284,daylight,wood,"[130, 130, 130]","['4211614', '4211614']"
4211614,2024,1632,2261,1842
4211614,2533,1760,2787,1974
