https://surfdrive.surf.nl/files/index.php/s/B7PEqFZSZZBPcW8/download?path=%2FData%2FInput%2FDatasets%2FHiba%2FImages&files=H_298.jpg,5184,3456
H_298,daylight,wood,"[130, 130, 130]","['4558957', '6074890', '6075079', '4527943']"
4558957,2654,1732,2964,1992
6074890,2177,2003,2322,2149
6075079,2557,1629,2686,1785
4527943,2394,1667,2654,1914
