https://surfdrive.surf.nl/files/index.php/s/B7PEqFZSZZBPcW8/download?path=%2FData%2FInput%2FDatasets%2FHiba%2FImages&files=H_351.jpg,5184,3456
H_351,daylight,wood,"[130, 130, 130]","['6035291', '6151663', '4181144', '4649749']"
6035291,1675,1697,1948,1870
6151663,2255,1180,2486,1320
4181144,2237,1574,2910,2232
4649749,3097,1639,3337,1767
