https://surfdrive.surf.nl/files/index.php/s/B7PEqFZSZZBPcW8/download?path=%2FData%2FInput%2FDatasets%2FHiba%2FImages&files=H_409.jpg,5184,3456
H_409,daylight,wood,"[130, 130, 130]","['4211166', '4647553', '4114319', '4550348', '4567338', '4211437']"
4211166,618,1820,994,2179
4647553,2900,1390,3191,1604
4114319,2886,1917,3643,2484
4550348,2147,1415,2415,1577
4567338,1937,1583,2146,1750
4211437,2484,1261,2764,1523
