https://surfdrive.surf.nl/files/index.php/s/B7PEqFZSZZBPcW8/download?path=%2FData%2FInput%2FDatasets%2FHiba%2FImages&files=H_418.jpg,5184,3456
H_418,daylight,wood,"[130, 130, 130]","['4211166', '4647553', '4114319', '4550348', '4567338', '4211437', '4621545', '654126', '4211201']"
4211166,2744,2264,2994,2522
4647553,1379,1564,1571,1731
4114319,1662,1497,2087,1772
4550348,1687,1281,1937,1456
4567338,1221,931,1346,1039
4211437,2411,1889,2686,2105
4621545,2553,1497,2719,1706
654126,2286,1506,2444,1672
4211201,963,1589,1396,2047
