https://surfdrive.surf.nl/files/index.php/s/B7PEqFZSZZBPcW8/download?path=%2FData%2FInput%2FDatasets%2FHiba%2FImages&files=H_446.jpg,5184,3456
H_446,daylight,parquet_brown_medium,"[120, 120, 120]","['4160403', '4539099', '6225539', '6151663', '4550348', '6252809', '4548180', '365901', '6225539', '6229071']"
4160403,2420,1494,2745,1841
4539099,2416,1056,2511,1147
6225539,1630,1726,2094,2001
6225539,1552,1367,1975,1471
6151663,3167,1283,3291,1396
4550348,1120,2594,1291,2727
6252809,2779,1694,3622,1900
4548180,3640,1849,3819,1924
365901,1707,2243,2023,2477
6229071,1530,2744,1730,2954
