https://surfdrive.surf.nl/files/index.php/s/B7PEqFZSZZBPcW8/download?path=%2FData%2FInput%2FDatasets%2FHiba%2FImages&files=H_469.jpg,5184,3456
H_469,daylight,parquet_brown_medium,"[120, 120, 120]","['6028324', '4114319', '6004938', '300121', '300421', '6249125', '306223', '6003007', '300424', '6252809', '6229071']"
6028324,2935,1406,3088,1538
4114319,2292,1210,2441,1450
6004938,1977,2790,2130,2925
300121,1668,2014,1797,2324
300421,2713,891,2854,965
6249125,2988,1548,3111,1652
306223,990,2479,1101,2599
6003007,2393,1654,2505,1768
300424,3300,2193,3445,2387
6252809,3497,1584,3822,2250
6229071,1492,1440,1629,1589
