https://surfdrive.surf.nl/files/index.php/s/B7PEqFZSZZBPcW8/download?path=%2FData%2FInput%2FDatasets%2FHiba%2FImages&files=H_514.jpg,5183,3456
H_514,daylight,parquet_brown_medium,"[120, 120, 120]","['4520632', '4181134', '4211201', '4504369', '6025026', '6244886', '623224', '4529247', '654126', '4211511']"
4520632,1869,1632,2052,1875
4181134,2327,1893,2817,2109
4211201,2373,1626,2637,1879
4504369,3372,2034,3466,2119
6025026,3229,2213,3340,2354
6244886,2808,1480,2965,1652
623224,2316,1558,2460,1708
4529247,3232,1920,3297,2006
654126,2870,1051,2943,1127
4211511,1697,1536,1767,1621
