https://surfdrive.surf.nl/files/index.php/s/B7PEqFZSZZBPcW8/download?path=%2FData%2FInput%2FDatasets%2FHiba%2FImages&files=H_529.jpg,5184,3456
H_529,daylight,table_plastic_grey,"[120, 120, 120]","['4504381', '4165967', '4211221', '6177697', '4210718', '6035291', '6069259', '4109995', '4504381', '4527943', '4212454', '4647553', '4529247']"
4504381,2676,1318,2760,1401
4504381,2698,1221,2776,1292
4165967,1022,1900,1333,2119
4211221,2338,1483,2507,1603
6177697,1567,1497,1680,1716
4210718,2147,2755,2529,2925
6035291,1927,1836,2083,1907
6069259,1715,1271,1786,1391
4109995,2062,1504,2210,1568
4527943,1659,2345,1758,2494
4212454,2444,1165,2529,1243
4647553,1906,1292,2012,1398
4529247,2755,1306,2804,1377
