https://surfdrive.surf.nl/files/index.php/s/B7PEqFZSZZBPcW8/download?path=%2FData%2FInput%2FDatasets%2FHiba%2FImages&files=H_536.jpg,5183,3456
H_536,daylight,table_plastic_grey,"[120, 120, 120]","['4504381', '4165967', '4211221', '6177697', '4210718', '6035291', '6069259', '4109995', '4504381', '4527943']"
4504381,2938,1332,3042,1407
4504381,3016,1633,3140,1772
4165967,2367,1630,2689,1979
4211221,2867,2352,3139,2571
6177697,2775,1072,3048,1338
4210718,3011,705,3340,953
6035291,2558,1496,2667,1662
6069259,2456,1888,2577,2059
4109995,3447,1623,3640,1805
4527943,3023,2020,3204,2228
