https://surfdrive.surf.nl/files/index.php/s/B7PEqFZSZZBPcW8/download?path=%2FData%2FInput%2FDatasets%2FHiba%2FImages&files=H_54.jpg,5184,3456
H_54,daylight,wood,"[130, 130, 130]","['4211511', '4529240', '614321']"
4211511,3086,1856,3301,2104
4529240,1155,2058,1299,2207
614321,3195,1909,3398,2143
