https://surfdrive.surf.nl/files/index.php/s/B7PEqFZSZZBPcW8/download?path=%2FData%2FInput%2FDatasets%2FHiba%2FImages&files=H_622.jpg,5184,3456
H_622,daylight,table_plastic_grey,"[120, 120, 120]","['300124', '4181135', '6004938', '4114319', '300323', '6104154', '6003007', '4153827', '4211511', '4649749', '4211054']"
300124,2486,601,2774,865
4181135,3062,1159,3495,1586
6004938,2079,2131,2257,2337
4114319,1645,1024,1897,1313
300323,2107,2176,2288,2383
6104154,2029,1370,2226,1568
6003007,3018,1436,3151,1542
4153827,3581,957,3896,1122
4211511,2163,1576,2334,1685
4649749,2381,1782,2544,1948
4211054,2507,1410,2633,1546
