https://surfdrive.surf.nl/files/index.php/s/B7PEqFZSZZBPcW8/download?path=%2FData%2FInput%2FDatasets%2FHiba%2FImages&files=H_64.jpg,5184,3456
H_64,daylight,wood,"[130, 130, 130]","['4211511', '4529240', '614321', '300423', '4212454', '6062574']"
4211511,3202,2247,3310,2397
4529240,1870,1389,1995,1497
614321,1953,2122,2153,2322
300423,2528,1631,2719,1722
4212454,2519,998,2644,1064
6062574,2203,1231,2320,1339
