https://surfdrive.surf.nl/files/index.php/s/B7PEqFZSZZBPcW8/download?path=%2FData%2FInput%2FDatasets%2FHiba%2FImages&files=H_650.jpg,5184,3456
H_650,daylight,parquet_brown_light,"[120, 120, 120]","['4109995', '6249125', '365901', '306201', '300423', '4212454', '4211201', '300821', '4529240', '4567338', '306223']"
4109995,2267,1937,2439,2191
6249125,2480,925,2605,1028
365901,2976,1733,3447,1952
306201,2886,893,2974,1025
300423,2467,2217,2739,2467
4212454,2397,1586,2574,1726
4211201,1512,1147,1953,1414
300821,1371,1687,2303,1942
4529240,2647,1327,2767,1464
4567338,3053,1116,3211,1244
306223,2720,2197,2902,2355
