https://surfdrive.surf.nl/files/index.php/s/B7PEqFZSZZBPcW8/download?path=%2FData%2FInput%2FDatasets%2FHiba%2FImages&files=H_688.jpg,5184,3456
H_688,daylight,parquet_brown_light,"[120, 120, 120]","['6138173', '6229071', '6075079', '4650630', '300424', '4527943', '300321', '4153825', '306201', '4558957']"
6138173,1840,1403,2101,1661
6229071,2372,1622,2572,1892
6075079,2115,1068,2265,1240
4650630,2115,1868,2455,2027
300424,2992,556,3169,735
4527943,3604,1700,3786,1959
300321,2566,1799,2878,2136
4153825,3267,1095,3540,1376
306201,1635,941,1713,1082
4558957,3124,1391,3477,1811
