https://surfdrive.surf.nl/files/index.php/s/B7PEqFZSZZBPcW8/download?path=%2FData%2FInput%2FDatasets%2FHiba%2FImages&files=H_739.jpg,5183,3456
H_739,artificial_light,parquet_brown_medium,"[120, 120, 120]","['300323', '6028324', '4651236', '300124', '6004938', '4211412', '300121', '623224', '4550325', '4121967', '6104154', '4527943', '300321']"
300323,2921,1322,3100,1453
6028324,2067,2264,2211,2363
4651236,1922,1706,2038,1854
300124,2316,1198,2598,1350
6004938,2411,1842,2503,1915
4211412,1509,1618,1568,1704
300121,3172,1523,3471,1714
623224,3285,1757,3476,1920
4550325,2530,1789,2674,1856
4121967,3131,1243,3245,1347
6104154,2719,1993,2884,2097
4527943,2967,1678,3110,1797
300321,2464,1591,2607,1708
