https://surfdrive.surf.nl/files/index.php/s/B7PEqFZSZZBPcW8/download?path=%2FData%2FInput%2FDatasets%2FHiba%2FImages&files=H_744.jpg,5184,3456
H_744,artificial_light,parquet_brown_medium,"[120, 120, 120]","['300323', '6028324', '4651236', '300124', '6004938', '4211412', '300121', '623224', '4550325', '4121967', '6104154']"
300323,3422,1838,3653,2003
6028324,1850,1961,1992,2070
4651236,1736,1858,1901,2025
300124,1896,2162,2270,2502
6004938,2348,1444,2459,1548
4211412,2397,2083,2517,2159
300121,2845,1393,3117,1664
623224,2925,1854,3127,2076
4550325,3417,1128,3545,1232
4121967,2558,1542,2671,1672
6104154,2427,1610,2598,1750
