https://surfdrive.surf.nl/files/index.php/s/B7PEqFZSZZBPcW8/download?path=%2FData%2FInput%2FDatasets%2FHiba%2FImages&files=H_74.jpg,5183,3456
H_74,daylight,wood,"[130, 130, 130]","['4211511', '4529240', '614321', '300423', '4212454', '6062574', '4650630', '4529247', '6004938']"
4211511,2514,1712,2708,1906
4529240,2611,1906,2779,1999
614321,3695,1734,3938,1986
300423,1589,1309,1863,1486
4212454,1226,712,1355,853
6062574,3177,1597,3345,1774
4650630,1863,1513,2217,1822
4529247,1850,1459,1930,1597
6004938,2814,1743,3013,1942
