https://surfdrive.surf.nl/files/index.php/s/B7PEqFZSZZBPcW8/download?path=%2FData%2FInput%2FDatasets%2FHiba%2FImages&files=H_748.jpg,5184,3456
H_748,artificial_light,parquet_brown_medium,"[120, 120, 120]","['300323', '6028324', '4651236', '300124', '6004938', '4211412', '300121', '623224', '4550325', '4121967']"
300323,2809,1408,2995,1583
6028324,2483,1625,2624,1741
4651236,2295,1442,2384,1565
300124,2500,2015,2836,2311
6004938,2620,1722,2742,1844
4211412,1466,1359,1570,1460
300121,3085,1131,3409,1357
623224,2477,1860,2648,2028
4550325,2627,1534,2794,1651
4121967,3359,1201,3489,1306
