https://surfdrive.surf.nl/files/index.php/s/B7PEqFZSZZBPcW8/download?path=%2FData%2FInput%2FDatasets%2FHiba%2FImages&files=H_770.jpg,5183,3456
H_770,artificial_light,parquet_brown_medium,"[120, 120, 120]","['4550348', '4153827', '300421', '6003007', '4211437', '654126', '4181135', '6252809', '4211437']"
4550348,1941,1877,2026,2025
4153827,3033,1922,3460,2222
300421,2578,1474,2767,1591
6003007,2610,927,2724,998
4211437,2472,1024,2607,1096
4211437,2424,2165,2627,2271
654126,1947,2275,2093,2394
4181135,2146,1650,2729,1916
6252809,3756,1652,4082,2307
