https://surfdrive.surf.nl/files/index.php/s/B7PEqFZSZZBPcW8/download?path=%2FData%2FInput%2FDatasets%2FHiba%2FImages&files=H_776.jpg,5184,3455
H_776,artificial_light,parquet_brown_medium,"[120, 120, 120]","['4550348', '4153827', '300421', '6003007', '4211437', '654126', '4181135']"
4550348,1675,934,1783,1024
4153827,3070,1784,3465,2008
300421,3601,1947,3773,2170
6003007,903,1425,1032,1521
4211437,3840,1715,3979,1932
654126,3539,1282,3669,1422
4181135,2455,1542,2653,2027
