https://surfdrive.surf.nl/files/index.php/s/B7PEqFZSZZBPcW8/download?path=%2FData%2FInput%2FDatasets%2FHiba%2FImages&files=H_777.jpg,5184,3455
H_777,artificial_light,parquet_brown_medium,"[120, 120, 120]","['4550348', '4153827', '300421', '6003007', '4211437', '654126', '4181135']"
4550348,1693,1336,1814,1457
4153827,2690,1337,2988,1467
300421,2323,2276,2467,2466
6003007,2508,1556,2605,1622
4211437,2087,1399,2190,1477
654126,3317,832,3394,920
4181135,2775,1113,3143,1338
