https://surfdrive.surf.nl/files/index.php/s/B7PEqFZSZZBPcW8/download?path=%2FData%2FInput%2FDatasets%2FHiba%2FImages&files=H_805.jpg,5184,3456
H_805,artificial_light,parquet_brown_medium,"[120, 120, 120]","['4114319', '300401', '6075075', '6151663', '306223', '4157124']"
4114319,2075,1688,2398,2209
300401,3049,1429,3256,1612
6075075,2611,1245,2753,1372
6151663,2175,1076,2275,1228
306223,2954,1978,3034,2101
4157124,2672,977,2836,1082
