https://surfdrive.surf.nl/files/index.php/s/B7PEqFZSZZBPcW8/download?path=%2FData%2FInput%2FDatasets%2FHiba%2FImages&files=H_803.jpg,5184,3456
H_803,artificial_light,parquet_brown_medium,"[120, 120, 120]","['4114319', '300401', '6075075', '6151663', '306223', '4157124']"
4114319,2637,1748,3035,2194
300401,2280,1577,2498,1789
6075075,1932,1123,2082,1257
6151663,2622,1602,2816,1760
306223,3512,1591,3648,1701
4157124,2153,1482,2302,1641
