https://surfdrive.surf.nl/files/index.php/s/B7PEqFZSZZBPcW8/download?path=%2FData%2FInput%2FDatasets%2FHiba%2FImages&files=H_819.jpg,5184,3456
H_819,artificial_light,parquet_brown_medium,"[120, 120, 120]","['4109995', '4504381', '4211614', '4504369', '4165967', '4181144', '6238674', '6249125', '4118793']"
4109995,3781,1594,3926,1816
4504381,2012,1469,2134,1559
4211614,2751,1560,2978,1707
4504369,2042,1357,2161,1451
4165967,3016,1203,3393,1503
4181144,2523,1107,2819,1495
6238674,2452,1723,2572,1883
6249125,1997,1582,2124,1675
4118793,2954,1791,3123,1944
