https://surfdrive.surf.nl/files/index.php/s/B7PEqFZSZZBPcW8/download?path=%2FData%2FInput%2FDatasets%2FBerend%2FImages&files=B_385.jpg,4608,3072
B_385,daylight,wood,"[130, 130, 130]","['4181144', '6238674', '6025026', '6074890']"
4181144,2857,1505,3564,2236
6238674,957,1296,1147,1437
6025026,2693,1177,2933,1390
6074890,3245,1332,3432,1512
