https://surfdrive.surf.nl/files/index.php/s/B7PEqFZSZZBPcW8/download?path=%2FData%2FInput%2FDatasets%2FDavid%2FImages&files=C_154.jpg,5472,3648
C_154,daylight,coffee_table,"[130, 130, 130]","['4121739', '6025026', '6238674', '6104154']"
4121739,2144,1445,2404,1736
6025026,2690,1558,2858,1811
6238674,2471,1544,2612,1710
6104154,2915,1705,3115,2002
