https://surfdrive.surf.nl/files/index.php/s/B7PEqFZSZZBPcW8/download?path=%2FData%2FInput%2FDatasets%2FDavid%2FImages&files=C_738.jpg,5472,3648
C_738,daylight,couch,"[130, 130, 130]","['6069259', '4211054', '6177697']"
6069259,2767,1515,3011,1712
4211054,2641,1663,2938,1933
6177697,2480,1860,2678,2381
