https://surfdrive.surf.nl/files/index.php/s/B7PEqFZSZZBPcW8/download?path=%2FData%2FInput%2FDatasets%2FBerend%2FImages&files=B_730.jpg,4608,3072
B_730,daylight,wood,"[130, 130, 130]","['306201', '4527943', '6004938', '4121967', '4181144', '4160403']"
306201,731,1095,864,1249
4527943,3403,1392,3691,1617
6004938,2862,1521,3004,1726
4121967,2278,1008,2520,1161
4181144,2557,1164,3302,1716
4160403,2360,1751,3067,2286
