https://surfdrive.surf.nl/files/index.php/s/B7PEqFZSZZBPcW8/download?path=%2FData%2FInput%2FDatasets%2FDavid%2FImages&files=C_138.jpg,5472,3648
C_138,artificial,coffee_table,"[130, 130, 130]","['6238674', '4212454', '4504369', '4550348', '4527943', '6074890', '6244886', '4651236']"
6238674,2677,1656,2952,1861
4212454,3290,1537,3560,1760
4504369,3132,1798,3362,1940
4550348,2564,1851,2956,1988
4527943,2804,1404,3092,1706
6074890,2176,1805,2459,2008
6244886,2288,1478,2654,1866
4651236,2030,1958,2294,2320
