https://surfdrive.surf.nl/files/index.php/s/B7PEqFZSZZBPcW8/download?path=%2FData%2FInput%2FDatasets%2FDavid%2FImages&files=C_493.jpg,5472,3648
C_493,daylight,coffee_table,"[130, 130, 130]","['300424', '6004938', '306201', '4211166']"
300424,2866,1742,3131,2103
6004938,3026,1126,3198,1354
306201,2712,1311,2932,1469
4211166,2740,1557,2986,1896
