https://surfdrive.surf.nl/files/index.php/s/B7PEqFZSZZBPcW8/download?path=%2FData%2FInput%2FDatasets%2FDavid%2FImages&files=C_5.jpg,5472,3648
C_5,daylight,coffee_table,"[130, 130, 130]","['300121', '4567338']"
300121,823,1774,1281,2376
4567338,3562,992,3686,1162
