https://surfdrive.surf.nl/files/index.php/s/B7PEqFZSZZBPcW8/download?path=%2FData%2FInput%2FDatasets%2FDavid%2FImages&files=C_548.jpg,5472,3648
C_548,daylight,chair,"[130, 130, 130]","['4109995', '4649749']"
4109995,1470,1587,1756,1814
4649749,2574,1756,2870,1960
