https://surfdrive.surf.nl/files/index.php/s/B7PEqFZSZZBPcW8/download?path=%2FData%2FInput%2FDatasets%2FHiba%2FImages&files=H_145.jpg,5184,2912
H_145,daylight,wood,"[130, 130, 130]","['4211054', '4211054', '306201', '6229071', '6074890', '4621545', '6062574']"
4211054,2846,557,3035,752
4211054,3156,571,3374,783
306201,2345,796,2482,902
6229071,3666,1138,3870,1314
6074890,2778,1136,2880,1272
4621545,2656,384,2814,530
6062574,2010,2032,2184,2213
