https://surfdrive.surf.nl/files/index.php/s/B7PEqFZSZZBPcW8/download?path=%2FData%2FInput%2FDatasets%2FBerend%2FImages&files=B_103.jpg,4608,3072
B_103,daylight,wood,"[130, 130, 130]","['6022064', '4211221', '4211511']"
6022064,874,1255,1311,1691
4211221,2939,789,3279,1133
4211511,2723,1646,2965,1895
