https://surfdrive.surf.nl/files/index.php/s/B7PEqFZSZZBPcW8/download?path=%2FData%2FInput%2FDatasets%2FBerend%2FImages&files=B_127.jpg,4608,3072
B_127,daylight,wood,"[130, 130, 130]",['6252809']
6252809,1592,1016,3432,1956
