https://surfdrive.surf.nl/files/index.php/s/B7PEqFZSZZBPcW8/download?path=%2FData%2FInput%2FDatasets%2FBerend%2FImages&files=B_139.jpg,4607,3072
B_139,daylight,wood,"[130, 130, 130]",['300421']
300421,1816,1150,2324,1759
