https://surfdrive.surf.nl/files/index.php/s/B7PEqFZSZZBPcW8/download?path=%2FData%2FInput%2FDatasets%2FBerend%2FImages&files=B_148.jpg,4608,3072
B_148,daylight,wood,"[130, 130, 130]","['300421', '6138173', '4114319', '4211221']"
300421,1183,1725,1485,2005
6138173,1741,1854,1973,2124
4114319,1965,1771,2513,2288
4211221,2700,1243,2842,1579
