https://surfdrive.surf.nl/files/index.php/s/B7PEqFZSZZBPcW8/download?path=%2FData%2FInput%2FDatasets%2FBerend%2FImages&files=B_243.jpg,4608,3072
B_243,daylight,wood,"[130, 130, 130]","['6138173', '4210718', '4210718', '4121739', '4539099', '4211166', '300123', '6035291']"
6138173,1354,1496,1608,1816
4210718,1698,1103,2030,1681
4210718,1965,1804,2621,2284
4121739,2117,1574,2436,1878
4539099,1588,1997,1752,2198
4211166,2649,2075,2945,2374
300123,2703,1545,3301,1927
6035291,1616,1734,1793,1972
