https://surfdrive.surf.nl/files/index.php/s/B7PEqFZSZZBPcW8/download?path=%2FData%2FInput%2FDatasets%2FBerend%2FImages&files=B_279.jpg,4608,3072
B_279,daylight,wood,"[130, 130, 130]","['4211614', '4121739', '300423', '300323']"
4211614,2190,1427,2481,1640
4121739,1961,1558,2219,1746
300423,1891,1849,2194,2091
300323,2567,1398,2813,1775
