https://surfdrive.surf.nl/files/index.php/s/B7PEqFZSZZBPcW8/download?path=%2FData%2FInput%2FDatasets%2FBerend%2FImages&files=B_279.jpg,4608,3072
B_279,daylight,wood,"[130, 130, 130]","['4211614', '4121739', '300423', '300323']"
4211614,2190,1426,2471,1642
4121739,1959,1564,2231,1764
300423,1898,1849,2182,2081
300323,2556,1398,2824,1788
