https://surfdrive.surf.nl/files/index.php/s/B7PEqFZSZZBPcW8/download?path=%2FData%2FInput%2FDatasets%2FBerend%2FImages&files=B_314.jpg,4608,3072
B_314,daylight,wood,"[130, 130, 130]","['4211412', '300123', '6249125', '6104154']"
4211412,2085,1147,2225,1269
300123,1799,1420,2196,1863
6249125,2531,1055,2659,1152
6104154,2398,1554,2638,1787
