https://surfdrive.surf.nl/files/index.php/s/B7PEqFZSZZBPcW8/download?path=%2FData%2FInput%2FDatasets%2FBerend%2FImages&files=B_383.jpg,4608,3072
B_383,daylight,wood,"[130, 130, 130]","['4181144', '6238674', '6025026']"
4181144,1517,1292,2052,2124
6238674,1857,1246,2160,1564
6025026,2817,1448,3085,1665
