https://surfdrive.surf.nl/files/index.php/s/B7PEqFZSZZBPcW8/download?path=%2FData%2FInput%2FDatasets%2FBerend%2FImages&files=B_402.jpg,4608,3072
B_402,daylight,wood,"[130, 130, 130]","['4548180', '4651236', '4529240']"
4548180,1688,751,1888,1049
4651236,1413,2041,1814,2430
4529240,2808,1903,3087,2171
