https://surfdrive.surf.nl/files/index.php/s/B7PEqFZSZZBPcW8/download?path=%2FData%2FInput%2FDatasets%2FBerend%2FImages&files=B_474.jpg,4608,3072
B_474,daylight,wood,"[130, 130, 130]","['6075079', '4211201', '4165967', '4647553', '4121967']"
6075079,1116,1705,1497,1991
4211201,2939,1016,3629,1395
4165967,2757,666,3432,1154
4647553,3854,1363,4173,1728
4121967,1721,1526,2113,1893
