https://surfdrive.surf.nl/files/index.php/s/B7PEqFZSZZBPcW8/download?path=%2FData%2FInput%2FDatasets%2FBerend%2FImages&files=B_474.jpg,4608,3072
B_474,daylight,wood,"[130, 130, 130]","['6075079', '4211201', '4165967', '4647553', '4121967']"
6075079,1126,1709,1480,1988
4211201,2951,1020,3604,1368
4165967,2755,662,3415,1142
4647553,3883,1358,4170,1697
4121967,1721,1527,2107,1885
