https://surfdrive.surf.nl/files/index.php/s/B7PEqFZSZZBPcW8/download?path=%2FData%2FInput%2FDatasets%2FBerend%2FImages&files=B_480.jpg,4608,3072
B_480,daylight,wood,"[130, 130, 130]","['6075079', '4211201', '4165967', '4647553', '4121967', '4211437', '4143562']"
6075079,1756,1587,1989,1819
4211201,2393,1566,2999,2001
4165967,1564,1900,2191,2375
4647553,3161,1738,3525,1940
4121967,1726,1051,2049,1182
4211437,2191,1859,2423,2122
4143562,2383,1233,2686,1465
