https://surfdrive.surf.nl/files/index.php/s/B7PEqFZSZZBPcW8/download?path=%2FData%2FInput%2FDatasets%2FBerend%2FImages&files=B_553.jpg,4608,3072
B_553,daylight,wood,"[130, 130, 130]",['4550325']
4550325,2265,1248,2505,1497
