https://surfdrive.surf.nl/files/index.php/s/B7PEqFZSZZBPcW8/download?path=%2FData%2FInput%2FDatasets%2FBerend%2FImages&files=B_566.jpg,4608,3072
B_566,daylight,wood,"[130, 130, 130]","['4550325', '6229071', '4639693', '6004938', '6069259']"
4550325,1679,914,1997,1194
6229071,3217,2111,3498,2346
4639693,1758,1018,2908,1662
6004938,1249,476,1429,705
6069259,1999,1552,2132,1890
