https://surfdrive.surf.nl/files/index.php/s/B7PEqFZSZZBPcW8/download?path=%2FData%2FInput%2FDatasets%2FBerend%2FImages&files=B_700.jpg,4608,3072
B_700,daylight,wood,"[130, 130, 130]","['365901', '4567338', '4121967', '6223631', '4212454', '4153825', '4504381', '6035291', '4558957']"
365901,1944,832,2604,1230
4567338,1465,1402,1645,1648
4121967,2748,1221,2949,1443
6223631,1374,836,1547,971
4212454,1805,1984,1981,2239
4153825,1994,1956,2326,2345
4504381,1735,1738,1957,1935
6035291,1276,1160,1559,1451
4558957,1866,1221,2518,1857
