https://surfdrive.surf.nl/files/index.php/s/B7PEqFZSZZBPcW8/download?path=%2FData%2FInput%2FDatasets%2FBerend%2FImages&files=B_729.jpg,4608,3072
B_729,daylight,wood,"[130, 130, 130]","['306201', '4527943', '6004938', '4121967', '4181144', '4160403']"
306201,957,1021,1219,1297
4527943,2123,657,2529,964
6004938,1627,784,1839,1099
4121967,3169,1275,3449,1694
4181144,1888,982,3151,1460
4160403,1744,1369,2258,2527
