https://surfdrive.surf.nl/files/index.php/s/B7PEqFZSZZBPcW8/download?path=%2FData%2FInput%2FDatasets%2FBerend%2FImages&files=B_725.jpg,4608,3072
B_725,daylight,wood,"[130, 130, 130]","['306201', '4527943', '6004938', '4121967']"
306201,1437,1040,1659,1210
4527943,1812,1678,2004,1848
6004938,1928,1743,2249,1895
4121967,2680,1698,2972,1946
