https://surfdrive.surf.nl/files/index.php/s/B7PEqFZSZZBPcW8/download?path=%2FData%2FInput%2FDatasets%2FBerend%2FImages&files=B_725.jpg,4608,3072
B_725,daylight,wood,"[130, 130, 130]","['306201', '4527943', '6004938', '4121967']"
306201,1796,1678,2024,1890
4527943,2658,1694,2987,2072
6004938,1438,1048,1658,1300
4121967,1918,1731,2251,1983
