https://surfdrive.surf.nl/files/index.php/s/B7PEqFZSZZBPcW8/download?path=%2FData%2FInput%2FDatasets%2FBerend%2FImages&files=B_722.jpg,4608,3072
B_722,daylight,wood,"[130, 130, 130]","['306201', '4527943', '6004938']"
306201,2158,1412,2377,1590
4527943,368,1274,592,1561
6004938,2796,2039,2944,2244
