https://surfdrive.surf.nl/files/index.php/s/B7PEqFZSZZBPcW8/download?path=%2FData%2FInput%2FDatasets%2FBerend%2FImages&files=B_759.jpg,4608,3072
B_759,daylight,wood,"[130, 130, 130]","['6035291', '4118793', '4109995', '6022064', '6249125']"
6035291,2133,1845,2564,2187
4118793,2189,971,2441,1295
4109995,1568,1693,1934,2171
6022064,2894,1559,3156,2120
6249125,3127,1521,3309,1748
