https://surfdrive.surf.nl/files/index.php/s/B7PEqFZSZZBPcW8/download?path=%2FData%2FInput%2FDatasets%2FDavid%2FImages&files=C_143.jpg,5472,3648
C_143,artificial,coffee_table,"[130, 130, 130]","['6238674', '4212454', '4504369', '4550348', '4527943', '6074890', '6244886', '4651236', '4114319']"
6238674,4106,2108,4264,2324
4212454,1555,1105,1780,1302
4504369,2175,1618,2321,1702
4550348,2474,1195,2631,1460
4527943,2090,1691,2423,1962
6074890,1070,1821,1296,2074
6244886,2834,2052,3167,2345
4651236,2254,873,2536,1082
4114319,2953,608,3527,1037
