https://surfdrive.surf.nl/files/index.php/s/B7PEqFZSZZBPcW8/download?path=%2FData%2FInput%2FDatasets%2FDavid%2FImages&files=C_165.jpg,5472,3648
C_165,daylight,coffee_table,"[130, 130, 130]","['4121739', '6025026', '6238674', '6104154', '4121739', '4529240', '4550325', '6225539']"
4121739,2324,1187,2683,1506
4121739,3189,1469,3562,1817
6025026,2025,1176,2338,1415
6238674,2364,1731,2529,1922
6104154,2651,1330,3004,1640
4529240,1993,1278,2239,1461
4550325,2125,1890,2425,2281
6225539,2785,1372,3245,2336
