https://surfdrive.surf.nl/files/index.php/s/B7PEqFZSZZBPcW8/download?path=%2FData%2FInput%2FDatasets%2FDavid%2FImages&files=C_164.jpg,5472,3648
C_164,daylight,coffee_table,"[130, 130, 130]","['4121739', '6025026', '6238674', '6104154', '4121739', '4529240', '4550325']"
4121739,2266,1517,2513,1830
4121739,2873,1115,3190,1377
6025026,2079,1797,2373,2050
6238674,2877,1368,3092,1564
6104154,2560,1284,2887,1545
4529240,2705,1797,2905,1956
4550325,2901,1751,3204,2073
