https://surfdrive.surf.nl/files/index.php/s/B7PEqFZSZZBPcW8/download?path=%2FData%2FInput%2FDatasets%2FDavid%2FImages&files=C_207.jpg,5472,3648
C_207,daylight,coffee_table,"[130, 130, 130]","['4212454', '4649749', '4157124', '4211437', '306223']"
4212454,2714,1370,2888,1506
4649749,2583,2015,2888,2351
4157124,2578,1552,2765,1720
4211437,2479,1728,2792,1948
306223,2805,1474,2998,1656
