https://surfdrive.surf.nl/files/index.php/s/B7PEqFZSZZBPcW8/download?path=%2FData%2FInput%2FDatasets%2FDavid%2FImages&files=C_22.jpg,5472,3648
C_22,daylight,coffee_table,"[130, 130, 130]","['300121', '4567338', '4211149', '6022023', '6075075', '4118793', '4647553', '4655172']"
300121,1843,1602,2145,1780
4567338,3615,1602,3709,1665
4211149,2477,1135,2586,1270
6022023,3037,1513,3236,1635
6075075,2797,1165,2931,1277
4118793,2521,1736,2596,1859
4647553,2678,1110,2779,1238
4655172,1668,677,1797,873
