https://surfdrive.surf.nl/files/index.php/s/B7PEqFZSZZBPcW8/download?path=%2FData%2FInput%2FDatasets%2FDavid%2FImages&files=C_257.jpg,5472,3648
C_257,daylight,coffee_table,"[130, 130, 130]","['6223631', '300424', '4153825']"
6223631,2617,1919,2733,2052
300424,2700,1903,3014,2273
4153825,2743,1292,3053,1639
