https://surfdrive.surf.nl/files/index.php/s/B7PEqFZSZZBPcW8/download?path=%2FData%2FInput%2FDatasets%2FDavid%2FImages&files=C_282.jpg,5472,3648
C_282,daylight,coffee_table,"[130, 130, 130]","['6151663', '365901', '4211201', '300401']"
6151663,3100,2157,3344,2432
365901,1950,1965,2519,2192
4211201,2603,1192,3036,1674
300401,3182,1459,3284,1766
