https://surfdrive.surf.nl/files/index.php/s/B7PEqFZSZZBPcW8/download?path=%2FData%2FInput%2FDatasets%2FDavid%2FImages&files=C_285.jpg,5472,3648
C_285,daylight,coffee_table,"[130, 130, 130]","['6151663', '365901', '4211201', '300401', '6252809']"
6151663,2622,2045,2879,2439
365901,3621,954,3983,2536
4211201,1942,1569,2679,2166
300401,3019,1152,3246,1607
6252809,1923,1058,2471,1797
