https://surfdrive.surf.nl/files/index.php/s/B7PEqFZSZZBPcW8/download?path=%2FData%2FInput%2FDatasets%2FDavid%2FImages&files=C_315.jpg,5472,3648
C_315,daylight,living_room_floor,"[130, 130, 130]","['6062574', '4550325']"
6062574,2845,1652,2944,1764
4550325,2407,1782,2578,1979
