https://surfdrive.surf.nl/files/index.php/s/B7PEqFZSZZBPcW8/download?path=%2FData%2FInput%2FDatasets%2FDavid%2FImages&files=C_357.jpg,5472,3647
C_357,daylight,living_room_floor,"[130, 130, 130]","['4118793', '6035291', '4211614', '4567338', '4211412']"
4118793,2723,564,2856,692
6035291,2676,1755,2800,1922
4211614,2343,1858,2556,2012
4567338,2300,2295,2445,2381
4211412,1984,1893,2133,2009
