https://surfdrive.surf.nl/files/index.php/s/B7PEqFZSZZBPcW8/download?path=%2FData%2FInput%2FDatasets%2FDavid%2FImages&files=C_370.jpg,5472,3648
C_370,daylight,living_room_floor,"[130, 130, 130]","['4118793', '6035291', '4211614', '4567338', '4211412', '6025026', '4548180', '4655172', '4647553']"
4118793,2141,1829,2267,1942
6035291,2701,1726,2858,1802
4211614,2490,1327,2632,1514
4567338,2675,1447,2765,1564
4211412,2682,1816,2804,1920
6025026,2876,1973,3038,2121
4548180,2629,1569,2780,1713
4655172,2021,1460,2383,1757
4647553,2907,1849,3094,1975
