https://surfdrive.surf.nl/files/index.php/s/B7PEqFZSZZBPcW8/download?path=%2FData%2FInput%2FDatasets%2FDavid%2FImages&files=C_407.jpg,5472,3648
C_407,daylight,living_room_floor,"[130, 130, 130]","['300421', '300321', '300424', '614321', '4153827']"
300421,2489,1605,2694,1774
300321,2564,1699,2862,1961
300424,2937,2447,3236,2672
614321,3273,1100,3479,1212
4153827,3609,1886,3946,2204
