https://surfdrive.surf.nl/files/index.php/s/B7PEqFZSZZBPcW8/download?path=%2FData%2FInput%2FDatasets%2FDavid%2FImages&files=C_411.jpg,5472,3648
C_411,daylight,living_room_floor,"[130, 130, 130]","['300421', '300321', '300424', '614321', '4153827', '4165967', '4165967']"
300421,3049,1314,3256,1581
300321,2559,1537,2742,1877
300424,2372,1016,2525,1287
614321,2721,1137,2971,1299
4153827,1657,804,2182,1288
4165967,1775,583,2293,1022
4165967,2487,503,2956,782
