https://surfdrive.surf.nl/files/index.php/s/B7PEqFZSZZBPcW8/download?path=%2FData%2FInput%2FDatasets%2FDavid%2FImages&files=C_456.jpg,5472,3648
C_456,daylight,dining_table,"[130, 130, 130]","['6075079', '306201', '4211614', '4181135']"
6075079,2180,1369,2478,1803
306201,2972,1401,3157,1631
4211614,2650,2132,3061,2469
4181135,2578,977,2991,1986
