https://surfdrive.surf.nl/files/index.php/s/B7PEqFZSZZBPcW8/download?path=%2FData%2FInput%2FDatasets%2FDavid%2FImages&files=C_494.jpg,5472,3648
C_494,daylight,coffee_table,"[130, 130, 130]","['300424', '6004938', '306201', '4211166']"
300424,2334,1874,2711,2346
6004938,1925,1281,2354,1632
306201,2936,1183,3225,1462
4211166,2594,1590,2834,1899
