https://surfdrive.surf.nl/files/index.php/s/B7PEqFZSZZBPcW8/download?path=%2FData%2FInput%2FDatasets%2FDavid%2FImages&files=C_501.jpg,5472,3648
C_501,daylight,coffee_table,"[130, 130, 130]","['300424', '6004938', '306201', '4211166', '4621545', '300121', '4118793']"
300424,3627,2068,3959,2464
6004938,2654,2459,2900,2655
306201,3154,1756,3341,1901
4211166,2279,2240,2541,2478
4621545,1656,1424,1850,1703
300121,2578,1620,3034,2210
4118793,2713,2319,2976,2528
