https://surfdrive.surf.nl/files/index.php/s/B7PEqFZSZZBPcW8/download?path=%2FData%2FInput%2FDatasets%2FDavid%2FImages&files=C_510.jpg,5472,3648
C_510,daylight,coffee_table,"[130, 130, 130]","['300424', '6004938', '306201', '4211166', '4621545', '300121', '4118793', '4548180', '4539099', '654126']"
300424,2535,1628,2894,2030
6004938,1923,1680,2141,1974
306201,590,1662,849,1813
4211166,2821,1427,3145,1810
4621545,3494,1179,3832,1546
300121,2366,787,2755,1453
4118793,3036,1186,3273,1429
4548180,3840,1027,4142,1270
4539099,2048,1862,2191,2126
654126,2159,1668,2318,1913
