https://surfdrive.surf.nl/files/index.php/s/B7PEqFZSZZBPcW8/download?path=%2FData%2FInput%2FDatasets%2FDavid%2FImages&files=C_534.jpg,5472,3648
C_534,daylight,couch,"[130, 130, 130]","['6177697', '6223631', '6073026', '300124', '4647553', '6035291']"
6177697,2665,1591,3127,1807
6223631,2836,2175,2956,2305
6073026,2836,1877,2980,2074
300124,1972,1774,2316,2267
4647553,2521,1410,2745,1653
6035291,2687,1732,2918,1917
