https://surfdrive.surf.nl/files/index.php/s/B7PEqFZSZZBPcW8/download?path=%2FData%2FInput%2FDatasets%2FDavid%2FImages&files=C_543.jpg,5472,3648
C_543,daylight,chair,"[130, 130, 130]",['4109995']
4109995,2591,1635,2970,1976
