https://surfdrive.surf.nl/files/index.php/s/B7PEqFZSZZBPcW8/download?path=%2FData%2FInput%2FDatasets%2FDavid%2FImages&files=C_551.jpg,5472,3648
C_551,daylight,window_sill,"[130, 130, 130]",['6003007']
6003007,2690,1687,2925,2005
