https://surfdrive.surf.nl/files/index.php/s/B7PEqFZSZZBPcW8/download?path=%2FData%2FInput%2FDatasets%2FDavid%2FImages&files=C_603.jpg,5472,3648
C_603,daylight,window_sill,"[130, 130, 130]","['300423', '6073026']"
300423,2473,1631,2853,1948
6073026,2852,1537,3106,1839
