https://surfdrive.surf.nl/files/index.php/s/B7PEqFZSZZBPcW8/download?path=%2FData%2FInput%2FDatasets%2FDavid%2FImages&files=C_634.jpg,5472,3648
C_634,daylight,coffee_table,"[130, 130, 130]","['6074890', '6073026', '4211221', '4211166', '4181144']"
6074890,3643,1869,3838,2001
6073026,3711,1319,3876,1514
4211221,3506,1046,3818,1353
4211166,2674,1709,2883,1957
4181144,2075,1012,2728,1616
