https://surfdrive.surf.nl/files/index.php/s/B7PEqFZSZZBPcW8/download?path=%2FData%2FInput%2FDatasets%2FDavid%2FImages&files=C_637.jpg,5472,3648
C_637,daylight,coffee_table,"[130, 130, 130]","['6074890', '6073026', '4211221', '4211166', '4181144', '4211149']"
6074890,3595,2058,3731,2159
6073026,2301,1773,2430,1960
4211221,2631,1624,2784,1881
4211166,2832,1760,3121,2044
4181144,2461,1285,3157,1687
4211149,3516,2153,3773,2367
