https://surfdrive.surf.nl/files/index.php/s/B7PEqFZSZZBPcW8/download?path=%2FData%2FInput%2FDatasets%2FDavid%2FImages&files=C_643.jpg,5472,3648
C_643,daylight,coffee_table,"[130, 130, 130]","['6074890', '6073026', '4211221', '4211166', '4181144', '4211149', '6062574', '4548180']"
6074890,2002,1252,2088,1353
6073026,1507,2325,1673,2482
4211221,2457,807,2607,933
4211166,1980,1856,2168,2048
4181144,3429,1522,3997,1841
4211149,3032,1400,3198,1540
6062574,2243,746,2321,874
4548180,1516,2495,1767,2634
