https://surfdrive.surf.nl/files/index.php/s/B7PEqFZSZZBPcW8/download?path=%2FData%2FInput%2FDatasets%2FDavid%2FImages&files=C_669.jpg,5472,3648
C_669,daylight,coffee_table,"[130, 130, 130]",['6075079']
6075079,2559,1589,2872,1964
