https://surfdrive.surf.nl/files/index.php/s/B7PEqFZSZZBPcW8/download?path=%2FData%2FInput%2FDatasets%2FDavid%2FImages&files=C_661.jpg,5472,3648
C_661,daylight,coffee_table,"[130, 130, 130]","['6075079', '300423', '4121967', '300424']"
6075079,1610,2044,1853,2281
300423,2622,1672,2776,1890
4121967,3154,1653,3455,1884
300424,3026,1320,3282,1505
