https://surfdrive.surf.nl/files/index.php/s/B7PEqFZSZZBPcW8/download?path=%2FData%2FInput%2FDatasets%2FDavid%2FImages&files=C_698.jpg,5472,3648
C_698,daylight,coffee_table,"[130, 130, 130]","['4558957', '4539099', '300323', '6229071', '4157124', '4504369', '4649749', '6225539']"
4558957,2578,1480,2966,1872
4539099,2527,1144,2630,1279
300323,1822,1961,2182,2307
6229071,1117,1583,1407,1891
4157124,2691,2045,2957,2279
4504369,3104,1677,3244,1789
4649749,2824,2275,3104,2471
6225539,2945,1612,3510,2214
