https://surfdrive.surf.nl/files/index.php/s/B7PEqFZSZZBPcW8/download?path=%2FData%2FInput%2FDatasets%2FDavid%2FImages&files=C_704.jpg,5472,3648
C_704,daylight,coffee_table,"[130, 130, 130]","['4529240', '4211437']"
4529240,2615,1794,2897,1973
4211437,2318,1360,2716,1606
