https://surfdrive.surf.nl/files/index.php/s/B7PEqFZSZZBPcW8/download?path=%2FData%2FInput%2FDatasets%2FDavid%2FImages&files=C_736.jpg,5472,3648
C_736,daylight,couch,"[130, 130, 130]","['6069259', '4211054']"
6069259,2722,1658,2881,1905
4211054,2351,2015,2530,2298
