https://surfdrive.surf.nl/files/index.php/s/B7PEqFZSZZBPcW8/download?path=%2FData%2FInput%2FDatasets%2FDavid%2FImages&files=C_743.jpg,5472,3648
C_743,daylight,couch,"[130, 130, 130]","['6069259', '4211054', '6177697', '6062574']"
6069259,2796,1253,3115,1458
4211054,3347,1396,3507,1559
6177697,2890,1608,3362,1976
6062574,2856,1865,3025,2017
