https://surfdrive.surf.nl/files/index.php/s/B7PEqFZSZZBPcW8/download?path=%2FData%2FInput%2FDatasets%2FDavid%2FImages&files=C_762.jpg,5472,3648
C_762,daylight,couch,"[130, 130, 130]","['6074890', '4211511', '4520632', '300421']"
6074890,1655,1483,1786,1640
4211511,3245,1450,3629,1848
4520632,3222,1669,3288,1801
300421,2053,2009,2299,2247
