https://surfdrive.surf.nl/files/index.php/s/B7PEqFZSZZBPcW8/download?path=%2FData%2FInput%2FDatasets%2FDavid%2FImages&files=C_765.jpg,5472,3648
C_765,daylight,couch,"[130, 130, 130]","['6074890', '4211511', '4520632', '300421', '4558957']"
6074890,2991,1135,3169,1283
4211511,2242,2041,2441,2243
4520632,2441,1909,2821,2418
300421,2034,2259,2353,2557
4558957,2665,1546,3114,1916
