https://surfdrive.surf.nl/files/index.php/s/B7PEqFZSZZBPcW8/download?path=%2FData%2FInput%2FDatasets%2FDavid%2FImages&files=C_77.jpg,5472,3648
C_77,daylight,coffee_table,"[130, 130, 130]",['4121739']
4121739,2583,1415,2698,1602
