https://surfdrive.surf.nl/files/index.php/s/B7PEqFZSZZBPcW8/download?path=%2FData%2FInput%2FDatasets%2FDavid%2FImages&files=C_785.jpg,5472,3648
C_785,daylight,couch,"[130, 130, 130]","['4621545', '4210718', '4650630', '4529247', '4529247']"
4621545,2108,1600,2392,1870
4210718,2769,1344,3071,1632
4650630,2578,1656,2904,2226
4529247,3055,1728,3218,1905
4529247,2971,1849,3073,2021
