https://surfdrive.surf.nl/files/index.php/s/B7PEqFZSZZBPcW8/download?path=%2FData%2FInput%2FDatasets%2FDavid%2FImages&files=C_790.jpg,5472,3648
C_790,daylight,couch,"[130, 130, 130]","['4621545', '4210718', '4650630', '4529247', '4529247', '6151663', '300821']"
4621545,2705,1394,2836,1622
4210718,1902,1307,2376,1703
4650630,3820,2317,4160,2630
4529247,3356,1764,3477,1903
4529247,2747,1677,2887,1789
6151663,2360,1472,2582,1623
300821,2417,1609,2829,2426
