https://surfdrive.surf.nl/files/index.php/s/B7PEqFZSZZBPcW8/download?path=%2FData%2FInput%2FDatasets%2FDavid%2FImages&files=C_85.jpg,5472,3648
C_85,daylight,coffee_table,"[130, 130, 130]","['4121739', '306223', '4210718', '6151663']"
4121739,2637,1327,2727,1470
306223,3006,1603,3074,1693
4210718,2001,1259,2311,1516
6151663,2274,1898,2432,1994
