https://surfdrive.surf.nl/files/index.php/s/B7PEqFZSZZBPcW8/download?path=%2FData%2FInput%2FDatasets%2FDavid%2FImages&files=C_95.jpg,5472,3648
C_95,daylight,coffee_table,"[130, 130, 130]","['4121739', '306223', '4210718', '6151663', '4529240', '4211054', '6075079']"
4121739,2303,2596,2611,2951
306223,2144,1802,2266,1910
4210718,2994,1036,3414,1405
6151663,2023,1428,2275,1648
4529240,1944,2054,2158,2190
4211054,2112,1919,2387,2171
6075079,1841,2148,2107,2339
