https://surfdrive.surf.nl/files/index.php/s/B7PEqFZSZZBPcW8/download?path=%2FData%2FInput%2FDatasets%2FHiba%2FImages&files=H_101.jpg,5184,3456
H_101,daylight,wood,"[130, 130, 130]","['6074890', '6035291', '6022023']"
6074890,2453,1745,2606,1851
6035291,1811,1365,1984,1520
6022023,2860,2366,3186,2644
