https://surfdrive.surf.nl/files/index.php/s/B7PEqFZSZZBPcW8/download?path=%2FData%2FInput%2FDatasets%2FHiba%2FImages&files=H_10.jpg,5184,3456
H_10,daylight,wood,"[130, 130, 130]","['623224', '6022023', '4121739']"
623224,2267,1693,2561,1977
6022023,2564,1706,2827,1868
4121739,2660,1122,2835,1261
