https://surfdrive.surf.nl/files/index.php/s/B7PEqFZSZZBPcW8/download?path=%2FData%2FInput%2FDatasets%2FHiba%2FImages&files=H_16.jpg,5184,3456
H_16,daylight,wood,"[130, 130, 130]","['623224', '6022023', '4121739', '4118793', '4529240']"
623224,3550,1688,3755,1896
6022023,2320,1728,2505,1935
4121739,2819,833,2959,956
4118793,2203,1388,2294,1492
4529240,2995,1484,3101,1549
