https://surfdrive.surf.nl/files/index.php/s/B7PEqFZSZZBPcW8/download?path=%2FData%2FInput%2FDatasets%2FHiba%2FImages&files=H_191.jpg,5184,3456
H_191,daylight,wood,"[130, 130, 130]","['4548180', '4504381', '4517992']"
4548180,1691,2322,1999,2472
4504381,3464,2097,3597,2205
4517992,2998,998,3247,1114
