https://surfdrive.surf.nl/files/index.php/s/B7PEqFZSZZBPcW8/download?path=%2FData%2FInput%2FDatasets%2FHiba%2FImages&files=H_191.jpg,5184,3456
H_191,daylight,wood,"[130, 130, 130]","['4548180', '4504381', '4517992']"
4548180,1717,2317,2004,2534
4504381,3459,2102,3625,2234
4517992,2993,987,3218,1213
