https://surfdrive.surf.nl/files/index.php/s/B7PEqFZSZZBPcW8/download?path=%2FData%2FInput%2FDatasets%2FHiba%2FImages&files=H_269.jpg,5183,3456
H_269,daylight,wood,"[130, 130, 130]","['4143562', '300123']"
4143562,2526,1972,2596,2097
300123,2425,1458,2741,1785
