https://surfdrive.surf.nl/files/index.php/s/B7PEqFZSZZBPcW8/download?path=%2FData%2FInput%2FDatasets%2FHiba%2FImages&files=H_278.jpg,5184,3456
H_278,daylight,wood,"[130, 130, 130]","['4143562', '300123', '4109995', '614321', '4211221']"
4143562,3296,1875,3508,2123
300123,1526,2159,1827,2496
4109995,2959,1999,3083,2123
614321,2552,1609,2747,1769
4211221,2216,2301,2411,2496
