https://surfdrive.surf.nl/files/index.php/s/B7PEqFZSZZBPcW8/download?path=%2FData%2FInput%2FDatasets%2FHiba%2FImages&files=H_319.jpg,5184,3456
H_319,daylight,wood,"[130, 130, 130]","['4211437', '300821', '4647553']"
4211437,2179,2343,2423,2486
300821,2480,1697,2658,1849
4647553,3471,971,4017,1392
