https://surfdrive.surf.nl/files/index.php/s/B7PEqFZSZZBPcW8/download?path=%2FData%2FInput%2FDatasets%2FHiba%2FImages&files=H_314.jpg,5184,3456
H_314,daylight,wood,"[130, 130, 130]",['4211437']
4211437,2495,1672,2662,1920
