https://surfdrive.surf.nl/files/index.php/s/B7PEqFZSZZBPcW8/download?path=%2FData%2FInput%2FDatasets%2FHiba%2FImages&files=H_57.jpg,5184,3456
H_57,daylight,wood,"[130, 130, 130]","['4211511', '4529240', '614321', '300423']"
4211511,2442,1493,2570,1621
4529240,1479,2165,1580,2329
614321,2922,2123,3165,2328
300423,2569,1629,2778,1784
