https://surfdrive.surf.nl/files/index.php/s/B7PEqFZSZZBPcW8/download?path=%2FData%2FInput%2FDatasets%2FHiba%2FImages&files=H_65.jpg,5184,3456
H_65,daylight,wood,"[130, 130, 130]","['4211511', '4529240', '614321', '300423', '4212454', '6062574']"
4211511,4040,1972,4178,2106
4529240,1709,1523,1775,1630
614321,2275,557,2348,691
300423,3985,2196,4186,2363
4212454,1570,1505,1680,1599
6062574,989,2031,1125,2117
