https://surfdrive.surf.nl/files/index.php/s/B7PEqFZSZZBPcW8/download?path=%2FData%2FInput%2FDatasets%2FBerend%2FImages&files=B_160.jpg,4608,3072
B_160,daylight,wood,"[130, 130, 130]","['300421', '6138173', '4114319', '4211221', '6004938', '4211166', '6069259', '4212454']"
300421,2618,1789,2807,2047
6138173,2202,1672,2433,1884
4114319,2440,1593,2849,1835
4211221,2713,1218,2947,1471
4211166,1414,1059,1626,1275
6069259,2251,1453,2440,1619
4212454,2247,1608,2391,1699
6004938,3004,1789,3148,1983
