https://surfdrive.surf.nl/files/index.php/s/B7PEqFZSZZBPcW8/download?path=%2FData%2FInput%2FDatasets%2FBerend%2FImages&files=B_355.jpg,4608,3072
B_355,daylight,wood,"[130, 130, 130]","['4639693', '4121967', '4157124', '4567338']"
4639693,1578,1317,2295,2186
4121967,2023,1372,2155,1574
4157124,1423,1293,1608,1484
4567338,2049,1609,2187,1797
