https://surfdrive.surf.nl/files/index.php/s/B7PEqFZSZZBPcW8/download?path=%2FData%2FInput%2FDatasets%2FBerend%2FImages&files=B_490.jpg,4608,3072
B_490,daylight,wood,"[130, 130, 130]","['6075075', '4649749']"
6075075,1871,1466,2096,1663
4649749,2374,1376,2651,1531
