https://surfdrive.surf.nl/files/index.php/s/B7PEqFZSZZBPcW8/download?path=%2FData%2FInput%2FDatasets%2FBerend%2FImages&files=B_665.jpg,4608,3072
B_665,daylight,wood,"[130, 130, 130]","['6223631', '4160403', '4527943', '4650630']"
4650630,3105,1951,3565,2448
4160403,3281,1303,3547,2108
4527943,1508,579,1822,948
6223631,2312,700,2452,894
