https://surfdrive.surf.nl/files/index.php/s/B7PEqFZSZZBPcW8/download?path=%2FData%2FInput%2FDatasets%2FBerend%2FImages&files=B_754.jpg,4608,3072
B_754,daylight,wood,"[130, 130, 130]","['6035291', '4118793', '4109995']"
4118793,1697,1572,2057,1871
6035291,1868,1152,2182,1511
4109995,2171,1117,2564,1549
