https://surfdrive.surf.nl/files/index.php/s/B7PEqFZSZZBPcW8/download?path=%2FData%2FInput%2FDatasets%2FBerend%2FImages&files=B_784.jpg,4608,3072
B_784,daylight,wood,"[130, 130, 130]","['4181135', '6069259', '6003007', '4650630', '4504369', '4527943', '6062574']"
4181135,2164,854,2853,1467
6069259,1683,774,1880,1009
6003007,1800,1149,2009,1270
4650630,2546,1217,2883,1456
4527943,1925,1331,2213,1660
6062574,1543,975,1755,1206
4504369,3571,2027,3716,2269
