https://surfdrive.surf.nl/files/index.php/s/B7PEqFZSZZBPcW8/download?path=%2FData%2FInput%2FDatasets%2FDavid%2FImages&files=C_151.jpg,5472,3648
C_151,daylight,coffee_table,"[130, 130, 130]","['4121739', '6025026', '6238674']"
4121739,2398,2016,2555,2357
6025026,2888,1454,3184,1692
6238674,2425,1458,2569,1656
