https://surfdrive.surf.nl/files/index.php/s/B7PEqFZSZZBPcW8/download?path=%2FData%2FInput%2FDatasets%2FDavid%2FImages&files=C_310.jpg,5472,3648
C_310,daylight,living_room_floor,"[130, 130, 130]","['4650630', '6223631', '4181144']"
4650630,2414,1726,2625,1925
6223631,2996,1771,3139,1889
4181144,2748,1479,2984,1973
