https://surfdrive.surf.nl/files/index.php/s/B7PEqFZSZZBPcW8/download?path=%2FData%2FInput%2FDatasets%2FDavid%2FImages&files=C_352.jpg,5472,3648
C_352,daylight,living_room_floor,"[130, 130, 130]","['4118793', '6035291', '4211614']"
4118793,2646,1669,2868,1911
6035291,2854,1748,3126,2012
4211614,1775,1605,2067,1818
