https://surfdrive.surf.nl/files/index.php/s/B7PEqFZSZZBPcW8/download?path=%2FData%2FInput%2FDatasets%2FDavid%2FImages&files=C_37.jpg,5472,3648
C_37,daylight,coffee_table,"[130, 130, 130]","['6104154', '4527943']"
6104154,2220,1207,2373,1522
4527943,3137,1751,3469,2129
