https://surfdrive.surf.nl/files/index.php/s/B7PEqFZSZZBPcW8/download?path=%2FData%2FInput%2FDatasets%2FDavid%2FImages&files=C_399.jpg,5472,3648
C_399,daylight,living_room_floor,"[130, 130, 130]","['300421', '300321', '300424']"
300421,3336,1619,3538,1779
300321,2588,1703,2833,1959
300424,2833,1149,3010,1296
