https://surfdrive.surf.nl/files/index.php/s/B7PEqFZSZZBPcW8/download?path=%2FData%2FInput%2FDatasets%2FDavid%2FImages&files=C_409.jpg,5472,3648
C_409,daylight,living_room_floor,"[130, 130, 130]","['300421', '300321', '300424', '614321', '4153827', '4165967']"
4153827,2681,2179,2926,2516
300424,2650,2089,2782,2241
300321,2692,1864,2895,2066
300421,2188,1510,2334,1616
4165967,2416,1279,2598,1498
614321,2539,1114,2671,1254
