https://surfdrive.surf.nl/files/index.php/s/B7PEqFZSZZBPcW8/download?path=%2FData%2FInput%2FDatasets%2FDavid%2FImages&files=C_413.jpg,5472,3648
C_413,daylight,living_room_floor,"[130, 130, 130]","['300421', '300321', '300424', '614321', '4153827', '4165967', '4165967']"
4165967,3107,1730,3525,2107
4165967,2452,1742,2857,2143
300321,2789,2020,3028,2295
300424,2129,1638,2297,1845
4153827,2154,1293,2351,1631
614321,3191,771,3357,959
300421,3682,1492,3835,1711
