https://surfdrive.surf.nl/files/index.php/s/B7PEqFZSZZBPcW8/download?path=%2FData%2FInput%2FDatasets%2FDavid%2FImages&files=C_457.jpg,5472,3648
C_457,daylight,dining_table,"[130, 130, 130]","['6075079', '306201', '4211614', '4181135']"
4181135,2401,798,3170,1503
306201,3357,1726,3565,1999
4211614,2538,1633,2911,1971
6075079,3235,2086,3515,2438
