https://surfdrive.surf.nl/files/index.php/s/B7PEqFZSZZBPcW8/download?path=%2FData%2FInput%2FDatasets%2FDavid%2FImages&files=C_732.jpg,5472,3648
C_732,daylight,armchair,"[130, 130, 130]",['6069259']
6069259,2627,1692,2916,1936
