https://surfdrive.surf.nl/files/index.php/s/B7PEqFZSZZBPcW8/download?path=%2FData%2FInput%2FDatasets%2FHiba%2FImages&files=H_122.jpg,5184,3456
H_122,daylight,wood,"[130, 130, 130]","['6022064', '4558957', '306223', '4527943', '6003007', '4211614', '6151663']"
6022064,2034,2259,2135,2546
6022064,1962,2440,2119,2716
4527943,2423,1934,2606,2136
6003007,2620,1979,2726,2115
4558957,2456,1505,2786,1814
4211614,1870,1346,2033,1484
6151663,2513,983,2654,1127
306223,2918,1082,3027,1154
