https://surfdrive.surf.nl/files/index.php/s/B7PEqFZSZZBPcW8/download?path=%2FData%2FInput%2FDatasets%2FHiba%2FImages&files=H_181.jpg,5184,3456
H_181,daylight,wood,"[130, 130, 130]","['4211412', '4153825', '4210718', '6104154', '4157124', '4121739', '306223']"
4211412,1930,1186,2105,1323
4153825,2394,1595,2731,1927
4210718,1253,1327,1896,1719
6104154,3638,1204,3893,1425
4157124,831,1387,1048,1608
4121739,1581,1830,1913,2153
306223,3114,2321,3289,2560
