https://surfdrive.surf.nl/files/index.php/s/B7PEqFZSZZBPcW8/download?path=%2FData%2FInput%2FDatasets%2FHiba%2FImages&files=H_75.jpg,5184,3456
H_75,daylight,wood,"[130, 130, 130]",['4647553']
4647553,2381,1664,2756,1975
