https://surfdrive.surf.nl/files/index.php/s/B7PEqFZSZZBPcW8/download?path=%2FData%2FInput%2FDatasets%2FHiba%2FImages&files=H_89.jpg,3456,5184
H_89,daylight,wood,"[130, 130, 130]","['6223631', '300421']"
6223631,1756,2650,1932,2778
300421,1425,2439,1728,2710
