https://surfdrive.surf.nl/files/index.php/s/B7PEqFZSZZBPcW8/download?path=%2FData%2FInput%2FDatasets%2FBerend%2FImages&files=B_0.jpg,4607,3072
B_0,daylight,wood,"[130, 130, 130]",['4650630']
4650630,2043,1325,2525,1819
