https://surfdrive.surf.nl/files/index.php/s/B7PEqFZSZZBPcW8/download?path=%2FData%2FInput%2FDatasets%2FBerend%2FImages&files=B_1071.jpg,4608,3072
B_1071,daylight,dirty_rug,"[120, 120, 120]","['4109995', '300123', '623224', '4520632', '6025026', '4504369', '4157124']"
4109995,1633,1119,1718,1204
300123,1733,1480,1953,1622
4157124,2450,1977,2542,2076
4504369,2876,2005,2947,2090
6025026,3224,1665,3344,1736
4520632,1882,2218,2116,2359
623224,1335,2097,1527,2182
