https://surfdrive.surf.nl/files/index.php/s/B7PEqFZSZZBPcW8/download?path=%2FData%2FInput%2FDatasets%2FBerend%2FImages&files=B_1092.jpg,4607,3072
B_1092,artificial_light,parquet_dark_brown,"[120, 120, 120]","['6244886', '4211201', '4153827', '6229071', '300321', '4165967', '6225539', '4548180', '306201', '6028324', '614321', '300121']"
4153827,2913,1256,3326,1521
306201,3171,1434,3330,1533
6229071,3116,1521,3330,1676
4165967,2973,1637,3342,2113
614321,2604,2105,2838,2351
300321,1529,2145,1786,2437
4211201,2509,1388,2775,1803
300121,2027,1513,2461,1918
4548180,1853,1649,2055,1841
6225539,2094,1134,2511,1606
6028324,2439,1253,2578,1439
6244886,1340,494,1612,744
