https://surfdrive.surf.nl/files/index.php/s/B7PEqFZSZZBPcW8/download?path=%2FData%2FInput%2FDatasets%2FBerend%2FImages&files=B_100.jpg,4608,3072
B_100,daylight,wood,"[130, 130, 130]","['6022064', '4211221']"
4211221,1707,1057,1965,1521
6022064,2531,2009,3076,2501
