https://surfdrive.surf.nl/files/index.php/s/B7PEqFZSZZBPcW8/download?path=%2FData%2FInput%2FDatasets%2FBerend%2FImages&files=B_1054.jpg,4608,3072
B_1054,daylight,dirty_rug,"[120, 120, 120]","['4109995', '300123', '623224', '4520632', '6025026', '4504369', '4157124', '4211511', '4621545', '365901', '4639693', '4143562', '4529240']"
4109995,956,306,1201,483
300123,2090,863,2548,1095
623224,3842,1593,4161,1912
4520632,1637,998,2150,1366
6025026,2088,1825,2352,2010
4504369,536,1402,683,1560
4157124,2431,2061,2602,2288
4211511,2211,1216,2381,1374
4621545,1179,596,1404,840
365901,1512,981,1670,1405
4639693,2674,777,3508,1467
4143562,1757,1408,2035,1665
4529240,1341,1122,1473,1283
