https://surfdrive.surf.nl/files/index.php/s/B7PEqFZSZZBPcW8/download?path=%2FData%2FInput%2FDatasets%2FBerend%2FImages&files=B_1023.jpg,4607,3072
B_1023,daylight,dirty_rug,"[120, 120, 120]","['4211201', '4211412', '4639693', '4153827', '4160403', '4539099', '300821', '300121', '4121967', '4181134']"
4211201,2497,1409,2589,1649
4211412,1847,857,1921,930
4639693,2222,696,2734,861
4153827,2154,1542,2296,1902
4160403,1697,1650,2128,1727
4539099,1699,1088,1771,1165
300821,2334,1485,2645,1975
300121,1634,1921,1950,2156
4121967,2411,1277,2490,1382
4181134,1845,1760,2107,1872
