https://surfdrive.surf.nl/files/index.php/s/B7PEqFZSZZBPcW8/download?path=%2FData%2FInput%2FDatasets%2FBerend%2FImages&files=B_1007.jpg,4607,3072
B_1007,daylight,dirty_rug,"[120, 120, 120]","['4504369', '4181135', '4520632', '4529247', '300321', '6075075', '6252809', '4181144', '6244886', '6004938']"
4504369,2875,2026,3010,2142
4181135,1079,1349,1376,1879
4520632,1967,1081,2334,1281
4529247,2289,1356,2366,1475
300321,1999,1468,2173,1655
6075075,2992,1732,3198,1852
6252809,1900,414,2613,915
4181144,1422,1102,1630,1578
6244886,2382,1080,2518,1276
6004938,2576,1979,2709,2105
