https://surfdrive.surf.nl/files/index.php/s/B7PEqFZSZZBPcW8/download?path=%2FData%2FInput%2FDatasets%2FBerend%2FImages&files=B_1036.jpg,4608,3072
B_1036,daylight,dirty_rug,"[120, 120, 120]","['654126', '4504381', '4517992', '4211221', '6177697', '6022023', '4550325', '4114319', '4143562', '4655172', '4181134']"
654126,329,489,470,608
4504381,2883,1675,2981,1801
4517992,1978,1659,2208,1890
4211221,2798,1706,2926,1925
6177697,2896,1712,3147,2026
6022023,2197,967,2386,1123
4550325,3135,1696,3293,1840
4114319,2843,1948,3290,2356
4143562,3433,1069,3626,1176
4655172,2482,2118,2932,2489
4181134,3013,1859,3411,2269
