https://surfdrive.surf.nl/files/index.php/s/B7PEqFZSZZBPcW8/download?path=%2FData%2FInput%2FDatasets%2FBerend%2FImages&files=B_1144.jpg,4608,3072
B_1144,artificial_light,desk_black_wood,"[120, 120, 120]","['300121', '365901', '300421', '4211149', '300124', '6062574', '4639693', '300123', '6025026', '4651236', '6104154', '4181135', '4211437']"
300121,2222,1411,2848,1756
365901,1888,1861,2496,2273
300421,2374,257,2629,424
4211149,3719,1348,3858,1579
300124,2794,994,3066,1369
6062574,513,1019,700,1176
4639693,2693,1160,3512,1947
300123,1761,495,2266,725
6025026,3209,1778,3513,1953
4651236,1396,1464,1700,1620
6104154,1354,680,1606,823
4181135,1874,1187,2714,1493
4211437,1304,1620,1488,1876
