https://surfdrive.surf.nl/files/index.php/s/B7PEqFZSZZBPcW8/download?path=%2FData%2FInput%2FDatasets%2FBerend%2FImages&files=B_1129.jpg,4608,3072
B_1129,artificial_light,desk_black_wood,"[120, 120, 120]","['4181135', '4649749', '300424', '6249125', '6003007', '4650630', '4181134', '306223', '4114319', '4651236', '4548180']"
6249125,2907,1283,3065,1315
4181135,2163,1346,3022,1557
4649749,2733,1679,3013,1798
4548180,1804,1570,2089,1679
6003007,1756,1675,1979,1776
4650630,1581,1285,1856,1618
4651236,1765,1092,2005,1303
4114319,2032,908,2562,1088
300424,2334,1132,2522,1263
4181134,2364,624,3152,1061
306223,1186,900,1291,1009
