https://surfdrive.surf.nl/files/index.php/s/B7PEqFZSZZBPcW8/download?path=%2FData%2FInput%2FDatasets%2FBerend%2FImages&files=B_1156.jpg,4608,3072
B_1156,artificial_light,desk_black_wood,"[120, 120, 120]","['300121', '365901', '300421', '4211149', '300124', '6062574', '4639693', '300123', '6025026']"
4211149,1281,656,1448,852
300123,1587,1089,2078,1391
300121,1532,1492,2087,1870
4639693,2188,1030,3108,1338
6062574,2555,957,2709,1067
300124,2175,1309,2709,1760
300421,2672,1488,2938,1774
6025026,2940,1463,3127,1694
None,1700,7,2527,157
