https://surfdrive.surf.nl/files/index.php/s/B7PEqFZSZZBPcW8/download?path=%2FData%2FInput%2FDatasets%2FBerend%2FImages&files=B_1198.jpg,4607,3072
B_1198,artificial_light,parquet_light,"[120, 120, 120]","['4211412', '623224', '6244886', '4153827', '4211201', '300323', '6069259', '6229071', '4211149', '4143562', '4650630', '300321']"
6069259,1829,2402,2189,2655
4211412,3643,1808,3877,2023
4143562,2840,1169,3188,1542
6244886,1955,1580,2353,1997
300321,2183,1264,2347,1669
300323,1803,1226,2176,1643
6229071,1645,1131,1936,1435
4211201,1146,1138,1677,1751
4153827,710,1391,918,2048
623224,672,910,1102,1315
4211149,331,917,666,1201
4650630,748,196,1127,537
