https://surfdrive.surf.nl/files/index.php/s/B7PEqFZSZZBPcW8/download?path=%2FData%2FInput%2FDatasets%2FBerend%2FImages&files=B_1102.jpg,4608,3072
B_1102,artificial_light,parquet_dark_brown,"[120, 120, 120]","['6244886', '4211201', '4153827', '6229071', '300321', '4165967', '6225539', '4548180', '306201']"
6229071,1271,1276,1538,1595
306201,1426,1630,1647,1785
4548180,1607,1816,1932,2020
300321,1862,715,2095,1107
6225539,1637,1331,2445,1722
4211201,2202,1409,2757,1940
4153827,2373,1337,3195,2175
6244886,2660,699,2969,1025
4165967,2503,932,3080,1442
