https://surfdrive.surf.nl/files/index.php/s/B7PEqFZSZZBPcW8/download?path=%2FData%2FInput%2FDatasets%2FBerend%2FImages&files=B_1108.jpg,4607,3072
B_1108,artificial_light,parquet_dark_brown,"[120, 120, 120]","['6075075', '4160403', '6252809', '4651236', '300821', '4181144', '4655172', '4539099', '6022064', '6073026', '300323', '6104154']"
6104154,2735,413,2852,545
300323,3131,944,3300,1068
6022064,3082,1966,3243,2195
4539099,2823,1501,2876,1628
4655172,964,1079,1355,1226
4160403,1531,1423,1991,1745
6073026,2201,1560,2329,1657
6075075,2069,1692,2255,1785
300821,2030,1387,2617,1681
4181144,2084,904,2446,1315
6252809,2260,884,2935,1310
4651236,1360,754,1458,930
