https://surfdrive.surf.nl/files/index.php/s/B7PEqFZSZZBPcW8/download?path=%2FData%2FInput%2FDatasets%2FBerend%2FImages&files=B_1121.jpg,4608,3072
B_1121,artificial_light,parquet_dark_brown,"[120, 120, 120]","['6075075', '4160403', '6252809', '4651236', '300821', '4181144', '4655172', '4539099']"
6075075,1986,1993,2220,2196
4160403,1279,656,1653,1122
6252809,2766,1378,3849,1698
4651236,1431,1934,1667,2101
300821,2532,827,3272,1172
4181144,2752,1516,3435,1964
4655172,1477,1269,1841,1691
4539099,1669,1952,1779,2103
