https://surfdrive.surf.nl/files/index.php/s/B7PEqFZSZZBPcW8/download?path=%2FData%2FInput%2FDatasets%2FBerend%2FImages&files=B_1125.jpg,4607,3072
B_1125,artificial_light,desk_black_wood,"[120, 120, 120]","['4181135', '4649749', '300424', '6249125', '6003007', '4650630', '4181134', '306223', '4114319', '4651236', '4548180', '4558957']"
4548180,1549,1709,1820,1967
4558957,1664,897,1889,1450
4181135,2493,782,3310,1030
4114319,2153,920,2608,1496
300424,2217,1294,2464,1599
4650630,2044,1542,2464,1956
4649749,2516,1640,2729,1852
6003007,2527,1571,2671,1657
4651236,2619,1398,2815,1588
306223,3114,1243,3292,1335
4181134,2660,1312,3252,1962
6249125,2838,2100,3022,2232
