https://surfdrive.surf.nl/files/index.php/s/B7PEqFZSZZBPcW8/download?path=%2FData%2FInput%2FDatasets%2FBerend%2FImages&files=B_1134.jpg,4608,3072
B_1134,artificial_light,desk_black_wood,"[120, 120, 120]","['4181135', '4649749', '300424', '6249125', '6003007', '4650630', '4181134', '306223', '4114319']"
4181135,2237,1114,3120,1673
4649749,1005,1783,1264,2081
300424,2689,1528,2942,1797
6249125,1383,1540,1517,1687
6003007,3254,2052,3482,2227
4650630,2765,710,3008,1060
4181134,1960,888,2839,1336
306223,1975,1603,2189,1791
4114319,1578,1316,2157,1792
