https://surfdrive.surf.nl/files/index.php/s/B7PEqFZSZZBPcW8/download?path=%2FData%2FInput%2FDatasets%2FBerend%2FImages&files=B_1116.jpg,4608,3072
B_1116,artificial_light,parquet_dark_brown,"[120, 120, 120]","['6075075', '4160403', '6252809', '4651236', '300821', '4181144', '4655172', '4539099', '6022064']"
6075075,1741,1889,1956,1989
4160403,1845,1668,2357,2088
6252809,2337,1029,2796,1727
4651236,1751,1565,1826,1777
300821,2252,1001,2517,1571
4181144,1881,1453,2451,1892
4655172,1794,1022,2193,1345
4539099,2803,1958,2896,2107
6022064,2082,976,2365,1095
