https://surfdrive.surf.nl/files/index.php/s/B7PEqFZSZZBPcW8/download?path=%2FData%2FInput%2FDatasets%2FBerend%2FImages&files=B_117.jpg,4608,3072
B_117,daylight,wood,"[130, 130, 130]","['6022064', '4211221', '4211511', '6073026', '4550348', '6022023', '4621545', '4529240']"
6022064,1172,1568,1783,2019
4211221,1660,1809,2123,2128
4211511,1598,1312,1850,1521
6073026,1124,1380,1337,1623
4550348,1886,1312,2115,1637
6022023,2488,1460,2916,1906
4621545,2106,1219,2454,1565
4529240,3250,1088,3421,1342
