https://surfdrive.surf.nl/files/index.php/s/B7PEqFZSZZBPcW8/download?path=%2FData%2FInput%2FDatasets%2FBerend%2FImages&files=B_1149.jpg,4608,3072
B_1149,artificial_light,desk_black_wood,"[120, 120, 120]","['300121', '365901', '300421', '4211149', '300124', '6062574', '4639693', '300123', '6025026', '4651236', '6104154']"
6025026,3204,1455,3361,1679
300123,2679,1386,3178,1601
300121,3023,1048,3459,1380
4639693,2066,1145,3029,1380
365901,1774,1504,2293,1813
4211149,1817,1484,2040,1662
6062574,1688,1323,1860,1441
300124,1613,848,1954,1151
300421,1347,1369,1502,1541
4651236,1095,1631,1281,1861
6104154,845,1417,1066,1597
