https://surfdrive.surf.nl/files/index.php/s/B7PEqFZSZZBPcW8/download?path=%2FData%2FInput%2FDatasets%2FBerend%2FImages&files=B_1104.jpg,4608,3072
B_1104,artificial_light,parquet_dark_brown,"[120, 120, 120]","['6075075', '4160403', '6252809', '4651236', '300821', '4181144', '4655172', '4539099', '6022064', '6073026', '300323', '6104154', '4504381']"
4160403,2366,2169,3183,2497
4655172,2775,1427,3264,1898
4181144,2055,1220,2717,1806
6075075,1624,1703,1889,1875
4539099,974,1145,1101,1289
6104154,1670,863,1929,1036
300323,2585,754,2763,1059
6252809,2792,529,3356,1294
300821,2855,1197,3793,1668
6022064,2573,1306,2769,1645
4504381,2372,1197,2493,1312
4651236,2263,1012,2470,1174
6073026,2567,1174,2688,1289
