https://surfdrive.surf.nl/files/index.php/s/B7PEqFZSZZBPcW8/download?path=%2FData%2FInput%2FDatasets%2FBerend%2FImages&files=B_1192.jpg,4608,3072
B_1192,artificial_light,parquet_light,"[120, 120, 120]","['4517992', '4504369', '4504381', '4165967', '6138173', '300321', '4212454', '4520632', '4211614']"
4517992,2192,1715,2569,2084
4504369,947,1910,1112,2120
4504381,2815,1564,2961,1753
4165967,1908,710,2382,1204
6138173,2669,757,2936,966
300321,2779,942,2954,1322
4212454,1901,1639,2115,1770
4520632,1786,956,1968,1549
4211614,3241,1414,3502,1657
