https://surfdrive.surf.nl/files/index.php/s/B7PEqFZSZZBPcW8/download?path=%2FData%2FInput%2FDatasets%2FBerend%2FImages&files=B_1208.jpg,4608,3072
B_1208,artificial_light,parquet_light,"[120, 120, 120]","['4211412', '623224', '6244886', '4153827', '4211201', '300323', '6069259', '6229071', '4211149']"
4211201,1977,1569,2409,1801
623224,1611,1728,1900,1934
4211149,1440,2001,1590,2247
300323,2164,2332,2436,2629
4211412,2504,2605,2690,2707
6244886,2060,2203,2328,2450
6069259,2492,1911,2643,2145
4153827,2938,1698,3294,2134
6229071,2838,452,3014,608
