https://surfdrive.surf.nl/files/index.php/s/B7PEqFZSZZBPcW8/download?path=%2FData%2FInput%2FDatasets%2FBerend%2FImages&files=B_1212.jpg,4607,3072
B_1212,artificial_light,parquet_light,"[120, 120, 120]","['4157124', '4121967', '6075075', '4181144', '4655172', '4153825', '614321', '300821', '4181135', '4550325', '4153825', '6223631']"
6223631,1582,2067,1772,2206
300821,1626,1884,2587,2484
4181135,1987,1808,2752,2383
4655172,2543,1770,3118,2149
4153825,2240,1593,2587,1915
4181144,2233,1365,2973,1789
4153825,2012,1201,2265,1466
4121967,1980,455,2107,607
6075075,2998,1087,3213,1201
614321,3851,1062,4085,1308
4550325,754,1087,994,1264
4157124,1829,1643,2031,1827
