https://surfdrive.surf.nl/files/index.php/s/B7PEqFZSZZBPcW8/download?path=%2FData%2FInput%2FDatasets%2FBerend%2FImages&files=B_1209.jpg,4607,3072
B_1209,artificial_light,parquet_light,"[120, 120, 120]","['4157124', '4121967', '6075075', '4181144', '4655172', '4153825', '614321', '300821', '4181135', '4550325', '4153825', '6223631', '4153825']"
4157124,1417,1148,1624,1360
4121967,1916,1395,2094,1632
6075075,2716,866,2970,978
4181144,1257,537,2017,838
4655172,2487,982,3013,1221
4153825,1834,1014,2163,1251
4153825,1596,1507,1873,1714
4153825,2049,1738,2421,2070
614321,1655,1309,1893,1506
300821,2049,938,2448,1747
4181135,2783,1224,3391,1863
4550325,1329,1343,1620,1583
6223631,1324,1696,1484,1836
