https://surfdrive.surf.nl/files/index.php/s/B7PEqFZSZZBPcW8/download?path=%2FData%2FInput%2FDatasets%2FBerend%2FImages&files=B_1210.jpg,4608,3072
B_1210,artificial_light,parquet_light,"[120, 120, 120]","['4157124', '4121967', '6075075', '4181144', '4655172', '4153825', '614321', '300821', '4181135', '4550325', '4153825', '6223631', '4153825']"
4550325,1492,1363,1797,1651
6223631,1371,1352,1509,1484
4157124,1354,938,1434,1185
4153825,1791,1012,1963,1363
4121967,2027,1524,2199,1824
4153825,2332,1697,2706,2071
4153825,2240,1381,2539,1726
614321,2159,1260,2424,1519
300821,2309,1128,2964,1950
4181135,2619,1174,3218,1847
4655172,2660,1231,3189,1703
4181144,2533,736,3281,1283
6075075,1730,988,1828,1115
