https://surfdrive.surf.nl/files/index.php/s/B7PEqFZSZZBPcW8/download?path=%2FData%2FInput%2FDatasets%2FBerend%2FImages&files=B_120.jpg,4607,3072
B_120,daylight,wood,"[130, 130, 130]","['6022064', '4211221', '4211511', '6073026', '4550348', '6022023', '4621545', '4529240', '6238674']"
6022064,1239,1620,1519,1905
4550348,1900,1233,2176,1428
6238674,2073,1044,2228,1227
6022023,2459,1234,2753,1450
4211511,2767,1032,2980,1248
4529240,2176,1755,2389,1890
4621545,2617,1686,2848,1980
4211221,2914,1770,3304,2100
6073026,3175,1551,3364,1776
