https://surfdrive.surf.nl/files/index.php/s/B7PEqFZSZZBPcW8/download?path=%2FData%2FInput%2FDatasets%2FBerend%2FImages&files=B_1215.jpg,4607,3072
B_1215,artificial_light,parquet_light,"[120, 120, 120]","['4157124', '4121967', '6075075', '4181144', '4655172', '4153825', '614321', '300821', '4181135', '4550325', '4153825']"
4157124,2314,1319,2441,1373
4121967,1880,1656,2067,1780
6075075,2512,1412,2695,1505
4181144,2156,1368,2769,1744
4655172,2045,1689,2508,1978
4153825,1756,1253,2284,1589
4153825,2467,850,3009,1229
614321,2492,914,2647,1090
300821,2542,1276,3289,1602
4181135,1758,846,2188,1247
4550325,2805,1530,3016,1702
