https://surfdrive.surf.nl/files/index.php/s/B7PEqFZSZZBPcW8/download?path=%2FData%2FInput%2FDatasets%2FBerend%2FImages&files=B_1218.jpg,4608,3072
B_1218,artificial_light,parquet_light,"[120, 120, 120]","['4157124', '4121967', '6075075', '4181144', '4655172', '4153825', '614321', '300821', '4181135', '4550325']"
4181135,2034,433,2554,728
4157124,1819,545,1962,712
4121967,1885,760,2053,912
4550325,2214,1079,2413,1249
4655172,2424,845,2627,1202
300821,1992,1229,2681,1711
6075075,1685,1279,1774,1436
614321,2420,1920,2588,2066
4153825,2601,2270,2765,2555
4181144,1556,775,1746,1246
