https://surfdrive.surf.nl/files/index.php/s/B7PEqFZSZZBPcW8/download?path=%2FData%2FInput%2FDatasets%2FBerend%2FImages&files=B_133.jpg,4608,3072
B_133,daylight,wood,"[130, 130, 130]",['6062574']
6062574,2510,1398,2756,1660
