https://surfdrive.surf.nl/files/index.php/s/B7PEqFZSZZBPcW8/download?path=%2FData%2FInput%2FDatasets%2FBerend%2FImages&files=B_147.jpg,4607,3072
B_147,daylight,wood,"[130, 130, 130]","['300421', '6138173', '4114319', '4211221']"
300421,1383,396,1649,601
6138173,2645,1021,2913,1251
4114319,2524,2360,3212,2855
4211221,2088,1150,2444,1414
