https://surfdrive.surf.nl/files/index.php/s/B7PEqFZSZZBPcW8/download?path=%2FData%2FInput%2FDatasets%2FBerend%2FImages&files=B_156.jpg,4607,3072
B_156,daylight,wood,"[130, 130, 130]","['300421', '6138173', '4114319', '4211221', '6004938', '4211166', '6069259']"
4211166,1612,1562,1788,1756
6138173,1616,1417,1823,1589
6069259,1770,1347,1955,1527
4114319,1973,1276,2316,1540
6004938,2263,1549,2404,1690
300421,2859,1571,2995,1730
4211221,1805,1811,1970,1998
