https://surfdrive.surf.nl/files/index.php/s/B7PEqFZSZZBPcW8/download?path=%2FData%2FInput%2FDatasets%2FBerend%2FImages&files=B_20.jpg,4608,3072
B_20,daylight,wood,"[130, 130, 130]","['4650630', '6252809', '4211054', '4548180', '4649749', '300401', '6075075']"
4650630,1294,1179,1652,1362
6252809,958,1231,2313,1810
4211054,2397,1627,2742,1971
4548180,2660,769,2890,961
4649749,1464,1675,1765,1854
300401,2847,1676,3089,1915
6075075,2845,1786,3124,2033
