https://surfdrive.surf.nl/files/index.php/s/B7PEqFZSZZBPcW8/download?path=%2FData%2FInput%2FDatasets%2FBerend%2FImages&files=B_221.jpg,4608,3072
B_221,daylight,wood,"[130, 130, 130]","['4109995', '4651236', '6177697']"
4651236,3355,1021,3843,1501
4109995,2254,1505,2580,1796
6177697,3145,460,3394,693
