https://surfdrive.surf.nl/files/index.php/s/B7PEqFZSZZBPcW8/download?path=%2FData%2FInput%2FDatasets%2FBerend%2FImages&files=B_226.jpg,4608,3072
B_226,daylight,wood,"[130, 130, 130]","['6138173', '4210718']"
4210718,2555,1236,2997,1695
6138173,1554,1011,1825,1191
