https://surfdrive.surf.nl/files/index.php/s/B7PEqFZSZZBPcW8/download?path=%2FData%2FInput%2FDatasets%2FBerend%2FImages&files=B_257.jpg,4608,3072
B_257,daylight,wood,"[130, 130, 130]","['6025026', '6223631', '4211166', '4567338']"
6025026,2751,2252,2946,2511
6223631,2921,2493,3053,2627
4211166,2312,2101,2538,2368
4567338,2692,1873,2866,1978
