https://surfdrive.surf.nl/files/index.php/s/B7PEqFZSZZBPcW8/download?path=%2FData%2FInput%2FDatasets%2FBerend%2FImages&files=B_262.jpg,4608,3072
B_262,daylight,wood,"[130, 130, 130]","['6025026', '6223631', '4211166', '4567338', '4211054', '6249125']"
4567338,969,1296,1140,1397
6223631,1905,1574,2025,1656
4211054,2094,1511,2322,1738
6025026,2341,1694,2594,1877
4211166,2410,1896,2638,2136
6249125,1911,1846,2063,1966
