https://surfdrive.surf.nl/files/index.php/s/B7PEqFZSZZBPcW8/download?path=%2FData%2FInput%2FDatasets%2FBerend%2FImages&files=B_287.jpg,4608,3072
B_287,daylight,wood,"[130, 130, 130]","['4211614', '4121739', '300423', '300323', '6104154', '4211437']"
4211614,1810,1591,1940,1766
4121739,2340,1483,2495,1659
300423,2175,1711,2374,1868
300323,2097,1862,2285,2062
6104154,2159,895,2309,1005
4211437,1876,1110,2051,1253
