https://surfdrive.surf.nl/files/index.php/s/B7PEqFZSZZBPcW8/download?path=%2FData%2FInput%2FDatasets%2FBerend%2FImages&files=B_280.jpg,4608,3072
B_280,daylight,wood,"[130, 130, 130]","['4211614', '4121739', '300423', '300323']"
4121739,1104,1394,1301,1562
300423,1989,1796,2108,1993
4211614,2149,1820,2334,2009
300323,2428,1751,2666,2005
