https://surfdrive.surf.nl/files/index.php/s/B7PEqFZSZZBPcW8/download?path=%2FData%2FInput%2FDatasets%2FBerend%2FImages&files=B_294.jpg,4608,3072
B_294,daylight,wood,"[130, 130, 130]","['4211614', '4121739', '300423', '300323', '6104154', '4211437', '6069259', '4211614', '306223']"
4211614,2504,1436,2676,1541
4211614,2417,1564,2566,1702
4121739,2123,1396,2268,1483
300423,1973,1626,2145,1782
300323,2284,1614,2477,1784
6104154,1816,1267,1965,1419
4211437,2154,1574,2324,1742
6069259,1885,1593,2054,1695
306223,2696,1603,2804,1689
