https://surfdrive.surf.nl/files/index.php/s/B7PEqFZSZZBPcW8/download?path=%2FData%2FInput%2FDatasets%2FBerend%2FImages&files=B_293.jpg,4607,3072
B_293,daylight,wood,"[130, 130, 130]","['4211614', '4121739', '300423', '300323', '6104154', '4211437', '6069259', '4211614']"
4211614,2401,2012,2558,2131
4211614,2031,1676,2156,1799
4121739,1187,1061,1320,1192
300423,1912,1512,2042,1608
300323,2212,1449,2356,1602
6104154,1853,1142,1988,1282
4211437,2753,1933,2852,2089
6069259,2404,1154,2537,1238
