https://surfdrive.surf.nl/files/index.php/s/B7PEqFZSZZBPcW8/download?path=%2FData%2FInput%2FDatasets%2FBerend%2FImages&files=B_3.jpg,4608,3072
B_3,daylight,wood,"[130, 130, 130]","['4650630', '6252809']"
4650630,1990,795,2297,1079
6252809,1579,1598,2992,2363
