https://surfdrive.surf.nl/files/index.php/s/B7PEqFZSZZBPcW8/download?path=%2FData%2FInput%2FDatasets%2FBerend%2FImages&files=B_304.jpg,4608,3072
B_304,daylight,wood,"[130, 130, 130]",['4211412']
4211412,2072,1434,2245,1575
