https://surfdrive.surf.nl/files/index.php/s/B7PEqFZSZZBPcW8/download?path=%2FData%2FInput%2FDatasets%2FBerend%2FImages&files=B_341.jpg,4607,3072
B_341,daylight,wood,"[130, 130, 130]","['6003007', '4153827', '4621545', '6073026', '300401', '6074890', '4550325', '4118793', '4504369']"
6003007,2013,994,2145,1094
4153827,1762,1409,1963,1763
4621545,1998,1384,2182,1589
6073026,1903,1226,2040,1361
300401,1992,1753,2219,1873
6074890,2394,953,2527,1038
4550325,1816,1849,2050,2010
4118793,1763,1315,1909,1398
4504369,1821,1775,1958,1852
