https://surfdrive.surf.nl/files/index.php/s/B7PEqFZSZZBPcW8/download?path=%2FData%2FInput%2FDatasets%2FBerend%2FImages&files=B_389.jpg,4608,3072
B_389,daylight,wood,"[130, 130, 130]","['4181144', '6238674', '6025026', '6074890', '4647553']"
4181144,1066,1272,1685,1934
6238674,1205,1100,1393,1262
6025026,2492,2347,2764,2583
6074890,1640,1502,1821,1665
4647553,2074,1925,2387,2210
