https://surfdrive.surf.nl/files/index.php/s/B7PEqFZSZZBPcW8/download?path=%2FData%2FInput%2FDatasets%2FBerend%2FImages&files=B_403.jpg,4608,3072
B_403,daylight,wood,"[130, 130, 130]","['4548180', '4651236', '4529240']"
4548180,1480,1402,1843,1704
4651236,1427,458,1814,772
4529240,2611,2561,2790,2841
