https://surfdrive.surf.nl/files/index.php/s/B7PEqFZSZZBPcW8/download?path=%2FData%2FInput%2FDatasets%2FBerend%2FImages&files=B_437.jpg,4608,3072
B_437,daylight,wood,"[130, 130, 130]","['306201', '4153825', '4647553', '306223', '6151663']"
306223,1370,1246,1563,1418
306201,1653,1652,1957,1890
4153825,2059,1381,2256,1484
6151663,2014,1213,2162,1357
4647553,3018,1636,3174,1783
