https://surfdrive.surf.nl/files/index.php/s/B7PEqFZSZZBPcW8/download?path=%2FData%2FInput%2FDatasets%2FBerend%2FImages&files=B_438.jpg,4608,3072
B_438,daylight,wood,"[130, 130, 130]","['306201', '4153825', '4647553', '306223', '6151663', '6004938']"
306201,968,1670,1110,1794
4153825,2800,1171,2963,1455
4647553,2667,1125,2786,1323
306223,2228,1251,2358,1327
6151663,2360,1595,2454,1798
6004938,3012,1248,3137,1410
