https://surfdrive.surf.nl/files/index.php/s/B7PEqFZSZZBPcW8/download?path=%2FData%2FInput%2FDatasets%2FBerend%2FImages&files=B_45.jpg,4608,3072
B_45,daylight,wood,"[130, 130, 130]",['6075079']
6075079,2038,1490,2342,1632
