https://surfdrive.surf.nl/files/index.php/s/B7PEqFZSZZBPcW8/download?path=%2FData%2FInput%2FDatasets%2FBerend%2FImages&files=B_467.jpg,4608,3072
B_467,daylight,wood,"[130, 130, 130]","['6075079', '4211201']"
4211201,1532,939,2330,1404
6075079,1654,1381,1961,1665
