https://surfdrive.surf.nl/files/index.php/s/B7PEqFZSZZBPcW8/download?path=%2FData%2FInput%2FDatasets%2FBerend%2FImages&files=B_46.jpg,4608,3072
B_46,daylight,wood,"[130, 130, 130]",['6075079']
6075079,2176,1364,2467,1537
