https://surfdrive.surf.nl/files/index.php/s/B7PEqFZSZZBPcW8/download?path=%2FData%2FInput%2FDatasets%2FBerend%2FImages&files=B_517.jpg,4608,3072
B_517,daylight,wood,"[130, 130, 130]","['300421', '4157124']"
300421,1970,1201,2211,1426
4157124,2388,1482,2604,1672
