https://surfdrive.surf.nl/files/index.php/s/B7PEqFZSZZBPcW8/download?path=%2FData%2FInput%2FDatasets%2FBerend%2FImages&files=B_510.jpg,4608,3072
B_510,daylight,wood,"[130, 130, 130]","['6075075', '4649749', '300323', '4211149', '4621545', '300424', '6244886', '300124', '300424']"
6075075,1652,1688,1853,1961
4649749,2883,1817,3049,2083
300323,1835,1154,2085,1308
4211149,2136,1289,2408,1540
4621545,1220,1271,1473,1490
300424,2466,1327,2718,1606
300424,2699,1552,2850,1825
6244886,2240,1524,2548,1844
300124,1859,1320,2128,1794
