https://surfdrive.surf.nl/files/index.php/s/B7PEqFZSZZBPcW8/download?path=%2FData%2FInput%2FDatasets%2FBerend%2FImages&files=B_541.jpg,4608,3072
B_541,daylight,wood,"[130, 130, 130]","['4212454', '6028324', '4550325', '4655172']"
4212454,1546,1808,1696,1951
4655172,2109,1316,2348,1668
4550325,2233,1085,2447,1232
6028324,2763,1673,2941,1834
