https://surfdrive.surf.nl/files/index.php/s/B7PEqFZSZZBPcW8/download?path=%2FData%2FInput%2FDatasets%2FBerend%2FImages&files=B_567.jpg,3072,4608
B_567,daylight,wood,"[130, 130, 130]","['4550325', '6229071', '4639693', '6004938', '6069259', '6074890']"
6069259,1143,2026,1302,2345
6074890,996,2724,1177,2905
6004938,1363,1970,1509,2138
4550325,1539,1651,1772,1862
6229071,1733,2233,1962,2470
4639693,1569,1871,2578,2250
