https://surfdrive.surf.nl/files/index.php/s/B7PEqFZSZZBPcW8/download?path=%2FData%2FInput%2FDatasets%2FBerend%2FImages&files=B_568.jpg,4608,3072
B_568,daylight,wood,"[130, 130, 130]","['4550325', '6229071', '4639693', '6004938', '6069259', '6074890']"
4550325,2689,1517,2923,1758
6229071,2644,1791,2917,2056
4639693,1826,1317,2319,2402
6004938,1345,523,1556,739
6069259,2340,1809,2623,2030
6074890,2463,1346,2636,1539
