https://surfdrive.surf.nl/files/index.php/s/B7PEqFZSZZBPcW8/download?path=%2FData%2FInput%2FDatasets%2FBerend%2FImages&files=B_571.jpg,4607,3072
B_571,daylight,wood,"[130, 130, 130]","['4550325', '6229071', '4639693', '6004938', '6069259', '6074890', '4211412']"
4639693,2887,517,3440,1580
6229071,2231,739,2474,1064
4550325,3636,1523,3930,1848
6074890,1434,1331,1567,1519
4211412,1868,1731,2028,1947
6004938,1352,1917,1573,2153
6069259,872,2266,1191,2506
