https://surfdrive.surf.nl/files/index.php/s/B7PEqFZSZZBPcW8/download?path=%2FData%2FInput%2FDatasets%2FBerend%2FImages&files=B_577.jpg,4607,3072
B_577,daylight,wood,"[130, 130, 130]","['300401', '654126']"
300401,2560,890,2931,1265
654126,1886,1520,2136,1806
