https://surfdrive.surf.nl/files/index.php/s/B7PEqFZSZZBPcW8/download?path=%2FData%2FInput%2FDatasets%2FBerend%2FImages&files=B_587.jpg,4607,3072
B_587,daylight,wood,"[130, 130, 130]","['300401', '654126', '4211149', '300423', '4504381']"
654126,2290,2317,2549,2545
300401,1643,1769,1977,1932
4211149,2034,1394,2397,1728
300423,2087,1019,2344,1321
4504381,1966,404,2161,518
