https://surfdrive.surf.nl/files/index.php/s/B7PEqFZSZZBPcW8/download?path=%2FData%2FInput%2FDatasets%2FBerend%2FImages&files=B_598.jpg,4608,3072
B_598,daylight,wood,"[130, 130, 130]","['6238674', '300323']"
300323,2349,1707,2745,2128
6238674,1832,1056,2000,1207
