https://surfdrive.surf.nl/files/index.php/s/B7PEqFZSZZBPcW8/download?path=%2FData%2FInput%2FDatasets%2FBerend%2FImages&files=B_602.jpg,4607,3072
B_602,daylight,wood,"[130, 130, 130]","['6238674', '300323', '4153825']"
300323,1455,1888,1772,2212
4153825,2457,1589,2771,1935
6238674,2178,1049,2400,1207
