https://surfdrive.surf.nl/files/index.php/s/B7PEqFZSZZBPcW8/download?path=%2FData%2FInput%2FDatasets%2FBerend%2FImages&files=B_615.jpg,4608,3072
B_615,daylight,wood,"[130, 130, 130]","['6238674', '300323', '4153825', '4211054', '6062574', '623224', '6249125', '6223631']"
6238674,2076,399,2245,551
300323,2593,1754,2918,2115
4153825,2049,1165,2335,1488
4211054,2342,2227,2721,2517
6062574,2643,1603,2886,1747
623224,3044,2250,3430,2631
6249125,1166,2524,1303,2715
6223631,3230,1140,3339,1310
