https://surfdrive.surf.nl/files/index.php/s/B7PEqFZSZZBPcW8/download?path=%2FData%2FInput%2FDatasets%2FBerend%2FImages&files=B_612.jpg,4607,3072
B_612,daylight,wood,"[130, 130, 130]","['6238674', '300323', '4153825', '4211054', '6062574', '623224', '6249125']"
300323,969,2258,1330,2627
4211054,2338,1637,2809,2020
6238674,2422,1325,2668,1562
6249125,3042,1298,3281,1485
4153825,2771,1556,3185,1989
6062574,1832,463,2048,684
623224,1706,1188,2095,1670
