https://surfdrive.surf.nl/files/index.php/s/B7PEqFZSZZBPcW8/download?path=%2FData%2FInput%2FDatasets%2FBerend%2FImages&files=B_622.jpg,4608,3072
B_622,daylight,wood,"[130, 130, 130]","['6238674', '300323', '4153825', '4211054', '6062574', '623224', '6249125', '6223631', '4647553', '306223']"
6238674,3346,1053,3555,1213
6062574,2912,672,3109,832
300323,2461,594,2682,865
4647553,2285,918,2449,1131
4153825,1887,1234,2121,1451
4211054,1821,1660,2010,1837
6223631,1440,393,1551,491
306223,1707,2665,2051,2874
623224,2703,1562,3047,1828
6249125,2957,1111,3154,1299
