https://surfdrive.surf.nl/files/index.php/s/B7PEqFZSZZBPcW8/download?path=%2FData%2FInput%2FDatasets%2FBerend%2FImages&files=B_648.jpg,4607,3072
B_648,daylight,wood,"[130, 130, 130]","['4118793', '4114319', '4558957', '4539099', '6104154', '4109995', '4558957', '4529240', '4157124']"
4114319,3000,1720,3421,2316
6104154,2386,2276,2710,2586
4118793,2642,2202,2849,2420
4157124,2430,2099,2713,2338
4558957,1935,1718,2290,2279
4539099,1512,2033,1622,2228
4109995,2404,1428,2687,1762
4558957,2374,381,2732,925
4529240,922,1175,1079,1309
