https://surfdrive.surf.nl/files/index.php/s/B7PEqFZSZZBPcW8/download?path=%2FData%2FInput%2FDatasets%2FBerend%2FImages&files=B_649.jpg,4608,3072
B_649,daylight,wood,"[130, 130, 130]","['4118793', '4114319', '4558957', '4539099', '6104154', '4109995', '4558957', '4529240', '4157124']"
4118793,899,1217,1045,1322
4114319,1593,1141,2060,1429
4558957,1136,1119,1520,1463
4558957,1734,806,2073,1021
4539099,1427,2342,1579,2432
6104154,1492,1510,1738,1678
4109995,1270,616,1433,773
4529240,3554,1838,3712,1976
4157124,2132,580,2303,737
