https://surfdrive.surf.nl/files/index.php/s/B7PEqFZSZZBPcW8/download?path=%2FData%2FInput%2FDatasets%2FBerend%2FImages&files=B_644.jpg,4608,3072
B_644,daylight,wood,"[130, 130, 130]","['4118793', '4114319', '4558957', '4539099', '6104154', '4109995', '4558957']"
4118793,1841,882,1988,1028
4114319,1915,1328,2136,1808
4558957,2091,1697,2544,2116
4558957,2199,1232,2591,1624
4539099,2211,1114,2360,1239
6104154,2585,1585,2736,1830
4109995,1934,1165,2156,1347
