https://surfdrive.surf.nl/files/index.php/s/B7PEqFZSZZBPcW8/download?path=%2FData%2FInput%2FDatasets%2FBerend%2FImages&files=B_711.jpg,4607,3072
B_711,daylight,wood,"[130, 130, 130]",['4504381']
4504381,2418,1229,2650,1509
