https://surfdrive.surf.nl/files/index.php/s/B7PEqFZSZZBPcW8/download?path=%2FData%2FInput%2FDatasets%2FBerend%2FImages&files=B_717.jpg,4608,3072
B_717,daylight,wood,"[130, 130, 130]","['306201', '4527943']"
306201,1234,1644,1349,1791
4527943,2239,1419,2437,1613
