https://surfdrive.surf.nl/files/index.php/s/B7PEqFZSZZBPcW8/download?path=%2FData%2FInput%2FDatasets%2FBerend%2FImages&files=B_745.jpg,4608,3072
B_745,daylight,wood,"[130, 130, 130]",['6074890']
6074890,2199,1457,2312,1615
