https://surfdrive.surf.nl/files/index.php/s/B7PEqFZSZZBPcW8/download?path=%2FData%2FInput%2FDatasets%2FBerend%2FImages&files=B_74.jpg,4608,3072
B_74,daylight,wood,"[130, 130, 130]","['300121', '4211412', '4550325']"
300121,908,1462,1462,1850
4211412,3034,980,3148,1140
4550325,2004,1551,2203,1776
