https://surfdrive.surf.nl/files/index.php/s/B7PEqFZSZZBPcW8/download?path=%2FData%2FInput%2FDatasets%2FBerend%2FImages&files=B_755.jpg,4608,3072
B_755,daylight,wood,"[130, 130, 130]","['6035291', '4118793', '4109995']"
6035291,2371,1670,2604,2008
4118793,2235,962,2499,1214
4109995,1727,1397,2138,1835
