https://surfdrive.surf.nl/files/index.php/s/B7PEqFZSZZBPcW8/download?path=%2FData%2FInput%2FDatasets%2FBerend%2FImages&files=B_76.jpg,4607,3072
B_76,daylight,wood,"[130, 130, 130]",['4211149']
4211149,2027,1261,2564,1790
