https://surfdrive.surf.nl/files/index.php/s/B7PEqFZSZZBPcW8/download?path=%2FData%2FInput%2FDatasets%2FBerend%2FImages&files=B_771.jpg,4608,3072
B_771,daylight,wood,"[130, 130, 130]","['4181135', '6069259', '6003007']"
4181135,1961,448,2708,1209
6069259,1185,1120,1493,1344
6003007,2500,2314,2677,2528
