https://surfdrive.surf.nl/files/index.php/s/B7PEqFZSZZBPcW8/download?path=%2FData%2FInput%2FDatasets%2FBerend%2FImages&files=B_791.jpg,4608,3072
B_791,daylight,wood,"[130, 130, 130]","['4181135', '6069259', '6003007', '4650630', '4504369', '4527943', '6062574', '4211166', '4211437']"
4181135,2073,842,2384,1504
6069259,2434,1668,2755,1846
6003007,2361,773,2532,938
4650630,1789,1052,2085,1329
4504369,2554,1218,2746,1363
4527943,1819,709,2037,933
6062574,1704,927,1856,1110
4211166,2418,1424,2686,1650
4211437,2442,1059,2627,1250
