https://surfdrive.surf.nl/files/index.php/s/B7PEqFZSZZBPcW8/download?path=%2FData%2FInput%2FDatasets%2FBerend%2FImages&files=B_808.jpg,4607,3072
B_808,daylight,wood,"[130, 130, 130]","['614321', '4550348']"
4550348,1911,1275,2198,1476
614321,2275,1353,2494,1679
