https://surfdrive.surf.nl/files/index.php/s/B7PEqFZSZZBPcW8/download?path=%2FData%2FInput%2FDatasets%2FBerend%2FImages&files=B_804.jpg,4608,3072
B_804,daylight,wood,"[130, 130, 130]",['614321']
614321,2168,1249,2521,1631
