https://surfdrive.surf.nl/files/index.php/s/B7PEqFZSZZBPcW8/download?path=%2FData%2FInput%2FDatasets%2FBerend%2FImages&files=B_814.jpg,4608,3072
B_814,daylight,wood,"[130, 130, 130]","['614321', '4550348', '6104154', '4109995']"
4109995,2163,1368,2423,1513
4550348,1922,1490,2178,1634
6104154,2544,1444,2791,1644
614321,2120,1077,2344,1196
