https://surfdrive.surf.nl/files/index.php/s/B7PEqFZSZZBPcW8/download?path=%2FData%2FInput%2FDatasets%2FBerend%2FImages&files=B_816.jpg,4608,3072
B_816,daylight,wood,"[130, 130, 130]","['614321', '4550348', '6104154', '4109995', '6003007']"
614321,1416,1439,1739,1739
4550348,2095,676,2375,953
6104154,2311,956,2534,1320
4109995,1862,677,2085,1041
6003007,1973,1085,2175,1301
