https://surfdrive.surf.nl/files/index.php/s/B7PEqFZSZZBPcW8/download?path=%2FData%2FInput%2FDatasets%2FBerend%2FImages&files=B_825.jpg,4608,3072
B_825,daylight,parquet_dark_brown,"[120, 120, 120]","['6225539', '4181134', '4655172', '623224', '4143562', '6028324', '6244886', '4165967', '4655172', '4567338', '300401']"
6225539,2173,1715,2734,2015
4181134,2549,1051,2755,1478
4655172,2072,1329,2470,1541
4655172,2156,1533,2502,1836
623224,1645,1329,1820,1564
4143562,2779,1543,3006,1720
6028324,1801,1861,1962,2017
6244886,2803,1356,3027,1571
4165967,1865,1482,2138,1814
4567338,2077,1828,2193,1995
300401,1445,1268,1585,1443
