https://surfdrive.surf.nl/files/index.php/s/B7PEqFZSZZBPcW8/download?path=%2FData%2FInput%2FDatasets%2FBerend%2FImages&files=B_837.jpg,4608,3072
B_837,daylight,parquet_dark_brown,"[120, 120, 120]","['6225539', '4181134', '4655172', '623224', '4143562', '6028324', '6244886']"
6225539,1940,1169,2357,1516
4181134,2742,1204,2841,1673
4655172,1847,1541,2211,1845
623224,2450,1041,2662,1223
4143562,2411,1607,2560,1827
6028324,1532,1971,1696,2124
6244886,2183,1340,2433,1547
