https://surfdrive.surf.nl/files/index.php/s/B7PEqFZSZZBPcW8/download?path=%2FData%2FInput%2FDatasets%2FBerend%2FImages&files=B_84.jpg,4608,3072
B_84,daylight,wood,"[130, 130, 130]",['300124']
300124,1855,1377,2575,1857
