https://surfdrive.surf.nl/files/index.php/s/B7PEqFZSZZBPcW8/download?path=%2FData%2FInput%2FDatasets%2FBerend%2FImages&files=B_843.jpg,4608,3072
B_843,daylight,parquet_dark_brown,"[120, 120, 120]","['6225539', '4181134', '4520632', '4639693', '300321', '6177697', '654126', '4153827', '4121739', '4550325', '6223631', '4153825']"
6225539,2051,1645,2669,1859
4181134,2610,1680,3025,2206
4520632,2049,1141,2272,1484
4639693,2584,954,3281,1436
300321,1338,1388,1599,1627
6177697,2223,1413,2570,1632
654126,2906,1036,3019,1114
4153827,2364,1513,2775,1779
4121739,2188,1846,2369,2075
4550325,3025,1578,3233,1755
6223631,857,1416,979,1514
4153825,1786,1096,2016,1323
