https://surfdrive.surf.nl/files/index.php/s/B7PEqFZSZZBPcW8/download?path=%2FData%2FInput%2FDatasets%2FBerend%2FImages&files=B_852.jpg,4608,3072
B_852,daylight,parquet_dark_brown,"[120, 120, 120]","['6225539', '4181134', '4520632', '4639693', '300321', '6177697', '654126', '4153827', '4121739']"
6225539,2696,1549,3073,1933
4181134,2044,1203,2475,1581
4520632,2396,1515,2652,1827
4639693,2993,1415,3284,1965
300321,2306,1983,2495,2171
6177697,2828,1384,3094,1610
654126,2114,273,2212,352
4153827,2637,1317,2964,1614
4121739,466,2578,713,2807
