https://surfdrive.surf.nl/files/index.php/s/B7PEqFZSZZBPcW8/download?path=%2FData%2FInput%2FDatasets%2FBerend%2FImages&files=B_855.jpg,4608,3072
B_855,daylight,parquet_dark_brown,"[120, 120, 120]","['6225539', '4181134', '4520632', '4639693', '300321', '6177697', '654126', '4153827']"
6225539,1377,1545,1986,1724
4181134,1736,946,2191,1395
4520632,2395,1176,2730,1529
4639693,2000,922,2518,1513
300321,2328,813,2529,1005
6177697,2340,1017,2618,1203
654126,1586,1023,1712,1135
4153827,1948,808,2317,1048
