https://surfdrive.surf.nl/files/index.php/s/B7PEqFZSZZBPcW8/download?path=%2FData%2FInput%2FDatasets%2FBerend%2FImages&files=B_867.jpg,4608,3072
B_867,daylight,parquet_dark_brown,"[120, 120, 120]","['4517992', '300121', '6022023', '300821', '300123', '6028324', '4143562', '6244886', '6022064', '4655172', '4118793']"
4517992,1239,1543,1493,1772
300121,1655,1463,2056,1728
6022023,1918,1428,2140,1530
300821,1395,927,1957,1336
300123,1780,1111,2134,1307
6028324,2521,1414,2672,1563
4143562,2391,1512,2559,1748
6244886,2175,1564,2377,1720
6022064,1990,1653,2283,1827
4655172,2104,1398,2503,1628
4118793,2316,1745,2431,1847
