https://surfdrive.surf.nl/files/index.php/s/B7PEqFZSZZBPcW8/download?path=%2FData%2FInput%2FDatasets%2FBerend%2FImages&files=B_868.jpg,4608,3072
B_868,daylight,parquet_dark_brown,"[120, 120, 120]","['4517992', '300121', '6022023', '300821', '300123', '6028324', '4143562', '6244886', '6022064', '4655172', '4118793']"
6022023,1062,1259,1244,1395
6022064,2201,1667,2428,1793
6244886,2442,1637,2616,1774
300121,1746,1655,2126,1837
300123,2001,1481,2355,1620
4118793,2361,1402,2454,1519
6028324,2563,1432,2679,1560
4143562,2698,1201,2822,1431
4655172,2051,1150,2398,1413
300821,1544,1245,2238,1429
4517992,1074,1453,1310,1677
