https://surfdrive.surf.nl/files/index.php/s/B7PEqFZSZZBPcW8/download?path=%2FData%2FInput%2FDatasets%2FBerend%2FImages&files=B_864.jpg,4608,3072
B_864,daylight,parquet_dark_brown,"[120, 120, 120]","['4517992', '300121', '6022023', '300821', '300123', '6028324', '4143562', '6244886', '6022064', '4655172', '4118793', '306223']"
4143562,837,1226,1046,1419
306223,2912,1683,3050,1831
6022064,1904,1496,2181,1681
300121,1607,1169,1829,1558
6244886,1893,1182,2139,1413
4655172,1785,1175,2170,1468
300123,1990,1056,2329,1402
300821,1906,937,2555,1303
6022023,1722,887,1929,1055
4118793,1556,842,1683,989
4517992,1334,974,1547,1209
6028324,1230,947,1396,1102
