https://surfdrive.surf.nl/files/index.php/s/B7PEqFZSZZBPcW8/download?path=%2FData%2FInput%2FDatasets%2FBerend%2FImages&files=B_876.jpg,4607,3072
B_876,daylight,parquet_dark_brown,"[120, 120, 120]","['4517992', '300121', '6022023', '300821', '300123', '6028324', '4143562', '6244886']"
4517992,2101,1405,2276,1635
300121,1313,1407,1643,1711
6022023,1366,1653,1580,1850
300821,1474,1297,2080,1684
300123,1607,1698,1996,1940
6028324,2772,522,2915,641
4143562,2004,769,2188,886
6244886,2000,1151,2202,1342
