https://surfdrive.surf.nl/files/index.php/s/B7PEqFZSZZBPcW8/download?path=%2FData%2FInput%2FDatasets%2FBerend%2FImages&files=B_87.jpg,4608,3072
B_87,daylight,wood,"[130, 130, 130]",['4651236']
4651236,2210,1289,2468,1699
