https://surfdrive.surf.nl/files/index.php/s/B7PEqFZSZZBPcW8/download?path=%2FData%2FInput%2FDatasets%2FBerend%2FImages&files=B_899.jpg,4608,3072
B_899,daylight,parquet_dark_brown,"[120, 120, 120]","['4165967', '623224', '6075075', '6225539', '4504369', '6252809', '4181135', '4211511', '4181134']"
4165967,1584,1308,1886,1468
623224,2974,1132,3129,1294
6075075,1647,948,1708,1032
6225539,1926,1215,2094,1570
4504369,1584,1222,1696,1308
6252809,2000,976,2554,1238
4181135,1973,1678,2147,2094
4211511,2439,1657,2543,1757
4181134,2195,1120,2489,1422
