https://surfdrive.surf.nl/files/index.php/s/B7PEqFZSZZBPcW8/download?path=%2FData%2FInput%2FDatasets%2FBerend%2FImages&files=B_91.jpg,4608,3072
B_91,daylight,wood,"[130, 130, 130]","['4651236', '6028324']"
4651236,1926,1102,2155,1308
6028324,2465,1595,2705,1870
