https://surfdrive.surf.nl/files/index.php/s/B7PEqFZSZZBPcW8/download?path=%2FData%2FInput%2FDatasets%2FBerend%2FImages&files=B_915.jpg,4608,3072
B_915,daylight,parquet_light,"[120, 120, 120]","['6138173', '4520632', '6229071', '6177697', '300321', '4529247', '4639693', '4181144', '4211166', '4109995', '6177697']"
6138173,1249,1149,1432,1308
4520632,2414,1596,2802,1871
6229071,2422,1820,2606,1942
6177697,2008,1442,2354,1697
6177697,3058,1724,3419,1828
300321,961,1187,1194,1382
4529247,2678,1610,2729,1668
4639693,1456,824,2054,1195
4181144,2699,1153,3169,1357
4211166,2192,1258,2354,1379
4109995,2113,1134,2292,1254
