https://surfdrive.surf.nl/files/index.php/s/B7PEqFZSZZBPcW8/download?path=%2FData%2FInput%2FDatasets%2FBerend%2FImages&files=B_924.jpg,4608,3072
B_924,daylight,parquet_light,"[120, 120, 120]","['6138173', '4520632', '6229071', '6177697', '300321', '4529247', '4639693', '4181144']"
6138173,2266,1620,2479,1816
6177697,2487,1523,2605,1875
6229071,2032,1637,2193,1795
4520632,2032,1317,2414,1581
300321,2572,1148,2783,1378
4639693,2527,551,2736,1116
4181144,2895,1132,3124,1637
4529247,1916,2386,1981,2524
