https://surfdrive.surf.nl/files/index.php/s/B7PEqFZSZZBPcW8/download?path=%2FData%2FInput%2FDatasets%2FBerend%2FImages&files=B_939.jpg,4608,3072
B_939,daylight,parquet_light,"[120, 120, 120]","['654126', '4153827', '4160403', '4651236', '4655172', '4550325', '4517992', '4211201', '4550348', '4121739']"
654126,2026,1181,2102,1277
4153827,1685,1855,2019,2180
4160403,1127,1682,1574,1949
4651236,1634,2137,1804,2265
4655172,2111,1841,2410,2168
4550325,2846,1928,2985,2097
4517992,1870,1306,2024,1457
4211201,2170,1494,2473,1782
4550348,2227,2189,2409,2331
4121739,2379,968,2473,1128
