https://surfdrive.surf.nl/files/index.php/s/B7PEqFZSZZBPcW8/download?path=%2FData%2FInput%2FDatasets%2FBerend%2FImages&files=B_930.jpg,4608,3072
B_930,daylight,parquet_light,"[120, 120, 120]","['654126', '4153827', '4160403', '4651236', '4655172', '4550325', '4517992', '4211201', '4550348', '4121739', '300124', '6075075', '654126']"
654126,2600,2022,2674,2141
654126,2160,1924,2345,2071
4153827,2375,1606,2700,1935
4160403,3133,952,3358,1300
4651236,2479,1987,2670,2086
4655172,1394,734,1719,888
4550325,1796,1428,1928,1589
4517992,2054,1928,2312,2158
4211201,2700,1763,2897,2086
4550348,1329,1967,1503,2133
4121739,1624,1908,1822,2084
300124,1732,1661,2040,2023
6075075,2308,2043,2474,2194
