https://surfdrive.surf.nl/files/index.php/s/B7PEqFZSZZBPcW8/download?path=%2FData%2FInput%2FDatasets%2FBerend%2FImages&files=B_949.jpg,4608,3072
B_949,daylight,parquet_light,"[120, 120, 120]","['654126', '4153827', '4160403', '4651236', '4655172', '4550325', '4517992']"
654126,1963,2166,2122,2340
4153827,1453,1087,1923,1600
4160403,1795,2348,2651,2549
4651236,1474,2406,1735,2680
4655172,2070,1643,2462,2190
4550325,1218,1954,1545,2218
4517992,1414,772,1735,1060
