https://surfdrive.surf.nl/files/index.php/s/B7PEqFZSZZBPcW8/download?path=%2FData%2FInput%2FDatasets%2FBerend%2FImages&files=B_943.jpg,4608,3072
B_943,daylight,parquet_light,"[120, 120, 120]","['654126', '4153827', '4160403', '4651236', '4655172', '4550325', '4517992', '4211201', '4550348']"
4160403,2157,1719,2701,2238
654126,369,676,489,860
4655172,2537,1163,2985,1416
4517992,3346,885,3548,1195
4211201,2827,1795,3346,2099
4550348,2549,2023,2796,2143
4651236,2663,2136,3175,2478
4550325,3194,2313,3422,2598
None,3576,1674,3645,1718
