https://surfdrive.surf.nl/files/index.php/s/B7PEqFZSZZBPcW8/download?path=%2FData%2FInput%2FDatasets%2FBerend%2FImages&files=B_986.jpg,4608,3072
B_986,daylight,parquet_light,"[120, 120, 120]","['4211511', '6028324', '614321', '4165967', '6225539', '6138173', '6229071', '623224', '4651236']"
4211511,2614,1687,2721,1794
6028324,2540,1293,2665,1381
614321,1483,1702,1586,1838
4165967,2548,1376,2792,1635
6225539,2171,1766,2650,1964
6138173,2321,1593,2412,1751
6229071,2470,1500,2616,1664
623224,2114,1200,2210,1387
4651236,1457,1866,1619,1932
