https://surfdrive.surf.nl/files/index.php/s/B7PEqFZSZZBPcW8/download?path=%2FData%2FInput%2FDatasets%2FBerend%2FImages&files=B_994.jpg,4608,3072
B_994,daylight,parquet_light,"[120, 120, 120]","['4211511', '6028324', '614321', '4165967', '6225539', '6138173']"
4211511,1728,2781,1868,2898
6028324,1688,1839,1827,1988
614321,1814,1754,1973,1903
4165967,2060,978,2382,1266
6225539,1450,1258,1918,1571
6138173,2738,1659,2919,1810
