https://surfdrive.surf.nl/files/index.php/s/B7PEqFZSZZBPcW8/download?path=%2FData%2FInput%2FDatasets%2FDavid%2FImages&files=C_1025.jpg,5472,3648
C_1025,daylight,couch,"[120, 120, 120]","['4109995', '6073026', '4165967', '300124', '6225539', '4211511', '4181144']"
6225539,1815,1588,2169,2083
4109995,1916,1456,2143,1602
4211511,1980,1581,2140,1701
4165967,2468,1503,2581,1941
4181144,2649,1630,3253,2125
6073026,3448,1781,3554,1951
300124,2581,1992,2956,2478
