https://surfdrive.surf.nl/files/index.php/s/B7PEqFZSZZBPcW8/download?path=%2FData%2FInput%2FDatasets%2FDavid%2FImages&files=C_1012.jpg,5472,3648
C_1012,daylight,couch,"[120, 120, 120]","['4109995', '6073026', '4165967', '300124', '6225539', '4211511', '4181144', '4520632', '300321', '4550325', '4211149']"
4109995,3108,2283,3363,2456
6073026,3041,2863,3230,3044
4165967,2067,992,2494,1261
300124,2129,1972,2454,2471
6225539,2956,1307,3243,1833
4211511,2363,1199,2500,1355
4181144,2475,1318,2779,1896
4520632,2767,1736,3280,2097
300321,2754,2683,3054,2955
4550325,2012,1603,2264,1825
4211149,2635,2860,2919,3156
