https://surfdrive.surf.nl/files/index.php/s/B7PEqFZSZZBPcW8/download?path=%2FData%2FInput%2FDatasets%2FDavid%2FImages&files=C_118.jpg,5472,3647
C_118,artificial,coffee_table,"[130, 130, 130]",['6238674']
6238674,2651,1716,2859,1855
