https://surfdrive.surf.nl/files/index.php/s/B7PEqFZSZZBPcW8/download?path=%2FData%2FInput%2FDatasets%2FDavid%2FImages&files=C_127.jpg,5472,3648
C_127,artificial,coffee_table,"[130, 130, 130]","['6238674', '4212454', '4504369', '4550348']"
4212454,1785,1293,2126,1622
6238674,2341,2127,2689,2380
4550348,2594,1641,2967,1994
4504369,3137,1445,3510,1748
