https://surfdrive.surf.nl/files/index.php/s/B7PEqFZSZZBPcW8/download?path=%2FData%2FInput%2FDatasets%2FDavid%2FImages&files=C_142.jpg,5472,3647
C_142,artificial,coffee_table,"[130, 130, 130]","['6238674', '4212454', '4504369', '4550348', '4527943', '6074890', '6244886', '4651236', '4114319']"
4114319,1771,1339,1907,1416
4651236,1867,2049,2008,2138
6244886,2018,1932,2122,2078
6074890,2162,1807,2320,2021
4527943,2369,1658,2597,1907
4550348,2536,1630,2734,1764
4504369,2765,1519,3225,1964
4212454,3214,1956,3525,2226
6238674,4026,1661,4186,1814
