https://surfdrive.surf.nl/files/index.php/s/B7PEqFZSZZBPcW8/download?path=%2FData%2FInput%2FDatasets%2FDavid%2FImages&files=C_169.jpg,5472,3648
C_169,daylight,coffee_table,"[130, 130, 130]","['4121739', '6025026', '6238674', '6104154', '4121739', '4529240', '4550325', '6225539', '623224']"
6104154,2400,1740,2678,1957
4121739,2695,1749,2940,1909
6025026,2971,1749,3208,1870
4121739,3261,1849,3537,2025
6225539,2792,1566,3547,1691
4529240,2449,1527,2550,1686
4550325,1873,1677,2137,1890
6238674,2146,1904,2328,1991
623224,1967,1204,2263,1447
