https://surfdrive.surf.nl/files/index.php/s/B7PEqFZSZZBPcW8/download?path=%2FData%2FInput%2FDatasets%2FDavid%2FImages&files=C_176.jpg,5472,3647
C_176,daylight,coffee_table,"[130, 130, 130]",['6252809']
6252809,2366,988,3037,2354
