https://surfdrive.surf.nl/files/index.php/s/B7PEqFZSZZBPcW8/download?path=%2FData%2FInput%2FDatasets%2FDavid%2FImages&files=C_189.jpg,5472,3648
C_189,daylight,coffee_table,"[130, 130, 130]","['300323', '300401', '6238674']"
300323,2632,1280,2978,1479
300401,2719,1903,3065,2137
6238674,2364,1661,2528,1834
