https://surfdrive.surf.nl/files/index.php/s/B7PEqFZSZZBPcW8/download?path=%2FData%2FInput%2FDatasets%2FDavid%2FImages&files=C_197.jpg,5472,3648
C_197,daylight,coffee_table,"[130, 130, 130]",['4212454']
4212454,2601,1632,2838,1874
