https://surfdrive.surf.nl/files/index.php/s/B7PEqFZSZZBPcW8/download?path=%2FData%2FInput%2FDatasets%2FDavid%2FImages&files=C_229.jpg,5472,3648
C_229,daylight,coffee_table,"[130, 130, 130]","['4118793', '4567338', '6073026', '4211054']"
4211054,1945,1606,2055,1730
6073026,2237,2178,2375,2274
4118793,3360,1815,3516,2007
4567338,2173,1905,2404,2108
