https://surfdrive.surf.nl/files/index.php/s/B7PEqFZSZZBPcW8/download?path=%2FData%2FInput%2FDatasets%2FDavid%2FImages&files=C_231.jpg,5472,3648
C_231,daylight,coffee_table,"[130, 130, 130]","['4118793', '4567338', '6073026', '4211054', '4121739']"
4567338,2155,1950,2345,2059
6073026,2436,1454,2599,1626
4118793,2814,2050,2950,2246
4211054,2868,1414,3053,1768
4121739,2756,1345,2986,1566
