https://surfdrive.surf.nl/files/index.php/s/B7PEqFZSZZBPcW8/download?path=%2FData%2FInput%2FDatasets%2FDavid%2FImages&files=C_247.jpg,5472,3648
C_247,daylight,coffee_table,"[130, 130, 130]","['4118793', '4567338', '6073026', '4211054', '4121739', '300124', '6244886', '4211166', '300401', '4504369']"
4118793,1936,2764,2129,2980
4567338,3108,1093,3205,1258
6073026,3662,1257,3797,1449
4211054,1491,1548,1861,1847
4121739,2812,2330,3098,2551
300124,2489,1189,2983,1657
6244886,2380,1595,2729,1834
4211166,2897,970,3108,1177
300401,1860,1829,2178,2149
4504369,2587,1090,2731,1217
