https://surfdrive.surf.nl/files/index.php/s/B7PEqFZSZZBPcW8/download?path=%2FData%2FInput%2FDatasets%2FDavid%2FImages&files=C_250.jpg,5472,3648
C_250,daylight,coffee_table,"[130, 130, 130]",['6223631']
6223631,2642,1718,2766,1846
