https://surfdrive.surf.nl/files/index.php/s/B7PEqFZSZZBPcW8/download?path=%2FData%2FInput%2FDatasets%2FDavid%2FImages&files=C_26.jpg,5472,3648
C_26,daylight,coffee_table,"[130, 130, 130]","['300121', '4567338', '4211149', '6022023', '6075075', '4118793', '4647553', '4655172', '4550325']"
4567338,4018,1009,4103,1123
6075075,2141,1123,2317,1237
4655172,2660,1089,2851,1492
300121,1871,1163,2112,1523
4647553,2484,1543,2706,1734
4118793,3061,1566,3163,1719
6022023,2794,1714,3018,1898
4550325,2260,1700,2484,1842
4211149,1848,1634,2064,1856
