https://surfdrive.surf.nl/files/index.php/s/B7PEqFZSZZBPcW8/download?path=%2FData%2FInput%2FDatasets%2FDavid%2FImages&files=C_284.jpg,5472,3648
C_284,daylight,coffee_table,"[130, 130, 130]","['6151663', '365901', '4211201', '300401']"
6151663,2860,2021,3100,2292
365901,2240,1492,2795,1840
4211201,2274,1373,2852,1797
300401,3108,1386,3282,1668
