https://surfdrive.surf.nl/files/index.php/s/B7PEqFZSZZBPcW8/download?path=%2FData%2FInput%2FDatasets%2FDavid%2FImages&files=C_288.jpg,5472,3648
C_288,daylight,coffee_table,"[130, 130, 130]","['6151663', '365901', '4211201', '300401', '6252809', '6249125']"
6151663,3230,1466,3516,1700
365901,2970,1540,3547,1968
4211201,2640,1712,3255,2324
300401,2964,1256,3249,1552
6252809,2016,1306,2585,2654
6249125,2748,1689,2877,1858
