https://surfdrive.surf.nl/files/index.php/s/B7PEqFZSZZBPcW8/download?path=%2FData%2FInput%2FDatasets%2FDavid%2FImages&files=C_282.jpg,5472,3648
C_282,daylight,coffee_table,"[130, 130, 130]","['6151663', '365901', '4211201', '300401']"
6151663,3115,2149,3320,2426
365901,1956,1968,2525,2193
4211201,2603,1194,3074,1653
300401,3163,1457,3316,1754
