https://surfdrive.surf.nl/files/index.php/s/B7PEqFZSZZBPcW8/download?path=%2FData%2FInput%2FDatasets%2FDavid%2FImages&files=C_296.jpg,5472,3648
C_296,daylight,coffee_table,"[130, 130, 130]","['6151663', '365901', '4211201', '300401', '6252809', '6249125', '4211054', '6022064']"
6151663,2294,1416,2529,1566
365901,1786,1758,2017,2285
4211201,2467,1276,3234,1640
300401,2583,1930,2798,2228
6252809,2024,1538,3284,1976
6249125,2790,964,2936,1096
4211054,3454,1596,3796,1866
6022064,3677,1939,4036,2264
