https://surfdrive.surf.nl/files/index.php/s/B7PEqFZSZZBPcW8/download?path=%2FData%2FInput%2FDatasets%2FDavid%2FImages&files=C_302.jpg,5472,3648
C_302,daylight,coffee_table,"[130, 130, 130]","['6151663', '365901', '4211201', '300401', '6252809', '6249125', '4211054', '6022064', '300323', '300123']"
300401,2210,2740,2532,3019
300123,2568,2134,2992,2719
4211201,2253,1792,2689,2343
6151663,3435,1927,3712,2202
4211054,3103,1699,3400,1925
300323,3375,1510,3730,1839
6022064,3106,1390,3490,1559
365901,2906,871,3174,1304
6249125,2673,1590,2821,1659
6252809,1629,817,2076,1870
