https://surfdrive.surf.nl/files/index.php/s/B7PEqFZSZZBPcW8/download?path=%2FData%2FInput%2FDatasets%2FDavid%2FImages&files=C_312.jpg,5472,3648
C_312,daylight,living_room_floor,"[130, 130, 130]",['6062574']
6062574,2705,1700,2840,1864
