https://surfdrive.surf.nl/files/index.php/s/B7PEqFZSZZBPcW8/download?path=%2FData%2FInput%2FDatasets%2FDavid%2FImages&files=C_316.jpg,5472,3648
C_316,daylight,living_room_floor,"[130, 130, 130]","['6062574', '4550325']"
6062574,2574,1936,2697,2079
4550325,2669,1538,2872,1717
