https://surfdrive.surf.nl/files/index.php/s/B7PEqFZSZZBPcW8/download?path=%2FData%2FInput%2FDatasets%2FDavid%2FImages&files=C_32.jpg,5472,3648
C_32,daylight,coffee_table,"[130, 130, 130]","['4650630', '6238674']"
4650630,3321,1628,3698,1875
6238674,2338,1328,2452,1481
