https://surfdrive.surf.nl/files/index.php/s/B7PEqFZSZZBPcW8/download?path=%2FData%2FInput%2FDatasets%2FDavid%2FImages&files=C_329.jpg,5472,3648
C_329,daylight,living_room_floor,"[130, 130, 130]","['4211614', '4153825', '6151663']"
4153825,2139,1110,2372,1344
6151663,2531,1747,2732,1906
4211614,2891,2415,3071,2553
