https://surfdrive.surf.nl/files/index.php/s/B7PEqFZSZZBPcW8/download?path=%2FData%2FInput%2FDatasets%2FDavid%2FImages&files=C_338.jpg,5472,3648
C_338,daylight,living_room_floor,"[130, 130, 130]","['4211614', '4153825', '6151663', '6004938', '306223', '6022064']"
4211614,2236,1101,2390,1303
6004938,2014,1527,2127,1867
4153825,2140,1602,2278,1773
6151663,2246,1696,2473,1942
306223,2672,1713,2891,1877
6022064,3152,1790,3312,1909
