https://surfdrive.surf.nl/files/index.php/s/B7PEqFZSZZBPcW8/download?path=%2FData%2FInput%2FDatasets%2FDavid%2FImages&files=C_358.jpg,5472,3648
C_358,daylight,living_room_floor,"[130, 130, 130]","['4118793', '6035291', '4211614', '4567338', '4211412']"
6035291,2630,1328,2788,1434
4211614,2464,1509,2632,1638
4211412,2729,1742,2839,1860
4567338,2589,1807,2667,1917
4118793,1847,1891,1988,2041
