https://surfdrive.surf.nl/files/index.php/s/B7PEqFZSZZBPcW8/download?path=%2FData%2FInput%2FDatasets%2FDavid%2FImages&files=C_367.jpg,5472,3648
C_367,daylight,living_room_floor,"[130, 130, 130]","['4118793', '6035291', '4211614', '4567338', '4211412', '6025026', '4548180', '4655172']"
4118793,2393,1570,2491,1682
6035291,3081,1590,3211,1710
4211614,2071,2538,2198,2703
4567338,2826,1874,2924,1950
4211412,2154,2218,2222,2321
6025026,3029,1750,3183,1850
4548180,2681,1704,2759,1834
4655172,2236,2235,2562,2448
