https://surfdrive.surf.nl/files/index.php/s/B7PEqFZSZZBPcW8/download?path=%2FData%2FInput%2FDatasets%2FDavid%2FImages&files=C_370.jpg,5472,3648
C_370,daylight,living_room_floor,"[130, 130, 130]","['4118793', '6035291', '4211614', '4567338', '4211412', '6025026', '4548180', '4655172', '4647553']"
4118793,2143,1831,2264,1942
6035291,2699,1726,2858,1799
4211614,2488,1326,2634,1501
4567338,2674,1446,2765,1564
4211412,2680,1818,2802,1917
6025026,2876,1972,3039,2121
4548180,2627,1568,2779,1713
4655172,2018,1458,2384,1758
4647553,2908,1850,3094,1976
