https://surfdrive.surf.nl/files/index.php/s/B7PEqFZSZZBPcW8/download?path=%2FData%2FInput%2FDatasets%2FDavid%2FImages&files=C_392.jpg,5472,3648
C_392,daylight,living_room_floor,"[130, 130, 130]","['300401', '300423', '4529240', '6004938', '4550348', '6229071', '6035291']"
6004938,2837,1556,2941,1670
6229071,3027,1388,3198,1558
300423,2337,2268,2519,2488
300401,2238,2539,2415,2767
6035291,2069,1079,2245,1232
4529240,2095,1940,2243,2071
4550348,2618,871,2695,1019
