https://surfdrive.surf.nl/files/index.php/s/B7PEqFZSZZBPcW8/download?path=%2FData%2FInput%2FDatasets%2FDavid%2FImages&files=C_40.jpg,5472,3648
C_40,daylight,coffee_table,"[130, 130, 130]","['6104154', '4527943', '4157124']"
4157124,2012,1384,2262,1567
4527943,3020,1320,3268,1581
6104154,2363,2132,2676,2399
