https://surfdrive.surf.nl/files/index.php/s/B7PEqFZSZZBPcW8/download?path=%2FData%2FInput%2FDatasets%2FDavid%2FImages&files=C_404.jpg,5472,3648
C_404,daylight,living_room_floor,"[130, 130, 130]","['300421', '300321', '300424', '614321']"
300421,2673,2286,2849,2567
300321,2627,1750,2924,1984
300424,3389,2169,3668,2344
614321,3774,1832,4001,2014
