https://surfdrive.surf.nl/files/index.php/s/B7PEqFZSZZBPcW8/download?path=%2FData%2FInput%2FDatasets%2FDavid%2FImages&files=C_42.jpg,5472,3648
C_42,daylight,coffee_table,"[130, 130, 130]","['6104154', '4527943', '4157124', '4211201']"
4527943,3677,1506,3837,1656
4211201,2046,1870,2404,2096
4157124,2427,1870,2526,2010
6104154,1664,1339,1789,1477
