https://surfdrive.surf.nl/files/index.php/s/B7PEqFZSZZBPcW8/download?path=%2FData%2FInput%2FDatasets%2FDavid%2FImages&files=C_440.jpg,5472,3648
C_440,daylight,living_room_floor,"[130, 130, 130]","['6069259', '6035291']"
6069259,1814,2022,2025,2293
6035291,2629,1756,2863,1943
