https://surfdrive.surf.nl/files/index.php/s/B7PEqFZSZZBPcW8/download?path=%2FData%2FInput%2FDatasets%2FDavid%2FImages&files=C_452.jpg,5472,3648
C_452,daylight,dining_table,"[130, 130, 130]","['6075079', '306201']"
6075079,2704,1345,2903,1623
306201,2599,1739,2824,1896
