https://surfdrive.surf.nl/files/index.php/s/B7PEqFZSZZBPcW8/download?path=%2FData%2FInput%2FDatasets%2FDavid%2FImages&files=C_457.jpg,5472,3648
C_457,daylight,dining_table,"[130, 130, 130]","['6075079', '306201', '4211614', '4181135']"
6075079,3239,2114,3372,2412
306201,3377,1798,3525,1953
4211614,2574,1679,2897,1932
4181135,2421,890,3060,1452
