https://surfdrive.surf.nl/files/index.php/s/B7PEqFZSZZBPcW8/download?path=%2FData%2FInput%2FDatasets%2FDavid%2FImages&files=C_451.jpg,5472,3648
C_451,daylight,dining_table,"[130, 130, 130]","['6075079', '306201']"
306201,2252,1655,2348,1778
6075079,2648,1662,2767,1904
