https://surfdrive.surf.nl/files/index.php/s/B7PEqFZSZZBPcW8/download?path=%2FData%2FInput%2FDatasets%2FDavid%2FImages&files=C_46.jpg,5472,3648
C_46,daylight,coffee_table,"[130, 130, 130]","['6104154', '4527943', '4157124', '4211201', '4211614']"
4211201,2760,1415,3239,1948
4157124,2634,1175,2747,1312
6104154,2956,1014,3172,1211
4527943,2130,1166,2402,1429
4211614,1973,1082,2196,1269
