https://surfdrive.surf.nl/files/index.php/s/B7PEqFZSZZBPcW8/download?path=%2FData%2FInput%2FDatasets%2FDavid%2FImages&files=C_474.jpg,5472,3648
C_474,daylight,dining_table,"[130, 130, 130]","['4153825', '4621545']"
4153825,2953,1219,3140,1385
4621545,2665,1721,2859,1883
