https://surfdrive.surf.nl/files/index.php/s/B7PEqFZSZZBPcW8/download?path=%2FData%2FInput%2FDatasets%2FDavid%2FImages&files=C_48.jpg,5472,3648
C_48,daylight,coffee_table,"[130, 130, 130]","['6104154', '4527943', '4157124', '4211201', '4211614', '4504381']"
4211201,2965,1421,3554,1758
6104154,2109,1855,2446,2154
4527943,1825,1335,2067,1577
4157124,2270,1547,2479,1799
4504381,2308,1363,2412,1526
4211614,3031,2045,3175,2289
