https://surfdrive.surf.nl/files/index.php/s/B7PEqFZSZZBPcW8/download?path=%2FData%2FInput%2FDatasets%2FDavid%2FImages&files=C_481.jpg,5472,3648
C_481,daylight,dining_table,"[130, 130, 130]","['4153825', '4621545', '306201', '4211412']"
4153825,2035,1370,2294,1642
306201,2634,1731,2811,1833
4211412,2668,1867,2831,1969
4621545,3158,1554,3410,1758
