https://surfdrive.surf.nl/files/index.php/s/B7PEqFZSZZBPcW8/download?path=%2FData%2FInput%2FDatasets%2FDavid%2FImages&files=C_491.jpg,5472,3648
C_491,daylight,coffee_table,"[130, 130, 130]","['300424', '6004938', '306201']"
300424,2648,1671,2967,1865
6004938,2475,1865,2646,2024
306201,2567,1615,2794,1771
