https://surfdrive.surf.nl/files/index.php/s/B7PEqFZSZZBPcW8/download?path=%2FData%2FInput%2FDatasets%2FDavid%2FImages&files=C_495.jpg,5472,3648
C_495,daylight,coffee_table,"[130, 130, 130]","['300424', '6004938', '306201', '4211166', '4621545']"
300424,2658,1618,2842,1916
6004938,2340,2157,2549,2367
306201,3202,2297,3380,2473
4211166,1626,1391,1802,1601
4621545,2508,1358,2634,1626
