https://surfdrive.surf.nl/files/index.php/s/B7PEqFZSZZBPcW8/download?path=%2FData%2FInput%2FDatasets%2FDavid%2FImages&files=C_494.jpg,5472,3648
C_494,daylight,coffee_table,"[130, 130, 130]","['300424', '6004938', '306201', '4211166']"
300424,2362,1893,2673,2350
6004938,2944,1175,3192,1441
306201,2608,1612,2792,1855
4211166,1990,1293,2306,1636
