https://surfdrive.surf.nl/files/index.php/s/B7PEqFZSZZBPcW8/download?path=%2FData%2FInput%2FDatasets%2FDavid%2FImages&files=C_512.jpg,5472,3648
C_512,daylight,coffee_table,"[130, 130, 130]","['300424', '6004938', '306201', '4211166', '4621545', '300121', '4118793', '4548180', '4539099', '654126']"
300424,2327,1943,2661,2216
6004938,1989,1740,2180,1922
306201,2639,1512,2772,1664
4211166,2429,2398,2667,2649
4621545,3265,1330,3553,1535
300121,2108,1146,2639,1376
4118793,3032,2182,3225,2368
4548180,3897,1384,4137,1626
4539099,2182,1930,2386,2126
654126,1882,2009,2032,2158
