https://surfdrive.surf.nl/files/index.php/s/B7PEqFZSZZBPcW8/download?path=%2FData%2FInput%2FDatasets%2FDavid%2FImages&files=C_520.jpg,5472,3648
C_520,daylight,couch,"[130, 130, 130]",['6177697']
6177697,2552,1553,2971,1971
