https://surfdrive.surf.nl/files/index.php/s/B7PEqFZSZZBPcW8/download?path=%2FData%2FInput%2FDatasets%2FDavid%2FImages&files=C_548.jpg,5472,3648
C_548,daylight,chair,"[130, 130, 130]","['4109995', '4649749']"
4109995,1472,1589,1760,1814
4649749,2571,1758,2871,1959
