https://surfdrive.surf.nl/files/index.php/s/B7PEqFZSZZBPcW8/download?path=%2FData%2FInput%2FDatasets%2FDavid%2FImages&files=C_555.jpg,5472,3648
C_555,daylight,window_sill,"[130, 130, 130]","['6003007', '365901', '4567338']"
6003007,2545,1515,2768,1764
365901,2381,1601,3000,2293
4567338,2661,1968,2891,2239
