https://surfdrive.surf.nl/files/index.php/s/B7PEqFZSZZBPcW8/download?path=%2FData%2FInput%2FDatasets%2FDavid%2FImages&files=C_552.jpg,5472,3648
C_552,daylight,window_sill,"[130, 130, 130]","['6003007', '365901']"
365901,2365,1513,2940,2080
6003007,2880,1557,3144,1769
