https://surfdrive.surf.nl/files/index.php/s/B7PEqFZSZZBPcW8/download?path=%2FData%2FInput%2FDatasets%2FDavid%2FImages&files=C_588.jpg,5472,3648
C_588,daylight,window_sill,"[130, 130, 130]","['614321', '4211221', '4651236', '4621545', '6249125', '4143562', '6075075']"
614321,3713,1881,3959,2103
4211221,1999,1562,2280,1809
4651236,2351,1601,2574,1854
4621545,1551,1564,1771,1840
6249125,2698,1748,2827,1883
4143562,1423,1388,1733,1535
6075075,1789,1308,1972,1547
