https://surfdrive.surf.nl/files/index.php/s/B7PEqFZSZZBPcW8/download?path=%2FData%2FInput%2FDatasets%2FDavid%2FImages&files=C_584.jpg,5472,3647
C_584,daylight,window_sill,"[130, 130, 130]","['614321', '4211221', '4651236', '4621545', '6249125']"
614321,3304,660,3539,893
4211221,3086,1148,3326,1350
4651236,1939,2188,2171,2447
4621545,2202,398,2405,563
6249125,2687,1724,2810,1832
