https://surfdrive.surf.nl/files/index.php/s/B7PEqFZSZZBPcW8/download?path=%2FData%2FInput%2FDatasets%2FDavid%2FImages&files=C_590.jpg,5472,3648
C_590,daylight,window_sill,"[130, 130, 130]","['614321', '4211221', '4651236', '4621545', '6249125', '4143562', '6075075']"
614321,2344,1278,2529,1517
4211221,3234,2166,3488,2502
4651236,2655,1759,2872,1970
4621545,2432,1154,2681,1393
6249125,2756,1723,2880,1801
4143562,2473,2130,2765,2417
6075075,1333,1588,1513,1800
