https://surfdrive.surf.nl/files/index.php/s/B7PEqFZSZZBPcW8/download?path=%2FData%2FInput%2FDatasets%2FDavid%2FImages&files=C_648.jpg,5472,3648
C_648,daylight,coffee_table,"[130, 130, 130]","['6074890', '6073026', '4211221', '4211166', '4181144', '4211149', '6062574', '4548180', '4212454', '4153825']"
6074890,2685,2117,2868,2340
4181144,2440,1542,3244,1947
4212454,1708,1490,1891,1666
6073026,1623,1353,1800,1536
4153825,1721,908,2022,1202
6062574,1490,1268,1661,1467
4211221,2241,1311,2488,1465
4211149,2489,1292,2737,1490
4211166,3442,1162,3662,1353
4548180,2250,1569,2416,1760
