https://surfdrive.surf.nl/files/index.php/s/B7PEqFZSZZBPcW8/download?path=%2FData%2FInput%2FDatasets%2FDavid%2FImages&files=C_653.jpg,5472,3648
C_653,daylight,coffee_table,"[130, 130, 130]",['6075079']
6075079,2639,1612,2826,1956
