https://surfdrive.surf.nl/files/index.php/s/B7PEqFZSZZBPcW8/download?path=%2FData%2FInput%2FDatasets%2FDavid%2FImages&files=C_665.jpg,5472,3648
C_665,daylight,coffee_table,"[130, 130, 130]","['6075079', '300423', '4121967', '300424', '6138173']"
4121967,2517,1211,2815,1443
6075079,2712,1603,2933,1838
300423,2779,1860,3072,2073
300424,1878,1881,2213,2162
6138173,1736,1689,2003,2031
