https://surfdrive.surf.nl/files/index.php/s/B7PEqFZSZZBPcW8/download?path=%2FData%2FInput%2FDatasets%2FDavid%2FImages&files=C_679.jpg,5472,3648
C_679,daylight,coffee_table,"[130, 130, 130]","['4558957', '4539099']"
4558957,3611,1193,4080,1592
4539099,1884,1779,2056,1953
