https://surfdrive.surf.nl/files/index.php/s/B7PEqFZSZZBPcW8/download?path=%2FData%2FInput%2FDatasets%2FDavid%2FImages&files=C_682.jpg,5472,3648
C_682,daylight,coffee_table,"[130, 130, 130]","['4558957', '4539099', '300323']"
300323,2485,2360,2661,2536
4558957,2473,1400,2985,1877
4539099,3644,1195,3979,1519
