https://surfdrive.surf.nl/files/index.php/s/B7PEqFZSZZBPcW8/download?path=%2FData%2FInput%2FDatasets%2FDavid%2FImages&files=C_708.jpg,5472,3648
C_708,daylight,coffee_table,"[130, 130, 130]","['4529240', '4211437', '4211437', '4539099']"
4529240,2651,1675,2821,1769
4211437,2637,1456,2924,1664
4211437,2795,1833,2979,2132
4539099,2669,1773,2845,1933
