https://surfdrive.surf.nl/files/index.php/s/B7PEqFZSZZBPcW8/download?path=%2FData%2FInput%2FDatasets%2FDavid%2FImages&files=C_712.jpg,5472,3648
C_712,daylight,coffee_table,"[130, 130, 130]","['4529240', '4211437', '4211437', '4539099', '4211149']"
4211437,2186,780,2344,979
4539099,2658,1572,2891,1715
4529240,3030,1566,3224,1666
4211149,3136,1645,3375,1911
4211437,2567,1721,2888,1908
