https://surfdrive.surf.nl/files/index.php/s/B7PEqFZSZZBPcW8/download?path=%2FData%2FInput%2FDatasets%2FDavid%2FImages&files=C_710.jpg,5472,3648
C_710,daylight,coffee_table,"[130, 130, 130]","['4529240', '4211437', '4211437', '4539099']"
4211437,992,1236,1171,1407
4211437,1150,1372,1342,1520
4529240,1622,1324,1689,1433
4539099,2712,1778,2813,1914
