https://surfdrive.surf.nl/files/index.php/s/B7PEqFZSZZBPcW8/download?path=%2FData%2FInput%2FDatasets%2FDavid%2FImages&files=C_723.jpg,5472,3648
C_723,daylight,coffee_table,"[130, 130, 130]","['4529240', '4211437', '4211437', '4539099', '4211149', '300124', '6249125', '4160403', '4211412']"
4529240,2731,2060,2852,2269
4211437,2882,1936,3056,2193
4211437,3065,1361,3341,1540
4539099,3167,2145,3360,2259
4211149,3154,1830,3310,2069
300124,2517,1503,3049,1796
6249125,3058,2144,3146,2299
4160403,2117,1664,2785,2061
4211412,3489,1480,3673,1599
