https://surfdrive.surf.nl/files/index.php/s/B7PEqFZSZZBPcW8/download?path=%2FData%2FInput%2FDatasets%2FDavid%2FImages&files=C_725.jpg,5472,3648
C_725,daylight,coffee_table,"[130, 130, 130]","['4529240', '4211437', '4211437', '4539099', '4211149', '300124', '6249125', '4160403', '4211412']"
4211149,1760,2213,2024,2556
300124,1988,2221,2390,2848
4211412,2853,2321,3012,2516
4211437,2169,1863,2491,2109
4160403,2426,1555,3105,1976
4529240,2927,1466,3123,1646
6249125,2525,1197,2682,1356
4211437,2321,1343,2561,1534
4539099,2122,1563,2261,1759
