https://surfdrive.surf.nl/files/index.php/s/B7PEqFZSZZBPcW8/download?path=%2FData%2FInput%2FDatasets%2FDavid%2FImages&files=C_726.jpg,5472,3648
C_726,daylight,armchair,"[130, 130, 130]",['6062574']
6062574,2579,1701,2779,1884
