https://surfdrive.surf.nl/files/index.php/s/B7PEqFZSZZBPcW8/download?path=%2FData%2FInput%2FDatasets%2FDavid%2FImages&files=C_729.jpg,5472,3648
C_729,daylight,armchair,"[130, 130, 130]","['6062574', '306201']"
6062574,2447,1753,2622,1939
306201,3014,1606,3118,1757
