https://surfdrive.surf.nl/files/index.php/s/B7PEqFZSZZBPcW8/download?path=%2FData%2FInput%2FDatasets%2FDavid%2FImages&files=C_743.jpg,5472,3647
C_743,daylight,couch,"[130, 130, 130]","['6069259', '4211054', '6177697', '6062574']"
6069259,3310,1443,3506,1614
4211054,2825,1338,3105,1530
6177697,2894,1626,3362,1932
6062574,2860,1879,3033,2020
