https://surfdrive.surf.nl/files/index.php/s/B7PEqFZSZZBPcW8/download?path=%2FData%2FInput%2FDatasets%2FDavid%2FImages&files=C_747.jpg,5472,3647
C_747,daylight,couch,"[130, 130, 130]","['6069259', '4211054', '6177697', '6062574', '6223631', '4109995']"
4211054,1940,1968,2273,2329
6062574,2110,2261,2341,2451
6223631,2539,2056,2695,2186
6177697,2620,1451,3090,1825
4109995,3049,1675,3328,1947
6069259,3138,1369,3267,1607
