https://surfdrive.surf.nl/files/index.php/s/B7PEqFZSZZBPcW8/download?path=%2FData%2FInput%2FDatasets%2FDavid%2FImages&files=C_744.jpg,5472,3648
C_744,daylight,couch,"[130, 130, 130]","['6069259', '4211054', '6177697', '6062574', '6223631']"
6062574,2783,2546,2962,2757
6177697,2643,1577,2866,2147
6223631,2807,1680,3001,1860
6069259,3199,1129,3400,1348
4211054,1350,1479,1705,1765
