https://surfdrive.surf.nl/files/index.php/s/B7PEqFZSZZBPcW8/download?path=%2FData%2FInput%2FDatasets%2FDavid%2FImages&files=C_790.jpg,5472,3648
C_790,daylight,couch,"[130, 130, 130]","['4621545', '4210718', '4650630', '4529247', '4529247', '6151663', '300821']"
4621545,2703,1383,2845,1614
4210718,1898,1305,2377,1709
4650630,3820,2318,4157,2648
4529247,3346,1760,3480,1906
4529247,2730,1676,2894,1807
6151663,2349,1461,2584,1609
300821,2407,1601,2821,2452
