https://surfdrive.surf.nl/files/index.php/s/B7PEqFZSZZBPcW8/download?path=%2FData%2FInput%2FDatasets%2FDavid%2FImages&files=C_818.jpg,5472,3648
C_818,daylight,couch,"[130, 130, 130]","['6074890', '306223']"
306223,2734,2027,2901,2116
6074890,2748,1464,2846,1589
