https://surfdrive.surf.nl/files/index.php/s/B7PEqFZSZZBPcW8/download?path=%2FData%2FInput%2FDatasets%2FDavid%2FImages&files=C_820.jpg,5472,3647
C_820,daylight,coffee-table,"[120, 120, 120]","['4109995', '4504381', '4211614', '4504369', '4165967', '4181144', '6238674']"
4109995,2814,1293,3053,1426
4504381,3305,1864,3451,1983
4211614,1977,1972,2196,2143
4504369,1796,2115,1923,2221
4165967,2208,1833,2733,2039
4181144,2922,873,3410,1431
6238674,2535,1563,2632,1711
