https://surfdrive.surf.nl/files/index.php/s/B7PEqFZSZZBPcW8/download?path=%2FData%2FInput%2FDatasets%2FDavid%2FImages&files=C_846.jpg,5472,3648
C_846,daylight,coffee-table,"[120, 120, 120]","['6138173', '6069259', '6223631', '4211166', '6075079', '300424', '6177697', '4639693', '4504369', '4567338', '6229071', '4211149']"
4639693,1361,1669,2403,2119
6223631,1501,2060,1620,2208
300424,2566,2053,2862,2334
6075079,3002,2304,3320,2592
4211166,3047,1927,3298,2208
6138173,2921,1728,3202,1942
6229071,2573,1698,2840,1972
6069259,2352,1299,2551,1558
6177697,2093,1070,2492,1321
4567338,3150,1240,3283,1366
4504369,3328,1432,3453,1550
4211149,3431,922,3623,1078
