https://surfdrive.surf.nl/files/index.php/s/B7PEqFZSZZBPcW8/download?path=%2FData%2FInput%2FDatasets%2FDavid%2FImages&files=C_852.jpg,5472,3648
C_852,daylight,coffee-table,"[120, 120, 120]","['6138173', '6069259', '6223631', '4211166', '6075079', '300424', '6177697', '4639693', '4504369', '4567338']"
4567338,2077,2388,2258,2501
6138173,1874,1735,2071,1906
4639693,2073,1561,2965,1993
6223631,2379,1453,2503,1538
6069259,2716,1253,2856,1481
300424,2830,1138,3022,1303
4504369,3222,925,3348,1017
6177697,2176,1143,2531,1423
6075079,1833,1275,2012,1417
4211166,1459,723,1628,906
