https://surfdrive.surf.nl/files/index.php/s/B7PEqFZSZZBPcW8/download?path=%2FData%2FInput%2FDatasets%2FDavid%2FImages&files=C_851.jpg,5472,3648
C_851,daylight,coffee-table,"[120, 120, 120]","['6138173', '6069259', '6223631', '4211166', '6075079', '300424', '6177697', '4639693', '4504369', '4567338']"
6138173,2086,2090,2386,2336
4567338,2352,2097,2502,2248
6177697,2578,1653,2748,2056
6223631,2441,1797,2591,1974
6075079,2161,1708,2256,1824
6069259,2297,1318,2393,1476
4639693,1471,1066,1922,1817
300424,3179,1291,3343,1503
4211166,2769,1674,2987,1947
4504369,2871,1626,2974,1694
