https://surfdrive.surf.nl/files/index.php/s/B7PEqFZSZZBPcW8/download?path=%2FData%2FInput%2FDatasets%2FDavid%2FImages&files=C_859.jpg,5472,3648
C_859,daylight,coffee-table,"[120, 120, 120]","['6138173', '6069259', '6223631', '4211166', '6075079', '300424', '6177697']"
6138173,2344,1479,2669,1718
6069259,3087,1176,3305,1435
6223631,2025,877,2130,1026
4211166,2232,1943,2487,2220
6075079,1983,2269,2148,2536
300424,2567,1710,2761,1922
6177697,2732,1658,3231,2171
