https://surfdrive.surf.nl/files/index.php/s/B7PEqFZSZZBPcW8/download?path=%2FData%2FInput%2FDatasets%2FDavid%2FImages&files=C_861.jpg,5472,3648
C_861,daylight,coffee-table,"[120, 120, 120]","['6138173', '6069259', '6223631', '4211166', '6075079', '300424', '6177697']"
6138173,2610,2392,2872,2588
6069259,2478,2037,2744,2214
6223631,2339,2091,2470,2232
4211166,2227,1540,2428,1732
6075079,2631,1137,2794,1308
300424,2666,1464,2884,1672
6177697,2934,1543,3066,1953
