https://surfdrive.surf.nl/files/index.php/s/B7PEqFZSZZBPcW8/download?path=%2FData%2FInput%2FDatasets%2FDavid%2FImages&files=C_877.jpg,5472,3648
C_877,daylight,coffee-table,"[120, 120, 120]","['4539099', '4153825', '6022064', '4211511', '4517992', '6022023', '4621545', '4520632', '6229071']"
4539099,2138,1602,2284,1678
4153825,2586,1460,2811,1630
6022064,2876,1987,3226,2220
4211511,2284,1739,2432,1887
4517992,2488,1555,2720,1755
6022023,2718,1472,2996,1684
4621545,2515,1451,2721,1586
4520632,2536,2035,2990,2523
6229071,2514,1740,2720,1975
