https://surfdrive.surf.nl/files/index.php/s/B7PEqFZSZZBPcW8/download?path=%2FData%2FInput%2FDatasets%2FDavid%2FImages&files=C_878.jpg,5472,3647
C_878,daylight,coffee-table,"[120, 120, 120]","['4539099', '4153825', '6022064', '4211511', '4517992', '6022023', '4621545', '4520632', '6229071']"
6229071,1909,1669,2142,1884
4211511,2199,1823,2347,1923
4621545,2387,1950,2604,2195
4520632,2574,1790,3082,1966
4153825,2538,1542,2804,1736
6022023,3240,1675,3427,1941
4517992,3445,1651,3742,1890
4539099,2359,1439,2520,1600
6022064,2387,992,2713,1119
