https://surfdrive.surf.nl/files/index.php/s/B7PEqFZSZZBPcW8/download?path=%2FData%2FInput%2FDatasets%2FDavid%2FImages&files=C_871.jpg,5472,3648
C_871,daylight,coffee-table,"[120, 120, 120]","['4539099', '4153825', '6022064', '4211511', '4517992', '6022023', '4621545', '4520632', '6229071', '6035291', '4527943']"
6035291,1192,2151,1391,2383
6229071,1529,1733,1806,2036
4211511,2165,1709,2363,1923
4153825,3099,933,3391,1205
4621545,2783,1593,3013,1868
4539099,2709,1786,2864,1970
4527943,3157,1965,3432,2247
4520632,3797,2119,4184,2681
6022064,2506,2109,2785,2503
4517992,2210,2138,2531,2477
6022023,1933,2323,2270,2689
