https://surfdrive.surf.nl/files/index.php/s/B7PEqFZSZZBPcW8/download?path=%2FData%2FInput%2FDatasets%2FDavid%2FImages&files=C_884.jpg,5472,3647
C_884,daylight,coffee-table,"[120, 120, 120]","['300123', '6225539', '6062574', '4160403', '4558957', '4548180', '614321', '4647553', '4153827', '6151663', '4118793', '6004938']"
4160403,1469,2326,2016,2817
4558957,1731,1640,2189,2064
4548180,1636,1590,1809,1751
6151663,2563,992,2708,1126
4153827,2256,1305,2624,1740
614321,2278,2058,2518,2343
6062574,2513,2187,2680,2382
4647553,2574,1980,2831,2181
4118793,2809,1908,2943,2064
300123,2714,1500,3010,1947
6225539,2630,1316,2976,1891
6004938,2954,1422,3105,1601
