https://surfdrive.surf.nl/files/index.php/s/B7PEqFZSZZBPcW8/download?path=%2FData%2FInput%2FDatasets%2FDavid%2FImages&files=C_893.jpg,5472,3648
C_893,daylight,coffee-table,"[120, 120, 120]","['300123', '6225539', '6062574', '4160403', '4558957', '4548180', '614321', '4647553', '4153827']"
300123,3485,2092,3838,2529
6225539,3705,1496,4244,1863
6062574,1259,1721,1367,1871
4160403,2666,1503,2827,1973
4558957,2168,699,2288,1076
4548180,1822,2487,2067,2622
614321,3369,2450,3584,2684
4647553,3107,1059,3266,1251
4153827,1386,2017,1916,2466
