https://surfdrive.surf.nl/files/index.php/s/B7PEqFZSZZBPcW8/download?path=%2FData%2FInput%2FDatasets%2FDavid%2FImages&files=C_9.jpg,5472,3648
C_9,daylight,coffee_table,"[130, 130, 130]","['300121', '4567338', '4211149', '6022023']"
300121,2176,1617,2356,1725
6022023,2249,1927,2496,2118
4211149,2561,1578,2885,1885
4567338,3332,1426,3833,1698
