https://surfdrive.surf.nl/files/index.php/s/B7PEqFZSZZBPcW8/download?path=%2FData%2FInput%2FDatasets%2FDavid%2FImages&files=C_904.jpg,5472,3648
C_904,daylight,coffee-table,"[120, 120, 120]","['4529240', '6074890', '623224', '6025026', '4650630', '6028324', '4211412', '300121', '4181134', '4153827']"
4181134,1569,1343,2287,1831
300121,2339,1167,2589,1572
6025026,2131,1686,2370,1842
6074890,2037,1831,2214,1966
4211412,2037,2018,2266,2215
4650630,2277,1831,2505,2112
4153827,2682,1385,3202,1759
623224,2786,1894,3067,2164
6028324,3119,1852,3317,2029
4529240,2167,2010,2302,2163
