https://surfdrive.surf.nl/files/index.php/s/B7PEqFZSZZBPcW8/download?path=%2FData%2FInput%2FDatasets%2FDavid%2FImages&files=C_918.jpg,5472,3647
C_918,daylight,coffee-table,"[120, 120, 120]","['4529240', '6074890', '623224', '6025026', '4650630', '6028324']"
4529240,2844,957,3012,1066
6074890,2413,1579,2500,1700
623224,2564,1584,2909,1870
6025026,2813,1929,3091,2173
4650630,2308,2021,2605,2324
6028324,2741,1145,2933,1332
