https://surfdrive.surf.nl/files/index.php/s/B7PEqFZSZZBPcW8/download?path=%2FData%2FInput%2FDatasets%2FDavid%2FImages&files=C_927.jpg,5472,3648
C_927,daylight,couch,"[120, 120, 120]","['365901', '306201', '4529247', '300423', '6003007', '6244886', '6104154', '300421', '6062574', '6075075', '300421']"
365901,3052,1748,3604,1947
306201,2729,1994,2905,2200
4529247,3075,1306,3209,1472
300423,2605,1555,2895,1857
6003007,2378,1992,2543,2190
6244886,2238,981,2559,1250
6104154,2654,1847,2827,2015
300421,2904,1893,3209,2173
300421,2468,1551,2722,1721
6062574,2344,1232,2495,1410
6075075,2359,1740,2637,1921
