https://surfdrive.surf.nl/files/index.php/s/B7PEqFZSZZBPcW8/download?path=%2FData%2FInput%2FDatasets%2FDavid%2FImages&files=C_925.jpg,5472,3647
C_925,daylight,couch,"[120, 120, 120]","['365901', '306201', '4529247', '300423', '6003007', '6244886', '6104154', '300421', '6062574', '6075075', '300421']"
6075075,2284,2042,2529,2287
306201,2217,1975,2351,2153
365901,2345,1612,2898,2025
6104154,2317,1523,2641,1779
6003007,2652,1428,2814,1584
300421,2853,1322,3160,1506
300421,2636,1824,2920,1986
300423,2569,2069,2887,2399
6062574,2920,1679,3110,1874
6244886,3127,1126,3468,1428
4529247,3384,964,3557,1059
