https://surfdrive.surf.nl/files/index.php/s/B7PEqFZSZZBPcW8/download?path=%2FData%2FInput%2FDatasets%2FDavid%2FImages&files=C_936.jpg,5472,3648
C_936,daylight,couch,"[120, 120, 120]","['365901', '306201', '4529247', '300423', '6003007', '6244886', '6104154', '300421']"
6244886,2087,2369,2448,2619
365901,2010,2100,2610,2356
306201,2427,2030,2635,2148
300423,2235,1932,2414,2206
300421,1968,1902,2263,2147
6003007,2582,1648,2789,1788
4529247,3311,2037,3526,2170
6104154,3252,1184,3500,1416
