https://surfdrive.surf.nl/files/index.php/s/B7PEqFZSZZBPcW8/download?path=%2FData%2FInput%2FDatasets%2FDavid%2FImages&files=C_93.jpg,5472,3648
C_93,daylight,coffee_table,"[130, 130, 130]","['4121739', '306223', '4210718', '6151663', '4529240', '4211054', '6075079']"
4121739,2503,1367,2660,1450
4211054,2540,1507,2708,1649
4529240,2705,1518,2787,1613
6075079,2295,1383,2381,1523
306223,2751,1758,2816,1848
6151663,2722,1665,2884,1756
4210718,2575,1944,2771,2202
