https://surfdrive.surf.nl/files/index.php/s/B7PEqFZSZZBPcW8/download?path=%2FData%2FInput%2FDatasets%2FDavid%2FImages&files=C_942.jpg,5472,3648
C_942,daylight,couch,"[120, 120, 120]","['365901', '306201', '4529247', '300423', '6003007', '6244886']"
300423,2734,1353,3004,1458
365901,2888,1402,3385,1701
6003007,2651,1378,2728,1582
4529247,1375,1833,1552,1927
306201,3595,1828,3799,1955
6244886,2417,1754,2779,2160
