https://surfdrive.surf.nl/files/index.php/s/B7PEqFZSZZBPcW8/download?path=%2FData%2FInput%2FDatasets%2FDavid%2FImages&files=C_945.jpg,5472,3648
C_945,daylight,couch,"[120, 120, 120]","['300821', '4143562', '4211149', '4655172', '300321', '6249125', '4550348', '4211221', '300323', '4550348', '4504381', '300321', '4639693']"
4655172,3249,1254,3747,1606
300821,2473,1289,3375,1661
4639693,2572,1511,3238,2071
300323,2368,1567,2661,1809
300321,1944,1893,2248,2221
4143562,2176,1714,2323,1898
4211221,2340,1779,2572,2004
300321,2238,1437,2429,1639
4550348,2125,1485,2272,1683
6249125,3954,2209,4067,2318
4504381,4132,2407,4319,2595
4550348,4067,2168,4275,2404
4211149,2463,1429,2699,1610
