https://surfdrive.surf.nl/files/index.php/s/B7PEqFZSZZBPcW8/download?path=%2FData%2FInput%2FDatasets%2FDavid%2FImages&files=C_954.jpg,5472,3648
C_954,daylight,couch,"[120, 120, 120]","['300821', '4143562', '4211149', '4655172', '300321', '6249125', '4550348', '4211221', '300323', '4550348']"
300323,1552,1183,1851,1469
4143562,1953,1503,2164,1700
4655172,2464,1428,2988,1802
4550348,2675,1326,2852,1476
6249125,3505,1673,3675,1782
4550348,3213,2061,3389,2320
4211149,2464,1864,2729,2041
4211221,2287,2075,2573,2265
300321,2015,1816,2232,2081
300821,1879,1979,2341,2912
