https://surfdrive.surf.nl/files/index.php/s/B7PEqFZSZZBPcW8/download?path=%2FData%2FInput%2FDatasets%2FDavid%2FImages&files=C_962.jpg,5472,3648
C_962,daylight,couch,"[120, 120, 120]","['654126', '6004938', '4210718', '6238674', '4539099', '4651236', '4153825', '4114319', '4211149', '4647553', '6177697', '300421']"
6238674,2104,2432,2277,2582
6004938,3433,2432,3590,2627
654126,3005,2207,3215,2402
4539099,3035,2102,3185,2207
4651236,2982,1749,3207,1982
4114319,2644,1576,2990,2057
4153825,2172,1967,2502,2327
4647553,2412,1471,2569,1711
4210718,2802,991,3020,1404
6177697,1751,1291,2179,1449
300421,3125,1516,3365,1741
4211149,3440,1389,3673,1569
