https://surfdrive.surf.nl/files/index.php/s/B7PEqFZSZZBPcW8/download?path=%2FData%2FInput%2FDatasets%2FDavid%2FImages&files=C_970.jpg,5472,3648
C_970,daylight,couch,"[120, 120, 120]","['654126', '6004938', '4210718', '6238674', '4539099', '4651236', '4153825', '4114319', '4211149']"
654126,1947,2034,2077,2187
6004938,3124,1029,3240,1118
4210718,2028,1857,2481,2415
6238674,3084,1280,3177,1413
4539099,3104,1653,3254,1804
4651236,4610,1761,4863,1886
4153825,2498,1899,2744,2108
4114319,2178,1388,2663,1608
4211149,2638,1729,2860,1851
