https://surfdrive.surf.nl/files/index.php/s/B7PEqFZSZZBPcW8/download?path=%2FData%2FInput%2FDatasets%2FDavid%2FImages&files=C_998.jpg,5472,3648
C_998,daylight,couch,"[120, 120, 120]","['4527943', '300401', '4550325', '4211201', '4121967', '306223', '4157124', '6022064']"
4211201,2487,1741,3000,2050
4550325,3167,1847,3450,2076
4527943,2320,1953,2576,2138
4157124,1719,2094,1931,2306
4121967,2267,1480,2487,1639
306223,2717,1498,2885,1648
300401,3583,1445,3812,1613
6022064,2699,1133,3026,1407
