https://surfdrive.surf.nl/files/index.php/s/B7PEqFZSZZBPcW8/download?path=%2FData%2FInput%2FDatasets%2FDavid%2FImages&files=C_995.jpg,5472,3648
C_995,daylight,couch,"[120, 120, 120]","['4527943', '300401', '4550325', '4211201', '4121967', '306223', '4157124', '6022064', '614321']"
4121967,1772,2178,1967,2470
6022064,1715,1803,1884,2209
4157124,2100,2050,2421,2293
614321,2220,1711,2447,1982
4211201,2594,1657,3238,2131
4550325,3206,1691,3506,1941
4527943,3016,1448,3292,1719
300401,3679,1044,3929,1360
306223,3601,971,3747,1141
