https://surfdrive.surf.nl/files/index.php/s/B7PEqFZSZZBPcW8/download?path=%2FData%2FInput%2FDatasets%2FDavid%2FImages&files=C_993.jpg,5472,3648
C_993,daylight,couch,"[120, 120, 120]","['4527943', '300401', '4550325', '4211201', '4121967', '306223', '4157124', '6022064', '614321', '6069259']"
4527943,2000,1234,2207,1453
300401,2221,974,2443,1139
4550325,3153,1332,3313,1592
4211201,2329,1464,2571,1694
4121967,1899,2101,2169,2318
306223,2591,1555,2744,1652
4157124,2853,2054,3063,2295
6022064,3303,1759,3575,2096
614321,2386,1678,2615,1887
6069259,2638,1785,2818,2069
