https://surfdrive.surf.nl/files/index.php/s/B7PEqFZSZZBPcW8/download?path=%2FData%2FInput%2FDatasets%2FHiba%2FImages&files=H_100.jpg,5183,3456
H_100,daylight,wood,"[130, 130, 130]","['6074890', '6035291', '6022023']"
6074890,2204,1454,2321,1605
6035291,2573,1608,2707,1852
6022023,2794,1756,3179,2049
