https://surfdrive.surf.nl/files/index.php/s/B7PEqFZSZZBPcW8/download?path=%2FData%2FInput%2FDatasets%2FHiba%2FImages&files=H_111.jpg,5184,3456
H_111,daylight,wood,"[130, 130, 130]","['6022064', '4558957', '306223', '4527943']"
6022064,2656,1194,2806,1372
4558957,2695,1760,3110,2121
306223,1306,2139,1430,2295
4527943,1356,1635,1536,1793
