https://surfdrive.surf.nl/files/index.php/s/B7PEqFZSZZBPcW8/download?path=%2FData%2FInput%2FDatasets%2FHiba%2FImages&files=H_116.jpg,5184,3455
H_116,daylight,wood,"[130, 130, 130]","['6022064', '4558957', '306223', '4527943', '6003007']"
6022064,2383,1501,2712,1660
4558957,1155,1365,1504,1701
306223,1878,1795,1958,1936
4527943,3424,2052,3610,2267
6003007,2538,1402,2645,1503
