https://surfdrive.surf.nl/files/index.php/s/B7PEqFZSZZBPcW8/download?path=%2FData%2FInput%2FDatasets%2FHiba%2FImages&files=H_124.jpg,5184,3456
H_124,daylight,wood,"[130, 130, 130]","['6022064', '4558957', '306223', '4527943', '6003007', '4211614', '6151663', '6004938']"
6022064,2754,1808,3158,1970
4558957,2606,1217,3045,1544
306223,2328,1571,2499,1693
4527943,2248,1721,2485,1963
6003007,2458,1690,2594,1843
4211614,2795,991,2997,1143
6151663,2218,1237,2428,1403
6004938,2122,1705,2279,1881
