https://surfdrive.surf.nl/files/index.php/s/B7PEqFZSZZBPcW8/download?path=%2FData%2FInput%2FDatasets%2FHiba%2FImages&files=H_127.jpg,5184,3456
H_127,daylight,wood,"[130, 130, 130]",['4211054']
4211054,2394,1594,2845,2035
