https://surfdrive.surf.nl/files/index.php/s/B7PEqFZSZZBPcW8/download?path=%2FData%2FInput%2FDatasets%2FHiba%2FImages&files=H_121.jpg,5184,3456
H_121,daylight,wood,"[130, 130, 130]","['6022064', '4558957', '306223', '4527943', '6003007', '4211614', '6151663']"
4558957,1889,1020,2237,1320
6003007,2294,1006,2356,1110
6022064,2896,1324,3171,1447
306223,3345,1399,3469,1519
6151663,2588,1691,2754,1897
4527943,2338,1805,2488,1941
4211614,2648,2450,2886,2632
