https://surfdrive.surf.nl/files/index.php/s/B7PEqFZSZZBPcW8/download?path=%2FData%2FInput%2FDatasets%2FHiba%2FImages&files=H_132.jpg,5184,3455
H_132,daylight,wood,"[130, 130, 130]","['4211054', '4211054', '306201']"
4211054,1680,1991,2000,2297
306201,2541,1308,2662,1465
4211054,3195,1792,3366,2162
