https://surfdrive.surf.nl/files/index.php/s/B7PEqFZSZZBPcW8/download?path=%2FData%2FInput%2FDatasets%2FHiba%2FImages&files=H_13.jpg,5184,3456
H_13,daylight,wood,"[130, 130, 130]","['623224', '6022023', '4121739', '4118793']"
623224,3221,1174,3550,1409
4118793,2521,1632,2690,1780
4121739,4183,1661,4449,1876
6022023,1221,1340,1459,1528
