https://surfdrive.surf.nl/files/index.php/s/B7PEqFZSZZBPcW8/download?path=%2FData%2FInput%2FDatasets%2FHiba%2FImages&files=H_149.jpg,5184,3456
H_149,daylight,wood,"[130, 130, 130]","['4211054', '4211054', '306201', '6229071', '6074890', '4621545', '6062574', '300401']"
4211054,1947,1006,2237,1241
4211054,2555,1326,2820,1652
306201,2692,1100,2835,1248
6229071,3073,1066,3277,1226
6074890,1629,1392,1823,1543
4621545,1296,1120,1536,1323
6062574,2572,1751,2788,1954
300401,3312,1214,3596,1402
