https://surfdrive.surf.nl/files/index.php/s/B7PEqFZSZZBPcW8/download?path=%2FData%2FInput%2FDatasets%2FHiba%2FImages&files=H_146.jpg,5184,3456
H_146,daylight,wood,"[130, 130, 130]","['4211054', '4211054', '306201', '6229071', '6074890', '4621545', '6062574']"
4211054,2696,1845,2852,2092
4211054,2508,1387,2796,1563
306201,2097,1459,2245,1576
6229071,4138,1609,4337,1802
6074890,3679,1011,3769,1127
4621545,1665,1452,1888,1621
6062574,2929,1030,3061,1141
