https://surfdrive.surf.nl/files/index.php/s/B7PEqFZSZZBPcW8/download?path=%2FData%2FInput%2FDatasets%2FHiba%2FImages&files=H_157.jpg,5184,3456
H_157,daylight,wood,"[130, 130, 130]","['4109995', '6025026']"
4109995,1486,1745,1749,1965
6025026,3275,1643,3392,1830
