https://surfdrive.surf.nl/files/index.php/s/B7PEqFZSZZBPcW8/download?path=%2FData%2FInput%2FDatasets%2FHiba%2FImages&files=H_15.jpg,5184,3456
H_15,daylight,wood,"[130, 130, 130]","['623224', '6022023', '4121739', '4118793', '4529240']"
623224,2438,1536,2724,1873
6022023,1039,1315,1367,1571
4121739,3606,1462,3899,1717
4118793,3348,1724,3563,1940
4529240,2242,818,2400,954
