https://surfdrive.surf.nl/files/index.php/s/B7PEqFZSZZBPcW8/download?path=%2FData%2FInput%2FDatasets%2FHiba%2FImages&files=H_168.jpg,5184,3456
H_168,daylight,wood,"[130, 130, 130]","['4211412', '4153825', '4210718']"
4153825,2438,1599,2758,1837
4210718,2774,1084,3159,1488
4211412,2168,1201,2262,1396
