https://surfdrive.surf.nl/files/index.php/s/B7PEqFZSZZBPcW8/download?path=%2FData%2FInput%2FDatasets%2FHiba%2FImages&files=H_187.jpg,5184,3456
H_187,daylight,wood,"[130, 130, 130]","['4548180', '4504381']"
4504381,2572,1601,2796,1743
4548180,2251,1867,2580,2158
