https://surfdrive.surf.nl/files/index.php/s/B7PEqFZSZZBPcW8/download?path=%2FData%2FInput%2FDatasets%2FHiba%2FImages&files=H_181.jpg,5184,3456
H_181,daylight,wood,"[130, 130, 130]","['4211412', '4153825', '4210718', '6104154', '4157124', '4121739', '306223']"
6104154,3634,1218,3888,1413
306223,3133,2353,3261,2550
4153825,2408,1619,2711,1923
4157124,867,1396,1044,1595
4210718,1349,1337,1813,1712
4211412,1928,1195,2102,1312
4121739,1604,1839,1885,2145
