https://surfdrive.surf.nl/files/index.php/s/B7PEqFZSZZBPcW8/download?path=%2FData%2FInput%2FDatasets%2FHiba%2FImages&files=H_185.jpg,5184,3456
H_185,daylight,wood,"[130, 130, 130]",['4548180']
4548180,2429,1772,2719,1893
