https://surfdrive.surf.nl/files/index.php/s/B7PEqFZSZZBPcW8/download?path=%2FData%2FInput%2FDatasets%2FHiba%2FImages&files=H_198.jpg,5184,3456
H_198,daylight,wood,"[130, 130, 130]","['4548180', '4504381', '4517992', '4647553', '300821', '300124']"
4548180,2821,2550,3088,2687
4504381,2505,1725,2622,1858
4517992,1906,1981,2208,2241
4647553,1832,1765,2000,1959
300821,2664,2113,3727,2517
300124,1701,1918,1992,2381
