https://surfdrive.surf.nl/files/index.php/s/B7PEqFZSZZBPcW8/download?path=%2FData%2FInput%2FDatasets%2FHiba%2FImages&files=H_193.jpg,5184,3456
H_193,daylight,wood,"[130, 130, 130]","['4548180', '4504381', '4517992', '4647553']"
4548180,2520,1514,2782,1686
4504381,1908,1093,2066,1280
4517992,2360,1627,2791,2004
4647553,2828,1070,3090,1351
