https://surfdrive.surf.nl/files/index.php/s/B7PEqFZSZZBPcW8/download?path=%2FData%2FInput%2FDatasets%2FHiba%2FImages&files=H_208.jpg,5184,3456
H_208,daylight,wood,"[130, 130, 130]","['4548180', '4504381', '4517992', '4647553', '300821', '300124', '300401', '4211437', '6229071']"
300401,1242,1875,1482,2103
4647553,2091,1254,2302,1453
4548180,2489,1900,2642,2111
4504381,2414,1751,2551,1871
4211437,2886,2185,3006,2446
4517992,2613,2508,2969,2889
6229071,3290,1575,3476,1794
300821,3294,1422,3921,2001
300124,2795,750,3143,878
