https://surfdrive.surf.nl/files/index.php/s/B7PEqFZSZZBPcW8/download?path=%2FData%2FInput%2FDatasets%2FHiba%2FImages&files=H_209.jpg,5184,3455
H_209,daylight,wood,"[130, 130, 130]","['4548180', '4504381', '4517992', '4647553', '300821', '300124', '300401', '4211437', '6229071']"
4548180,699,1611,914,1850
4504381,1881,1302,2029,1418
4517992,3828,1381,4130,1687
4647553,1655,926,1870,1069
300821,2784,1457,3827,1933
300124,2508,682,2948,999
300401,4449,1254,4699,1470
4211437,2469,1680,2733,1912
6229071,2682,1222,2896,1450
