https://surfdrive.surf.nl/files/index.php/s/B7PEqFZSZZBPcW8/download?path=%2FData%2FInput%2FDatasets%2FHiba%2FImages&files=H_21.jpg,5184,3455
H_21,daylight,wood,"[130, 130, 130]",['4181135']
4181135,2360,1538,2850,1778
