https://surfdrive.surf.nl/files/index.php/s/B7PEqFZSZZBPcW8/download?path=%2FData%2FInput%2FDatasets%2FHiba%2FImages&files=H_227.jpg,5184,3456
H_227,daylight,wood,"[130, 130, 130]","['300124', '300401', '6249125', '4121739']"
300124,1200,1328,1678,1670
300401,2550,1260,2752,1435
6249125,2492,1588,2651,1698
4121739,3593,2390,3820,2661
