https://surfdrive.surf.nl/files/index.php/s/B7PEqFZSZZBPcW8/download?path=%2FData%2FInput%2FDatasets%2FHiba%2FImages&files=H_251.jpg,5184,3456
H_251,daylight,wood,"[130, 130, 130]","['6035291', '4160403', '6104154', '300123', '6069259', '6075079']"
6035291,3242,1525,3390,1646
4160403,1999,1679,2490,1897
6104154,4114,2198,4323,2385
300123,2446,1654,2800,1919
6069259,2042,2411,2186,2617
6075079,3798,1857,3932,2005
