https://surfdrive.surf.nl/files/index.php/s/B7PEqFZSZZBPcW8/download?path=%2FData%2FInput%2FDatasets%2FHiba%2FImages&files=H_258.jpg,5184,3456
H_258,daylight,wood,"[130, 130, 130]","['6035291', '4160403', '6104154', '300123', '6069259', '6075079', '4649749', '4647553', '300421']"
4160403,1025,1883,1221,2287
6075079,2149,1415,2274,1540
300421,2404,1766,2559,1891
6104154,2612,1855,2777,2035
300123,2647,1669,2977,1903
4647553,2882,1612,3039,1764
6035291,2975,1732,3113,1832
4649749,3099,1644,3202,1766
6069259,4368,2042,4546,2196
