https://surfdrive.surf.nl/files/index.php/s/B7PEqFZSZZBPcW8/download?path=%2FData%2FInput%2FDatasets%2FHiba%2FImages&files=H_268.jpg,5183,3456
H_268,daylight,wood,"[130, 130, 130]","['4143562', '300123']"
4143562,2086,1905,2235,2055
300123,2451,1782,2760,1941
