https://surfdrive.surf.nl/files/index.php/s/B7PEqFZSZZBPcW8/download?path=%2FData%2FInput%2FDatasets%2FHiba%2FImages&files=H_328.jpg,5183,3456
H_328,daylight,wood,"[130, 130, 130]","['4211437', '300821', '4647553', '4211166', '6073026', '6252809']"
6252809,1810,1092,2346,1871
4211437,2346,1628,2448,1769
6073026,2244,2114,2448,2280
4647553,2499,2127,2678,2383
4211166,3022,1820,3201,1999
300821,3278,1181,3622,1871
