https://surfdrive.surf.nl/files/index.php/s/B7PEqFZSZZBPcW8/download?path=%2FData%2FInput%2FDatasets%2FHiba%2FImages&files=H_341.jpg,5184,3456
H_341,daylight,wood,"[130, 130, 130]","['6022064', '300421', '6249125', '4121967']"
300421,1583,1377,1829,1582
4121967,1895,1369,2116,1574
6249125,3814,1762,3978,1918
6022064,1993,2057,2453,2221
