https://surfdrive.surf.nl/files/index.php/s/B7PEqFZSZZBPcW8/download?path=%2FData%2FInput%2FDatasets%2FHiba%2FImages&files=H_345.jpg,5184,3456
H_345,daylight,wood,"[130, 130, 130]","['6035291', '6151663']"
6035291,1872,1740,2189,2002
6151663,2810,1361,2939,1624
