https://surfdrive.surf.nl/files/index.php/s/B7PEqFZSZZBPcW8/download?path=%2FData%2FInput%2FDatasets%2FHiba%2FImages&files=H_352.jpg,5184,3456
H_352,daylight,wood,"[130, 130, 130]","['6035291', '6151663', '4181144', '4649749']"
6035291,1653,1924,1893,2140
6151663,2362,1790,2587,1876
4181144,3172,1715,3490,2322
4649749,2502,1599,2712,1768
