https://surfdrive.surf.nl/files/index.php/s/B7PEqFZSZZBPcW8/download?path=%2FData%2FInput%2FDatasets%2FHiba%2FImages&files=H_354.jpg,5184,3456
H_354,daylight,wood,"[130, 130, 130]","['6035291', '6151663', '4181144', '4649749', '4639693']"
6035291,1294,1636,1554,1892
6151663,2187,1631,2521,1852
4649749,2393,1788,2742,2024
4639693,3233,1305,4494,2122
4181144,2332,851,3068,1361
