https://surfdrive.surf.nl/files/index.php/s/B7PEqFZSZZBPcW8/download?path=%2FData%2FInput%2FDatasets%2FHiba%2FImages&files=H_355.jpg,5184,3456
H_355,daylight,wood,"[130, 130, 130]","['6035291', '6151663', '4181144', '4649749', '4639693']"
6035291,1229,1390,1405,1624
6151663,1562,2426,1804,2768
4181144,1731,1964,2312,2339
4649749,2260,822,2949,1602
4639693,2554,1653,3612,2100
