https://surfdrive.surf.nl/files/index.php/s/B7PEqFZSZZBPcW8/download?path=%2FData%2FInput%2FDatasets%2FHiba%2FImages&files=H_361.jpg,5184,3456
H_361,daylight,wood,"[130, 130, 130]","['6035291', '6151663', '4181144', '4649749', '4639693', '300124', '4160403']"
6035291,2244,1368,2383,1522
6151663,1275,1046,1464,1153
4181144,2185,1572,2696,2104
4649749,2206,1429,2350,1587
4639693,3471,1226,4172,1776
300124,2338,1101,2737,1375
4160403,2399,2214,3239,2503
