https://surfdrive.surf.nl/files/index.php/s/B7PEqFZSZZBPcW8/download?path=%2FData%2FInput%2FDatasets%2FHiba%2FImages&files=H_360.jpg,5184,3455
H_360,daylight,wood,"[130, 130, 130]","['6035291', '6151663', '4181144', '4649749', '4639693', '300124', '4160403']"
6035291,1995,1140,2215,1282
6151663,1894,1314,2031,1459
4181144,1474,1377,1814,1915
4649749,2281,1331,2464,1524
4639693,2744,1127,3348,1800
300124,2636,712,2979,998
4160403,1990,2076,2572,2853
