https://surfdrive.surf.nl/files/index.php/s/B7PEqFZSZZBPcW8/download?path=%2FData%2FInput%2FDatasets%2FHiba%2FImages&files=H_400.jpg,5184,3456
H_400,daylight,wood,"[130, 130, 130]","['4211166', '4647553', '4114319']"
4211166,1651,662,1912,918
4647553,625,2288,1074,2667
4114319,3610,1216,4292,1840
