https://surfdrive.surf.nl/files/index.php/s/B7PEqFZSZZBPcW8/download?path=%2FData%2FInput%2FDatasets%2FHiba%2FImages&files=H_405.jpg,5184,3456
H_405,daylight,wood,"[130, 130, 130]","['4211166', '4647553', '4114319', '4550348', '4567338']"
4114319,2219,1439,2674,1951
4647553,2174,1824,2428,2132
4567338,2771,1643,2948,1736
4211166,2764,1432,2952,1558
4550348,2155,1211,2423,1362
