https://surfdrive.surf.nl/files/index.php/s/B7PEqFZSZZBPcW8/download?path=%2FData%2FInput%2FDatasets%2FHiba%2FImages&files=H_427.jpg,5184,3456
H_427,daylight,parquet_brown_medium,"[120, 120, 120]","['4157124', '4121967', '6075075', '4181144', '4655172', '4153825', '614321', '300821', '4181135']"
4157124,3087,1802,3248,1880
4121967,2200,2526,2378,2700
6075075,2858,1922,3003,2060
4181144,1854,1729,2216,2184
4655172,1674,1876,1886,2214
4153825,2370,1193,2521,1324
614321,2534,1582,2679,1728
300821,2256,1789,2915,1932
4181135,2038,1274,2462,1556
