https://surfdrive.surf.nl/files/index.php/s/B7PEqFZSZZBPcW8/download?path=%2FData%2FInput%2FDatasets%2FHiba%2FImages&files=H_430.jpg,5184,3456
H_430,daylight,parquet_brown_medium,"[120, 120, 120]","['4157124', '4121967', '6075075', '4181144', '4655172', '4153825', '614321', '300821']"
4181144,1025,1308,1266,1740
614321,2144,1065,2280,1231
4153825,2590,1223,2800,1430
4655172,2473,1619,2656,1973
6075075,1670,1973,1878,2120
4157124,3041,1923,3166,2075
4121967,3531,1691,3697,1868
300821,2396,2073,3202,2546
