https://surfdrive.surf.nl/files/index.php/s/B7PEqFZSZZBPcW8/download?path=%2FData%2FInput%2FDatasets%2FHiba%2FImages&files=H_452.jpg,5184,3456
H_452,daylight,parquet_brown_medium,"[120, 120, 120]","['4160403', '4539099', '6225539', '6151663', '4550348', '6252809', '4548180', '365901']"
4160403,2551,2153,3074,2282
4539099,2467,1719,2559,1819
6225539,1908,1573,2051,1908
6151663,2034,2052,2208,2170
4550348,2074,2255,2240,2328
6252809,3162,1295,3850,1567
4548180,2368,1736,2463,1855
365901,1909,2165,2111,2472
