https://surfdrive.surf.nl/files/index.php/s/B7PEqFZSZZBPcW8/download?path=%2FData%2FInput%2FDatasets%2FHiba%2FImages&files=H_459.jpg,5184,3456
H_459,daylight,parquet_brown_medium,"[120, 120, 120]","['4160403', '4539099', '6225539', '6151663', '4550348', '6252809']"
4160403,1392,2273,2083,2612
4539099,2127,1478,2559,1668
6225539,3309,1016,3660,1388
6151663,1666,1218,1803,1342
4550348,2514,1798,2642,1986
6252809,1441,1382,2481,1807
