https://surfdrive.surf.nl/files/index.php/s/B7PEqFZSZZBPcW8/download?path=%2FData%2FInput%2FDatasets%2FHiba%2FImages&files=H_460.jpg,5184,3456
H_460,daylight,parquet_brown_medium,"[120, 120, 120]","['4160403', '4539099', '6225539', '6151663', '4550348', '6252809']"
4160403,988,1693,1224,2172
4539099,1563,1667,1643,1799
6225539,3146,1644,3761,2021
6151663,1669,1150,1825,1290
4550348,2994,1825,3213,1948
6252809,2013,1476,3000,1690
