https://surfdrive.surf.nl/files/index.php/s/B7PEqFZSZZBPcW8/download?path=%2FData%2FInput%2FDatasets%2FHiba%2FImages&files=H_484.jpg,5184,3456
H_484,daylight,parquet_brown_medium,"[120, 120, 120]","['6028324', '4114319', '6004938', '300121', '300421', '6249125']"
6004938,2544,1902,2677,2033
4114319,2255,1743,2521,2047
6249125,2994,1578,3099,1657
300421,1903,1911,2046,2091
300121,1915,1618,2113,1903
6028324,2749,858,2878,982
