https://surfdrive.surf.nl/files/index.php/s/B7PEqFZSZZBPcW8/download?path=%2FData%2FInput%2FDatasets%2FHiba%2FImages&files=H_512.jpg,5184,3456
H_512,daylight,parquet_brown_medium,"[120, 120, 120]","['4520632', '4181134', '4211201', '4504369', '6025026', '6244886', '623224', '4529247', '654126', '4211511']"
4520632,2391,1604,2663,1913
6244886,3035,1678,3273,1898
623224,3254,1727,3417,1976
4211511,2506,1263,2591,1382
4211201,1675,1579,2008,1871
4529247,2010,1859,2066,1983
4181134,1776,2087,2183,2589
654126,2449,2087,2569,2247
4504369,3074,2073,3166,2169
6025026,3220,2561,3313,2755
