https://surfdrive.surf.nl/files/index.php/s/B7PEqFZSZZBPcW8/download?path=%2FData%2FInput%2FDatasets%2FHiba%2FImages&files=H_522.jpg,5184,3456
H_522,daylight,parquet_brown_medium,"[120, 120, 120]","['4520632', '4181134', '4211201', '4504369', '6025026', '6244886', '623224']"
4520632,2493,1792,2662,2056
4181134,1540,1808,1985,2132
4211201,2622,1369,2876,1486
4504369,3469,1452,3557,1532
6025026,3361,1700,3458,1803
6244886,2690,1214,2868,1342
623224,3288,1876,3451,2049
