https://surfdrive.surf.nl/files/index.php/s/B7PEqFZSZZBPcW8/download?path=%2FData%2FInput%2FDatasets%2FHiba%2FImages&files=H_531.jpg,5184,3456
H_531,daylight,table_plastic_grey,"[120, 120, 120]","['4504381', '4165967', '4211221', '6177697', '4210718', '6035291', '6069259', '4109995', '4504381', '4527943', '4212454', '4647553']"
6035291,1018,1980,1212,2175
4527943,2028,2220,2248,2459
6177697,2973,1857,3108,2226
4165967,2345,1586,2753,1909
4647553,1879,1657,2054,1877
4109995,1918,887,2073,1016
4210718,2740,1243,3096,1527
4211221,3154,815,3374,1016
6069259,2998,809,3141,1003
4212454,2662,725,2778,809
4504381,3542,751,3646,809
4504381,3762,770,3827,854
