https://surfdrive.surf.nl/files/index.php/s/B7PEqFZSZZBPcW8/download?path=%2FData%2FInput%2FDatasets%2FHiba%2FImages&files=H_538.jpg,5184,3456
H_538,daylight,table_plastic_grey,"[120, 120, 120]","['4504381', '4165967', '4211221', '6177697', '4210718', '6035291', '6069259', '4109995', '4504381', '4527943']"
4109995,3173,911,3276,1008
6177697,3518,1312,3615,1588
6035291,3705,1858,3802,2052
4210718,2454,1181,2772,1347
4504381,2559,1640,2630,1721
4165967,1593,843,1887,929
4527943,1849,2419,1977,2560
6069259,2381,2332,2475,2484
4504381,3072,2394,3148,2484
4211221,1452,1492,1604,1644
