https://surfdrive.surf.nl/files/index.php/s/B7PEqFZSZZBPcW8/download?path=%2FData%2FInput%2FDatasets%2FHiba%2FImages&files=H_557.jpg,5184,3456
H_557,daylight,table_plastic_grey,"[120, 120, 120]","['6022023', '4143562', '300323', '6238674', '300401', '300423', '300123', '300821', '4649749', '4118793', '306223']"
6022023,2478,1166,2618,1271
4143562,2275,1306,2380,1416
300323,2702,1435,2848,1624
6238674,2047,1752,2136,1847
300401,2885,2261,3071,2381
300423,2231,1186,2359,1282
300123,2974,1092,3140,1300
300821,1551,1006,1785,1386
4649749,1479,2020,1555,2145
4118793,3118,1570,3225,1674
306223,2951,2147,3061,2244
