https://surfdrive.surf.nl/files/index.php/s/B7PEqFZSZZBPcW8/download?path=%2FData%2FInput%2FDatasets%2FHiba%2FImages&files=H_566.jpg,5184,3456
H_566,daylight,table_plastic_grey,"[120, 120, 120]","['6138173', '6075079', '4650630', '300424', '300321', '4121967', '6223631', '614321', '4121739', '4527943', '365901', '6238674', '300423']"
6138173,2966,1669,3116,1816
6075079,4012,1241,4145,1367
4650630,2750,1500,2919,1673
300424,2854,1754,3003,1938
300321,3182,1207,3332,1350
4121967,3548,1501,3702,1599
6223631,2514,2038,2615,2141
614321,2458,918,2587,1017
4121739,2168,1636,2340,1756
4527943,1763,1990,1907,2117
365901,2581,1344,2911,1519
6238674,3436,892,3541,957
300423,2388,1817,2570,2006
