https://surfdrive.surf.nl/files/index.php/s/B7PEqFZSZZBPcW8/download?path=%2FData%2FInput%2FDatasets%2FHiba%2FImages&files=H_56.jpg,5184,3455
H_56,daylight,wood,"[130, 130, 130]","['4211511', '4529240', '614321']"
4211511,3250,1443,3376,1579
4529240,3566,1697,3664,1808
614321,2214,1583,2405,1811
