https://surfdrive.surf.nl/files/index.php/s/B7PEqFZSZZBPcW8/download?path=%2FData%2FInput%2FDatasets%2FHiba%2FImages&files=H_6.jpg,5184,3455
H_6,daylight,wood,"[130, 130, 130]","['623224', '6022023']"
623224,1799,1466,2002,1676
6022023,3406,1590,3598,1797
