https://surfdrive.surf.nl/files/index.php/s/B7PEqFZSZZBPcW8/download?path=%2FData%2FInput%2FDatasets%2FHiba%2FImages&files=H_618.jpg,5184,3455
H_618,daylight,table_plastic_grey,"[120, 120, 120]","['300124', '4181135', '6004938', '4114319', '300323', '6104154', '6003007', '4153827', '4211511', '4649749', '4211054', '4160403']"
300124,2554,876,2912,1072
4181135,1908,2332,2558,2874
6004938,2328,976,2454,1102
4114319,2652,2043,2954,2525
300323,3745,1116,3993,1334
6104154,1608,761,1790,907
6003007,3607,1364,3688,1502
4153827,2747,1428,3101,1715
4211511,3634,1560,3783,1677
4649749,2312,1557,2409,1736
4211054,2463,1381,2704,1635
4160403,3230,1815,3701,2211
