https://surfdrive.surf.nl/files/index.php/s/B7PEqFZSZZBPcW8/download?path=%2FData%2FInput%2FDatasets%2FHiba%2FImages&files=H_625.jpg,5184,3456
H_625,daylight,parquet_brown_light,"[120, 120, 120]","['300124', '4181135', '6004938', '4114319', '300323', '6104154', '6003007', '4153827', '4211511', '4649749']"
300124,3775,1620,4088,2039
4181135,2424,1158,3064,1394
6004938,1312,1876,1485,2029
4114319,2192,1645,2664,1887
300323,3577,701,3840,905
6104154,1955,1555,2175,1790
6003007,3647,2143,3811,2331
4153827,1767,1951,2258,2415
4211511,2604,558,2738,702
4649749,1052,1537,1263,1702
