https://surfdrive.surf.nl/files/index.php/s/B7PEqFZSZZBPcW8/download?path=%2FData%2FInput%2FDatasets%2FHiba%2FImages&files=H_672.jpg,5184,3456
H_672,daylight,parquet_brown_light,"[120, 120, 120]","['6069259', '4165967', '6238674', '4181144', '4558957', '4181134', '6244886', '4504369', '4143562', '4210718']"
6069259,2436,2354,2657,2627
4165967,2016,902,2376,1161
6238674,2370,1788,2523,1937
4181144,2180,2128,2921,2410
4558957,2906,1077,3260,1362
4181134,2439,1236,2962,1707
6244886,3144,2194,3401,2505
4504369,2129,1419,2239,1533
4143562,3126,1396,3370,1587
4210718,3140,1709,3665,1997
