https://surfdrive.surf.nl/files/index.php/s/B7PEqFZSZZBPcW8/download?path=%2FData%2FInput%2FDatasets%2FHiba%2FImages&files=H_687.jpg,5184,3456
H_687,daylight,parquet_brown_light,"[120, 120, 120]","['6138173', '6229071', '6075079', '4650630', '300424', '4527943', '300321', '4153825', '306201', '4558957']"
6138173,3347,1073,3521,1196
6229071,3102,1173,3273,1360
6075079,3658,995,3818,1089
4650630,3397,1829,3694,2079
300424,2088,837,2184,1005
4527943,1596,1326,1773,1518
300321,2810,1104,3000,1277
4153825,3088,710,3267,841
306201,1444,989,1537,1100
4558957,2322,1787,2753,2186
