https://surfdrive.surf.nl/files/index.php/s/B7PEqFZSZZBPcW8/download?path=%2FData%2FInput%2FDatasets%2FHiba%2FImages&files=H_699.jpg,5184,3456
H_699,daylight,parquet_brown_light,"[120, 120, 120]","['4160403', '4211221', '614321', '6073026', '6035291', '6025026', '4520632', '6177697', '4639693', '6022023', '4211614', '4118793']"
4160403,1372,1174,1672,1656
4211221,3210,2573,3524,2903
614321,2376,1766,2626,1984
6073026,3700,1252,3855,1383
6035291,1477,1703,1704,1895
6025026,1289,1747,1430,1928
4520632,1649,1900,1936,2355
6177697,2587,1192,3002,1349
4639693,3409,1775,3881,2612
6022023,2377,1570,2706,1780
4211614,2386,864,2578,1042
4118793,2306,2165,2426,2349
