https://surfdrive.surf.nl/files/index.php/s/B7PEqFZSZZBPcW8/download?path=%2FData%2FInput%2FDatasets%2FHiba%2FImages&files=H_72.jpg,5184,3456
H_72,daylight,wood,"[130, 130, 130]","['4211511', '4529240', '614321', '300423', '4212454', '6062574', '4650630', '4529247', '6004938']"
6004938,3828,2333,3940,2492
4529247,3474,1654,3578,1768
4529240,3362,1032,3426,1127
4650630,2400,1584,2582,1793
614321,2050,1688,2226,1881
4212454,1491,2528,1642,2661
6062574,1396,2487,1512,2622
300423,1179,1892,1357,2088
4211511,961,1753,1071,1863
