https://surfdrive.surf.nl/files/index.php/s/B7PEqFZSZZBPcW8/download?path=%2FData%2FInput%2FDatasets%2FHiba%2FImages&files=H_721.jpg,5184,3456
H_721,daylight,parquet_brown_light,"[120, 120, 120]","['6062574', '300123', '4655172', '6225539', '4517992', '6074890', '6022064', '4621545', '4211201', '4539099', '4550325', '4157124', '6069259']"
4211201,1560,832,2010,1128
4157124,1886,1101,2077,1195
6225539,2239,910,2673,1386
6022064,2868,745,3127,955
300123,2966,1296,3307,1701
4655172,2280,1574,2786,1945
6062574,2115,1574,2246,1742
4539099,1335,1338,1459,1476
6074890,1620,1825,1766,1994
4550325,1182,2211,1463,2503
4517992,2576,2166,2865,2481
6069259,3206,2245,3483,2413
4621545,3239,2494,3449,2811
