https://surfdrive.surf.nl/files/index.php/s/B7PEqFZSZZBPcW8/download?path=%2FData%2FInput%2FDatasets%2FHiba%2FImages&files=H_735.jpg,5184,3455
H_735,daylight,parquet_brown_light,"[120, 120, 120]","['6062574', '300123', '4655172', '6225539', '4517992', '6074890', '6022064', '4621545']"
6225539,2705,1363,3208,1660
300123,3030,1170,3392,1399
6022064,2463,1202,2747,1299
6062574,2437,1633,2547,1718
4517992,1647,1697,1928,1874
4621545,2640,2217,2892,2353
4655172,1857,2050,2344,2333
6074890,1422,1058,1528,1171
