https://surfdrive.surf.nl/files/index.php/s/B7PEqFZSZZBPcW8/download?path=%2FData%2FInput%2FDatasets%2FHiba%2FImages&files=H_733.jpg,5184,3456
H_733,daylight,parquet_brown_light,"[120, 120, 120]","['6062574', '300123', '4655172', '6225539', '4517992', '6074890', '6022064', '4621545', '4211201']"
4655172,2950,916,3277,1201
4211201,3378,1010,3721,1212
6062574,2791,1179,2881,1315
6225539,2274,1040,2527,1409
6074890,1880,1302,1970,1422
4621545,2681,1314,2830,1507
6022064,1560,1804,1841,1939
4517992,2126,1737,2385,1984
300123,2100,2052,2587,2404
