https://surfdrive.surf.nl/files/index.php/s/B7PEqFZSZZBPcW8/download?path=%2FData%2FInput%2FDatasets%2FHiba%2FImages&files=H_755.jpg,5184,3456
H_755,artificial_light,parquet_brown_medium,"[120, 120, 120]","['300323', '6028324', '4651236', '300124', '6004938', '4211412', '300121']"
6028324,1357,1327,1550,1510
4651236,2315,1208,2550,1589
300121,2333,1594,2496,1802
300124,2506,1572,2932,1852
6004938,3224,2179,3392,2382
300323,2479,1966,2699,2211
4211412,1533,2065,1674,2211
