https://surfdrive.surf.nl/files/index.php/s/B7PEqFZSZZBPcW8/download?path=%2FData%2FInput%2FDatasets%2FHiba%2FImages&files=H_758.jpg,5184,3456
H_758,artificial_light,parquet_brown_medium,"[120, 120, 120]","['4550348', '4153827', '300421', '6003007', '4211437', '654126', '4181135', '6252809', '4211437', '4548180', '4211149', '4655172', '4529247']"
4181135,2190,1739,3088,2230
4153827,3104,1585,3549,2013
4529247,2649,1647,2849,1784
6003007,2916,1475,3085,1655
4548180,3085,1295,3330,1493
300421,2688,1049,2936,1281
6252809,1754,1251,2812,2046
4655172,1207,1613,1740,1974
4211149,1468,1340,1679,1606
654126,2105,1284,2268,1470
4211437,2082,977,2340,1180
4211437,2085,820,2322,1002
4550348,3252,935,3465,1023
