https://surfdrive.surf.nl/files/index.php/s/B7PEqFZSZZBPcW8/download?path=%2FData%2FInput%2FDatasets%2FHiba%2FImages&files=H_763.jpg,5184,3456
H_763,artificial_light,parquet_brown_medium,"[120, 120, 120]","['4550348', '4153827', '300421', '6003007', '4211437', '654126', '4181135', '6252809', '4211437', '4548180', '4211149', '4655172']"
4550348,2478,1454,2560,1584
4153827,2722,1206,2973,1431
300421,4082,2256,4263,2418
6003007,2019,1680,2092,1753
4211437,2770,1665,2834,1792
4211437,4172,2072,4312,2224
654126,2301,1591,2430,1678
4181135,2197,1894,2560,2344
6252809,2720,1630,3037,2307
4548180,1437,1844,1604,1955
4211149,3684,1596,3858,1703
4655172,2329,1804,2570,2077
