https://surfdrive.surf.nl/files/index.php/s/B7PEqFZSZZBPcW8/download?path=%2FData%2FInput%2FDatasets%2FHiba%2FImages&files=H_766.jpg,5184,3456
H_766,artificial_light,parquet_brown_medium,"[120, 120, 120]","['4550348', '4153827', '300421', '6003007', '4211437', '654126', '4181135', '6252809', '4211437', '4548180', '4211149']"
4153827,1133,2107,1340,2557
4181135,3114,2209,3828,2578
4550348,2476,1576,2600,1726
4548180,2404,1859,2619,2061
6003007,3023,1902,3137,2005
6252809,3078,1403,3897,1686
300421,3642,1253,3743,1417
4211437,2268,1365,2455,1510
654126,2646,1340,2735,1448
4211437,2107,1688,2251,1849
4211149,1661,1756,1825,1982
