https://surfdrive.surf.nl/files/index.php/s/B7PEqFZSZZBPcW8/download?path=%2FData%2FInput%2FDatasets%2FHiba%2FImages&files=H_780.jpg,5184,3455
H_780,artificial_light,parquet_brown_medium,"[120, 120, 120]","['4550348', '4153827', '300421', '6003007', '4211437', '654126']"
4550348,1902,1520,2058,1664
4153827,2483,1333,2651,1513
300421,2574,978,2714,1116
6003007,2478,1330,2651,1535
4211437,2408,1302,2525,1448
654126,2666,2098,2804,2246
