https://surfdrive.surf.nl/files/index.php/s/B7PEqFZSZZBPcW8/download?path=%2FData%2FInput%2FDatasets%2FHiba%2FImages&files=H_791.jpg,5184,3456
H_791,artificial_light,parquet_brown_medium,"[120, 120, 120]","['4114319', '300401', '6075075', '6151663', '306223', '4157124', '4181134', '4529247', '6252809', '6073026']"
6151663,2925,1592,3126,1935
6075075,3595,1570,3863,2039
306223,2426,1667,2634,1808
4181134,1860,1830,2046,1957
4529247,1458,1905,1584,2106
4157124,2709,1912,2843,2024
6073026,1677,1089,1782,1171
4114319,1923,1067,2698,1491
300401,3011,1179,3107,1313
6252809,2050,1290,2147,1410
