https://surfdrive.surf.nl/files/index.php/s/B7PEqFZSZZBPcW8/download?path=%2FData%2FInput%2FDatasets%2FHiba%2FImages&files=H_80.jpg,5184,3455
H_80,daylight,wood,"[130, 130, 130]","['4647553', '4153825']"
4647553,2527,1705,2700,1995
4153825,3261,1629,3526,1925
