https://surfdrive.surf.nl/files/index.php/s/B7PEqFZSZZBPcW8/download?path=%2FData%2FInput%2FDatasets%2FHiba%2FImages&files=H_810.jpg,5184,3456
H_810,artificial_light,parquet_brown_medium,"[120, 120, 120]","['4109995', '4504381', '4211614', '4504369', '4165967', '4181144', '6238674', '6249125', '4118793', '4181135', '4211054', '300124']"
4504381,2138,2395,2280,2531
6249125,2908,2142,3050,2278
4181144,2901,1819,3510,2233
300124,3121,1288,3484,1631
6238674,3348,1508,3419,1637
4165967,3115,938,3464,1197
4181135,2442,1204,2636,1754
4211614,2487,1812,2610,2045
4504369,1931,1683,2073,1773
4109995,2092,1489,2280,1696
4211054,1626,1443,1846,1657
4118793,1012,1314,1154,1450
