https://surfdrive.surf.nl/files/index.php/s/B7PEqFZSZZBPcW8/download?path=%2FData%2FInput%2FDatasets%2FDavid%2FImages&files=C_157.jpg,5472,3648
C_157,daylight,coffee_table,"[130, 130, 130]","['4121739', '6025026', '6238674', '6104154', '4121739']"
4121739,2208,1349,2492,1631
4121739,3029,1980,3333,2237
6025026,1996,1550,2248,1665
6238674,2002,1641,2189,1754
6104154,2549,2074,2815,2285
