https://surfdrive.surf.nl/files/index.php/s/B7PEqFZSZZBPcW8/download?path=%2FData%2FInput%2FDatasets%2FDavid%2FImages&files=C_25.jpg,5472,3647
C_25,daylight,coffee_table,"[130, 130, 130]","['300121', '4567338', '4211149', '6022023', '6075075', '4118793', '4647553', '4655172', '4550325']"
300121,2260,1685,2607,1967
4567338,2952,1047,3058,1128
4211149,2247,1472,2366,1630
6022023,3235,1227,3425,1408
6075075,1576,1161,1740,1283
4118793,3300,1401,3412,1529
4647553,2101,1108,2255,1256
4655172,2173,1113,2466,1376
4550325,2411,1592,2588,1715
