https://surfdrive.surf.nl/files/index.php/s/B7PEqFZSZZBPcW8/download?path=%2FData%2FInput%2FDatasets%2FDavid%2FImages&files=C_256.jpg,5472,3648
C_256,daylight,coffee_table,"[130, 130, 130]","['6223631', '300424', '4153825']"
6223631,2128,1885,2268,2029
300424,2427,1872,2598,2112
4153825,3312,1402,3504,1688
