https://surfdrive.surf.nl/files/index.php/s/B7PEqFZSZZBPcW8/download?path=%2FData%2FInput%2FDatasets%2FDavid%2FImages&files=C_406.jpg,5472,3647
C_406,daylight,living_room_floor,"[130, 130, 130]","['300421', '300321', '300424', '614321', '4153827']"
300421,2315,1797,2493,1928
300321,2797,886,2953,1091
300424,2708,671,2842,850
614321,2623,1818,2794,1963
4153827,3672,1831,3875,2172
