https://surfdrive.surf.nl/files/index.php/s/B7PEqFZSZZBPcW8/download?path=%2FData%2FInput%2FDatasets%2FDavid%2FImages&files=C_410.jpg,5472,3648
C_410,daylight,living_room_floor,"[130, 130, 130]","['300421', '300321', '300424', '614321', '4153827', '4165967']"
300421,1764,1636,1887,1826
300321,3362,1658,3606,1893
300424,3141,2065,3361,2273
614321,2634,1776,2805,1944
4153827,3398,1024,3631,1345
4165967,2474,1292,2824,1506
