https://surfdrive.surf.nl/files/index.php/s/B7PEqFZSZZBPcW8/download?path=%2FData%2FInput%2FDatasets%2FDavid%2FImages&files=C_476.jpg,5472,3648
C_476,daylight,dining_table,"[130, 130, 130]","['4153825', '4621545']"
4153825,2548,1703,2789,1969
4621545,3266,1797,3484,1948
