https://surfdrive.surf.nl/files/index.php/s/B7PEqFZSZZBPcW8/download?path=%2FData%2FInput%2FDatasets%2FDavid%2FImages&files=C_541.jpg,5472,3648
C_541,daylight,couch,"[130, 130, 130]","['6177697', '6223631', '6073026', '300124', '4647553', '6035291', '4109995', '4527943']"
6177697,2709,1255,3088,1448
6223631,2296,2109,2418,2241
6073026,4079,1083,4214,1191
300124,2952,1067,3330,1370
4647553,2288,1523,2485,1617
6035291,2730,1668,2845,1851
4109995,3018,1545,3229,1673
4527943,3261,1306,3416,1458
