https://surfdrive.surf.nl/files/index.php/s/B7PEqFZSZZBPcW8/download?path=%2FData%2FInput%2FDatasets%2FHiba%2FImages&files=H_177.jpg,5184,3456
H_177,daylight,wood,"[130, 130, 130]","['4211412', '4153825', '4210718', '6104154', '4157124', '4121739']"
4211412,3610,1570,3779,1723
4153825,2307,1382,2469,1694
4210718,1078,2005,1671,2512
6104154,900,1217,1051,1423
4157124,2964,1979,3222,2167
4121739,2578,1915,2870,2189
