https://surfdrive.surf.nl/files/index.php/s/B7PEqFZSZZBPcW8/download?path=%2FData%2FInput%2FDatasets%2FHiba%2FImages&files=H_335.jpg,5184,3456
H_335,daylight,wood,"[130, 130, 130]","['6022064', '300421']"
6022064,2409,1553,2821,1715
300421,2394,1943,2746,2207
