https://surfdrive.surf.nl/files/index.php/s/B7PEqFZSZZBPcW8/download?path=%2FData%2FInput%2FDatasets%2FHiba%2FImages&files=H_376.jpg,5184,3456
H_376,daylight,wood,"[130, 130, 130]","['365901', '300424', '4529247', '4211412', '6238674']"
365901,3752,1267,4020,1697
300424,1715,1938,1976,2309
4529247,2087,1005,2185,1151
4211412,2531,1883,2757,2056
6238674,2278,1465,2480,1639
