https://surfdrive.surf.nl/files/index.php/s/B7PEqFZSZZBPcW8/download?path=%2FData%2FInput%2FDatasets%2FHiba%2FImages&files=H_412.jpg,5184,3456
H_412,daylight,wood,"[130, 130, 130]","['4211166', '4647553', '4114319', '4550348', '4567338', '4211437', '4621545']"
4211166,3442,1168,3667,1319
4647553,2373,889,2530,1113
4114319,1196,1937,1754,2680
4550348,925,1106,1164,1284
4567338,1235,1451,1458,1587
4211437,1826,1152,2050,1438
4621545,2489,1548,2745,1884
