https://surfdrive.surf.nl/files/index.php/s/B7PEqFZSZZBPcW8/download?path=%2FData%2FInput%2FDatasets%2FHiba%2FImages&files=H_45.jpg,5184,3456
H_45,daylight,wood,"[130, 130, 130]","['4210718', '6249125', '4504381', '4558957', '4651236']"
4210718,1518,2027,1732,2554
6249125,2634,1617,2741,1749
4504381,2560,1336,2693,1440
4558957,2411,1539,2820,1902
4651236,2432,2191,2615,2417
