https://surfdrive.surf.nl/files/index.php/s/B7PEqFZSZZBPcW8/download?path=%2FData%2FInput%2FDatasets%2FBerend%2FImages&files=B_193.jpg,4608,3072
4181134,2264,1954,3032,2552
300821,2514,1712,3521,1988
4529247,1442,2109,1650,2276
4211412,1654,1428,1840,1560
306223,1087,893,1258,1067
