https://surfdrive.surf.nl/files/index.php/s/B7PEqFZSZZBPcW8/download?path=%2FData%2FInput%2FDatasets%2FDavid%2FImages&files=C_293.jpg,5472,3648
6151663,3337,1713,3544,1899
365901,3157,1558,3414,2088
4211201,2348,1589,2852,2084
4211054,2492,1301,2825,1598
300401,2411,955,2672,1176
6249125,2892,2039,3050,2192
6252809,1802,785,2108,1823
