https://surfdrive.surf.nl/files/index.php/s/B7PEqFZSZZBPcW8/download?path=%2FData%2FInput%2FDatasets%2FHiba%2FImages&files=H_258.jpg,5184,3456
4160403,1024,1873,1226,2288
6075079,2141,1412,2276,1527
6069259,4367,2035,4551,2205
300421,2402,1766,2559,1889
4647553,2881,1609,3035,1764
6104154,2620,1854,2766,2038
4649749,3099,1630,3200,1769
300123,2633,1660,2977,1907
6035291,2969,1732,3107,1838
