https://surfdrive.surf.nl/files/index.php/s/B7PEqFZSZZBPcW8/download?path=%2FData%2FInput%2FDatasets%2FBerend%2FImages&files=B_100.jpg,4608,3072
4211221,2509,1944,3096,2519
6022064,1703,1070,1979,1535
