https://surfdrive.surf.nl/files/index.php/s/B7PEqFZSZZBPcW8/download?path=%2FData%2FInput%2FDatasets%2FDavid%2FImages&files=C_766.jpg,5472,3648
4520632,2518,1619,3147,1974
4211511,2212,1902,2473,2203
300421,1915,2068,2176,2446
6074890,3161,1304,3376,1511
4558957,1938,1205,2531,1785
