https://surfdrive.surf.nl/files/index.php/s/B7PEqFZSZZBPcW8/download?path=%2FData%2FInput%2FDatasets%2FBerend%2FImages&files=B_671.jpg,4608,3072
4650630,782,876,1266,1288
6223631,2446,1391,2663,1585
300424,1889,1288,2282,1621
300321,1532,1730,1937,2185
4527943,3244,1222,3607,1621
4160403,1834,1615,2282,2578
