https://surfdrive.surf.nl/files/index.php/s/B7PEqFZSZZBPcW8/download?path=%2FData%2FInput%2FDatasets%2FDavid%2FImages&files=C_308.jpg,5472,3648
4650630,2454,1795,2759,2110
6223631,2687,1535,2827,1665
