Name,Labels,Blocks,Image
B_1119,"['brick 1', 'brick 2', 'brick 3', 'brick 4', 'brick 5', 'brick 6', 'brick 7', 'brick 8', ]","['6075075', '4160403', '6252809', '4651236', '300821', '4181144', '4655172', '4539099']",https://surfdrive.surf.nl/files/index.php/s/B7PEqFZSZZBPcW8/download?path=%2FData%2FInput%2FDatasets%2FBerend%2FImages&files=B_1119.jpg
B_1008,"['brick 1', 'brick 2', 'brick 3', 'brick 4', 'brick 5', 'brick 6', 'brick 7', 'brick 8', 'brick 9', ]","['4504369', '4181135', '4520632', '4529247', '300321', '6075075', '6252809', '4181144', '6244886']",https://surfdrive.surf.nl/files/index.php/s/B7PEqFZSZZBPcW8/download?path=%2FData%2FInput%2FDatasets%2FBerend%2FImages&files=B_1008.jpg
H_729,"['brick 1', 'brick 2', 'brick 3', 'brick 4', 'brick 5', 'brick 6', 'brick 7', 'brick 8', 'brick 9', 'brick 10', ]","['6062574', '300123', '4655172', '6225539', '4517992', '6074890', '6022064', '4621545', '4211201', '4539099']",https://surfdrive.surf.nl/files/index.php/s/B7PEqFZSZZBPcW8/download?path=%2FData%2FInput%2FDatasets%2FHiba%2FImages&files=H_729.jpg
B_998,"['brick 1', 'brick 2', 'brick 3', 'brick 4', 'brick 5', 'brick 6', 'brick 7', 'brick 8', 'brick 9', 'brick 10', 'brick 11', 'brick 12', 'brick 13', ]","['4504369', '4181135', '4520632', '4529247', '300321', '6075075', '6252809', '4181144', '6244886', '6004938', '4157124', '4109995', '4211149']",https://surfdrive.surf.nl/files/index.php/s/B7PEqFZSZZBPcW8/download?path=%2FData%2FInput%2FDatasets%2FBerend%2FImages&files=B_998.jpg
H_444,"['brick 1', 'brick 2', 'brick 3', 'brick 4', 'brick 5', 'brick 6', 'brick 7', 'brick 8', 'brick 9', 'brick 10', ]","['4160403', '4539099', '6225539', '6151663', '4550348', '6252809', '4548180', '365901', '6229071', '6138173']",https://surfdrive.surf.nl/files/index.php/s/B7PEqFZSZZBPcW8/download?path=%2FData%2FInput%2FDatasets%2FHiba%2FImages&files=H_444.jpg
C_875,"['brick 1', 'brick 2', 'brick 3', 'brick 4', 'brick 5', 'brick 6', 'brick 7', 'brick 8', 'brick 9', 'brick 10', ]","['4539099', '4153825', '6022064', '4211511', '4517992', '6022023', '4621545', '4520632', '6229071', '6035291']",https://surfdrive.surf.nl/files/index.php/s/B7PEqFZSZZBPcW8/download?path=%2FData%2FInput%2FDatasets%2FDavid%2FImages&files=C_875.jpg
C_842,"['brick 1', 'brick 2', 'brick 3', 'brick 4', 'brick 5', 'brick 6', 'brick 7', 'brick 8', 'brick 9', 'brick 10', 'brick 11', 'brick 12', 'brick 13', ]","['6138173', '6069259', '6223631', '4211166', '6075079', '300424', '6177697', '4639693', '4504369', '4567338', '6229071', '4211149', '4212454']",https://surfdrive.surf.nl/files/index.php/s/B7PEqFZSZZBPcW8/download?path=%2FData%2FInput%2FDatasets%2FDavid%2FImages&files=C_842.jpg
B_1198,"['brick 1', 'brick 2', 'brick 3', 'brick 4', 'brick 5', 'brick 6', 'brick 7', 'brick 8', 'brick 9', 'brick 10', 'brick 11', 'brick 12', ]","['4211412', '623224', '6244886', '4153827', '4211201', '300323', '6069259', '6229071', '4211149', '4143562', '4650630', '300321']",https://surfdrive.surf.nl/files/index.php/s/B7PEqFZSZZBPcW8/download?path=%2FData%2FInput%2FDatasets%2FBerend%2FImages&files=B_1198.jpg
B_1092,"['brick 1', 'brick 2', 'brick 3', 'brick 4', 'brick 5', 'brick 6', 'brick 7', 'brick 8', 'brick 9', 'brick 10', 'brick 11', 'brick 12', ]","['6244886', '4211201', '4153827', '6229071', '300321', '4165967', '6225539', '4548180', '306201', '6028324', '614321', '300121']",https://surfdrive.surf.nl/files/index.php/s/B7PEqFZSZZBPcW8/download?path=%2FData%2FInput%2FDatasets%2FBerend%2FImages&files=B_1092.jpg
B_966,"['brick 1', 'brick 2', 'brick 3', 'brick 4', 'brick 5', 'brick 6', 'brick 7', 'brick 8', 'brick 9', ]","['6244886', '6022023', '300821', '4181134', '300121', '4143562', '300123', '4114319', '6075079']",https://surfdrive.surf.nl/files/index.php/s/B7PEqFZSZZBPcW8/download?path=%2FData%2FInput%2FDatasets%2FBerend%2FImages&files=B_966.jpg
C_836,"['brick 1', 'brick 2', 'brick 3', 'brick 4', 'brick 5', 'brick 6', 'brick 7', 'brick 8', 'brick 9', 'brick 10', ]","['365901', '300821', '4212454', '4567338', '300423', '6104154', '4143562', '6244886', '4210718', '6075075']",https://surfdrive.surf.nl/files/index.php/s/B7PEqFZSZZBPcW8/download?path=%2FData%2FInput%2FDatasets%2FDavid%2FImages&files=C_836.jpg
C_848,"['brick 1', 'brick 2', 'brick 3', 'brick 4', 'brick 5', 'brick 6', 'brick 7', 'brick 8', 'brick 9', 'brick 10', 'brick 11', ]","['6138173', '6069259', '6223631', '4211166', '6075079', '300424', '6177697', '4639693', '4504369', '4567338', '6229071']",https://surfdrive.surf.nl/files/index.php/s/B7PEqFZSZZBPcW8/download?path=%2FData%2FInput%2FDatasets%2FDavid%2FImages&files=C_848.jpg
B_1080,"['brick 1', 'brick 2', 'brick 3', 'brick 4', 'brick 5', 'brick 6', 'brick 7', 'brick 8', 'brick 9', 'brick 10', 'brick 11', ]","['4529247', '6062574', '614321', '6022064', '6028324', '4211149', '4211412', '6138173', '4211511', '4210718', '4143562']",https://surfdrive.surf.nl/files/index.php/s/B7PEqFZSZZBPcW8/download?path=%2FData%2FInput%2FDatasets%2FBerend%2FImages&files=B_1080.jpg
C_903,"['brick 1', 'brick 2', 'brick 3', 'brick 4', 'brick 5', 'brick 6', 'brick 7', 'brick 8', 'brick 9', 'brick 10', ]","['4529240', '6074890', '623224', '6025026', '4650630', '6028324', '4211412', '300121', '4181134', '4153827']",https://surfdrive.surf.nl/files/index.php/s/B7PEqFZSZZBPcW8/download?path=%2FData%2FInput%2FDatasets%2FDavid%2FImages&files=C_903.jpg
H_668,"['brick 1', 'brick 2', 'brick 3', 'brick 4', 'brick 5', 'brick 6', 'brick 7', 'brick 8', 'brick 9', 'brick 10', 'brick 11', ]","['6069259', '4165967', '6238674', '4181144', '4558957', '4181134', '6244886', '4504369', '4143562', '4210718', '4548180']",https://surfdrive.surf.nl/files/index.php/s/B7PEqFZSZZBPcW8/download?path=%2FData%2FInput%2FDatasets%2FHiba%2FImages&files=H_668.jpg
B_1021,"['brick 1', 'brick 2', 'brick 3', 'brick 4', 'brick 5', 'brick 6', 'brick 7', 'brick 8', 'brick 9', 'brick 10', 'brick 11', ]","['4211201', '4211412', '4639693', '4153827', '4160403', '4539099', '300821', '300121', '4121967', '4181134', '300323']",https://surfdrive.surf.nl/files/index.php/s/B7PEqFZSZZBPcW8/download?path=%2FData%2FInput%2FDatasets%2FBerend%2FImages&files=B_1021.jpg
B_871,"['brick 1', 'brick 2', 'brick 3', 'brick 4', 'brick 5', 'brick 6', 'brick 7', 'brick 8', 'brick 9', 'brick 10', ]","['4517992', '300121', '6022023', '300821', '300123', '6028324', '4143562', '6244886', '6022064', '4655172']",https://surfdrive.surf.nl/files/index.php/s/B7PEqFZSZZBPcW8/download?path=%2FData%2FInput%2FDatasets%2FBerend%2FImages&files=B_871.jpg
B_1125,"['brick 1', 'brick 2', 'brick 3', 'brick 4', 'brick 5', 'brick 6', 'brick 7', 'brick 8', 'brick 9', 'brick 10', 'brick 11', 'brick 12', ]","['4181135', '4649749', '300424', '6249125', '6003007', '4650630', '4181134', '306223', '4114319', '4651236', '4548180', '4558957']",https://surfdrive.surf.nl/files/index.php/s/B7PEqFZSZZBPcW8/download?path=%2FData%2FInput%2FDatasets%2FBerend%2FImages&files=B_1125.jpg
B_1075,"['brick 1', 'brick 2', 'brick 3', 'brick 4', 'brick 5', 'brick 6', 'brick 7', 'brick 8', 'brick 9', 'brick 10', 'brick 11', 'brick 12', 'brick 13', ]","['4529247', '6062574', '614321', '6022064', '6028324', '4211149', '4211412', '6138173', '4211511', '4210718', '4143562', '4181135', '6249125']",https://surfdrive.surf.nl/files/index.php/s/B7PEqFZSZZBPcW8/download?path=%2FData%2FInput%2FDatasets%2FBerend%2FImages&files=B_1075.jpg
B_1110,"['brick 1', 'brick 2', 'brick 3', 'brick 4', 'brick 5', 'brick 6', 'brick 7', 'brick 8', 'brick 9', 'brick 10', 'brick 11', ]","['6075075', '4160403', '6252809', '4651236', '300821', '4181144', '4655172', '4539099', '6022064', '6073026', '300323']",https://surfdrive.surf.nl/files/index.php/s/B7PEqFZSZZBPcW8/download?path=%2FData%2FInput%2FDatasets%2FBerend%2FImages&files=B_1110.jpg
B_1157,"['brick 1', 'brick 2', 'brick 3', 'brick 4', 'brick 5', 'brick 6', 'brick 7', 'brick 8', 'brick 9', ]","['300121', '365901', '300421', '4211149', '300124', '6062574', '4639693', '300123', '6025026']",https://surfdrive.surf.nl/files/index.php/s/B7PEqFZSZZBPcW8/download?path=%2FData%2FInput%2FDatasets%2FBerend%2FImages&files=B_1157.jpg
H_735,"['brick 1', 'brick 2', 'brick 3', 'brick 4', 'brick 5', 'brick 6', 'brick 7', 'brick 8', ]","['6062574', '300123', '4655172', '6225539', '4517992', '6074890', '6022064', '4621545']",https://surfdrive.surf.nl/files/index.php/s/B7PEqFZSZZBPcW8/download?path=%2FData%2FInput%2FDatasets%2FHiba%2FImages&files=H_735.jpg
H_451,"['brick 1', 'brick 2', 'brick 3', 'brick 4', 'brick 5', 'brick 6', 'brick 7', 'brick 8', ]","['4160403', '4539099', '6225539', '6151663', '4550348', '6252809', '4548180', '365901']",https://surfdrive.surf.nl/files/index.php/s/B7PEqFZSZZBPcW8/download?path=%2FData%2FInput%2FDatasets%2FHiba%2FImages&files=H_451.jpg
B_1190,"['brick 1', 'brick 2', 'brick 3', 'brick 4', 'brick 5', 'brick 6', 'brick 7', 'brick 8', 'brick 9', 'brick 10', ]","['4517992', '4504369', '4504381', '4165967', '6138173', '300321', '4212454', '4520632', '4211614', '300123']",https://surfdrive.surf.nl/files/index.php/s/B7PEqFZSZZBPcW8/download?path=%2FData%2FInput%2FDatasets%2FBerend%2FImages&files=B_1190.jpg
H_771,"['brick 1', 'brick 2', 'brick 3', 'brick 4', 'brick 5', 'brick 6', 'brick 7', 'brick 8', ]","['4550348', '4153827', '300421', '6003007', '4211437', '654126', '4181135', '6252809']",https://surfdrive.surf.nl/files/index.php/s/B7PEqFZSZZBPcW8/download?path=%2FData%2FInput%2FDatasets%2FHiba%2FImages&files=H_771.jpg
C_971,"['brick 1', 'brick 2', 'brick 3', 'brick 4', 'brick 5', 'brick 6', 'brick 7', 'brick 8', 'brick 9', ]","['654126', '6004938', '4210718', '6238674', '4539099', '4651236', '4153825', '4114319', '4211149']",https://surfdrive.surf.nl/files/index.php/s/B7PEqFZSZZBPcW8/download?path=%2FData%2FInput%2FDatasets%2FDavid%2FImages&files=C_971.jpg
B_1184,"['brick 1', 'brick 2', 'brick 3', 'brick 4', 'brick 5', 'brick 6', 'brick 7', 'brick 8', 'brick 9', 'brick 10', 'brick 11', ]","['4517992', '4504369', '4504381', '4165967', '6138173', '300321', '4212454', '4520632', '4211614', '300123', '6022064']",https://surfdrive.surf.nl/files/index.php/s/B7PEqFZSZZBPcW8/download?path=%2FData%2FInput%2FDatasets%2FBerend%2FImages&files=B_1184.jpg
H_587,"['brick 1', 'brick 2', 'brick 3', 'brick 4', 'brick 5', 'brick 6', 'brick 7', 'brick 8', 'brick 9', 'brick 10', 'brick 11', ]","['4157124', '4211511', '6022064', '4211149', '4550348', '4651236', '4539099', '4550325', '4548180', '623224', '4121967']",https://surfdrive.surf.nl/files/index.php/s/B7PEqFZSZZBPcW8/download?path=%2FData%2FInput%2FDatasets%2FHiba%2FImages&files=H_587.jpg
C_980,"['brick 1', 'brick 2', 'brick 3', 'brick 4', 'brick 5', 'brick 6', ]","['654126', '6004938', '4210718', '6238674', '4539099', '4651236']",https://surfdrive.surf.nl/files/index.php/s/B7PEqFZSZZBPcW8/download?path=%2FData%2FInput%2FDatasets%2FDavid%2FImages&files=C_980.jpg
B_936,"['brick 1', 'brick 2', 'brick 3', 'brick 4', 'brick 5', 'brick 6', 'brick 7', 'brick 8', 'brick 9', 'brick 10', 'brick 11', ]","['654126', '4153827', '4160403', '4651236', '4655172', '4550325', '4517992', '4211201', '4550348', '4121739', '300124']",https://surfdrive.surf.nl/files/index.php/s/B7PEqFZSZZBPcW8/download?path=%2FData%2FInput%2FDatasets%2FBerend%2FImages&files=B_936.jpg
B_1199,"['brick 1', 'brick 2', 'brick 3', 'brick 4', 'brick 5', 'brick 6', 'brick 7', 'brick 8', 'brick 9', 'brick 10', 'brick 11', 'brick 12', ]","['4211412', '623224', '6244886', '4153827', '4211201', '300323', '6069259', '6229071', '4211149', '4143562', '4650630', '300321']",https://surfdrive.surf.nl/files/index.php/s/B7PEqFZSZZBPcW8/download?path=%2FData%2FInput%2FDatasets%2FBerend%2FImages&files=B_1199.jpg
B_931,"['brick 1', 'brick 2', 'brick 3', 'brick 4', 'brick 5', 'brick 6', 'brick 7', 'brick 8', 'brick 9', 'brick 10', 'brick 11', 'brick 12', ]","['654126', '4153827', '4160403', '4651236', '4655172', '4550325', '4517992', '4211201', '4550348', '4121739', '300124', '6075075']",https://surfdrive.surf.nl/files/index.php/s/B7PEqFZSZZBPcW8/download?path=%2FData%2FInput%2FDatasets%2FBerend%2FImages&files=B_931.jpg
H_423,"['brick 1', 'brick 2', 'brick 3', 'brick 4', 'brick 5', 'brick 6', 'brick 7', 'brick 8', 'brick 9', 'brick 10', ]","['4157124', '4121967', '6075075', '4181144', '4655172', '4153825', '614321', '300821', '4181135', '4550325']",https://surfdrive.surf.nl/files/index.php/s/B7PEqFZSZZBPcW8/download?path=%2FData%2FInput%2FDatasets%2FHiba%2FImages&files=H_423.jpg
B_1115,"['brick 1', 'brick 2', 'brick 3', 'brick 4', 'brick 5', 'brick 6', 'brick 7', 'brick 8', 'brick 9', 'brick 10', ]","['6075075', '4160403', '6252809', '4651236', '300821', '4181144', '4655172', '4539099', '6022064', '6073026']",https://surfdrive.surf.nl/files/index.php/s/B7PEqFZSZZBPcW8/download?path=%2FData%2FInput%2FDatasets%2FBerend%2FImages&files=B_1115.jpg
C_1017,"['brick 1', 'brick 2', 'brick 3', 'brick 4', 'brick 5', 'brick 6', 'brick 7', 'brick 8', 'brick 9', 'brick 10', ]","['4109995', '6073026', '4165967', '300124', '6225539', '4211511', '4181144', '4520632', '300321', '4550325']",https://surfdrive.surf.nl/files/index.php/s/B7PEqFZSZZBPcW8/download?path=%2FData%2FInput%2FDatasets%2FDavid%2FImages&files=C_1017.jpg
H_555,"['brick 1', 'brick 2', 'brick 3', 'brick 4', 'brick 5', 'brick 6', 'brick 7', 'brick 8', 'brick 9', 'brick 10', 'brick 11', 'brick 12', ]","['6022023', '4143562', '300323', '6238674', '300401', '300423', '300123', '300821', '4649749', '4118793', '306223', '4212454']",https://surfdrive.surf.nl/files/index.php/s/B7PEqFZSZZBPcW8/download?path=%2FData%2FInput%2FDatasets%2FHiba%2FImages&files=H_555.jpg
C_943,"['brick 1', 'brick 2', 'brick 3', 'brick 4', 'brick 5', 'brick 6', 'brick 7', 'brick 8', 'brick 9', 'brick 10', 'brick 11', ]","['300821', '4143562', '4211149', '4655172', '300321', '6249125', '4550348', '4211221', '300323', '4504381', '4639693']",https://surfdrive.surf.nl/files/index.php/s/B7PEqFZSZZBPcW8/download?path=%2FData%2FInput%2FDatasets%2FDavid%2FImages&files=C_943.jpg
B_1018,"['brick 1', 'brick 2', 'brick 3', 'brick 4', 'brick 5', 'brick 6', 'brick 7', 'brick 8', 'brick 9', 'brick 10', 'brick 11', 'brick 12', ]","['4211201', '4211412', '4639693', '4153827', '4160403', '4539099', '300821', '300121', '4121967', '4181134', '300323', '4181135']",https://surfdrive.surf.nl/files/index.php/s/B7PEqFZSZZBPcW8/download?path=%2FData%2FInput%2FDatasets%2FBerend%2FImages&files=B_1018.jpg
H_449,"['brick 1', 'brick 2', 'brick 3', 'brick 4', 'brick 5', 'brick 6', 'brick 7', 'brick 8', ]","['4160403', '4539099', '6225539', '6151663', '4550348', '6252809', '4548180', '365901']",https://surfdrive.surf.nl/files/index.php/s/B7PEqFZSZZBPcW8/download?path=%2FData%2FInput%2FDatasets%2FHiba%2FImages&files=H_449.jpg
H_439,"['brick 1', 'brick 2', 'brick 3', 'brick 4', 'brick 5', 'brick 6', 'brick 7', 'brick 8', 'brick 9', 'brick 10', 'brick 11', 'brick 12', ]","['4160403', '4539099', '6225539', '6151663', '4550348', '6252809', '4548180', '365901', '6229071', '6138173', '4121739', '4211054']",https://surfdrive.surf.nl/files/index.php/s/B7PEqFZSZZBPcW8/download?path=%2FData%2FInput%2FDatasets%2FHiba%2FImages&files=H_439.jpg
B_1149,"['brick 1', 'brick 2', 'brick 3', 'brick 4', 'brick 5', 'brick 6', 'brick 7', 'brick 8', 'brick 9', 'brick 10', 'brick 11', ]","['300121', '365901', '300421', '4211149', '300124', '6062574', '4639693', '300123', '6025026', '4651236', '6104154']",https://surfdrive.surf.nl/files/index.php/s/B7PEqFZSZZBPcW8/download?path=%2FData%2FInput%2FDatasets%2FBerend%2FImages&files=B_1149.jpg
H_700,"['brick 1', 'brick 2', 'brick 3', 'brick 4', 'brick 5', 'brick 6', 'brick 7', 'brick 8', 'brick 9', 'brick 10', 'brick 11', 'brick 12', ]","['4160403', '4211221', '614321', '6073026', '6035291', '6025026', '4520632', '6177697', '4639693', '6022023', '4211614', '4118793']",https://surfdrive.surf.nl/files/index.php/s/B7PEqFZSZZBPcW8/download?path=%2FData%2FInput%2FDatasets%2FHiba%2FImages&files=H_700.jpg
B_1039,"['brick 1', 'brick 2', 'brick 3', 'brick 4', 'brick 5', 'brick 6', 'brick 7', 'brick 8', 'brick 9', 'brick 10', ]","['654126', '4504381', '4517992', '4211221', '6177697', '6022023', '4550325', '4114319', '4143562', '4655172']",https://surfdrive.surf.nl/files/index.php/s/B7PEqFZSZZBPcW8/download?path=%2FData%2FInput%2FDatasets%2FBerend%2FImages&files=B_1039.jpg
B_900,"['brick 1', 'brick 2', 'brick 3', 'brick 4', 'brick 5', 'brick 6', 'brick 7', 'brick 8', ]","['4165967', '623224', '6075075', '6225539', '4504369', '6252809', '4181135', '4211511']",https://surfdrive.surf.nl/files/index.php/s/B7PEqFZSZZBPcW8/download?path=%2FData%2FInput%2FDatasets%2FBerend%2FImages&files=B_900.jpg
B_1071,"['brick 1', 'brick 2', 'brick 3', 'brick 4', 'brick 5', 'brick 6', 'brick 7', ]","['4109995', '300123', '623224', '4520632', '6025026', '4504369', '4157124']",https://surfdrive.surf.nl/files/index.php/s/B7PEqFZSZZBPcW8/download?path=%2FData%2FInput%2FDatasets%2FBerend%2FImages&files=B_1071.jpg
H_697,"['brick 1', 'brick 2', 'brick 3', 'brick 4', 'brick 5', 'brick 6', 'brick 7', 'brick 8', 'brick 9', 'brick 10', 'brick 11', 'brick 12', 'brick 13', ]","['4160403', '4211221', '614321', '6073026', '6035291', '6025026', '4520632', '6177697', '4639693', '6022023', '4211614', '4118793', '6244886']",https://surfdrive.surf.nl/files/index.php/s/B7PEqFZSZZBPcW8/download?path=%2FData%2FInput%2FDatasets%2FHiba%2FImages&files=H_697.jpg
H_695,"['brick 1', 'brick 2', 'brick 3', 'brick 4', 'brick 5', 'brick 6', 'brick 7', 'brick 8', 'brick 9', 'brick 10', 'brick 11', 'brick 12', 'brick 13', ]","['4160403', '4211221', '614321', '6073026', '6035291', '6025026', '4520632', '6177697', '4639693', '6022023', '4211614', '4118793', '6244886']",https://surfdrive.surf.nl/files/index.php/s/B7PEqFZSZZBPcW8/download?path=%2FData%2FInput%2FDatasets%2FHiba%2FImages&files=H_695.jpg
B_969,"['brick 1', 'brick 2', 'brick 3', 'brick 4', 'brick 5', 'brick 6', 'brick 7', 'brick 8', ]","['6244886', '6022023', '300821', '4181134', '300121', '4143562', '300123', '4114319']",https://surfdrive.surf.nl/files/index.php/s/B7PEqFZSZZBPcW8/download?path=%2FData%2FInput%2FDatasets%2FBerend%2FImages&files=B_969.jpg
C_928,"['brick 1', 'brick 2', 'brick 3', 'brick 4', 'brick 5', 'brick 6', 'brick 7', 'brick 8', 'brick 9', 'brick 10', ]","['365901', '306201', '4529247', '300423', '6003007', '6244886', '6104154', '300421', '6062574', '6075075']",https://surfdrive.surf.nl/files/index.php/s/B7PEqFZSZZBPcW8/download?path=%2FData%2FInput%2FDatasets%2FDavid%2FImages&files=C_928.jpg
B_1099,"['brick 1', 'brick 2', 'brick 3', 'brick 4', 'brick 5', 'brick 6', 'brick 7', 'brick 8', 'brick 9', 'brick 10', ]","['6244886', '4211201', '4153827', '6229071', '300321', '4165967', '6225539', '4548180', '306201', '6028324']",https://surfdrive.surf.nl/files/index.php/s/B7PEqFZSZZBPcW8/download?path=%2FData%2FInput%2FDatasets%2FBerend%2FImages&files=B_1099.jpg
H_734,"['brick 1', 'brick 2', 'brick 3', 'brick 4', 'brick 5', 'brick 6', 'brick 7', 'brick 8', ]","['6062574', '300123', '4655172', '6225539', '4517992', '6074890', '6022064', '4621545']",https://surfdrive.surf.nl/files/index.php/s/B7PEqFZSZZBPcW8/download?path=%2FData%2FInput%2FDatasets%2FHiba%2FImages&files=H_734.jpg
B_1046,"['brick 1', 'brick 2', 'brick 3', 'brick 4', 'brick 5', 'brick 6', 'brick 7', 'brick 8', ]","['654126', '4504381', '4517992', '4211221', '6177697', '6022023', '4550325', '4114319']",https://surfdrive.surf.nl/files/index.php/s/B7PEqFZSZZBPcW8/download?path=%2FData%2FInput%2FDatasets%2FBerend%2FImages&files=B_1046.jpg
H_694,"['brick 1', 'brick 2', 'brick 3', 'brick 4', 'brick 5', 'brick 6', 'brick 7', 'brick 8', ]","['6138173', '6229071', '6075079', '4650630', '300424', '4527943', '300321', '4153825']",https://surfdrive.surf.nl/files/index.php/s/B7PEqFZSZZBPcW8/download?path=%2FData%2FInput%2FDatasets%2FHiba%2FImages&files=H_694.jpg
B_952,"['brick 1', 'brick 2', 'brick 3', 'brick 4', 'brick 5', 'brick 6', ]","['654126', '4153827', '4160403', '4651236', '4655172', '4550325']",https://surfdrive.surf.nl/files/index.php/s/B7PEqFZSZZBPcW8/download?path=%2FData%2FInput%2FDatasets%2FBerend%2FImages&files=B_952.jpg
H_434,"['brick 1', 'brick 2', 'brick 3', 'brick 4', 'brick 5', 'brick 6', ]","['4157124', '4121967', '6075075', '4181144', '4655172', '4153825']",https://surfdrive.surf.nl/files/index.php/s/B7PEqFZSZZBPcW8/download?path=%2FData%2FInput%2FDatasets%2FHiba%2FImages&files=H_434.jpg
H_653,"['brick 1', 'brick 2', 'brick 3', 'brick 4', 'brick 5', 'brick 6', 'brick 7', 'brick 8', 'brick 9', 'brick 10', ]","['4109995', '6249125', '365901', '306201', '300423', '4212454', '4211201', '300821', '4529240', '4567338']",https://surfdrive.surf.nl/files/index.php/s/B7PEqFZSZZBPcW8/download?path=%2FData%2FInput%2FDatasets%2FHiba%2FImages&files=H_653.jpg
H_547,"['brick 1', 'brick 2', 'brick 3', 'brick 4', 'brick 5', 'brick 6', 'brick 7', ]","['4504381', '4165967', '4211221', '6177697', '4210718', '6035291', '6069259']",https://surfdrive.surf.nl/files/index.php/s/B7PEqFZSZZBPcW8/download?path=%2FData%2FInput%2FDatasets%2FHiba%2FImages&files=H_547.jpg
C_977,"['brick 1', 'brick 2', 'brick 3', 'brick 4', 'brick 5', 'brick 6', 'brick 7', ]","['654126', '6004938', '4210718', '6238674', '4539099', '4651236', '4153825']",https://surfdrive.surf.nl/files/index.php/s/B7PEqFZSZZBPcW8/download?path=%2FData%2FInput%2FDatasets%2FDavid%2FImages&files=C_977.jpg
C_1025,"['brick 1', 'brick 2', 'brick 3', 'brick 4', 'brick 5', 'brick 6', 'brick 7', ]","['4109995', '6073026', '4165967', '300124', '6225539', '4211511', '4181144']",https://surfdrive.surf.nl/files/index.php/s/B7PEqFZSZZBPcW8/download?path=%2FData%2FInput%2FDatasets%2FDavid%2FImages&files=C_1025.jpg
C_958,"['brick 1', 'brick 2', 'brick 3', 'brick 4', 'brick 5', 'brick 6', 'brick 7', 'brick 8', 'brick 9', 'brick 10', 'brick 11', 'brick 12', ]","['654126', '6004938', '4210718', '6238674', '4539099', '4651236', '4153825', '4114319', '4211149', '4647553', '6177697', '300421']",https://surfdrive.surf.nl/files/index.php/s/B7PEqFZSZZBPcW8/download?path=%2FData%2FInput%2FDatasets%2FDavid%2FImages&files=C_958.jpg
C_898,"['brick 1', 'brick 2', 'brick 3', 'brick 4', 'brick 5', 'brick 6', 'brick 7', 'brick 8', 'brick 9', 'brick 10', 'brick 11', ]","['4529240', '6074890', '623224', '6025026', '4650630', '6028324', '4211412', '300121', '4181134', '4153827', '4567338']",https://surfdrive.surf.nl/files/index.php/s/B7PEqFZSZZBPcW8/download?path=%2FData%2FInput%2FDatasets%2FDavid%2FImages&files=C_898.jpg
B_1085,"['brick 1', 'brick 2', 'brick 3', 'brick 4', 'brick 5', 'brick 6', 'brick 7', 'brick 8', 'brick 9', 'brick 10', ]","['4529247', '6062574', '614321', '6022064', '6028324', '4211149', '4211412', '6138173', '4211511', '4210718']",https://surfdrive.surf.nl/files/index.php/s/B7PEqFZSZZBPcW8/download?path=%2FData%2FInput%2FDatasets%2FBerend%2FImages&files=B_1085.jpg
H_797,"['brick 1', 'brick 2', 'brick 3', 'brick 4', 'brick 5', 'brick 6', 'brick 7', 'brick 8', ]","['4114319', '300401', '6075075', '6151663', '306223', '4157124', '4181134', '4529247']",https://surfdrive.surf.nl/files/index.php/s/B7PEqFZSZZBPcW8/download?path=%2FData%2FInput%2FDatasets%2FHiba%2FImages&files=H_797.jpg
H_458,"['brick 1', 'brick 2', 'brick 3', 'brick 4', 'brick 5', 'brick 6', ]","['4160403', '4539099', '6225539', '6151663', '4550348', '6252809']",https://surfdrive.surf.nl/files/index.php/s/B7PEqFZSZZBPcW8/download?path=%2FData%2FInput%2FDatasets%2FHiba%2FImages&files=H_458.jpg
B_941,"['brick 1', 'brick 2', 'brick 3', 'brick 4', 'brick 5', 'brick 6', 'brick 7', 'brick 8', 'brick 9', 'brick 10', ]","['654126', '4153827', '4160403', '4651236', '4655172', '4550325', '4517992', '4211201', '4550348', '4121739']",https://surfdrive.surf.nl/files/index.php/s/B7PEqFZSZZBPcW8/download?path=%2FData%2FInput%2FDatasets%2FBerend%2FImages&files=B_941.jpg
B_1177,"['brick 1', 'brick 2', 'brick 3', 'brick 4', 'brick 5', 'brick 6', 'brick 7', ]","['4210718', '6022023', '4211221', '654126', '4550325', '4109995', '6177697']",https://surfdrive.surf.nl/files/index.php/s/B7PEqFZSZZBPcW8/download?path=%2FData%2FInput%2FDatasets%2FBerend%2FImages&files=B_1177.jpg
B_976,"['brick 1', 'brick 2', 'brick 3', 'brick 4', 'brick 5', 'brick 6', 'brick 7', 'brick 8', 'brick 9', 'brick 10', 'brick 11', 'brick 12', ]","['4211511', '6028324', '614321', '4165967', '6225539', '6138173', '6229071', '623224', '4651236', '4211054', '4121967', '6252809']",https://surfdrive.surf.nl/files/index.php/s/B7PEqFZSZZBPcW8/download?path=%2FData%2FInput%2FDatasets%2FBerend%2FImages&files=B_976.jpg
H_492,"['brick 1', 'brick 2', 'brick 3', 'brick 4', 'brick 5', 'brick 6', 'brick 7', 'brick 8', 'brick 9', 'brick 10', 'brick 11', ]","['4639693', '4211437', '4649749', '6062574', '4517992', '300124', '4153827', '4211412', '4118793', '4558957', '4181144']",https://surfdrive.surf.nl/files/index.php/s/B7PEqFZSZZBPcW8/download?path=%2FData%2FInput%2FDatasets%2FHiba%2FImages&files=H_492.jpg
H_531,"['brick 1', 'brick 2', 'brick 3', 'brick 4', 'brick 5', 'brick 6', 'brick 7', 'brick 8', 'brick 9', 'brick 10', 'brick 11', ]","['4504381', '4165967', '4211221', '6177697', '4210718', '6035291', '6069259', '4109995', '4527943', '4212454', '4647553']",https://surfdrive.surf.nl/files/index.php/s/B7PEqFZSZZBPcW8/download?path=%2FData%2FInput%2FDatasets%2FHiba%2FImages&files=H_531.jpg
B_1211,"['brick 1', 'brick 2', 'brick 3', 'brick 4', 'brick 5', 'brick 6', 'brick 7', 'brick 8', 'brick 9', 'brick 10', 'brick 11', ]","['4157124', '4121967', '6075075', '4181144', '4655172', '4153825', '614321', '300821', '4181135', '4550325', '6223631']",https://surfdrive.surf.nl/files/index.php/s/B7PEqFZSZZBPcW8/download?path=%2FData%2FInput%2FDatasets%2FBerend%2FImages&files=B_1211.jpg
B_964,"['brick 1', 'brick 2', 'brick 3', 'brick 4', 'brick 5', 'brick 6', 'brick 7', 'brick 8', 'brick 9', 'brick 10', ]","['6244886', '6022023', '300821', '4181134', '300121', '4143562', '300123', '4114319', '6075079', '4157124']",https://surfdrive.surf.nl/files/index.php/s/B7PEqFZSZZBPcW8/download?path=%2FData%2FInput%2FDatasets%2FBerend%2FImages&files=B_964.jpg
C_863,"['brick 1', 'brick 2', 'brick 3', 'brick 4', 'brick 5', 'brick 6', ]","['6138173', '6069259', '6223631', '4211166', '6075079', '300424']",https://surfdrive.surf.nl/files/index.php/s/B7PEqFZSZZBPcW8/download?path=%2FData%2FInput%2FDatasets%2FDavid%2FImages&files=C_863.jpg
B_1148,"['brick 1', 'brick 2', 'brick 3', 'brick 4', 'brick 5', 'brick 6', 'brick 7', 'brick 8', 'brick 9', 'brick 10', 'brick 11', 'brick 12', ]","['300121', '365901', '300421', '4211149', '300124', '6062574', '4639693', '300123', '6025026', '4651236', '6104154', '4181135']",https://surfdrive.surf.nl/files/index.php/s/B7PEqFZSZZBPcW8/download?path=%2FData%2FInput%2FDatasets%2FBerend%2FImages&files=B_1148.jpg
C_985,"['brick 1', 'brick 2', 'brick 3', 'brick 4', 'brick 5', 'brick 6', 'brick 7', 'brick 8', 'brick 9', 'brick 10', 'brick 11', 'brick 12', ]","['4527943', '300401', '4550325', '4211201', '4121967', '306223', '4157124', '6022064', '614321', '6069259', '6138173', '6075079']",https://surfdrive.surf.nl/files/index.php/s/B7PEqFZSZZBPcW8/download?path=%2FData%2FInput%2FDatasets%2FDavid%2FImages&files=C_985.jpg
C_983,"['brick 1', 'brick 2', 'brick 3', 'brick 4', 'brick 5', 'brick 6', 'brick 7', 'brick 8', 'brick 9', 'brick 10', 'brick 11', 'brick 12', 'brick 13', ]","['4527943', '300401', '4550325', '4211201', '4121967', '306223', '4157124', '6022064', '614321', '6069259', '6138173', '6075079', '4529240']",https://surfdrive.surf.nl/files/index.php/s/B7PEqFZSZZBPcW8/download?path=%2FData%2FInput%2FDatasets%2FDavid%2FImages&files=C_983.jpg
C_989,"['brick 1', 'brick 2', 'brick 3', 'brick 4', 'brick 5', 'brick 6', 'brick 7', 'brick 8', 'brick 9', 'brick 10', 'brick 11', ]","['4527943', '300401', '4550325', '4211201', '4121967', '306223', '4157124', '6022064', '614321', '6069259', '6138173']",https://surfdrive.surf.nl/files/index.php/s/B7PEqFZSZZBPcW8/download?path=%2FData%2FInput%2FDatasets%2FDavid%2FImages&files=C_989.jpg
B_894,"['brick 1', 'brick 2', 'brick 3', 'brick 4', 'brick 5', 'brick 6', 'brick 7', 'brick 8', 'brick 9', 'brick 10', ]","['4165967', '623224', '6075075', '6225539', '4504369', '6252809', '4181135', '4211511', '4181134', '4529240']",https://surfdrive.surf.nl/files/index.php/s/B7PEqFZSZZBPcW8/download?path=%2FData%2FInput%2FDatasets%2FBerend%2FImages&files=B_894.jpg
B_1010,"['brick 1', 'brick 2', 'brick 3', 'brick 4', 'brick 5', 'brick 6', 'brick 7', 'brick 8', 'brick 9', ]","['4504369', '4181135', '4520632', '4529247', '300321', '6075075', '6252809', '4181144', '6244886']",https://surfdrive.surf.nl/files/index.php/s/B7PEqFZSZZBPcW8/download?path=%2FData%2FInput%2FDatasets%2FBerend%2FImages&files=B_1010.jpg
C_852,"['brick 1', 'brick 2', 'brick 3', 'brick 4', 'brick 5', 'brick 6', 'brick 7', 'brick 8', 'brick 9', 'brick 10', ]","['6138173', '6069259', '6223631', '4211166', '6075079', '300424', '6177697', '4639693', '4504369', '4567338']",https://surfdrive.surf.nl/files/index.php/s/B7PEqFZSZZBPcW8/download?path=%2FData%2FInput%2FDatasets%2FDavid%2FImages&files=C_852.jpg
C_825,"['brick 1', 'brick 2', 'brick 3', 'brick 4', 'brick 5', 'brick 6', ]","['4109995', '4504381', '4211614', '4504369', '4165967', '4181144']",https://surfdrive.surf.nl/files/index.php/s/B7PEqFZSZZBPcW8/download?path=%2FData%2FInput%2FDatasets%2FDavid%2FImages&files=C_825.jpg
H_431,"['brick 1', 'brick 2', 'brick 3', 'brick 4', 'brick 5', 'brick 6', 'brick 7', ]","['4157124', '4121967', '6075075', '4181144', '4655172', '4153825', '614321']",https://surfdrive.surf.nl/files/index.php/s/B7PEqFZSZZBPcW8/download?path=%2FData%2FInput%2FDatasets%2FHiba%2FImages&files=H_431.jpg
B_977,"['brick 1', 'brick 2', 'brick 3', 'brick 4', 'brick 5', 'brick 6', 'brick 7', 'brick 8', 'brick 9', 'brick 10', 'brick 11', 'brick 12', ]","['4211511', '6028324', '614321', '4165967', '6225539', '6138173', '6229071', '623224', '4651236', '4211054', '4121967', '6252809']",https://surfdrive.surf.nl/files/index.php/s/B7PEqFZSZZBPcW8/download?path=%2FData%2FInput%2FDatasets%2FBerend%2FImages&files=B_977.jpg
C_827,"['brick 1', 'brick 2', 'brick 3', 'brick 4', 'brick 5', 'brick 6', 'brick 7', 'brick 8', 'brick 9', 'brick 10', 'brick 11', 'brick 12', 'brick 13', ]","['365901', '300821', '4212454', '4567338', '300423', '6104154', '4143562', '6244886', '4210718', '6075075', '300321', '300323', '4550325']",https://surfdrive.surf.nl/files/index.php/s/B7PEqFZSZZBPcW8/download?path=%2FData%2FInput%2FDatasets%2FDavid%2FImages&files=C_827.jpg
C_851,"['brick 1', 'brick 2', 'brick 3', 'brick 4', 'brick 5', 'brick 6', 'brick 7', 'brick 8', 'brick 9', 'brick 10', ]","['6138173', '6069259', '6223631', '4211166', '6075079', '300424', '6177697', '4639693', '4504369', '4567338']",https://surfdrive.surf.nl/files/index.php/s/B7PEqFZSZZBPcW8/download?path=%2FData%2FInput%2FDatasets%2FDavid%2FImages&files=C_851.jpg
H_756,"['brick 1', 'brick 2', 'brick 3', 'brick 4', 'brick 5', 'brick 6', 'brick 7', ]","['300323', '6028324', '4651236', '300124', '6004938', '4211412', '300121']",https://surfdrive.surf.nl/files/index.php/s/B7PEqFZSZZBPcW8/download?path=%2FData%2FInput%2FDatasets%2FHiba%2FImages&files=H_756.jpg
H_647,"['brick 1', 'brick 2', 'brick 3', 'brick 4', 'brick 5', 'brick 6', 'brick 7', 'brick 8', 'brick 9', 'brick 10', 'brick 11', 'brick 12', ]","['4109995', '6249125', '365901', '306201', '300423', '4212454', '4211201', '300821', '4529240', '4567338', '306223', '4649749']",https://surfdrive.surf.nl/files/index.php/s/B7PEqFZSZZBPcW8/download?path=%2FData%2FInput%2FDatasets%2FHiba%2FImages&files=H_647.jpg
C_901,"['brick 1', 'brick 2', 'brick 3', 'brick 4', 'brick 5', 'brick 6', 'brick 7', 'brick 8', 'brick 9', 'brick 10', ]","['4529240', '6074890', '623224', '6025026', '4650630', '6028324', '4211412', '300121', '4181134', '4153827']",https://surfdrive.surf.nl/files/index.php/s/B7PEqFZSZZBPcW8/download?path=%2FData%2FInput%2FDatasets%2FDavid%2FImages&files=C_901.jpg
B_874,"['brick 1', 'brick 2', 'brick 3', 'brick 4', 'brick 5', 'brick 6', 'brick 7', 'brick 8', 'brick 9', ]","['4517992', '300121', '6022023', '300821', '300123', '6028324', '4143562', '6244886', '6022064']",https://surfdrive.surf.nl/files/index.php/s/B7PEqFZSZZBPcW8/download?path=%2FData%2FInput%2FDatasets%2FBerend%2FImages&files=B_874.jpg
B_1113,"['brick 1', 'brick 2', 'brick 3', 'brick 4', 'brick 5', 'brick 6', 'brick 7', 'brick 8', 'brick 9', 'brick 10', ]","['6075075', '4160403', '6252809', '4651236', '300821', '4181144', '4655172', '4539099', '6022064', '6073026']",https://surfdrive.surf.nl/files/index.php/s/B7PEqFZSZZBPcW8/download?path=%2FData%2FInput%2FDatasets%2FBerend%2FImages&files=B_1113.jpg
H_520,"['brick 1', 'brick 2', 'brick 3', 'brick 4', 'brick 5', 'brick 6', 'brick 7', 'brick 8', ]","['4520632', '4181134', '4211201', '4504369', '6025026', '6244886', '623224', '4529247']",https://surfdrive.surf.nl/files/index.php/s/B7PEqFZSZZBPcW8/download?path=%2FData%2FInput%2FDatasets%2FHiba%2FImages&files=H_520.jpg
H_470,"['brick 1', 'brick 2', 'brick 3', 'brick 4', 'brick 5', 'brick 6', 'brick 7', 'brick 8', 'brick 9', 'brick 10', ]","['6028324', '4114319', '6004938', '300121', '300421', '6249125', '306223', '6003007', '300424', '6252809']",https://surfdrive.surf.nl/files/index.php/s/B7PEqFZSZZBPcW8/download?path=%2FData%2FInput%2FDatasets%2FHiba%2FImages&files=H_470.jpg
C_1018,"['brick 1', 'brick 2', 'brick 3', 'brick 4', 'brick 5', 'brick 6', 'brick 7', 'brick 8', 'brick 9', ]","['4109995', '6073026', '4165967', '300124', '6225539', '4211511', '4181144', '4520632', '300321']",https://surfdrive.surf.nl/files/index.php/s/B7PEqFZSZZBPcW8/download?path=%2FData%2FInput%2FDatasets%2FDavid%2FImages&files=C_1018.jpg
H_573,"['brick 1', 'brick 2', 'brick 3', 'brick 4', 'brick 5', 'brick 6', 'brick 7', 'brick 8', 'brick 9', 'brick 10', 'brick 11', ]","['6138173', '6075079', '4650630', '300424', '300321', '4121967', '6223631', '614321', '4121739', '4527943', '365901']",https://surfdrive.surf.nl/files/index.php/s/B7PEqFZSZZBPcW8/download?path=%2FData%2FInput%2FDatasets%2FHiba%2FImages&files=H_573.jpg
B_1048,"['brick 1', 'brick 2', 'brick 3', 'brick 4', 'brick 5', 'brick 6', 'brick 7', ]","['654126', '4504381', '4517992', '4211221', '6177697', '6022023', '4550325']",https://surfdrive.surf.nl/files/index.php/s/B7PEqFZSZZBPcW8/download?path=%2FData%2FInput%2FDatasets%2FBerend%2FImages&files=B_1048.jpg
C_962,"['brick 1', 'brick 2', 'brick 3', 'brick 4', 'brick 5', 'brick 6', 'brick 7', 'brick 8', 'brick 9', 'brick 10', 'brick 11', 'brick 12', ]","['654126', '6004938', '4210718', '6238674', '4539099', '4651236', '4153825', '4114319', '4211149', '4647553', '6177697', '300421']",https://surfdrive.surf.nl/files/index.php/s/B7PEqFZSZZBPcW8/download?path=%2FData%2FInput%2FDatasets%2FDavid%2FImages&files=C_962.jpg
B_889,"['brick 1', 'brick 2', 'brick 3', 'brick 4', 'brick 5', 'brick 6', 'brick 7', 'brick 8', 'brick 9', 'brick 10', 'brick 11', 'brick 12', ]","['4165967', '623224', '6075075', '6225539', '4504369', '6252809', '4181135', '4211511', '4181134', '4529240', '4550348', '306223']",https://surfdrive.surf.nl/files/index.php/s/B7PEqFZSZZBPcW8/download?path=%2FData%2FInput%2FDatasets%2FBerend%2FImages&files=B_889.jpg
H_720,"['brick 1', 'brick 2', 'brick 3', 'brick 4', 'brick 5', 'brick 6', 'brick 7', 'brick 8', 'brick 9', 'brick 10', 'brick 11', 'brick 12', 'brick 13', ]","['6062574', '300123', '4655172', '6225539', '4517992', '6074890', '6022064', '4621545', '4211201', '4539099', '4550325', '4157124', '6069259']",https://surfdrive.surf.nl/files/index.php/s/B7PEqFZSZZBPcW8/download?path=%2FData%2FInput%2FDatasets%2FHiba%2FImages&files=H_720.jpg
B_932,"['brick 1', 'brick 2', 'brick 3', 'brick 4', 'brick 5', 'brick 6', 'brick 7', 'brick 8', 'brick 9', 'brick 10', 'brick 11', 'brick 12', ]","['654126', '4153827', '4160403', '4651236', '4655172', '4550325', '4517992', '4211201', '4550348', '4121739', '300124', '6075075']",https://surfdrive.surf.nl/files/index.php/s/B7PEqFZSZZBPcW8/download?path=%2FData%2FInput%2FDatasets%2FBerend%2FImages&files=B_932.jpg
H_543,"['brick 1', 'brick 2', 'brick 3', 'brick 4', 'brick 5', 'brick 6', 'brick 7', 'brick 8', ]","['4504381', '4165967', '4211221', '6177697', '4210718', '6035291', '6069259', '4109995']",https://surfdrive.surf.nl/files/index.php/s/B7PEqFZSZZBPcW8/download?path=%2FData%2FInput%2FDatasets%2FHiba%2FImages&files=H_543.jpg
B_970,"['brick 1', 'brick 2', 'brick 3', 'brick 4', 'brick 5', 'brick 6', 'brick 7', 'brick 8', ]","['6244886', '6022023', '300821', '4181134', '300121', '4143562', '300123', '4114319']",https://surfdrive.surf.nl/files/index.php/s/B7PEqFZSZZBPcW8/download?path=%2FData%2FInput%2FDatasets%2FBerend%2FImages&files=B_970.jpg
C_963,"['brick 1', 'brick 2', 'brick 3', 'brick 4', 'brick 5', 'brick 6', 'brick 7', 'brick 8', 'brick 9', 'brick 10', 'brick 11', 'brick 12', ]","['654126', '6004938', '4210718', '6238674', '4539099', '4651236', '4153825', '4114319', '4211149', '4647553', '6177697', '300421']",https://surfdrive.surf.nl/files/index.php/s/B7PEqFZSZZBPcW8/download?path=%2FData%2FInput%2FDatasets%2FDavid%2FImages&files=C_963.jpg
H_740,"['brick 1', 'brick 2', 'brick 3', 'brick 4', 'brick 5', 'brick 6', 'brick 7', 'brick 8', 'brick 9', 'brick 10', 'brick 11', 'brick 12', ]","['300323', '6028324', '4651236', '300124', '6004938', '4211412', '300121', '623224', '4550325', '4121967', '6104154', '4527943']",https://surfdrive.surf.nl/files/index.php/s/B7PEqFZSZZBPcW8/download?path=%2FData%2FInput%2FDatasets%2FHiba%2FImages&files=H_740.jpg
H_733,"['brick 1', 'brick 2', 'brick 3', 'brick 4', 'brick 5', 'brick 6', 'brick 7', 'brick 8', 'brick 9', ]","['6062574', '300123', '4655172', '6225539', '4517992', '6074890', '6022064', '4621545', '4211201']",https://surfdrive.surf.nl/files/index.php/s/B7PEqFZSZZBPcW8/download?path=%2FData%2FInput%2FDatasets%2FHiba%2FImages&files=H_733.jpg
H_779,"['brick 1', 'brick 2', 'brick 3', 'brick 4', 'brick 5', 'brick 6', ]","['4550348', '4153827', '300421', '6003007', '4211437', '654126']",https://surfdrive.surf.nl/files/index.php/s/B7PEqFZSZZBPcW8/download?path=%2FData%2FInput%2FDatasets%2FHiba%2FImages&files=H_779.jpg
C_844,"['brick 1', 'brick 2', 'brick 3', 'brick 4', 'brick 5', 'brick 6', 'brick 7', 'brick 8', 'brick 9', 'brick 10', 'brick 11', 'brick 12', ]","['6138173', '6069259', '6223631', '4211166', '6075079', '300424', '6177697', '4639693', '4504369', '4567338', '6229071', '4211149']",https://surfdrive.surf.nl/files/index.php/s/B7PEqFZSZZBPcW8/download?path=%2FData%2FInput%2FDatasets%2FDavid%2FImages&files=C_844.jpg
B_1136,"['brick 1', 'brick 2', 'brick 3', 'brick 4', 'brick 5', 'brick 6', 'brick 7', 'brick 8', 'brick 9', ]","['4181135', '4649749', '300424', '6249125', '6003007', '4650630', '4181134', '306223', '4114319']",https://surfdrive.surf.nl/files/index.php/s/B7PEqFZSZZBPcW8/download?path=%2FData%2FInput%2FDatasets%2FBerend%2FImages&files=B_1136.jpg
C_907,"['brick 1', 'brick 2', 'brick 3', 'brick 4', 'brick 5', 'brick 6', 'brick 7', 'brick 8', 'brick 9', ]","['4529240', '6074890', '623224', '6025026', '4650630', '6028324', '4211412', '300121', '4181134']",https://surfdrive.surf.nl/files/index.php/s/B7PEqFZSZZBPcW8/download?path=%2FData%2FInput%2FDatasets%2FDavid%2FImages&files=C_907.jpg
H_815,"['brick 1', 'brick 2', 'brick 3', 'brick 4', 'brick 5', 'brick 6', 'brick 7', 'brick 8', 'brick 9', 'brick 10', ]","['4109995', '4504381', '4211614', '4504369', '4165967', '4181144', '6238674', '6249125', '4118793', '4181135']",https://surfdrive.surf.nl/files/index.php/s/B7PEqFZSZZBPcW8/download?path=%2FData%2FInput%2FDatasets%2FHiba%2FImages&files=H_815.jpg
C_919,"['brick 1', 'brick 2', 'brick 3', 'brick 4', 'brick 5', 'brick 6', 'brick 7', 'brick 8', 'brick 9', 'brick 10', 'brick 11', 'brick 12', ]","['365901', '306201', '4529247', '300423', '6003007', '6244886', '6104154', '300421', '6062574', '6075075', '4621545', '4504381']",https://surfdrive.surf.nl/files/index.php/s/B7PEqFZSZZBPcW8/download?path=%2FData%2FInput%2FDatasets%2FDavid%2FImages&files=C_919.jpg
B_988,"['brick 1', 'brick 2', 'brick 3', 'brick 4', 'brick 5', 'brick 6', 'brick 7', 'brick 8', ]","['4211511', '6028324', '614321', '4165967', '6225539', '6138173', '6229071', '623224']",https://surfdrive.surf.nl/files/index.php/s/B7PEqFZSZZBPcW8/download?path=%2FData%2FInput%2FDatasets%2FBerend%2FImages&files=B_988.jpg
B_1126,"['brick 1', 'brick 2', 'brick 3', 'brick 4', 'brick 5', 'brick 6', 'brick 7', 'brick 8', 'brick 9', 'brick 10', 'brick 11', 'brick 12', ]","['4181135', '4649749', '300424', '6249125', '6003007', '4650630', '4181134', '306223', '4114319', '4651236', '4548180', '4558957']",https://surfdrive.surf.nl/files/index.php/s/B7PEqFZSZZBPcW8/download?path=%2FData%2FInput%2FDatasets%2FBerend%2FImages&files=B_1126.jpg
B_1141,"['brick 1', 'brick 2', 'brick 3', 'brick 4', 'brick 5', 'brick 6', 'brick 7', ]","['4181135', '4649749', '300424', '6249125', '6003007', '4650630', '4181134']",https://surfdrive.surf.nl/files/index.php/s/B7PEqFZSZZBPcW8/download?path=%2FData%2FInput%2FDatasets%2FBerend%2FImages&files=B_1141.jpg
H_732,"['brick 1', 'brick 2', 'brick 3', 'brick 4', 'brick 5', 'brick 6', 'brick 7', 'brick 8', 'brick 9', ]","['6062574', '300123', '4655172', '6225539', '4517992', '6074890', '6022064', '4621545', '4211201']",https://surfdrive.surf.nl/files/index.php/s/B7PEqFZSZZBPcW8/download?path=%2FData%2FInput%2FDatasets%2FHiba%2FImages&files=H_732.jpg
C_991,"['brick 1', 'brick 2', 'brick 3', 'brick 4', 'brick 5', 'brick 6', 'brick 7', 'brick 8', 'brick 9', 'brick 10', ]","['4527943', '300401', '4550325', '4211201', '4121967', '306223', '4157124', '6022064', '614321', '6069259']",https://surfdrive.surf.nl/files/index.php/s/B7PEqFZSZZBPcW8/download?path=%2FData%2FInput%2FDatasets%2FDavid%2FImages&files=C_991.jpg
B_1210,"['brick 1', 'brick 2', 'brick 3', 'brick 4', 'brick 5', 'brick 6', 'brick 7', 'brick 8', 'brick 9', 'brick 10', 'brick 11', ]","['4157124', '4121967', '6075075', '4181144', '4655172', '4153825', '614321', '300821', '4181135', '4550325', '6223631']",https://surfdrive.surf.nl/files/index.php/s/B7PEqFZSZZBPcW8/download?path=%2FData%2FInput%2FDatasets%2FBerend%2FImages&files=B_1210.jpg
B_840,"['brick 1', 'brick 2', 'brick 3', 'brick 4', 'brick 5', 'brick 6', 'brick 7', 'brick 8', 'brick 9', 'brick 10', 'brick 11', 'brick 12', 'brick 13', ]","['6225539', '4181134', '4520632', '4639693', '300321', '6177697', '654126', '4153827', '4121739', '4550325', '6223631', '4153825', '623224']",https://surfdrive.surf.nl/files/index.php/s/B7PEqFZSZZBPcW8/download?path=%2FData%2FInput%2FDatasets%2FBerend%2FImages&files=B_840.jpg
C_998,"['brick 1', 'brick 2', 'brick 3', 'brick 4', 'brick 5', 'brick 6', 'brick 7', 'brick 8', ]","['4527943', '300401', '4550325', '4211201', '4121967', '306223', '4157124', '6022064']",https://surfdrive.surf.nl/files/index.php/s/B7PEqFZSZZBPcW8/download?path=%2FData%2FInput%2FDatasets%2FDavid%2FImages&files=C_998.jpg
H_671,"['brick 1', 'brick 2', 'brick 3', 'brick 4', 'brick 5', 'brick 6', 'brick 7', 'brick 8', 'brick 9', 'brick 10', ]","['6069259', '4165967', '6238674', '4181144', '4558957', '4181134', '6244886', '4504369', '4143562', '4210718']",https://surfdrive.surf.nl/files/index.php/s/B7PEqFZSZZBPcW8/download?path=%2FData%2FInput%2FDatasets%2FHiba%2FImages&files=H_671.jpg
B_819,"['brick 1', 'brick 2', 'brick 3', 'brick 4', 'brick 5', 'brick 6', 'brick 7', 'brick 8', 'brick 9', 'brick 10', 'brick 11', 'brick 12', ]","['6225539', '4181134', '4655172', '623224', '4143562', '6028324', '6244886', '4165967', '4567338', '300401', '4211166', '4527943']",https://surfdrive.surf.nl/files/index.php/s/B7PEqFZSZZBPcW8/download?path=%2FData%2FInput%2FDatasets%2FBerend%2FImages&files=B_819.jpg
C_847,"['brick 1', 'brick 2', 'brick 3', 'brick 4', 'brick 5', 'brick 6', 'brick 7', 'brick 8', 'brick 9', 'brick 10', 'brick 11', ]","['6138173', '6069259', '6223631', '4211166', '6075079', '300424', '6177697', '4639693', '4504369', '4567338', '6229071']",https://surfdrive.surf.nl/files/index.php/s/B7PEqFZSZZBPcW8/download?path=%2FData%2FInput%2FDatasets%2FDavid%2FImages&files=C_847.jpg
C_884,"['brick 1', 'brick 2', 'brick 3', 'brick 4', 'brick 5', 'brick 6', 'brick 7', 'brick 8', 'brick 9', 'brick 10', 'brick 11', 'brick 12', ]","['300123', '6225539', '6062574', '4160403', '4558957', '4548180', '614321', '4647553', '4153827', '6151663', '4118793', '6004938']",https://surfdrive.surf.nl/files/index.php/s/B7PEqFZSZZBPcW8/download?path=%2FData%2FInput%2FDatasets%2FDavid%2FImages&files=C_884.jpg
H_725,"['brick 1', 'brick 2', 'brick 3', 'brick 4', 'brick 5', 'brick 6', 'brick 7', 'brick 8', 'brick 9', 'brick 10', 'brick 11', ]","['6062574', '300123', '4655172', '6225539', '4517992', '6074890', '6022064', '4621545', '4211201', '4539099', '4550325']",https://surfdrive.surf.nl/files/index.php/s/B7PEqFZSZZBPcW8/download?path=%2FData%2FInput%2FDatasets%2FHiba%2FImages&files=H_725.jpg
B_1091,"['brick 1', 'brick 2', 'brick 3', 'brick 4', 'brick 5', 'brick 6', 'brick 7', 'brick 8', 'brick 9', 'brick 10', 'brick 11', 'brick 12', 'brick 13', ]","['6244886', '4211201', '4153827', '6229071', '300321', '4165967', '6225539', '4548180', '306201', '6028324', '614321', '300121', '4639693']",https://surfdrive.surf.nl/files/index.php/s/B7PEqFZSZZBPcW8/download?path=%2FData%2FInput%2FDatasets%2FBerend%2FImages&files=B_1091.jpg
H_579,"['brick 1', 'brick 2', 'brick 3', 'brick 4', 'brick 5', 'brick 6', 'brick 7', 'brick 8', 'brick 9', ]","['6138173', '6075079', '4650630', '300424', '300321', '4121967', '6223631', '614321', '4121739']",https://surfdrive.surf.nl/files/index.php/s/B7PEqFZSZZBPcW8/download?path=%2FData%2FInput%2FDatasets%2FHiba%2FImages&files=H_579.jpg
B_1019,"['brick 1', 'brick 2', 'brick 3', 'brick 4', 'brick 5', 'brick 6', 'brick 7', 'brick 8', 'brick 9', 'brick 10', 'brick 11', 'brick 12', ]","['4211201', '4211412', '4639693', '4153827', '4160403', '4539099', '300821', '300121', '4121967', '4181134', '300323', '4181135']",https://surfdrive.surf.nl/files/index.php/s/B7PEqFZSZZBPcW8/download?path=%2FData%2FInput%2FDatasets%2FBerend%2FImages&files=B_1019.jpg
H_591,"['brick 1', 'brick 2', 'brick 3', 'brick 4', 'brick 5', 'brick 6', 'brick 7', 'brick 8', 'brick 9', 'brick 10', ]","['4157124', '4211511', '6022064', '4211149', '4550348', '4651236', '4539099', '4550325', '4548180', '623224']",https://surfdrive.surf.nl/files/index.php/s/B7PEqFZSZZBPcW8/download?path=%2FData%2FInput%2FDatasets%2FHiba%2FImages&files=H_591.jpg
H_626,"['brick 1', 'brick 2', 'brick 3', 'brick 4', 'brick 5', 'brick 6', 'brick 7', 'brick 8', 'brick 9', ]","['300124', '4181135', '6004938', '4114319', '300323', '6104154', '6003007', '4153827', '4211511']",https://surfdrive.surf.nl/files/index.php/s/B7PEqFZSZZBPcW8/download?path=%2FData%2FInput%2FDatasets%2FHiba%2FImages&files=H_626.jpg
H_467,"['brick 1', 'brick 2', 'brick 3', 'brick 4', 'brick 5', 'brick 6', 'brick 7', 'brick 8', 'brick 9', 'brick 10', 'brick 11', ]","['6028324', '4114319', '6004938', '300121', '300421', '6249125', '306223', '6003007', '300424', '6252809', '6229071']",https://surfdrive.surf.nl/files/index.php/s/B7PEqFZSZZBPcW8/download?path=%2FData%2FInput%2FDatasets%2FHiba%2FImages&files=H_467.jpg
B_1050,"['brick 1', 'brick 2', 'brick 3', 'brick 4', 'brick 5', 'brick 6', ]","['654126', '4504381', '4517992', '4211221', '6177697', '6022023']",https://surfdrive.surf.nl/files/index.php/s/B7PEqFZSZZBPcW8/download?path=%2FData%2FInput%2FDatasets%2FBerend%2FImages&files=B_1050.jpg
B_1167,"['brick 1', 'brick 2', 'brick 3', 'brick 4', 'brick 5', 'brick 6', 'brick 7', 'brick 8', 'brick 9', ]","['4210718', '6022023', '4211221', '654126', '4550325', '4109995', '6177697', '4529247', '6238674']",https://surfdrive.surf.nl/files/index.php/s/B7PEqFZSZZBPcW8/download?path=%2FData%2FInput%2FDatasets%2FBerend%2FImages&files=B_1167.jpg
B_1212,"['brick 1', 'brick 2', 'brick 3', 'brick 4', 'brick 5', 'brick 6', 'brick 7', 'brick 8', 'brick 9', 'brick 10', 'brick 11', ]","['4157124', '4121967', '6075075', '4181144', '4655172', '4153825', '614321', '300821', '4181135', '4550325', '6223631']",https://surfdrive.surf.nl/files/index.php/s/B7PEqFZSZZBPcW8/download?path=%2FData%2FInput%2FDatasets%2FBerend%2FImages&files=B_1212.jpg
H_707,"['brick 1', 'brick 2', 'brick 3', 'brick 4', 'brick 5', 'brick 6', 'brick 7', 'brick 8', 'brick 9', ]","['4160403', '4211221', '614321', '6073026', '6035291', '6025026', '4520632', '6177697', '4639693']",https://surfdrive.surf.nl/files/index.php/s/B7PEqFZSZZBPcW8/download?path=%2FData%2FInput%2FDatasets%2FHiba%2FImages&files=H_707.jpg
H_474,"['brick 1', 'brick 2', 'brick 3', 'brick 4', 'brick 5', 'brick 6', 'brick 7', 'brick 8', 'brick 9', ]","['6028324', '4114319', '6004938', '300121', '300421', '6249125', '306223', '6003007', '300424']",https://surfdrive.surf.nl/files/index.php/s/B7PEqFZSZZBPcW8/download?path=%2FData%2FInput%2FDatasets%2FHiba%2FImages&files=H_474.jpg
C_895,"['brick 1', 'brick 2', 'brick 3', 'brick 4', 'brick 5', 'brick 6', 'brick 7', 'brick 8', 'brick 9', 'brick 10', 'brick 11', 'brick 12', ]","['4529240', '6074890', '623224', '6025026', '4650630', '6028324', '4211412', '300121', '4181134', '4153827', '4567338', '300124']",https://surfdrive.surf.nl/files/index.php/s/B7PEqFZSZZBPcW8/download?path=%2FData%2FInput%2FDatasets%2FDavid%2FImages&files=C_895.jpg
C_930,"['brick 1', 'brick 2', 'brick 3', 'brick 4', 'brick 5', 'brick 6', 'brick 7', 'brick 8', 'brick 9', 'brick 10', ]","['365901', '306201', '4529247', '300423', '6003007', '6244886', '6104154', '300421', '6062574', '6075075']",https://surfdrive.surf.nl/files/index.php/s/B7PEqFZSZZBPcW8/download?path=%2FData%2FInput%2FDatasets%2FDavid%2FImages&files=C_930.jpg
B_1146,"['brick 1', 'brick 2', 'brick 3', 'brick 4', 'brick 5', 'brick 6', 'brick 7', 'brick 8', 'brick 9', 'brick 10', 'brick 11', 'brick 12', ]","['300121', '365901', '300421', '4211149', '300124', '6062574', '4639693', '300123', '6025026', '4651236', '6104154', '4181135']",https://surfdrive.surf.nl/files/index.php/s/B7PEqFZSZZBPcW8/download?path=%2FData%2FInput%2FDatasets%2FBerend%2FImages&files=B_1146.jpg
B_1133,"['brick 1', 'brick 2', 'brick 3', 'brick 4', 'brick 5', 'brick 6', 'brick 7', 'brick 8', 'brick 9', 'brick 10', ]","['4181135', '4649749', '300424', '6249125', '6003007', '4650630', '4181134', '306223', '4114319', '4651236']",https://surfdrive.surf.nl/files/index.php/s/B7PEqFZSZZBPcW8/download?path=%2FData%2FInput%2FDatasets%2FBerend%2FImages&files=B_1133.jpg
H_493,"['brick 1', 'brick 2', 'brick 3', 'brick 4', 'brick 5', 'brick 6', 'brick 7', 'brick 8', 'brick 9', 'brick 10', 'brick 11', ]","['4639693', '4211437', '4649749', '6062574', '4517992', '300124', '4153827', '4211412', '4118793', '4558957', '4181144']",https://surfdrive.surf.nl/files/index.php/s/B7PEqFZSZZBPcW8/download?path=%2FData%2FInput%2FDatasets%2FHiba%2FImages&files=H_493.jpg
H_703,"['brick 1', 'brick 2', 'brick 3', 'brick 4', 'brick 5', 'brick 6', 'brick 7', 'brick 8', 'brick 9', 'brick 10', 'brick 11', ]","['4160403', '4211221', '614321', '6073026', '6035291', '6025026', '4520632', '6177697', '4639693', '6022023', '4211614']",https://surfdrive.surf.nl/files/index.php/s/B7PEqFZSZZBPcW8/download?path=%2FData%2FInput%2FDatasets%2FHiba%2FImages&files=H_703.jpg
H_558,"['brick 1', 'brick 2', 'brick 3', 'brick 4', 'brick 5', 'brick 6', 'brick 7', 'brick 8', 'brick 9', 'brick 10', 'brick 11', ]","['6022023', '4143562', '300323', '6238674', '300401', '300423', '300123', '300821', '4649749', '4118793', '306223']",https://surfdrive.surf.nl/files/index.php/s/B7PEqFZSZZBPcW8/download?path=%2FData%2FInput%2FDatasets%2FHiba%2FImages&files=H_558.jpg
C_838,"['brick 1', 'brick 2', 'brick 3', 'brick 4', 'brick 5', 'brick 6', 'brick 7', 'brick 8', 'brick 9', ]","['365901', '300821', '4212454', '4567338', '300423', '6104154', '4143562', '6244886', '4210718']",https://surfdrive.surf.nl/files/index.php/s/B7PEqFZSZZBPcW8/download?path=%2FData%2FInput%2FDatasets%2FDavid%2FImages&files=C_838.jpg
B_997,"['brick 1', 'brick 2', 'brick 3', 'brick 4', 'brick 5', 'brick 6', 'brick 7', 'brick 8', 'brick 9', 'brick 10', 'brick 11', 'brick 12', 'brick 13', ]","['4504369', '4181135', '4520632', '4529247', '300321', '6075075', '6252809', '4181144', '6244886', '6004938', '4157124', '4109995', '4211149']",https://surfdrive.surf.nl/files/index.php/s/B7PEqFZSZZBPcW8/download?path=%2FData%2FInput%2FDatasets%2FBerend%2FImages&files=B_997.jpg
H_486,"['brick 1', 'brick 2', 'brick 3', 'brick 4', 'brick 5', 'brick 6', 'brick 7', 'brick 8', 'brick 9', 'brick 10', 'brick 11', 'brick 12', 'brick 13', ]","['4639693', '4211437', '4649749', '6062574', '4517992', '300124', '4153827', '4211412', '4118793', '4558957', '4181144', '6151663', '6073026']",https://surfdrive.surf.nl/files/index.php/s/B7PEqFZSZZBPcW8/download?path=%2FData%2FInput%2FDatasets%2FHiba%2FImages&files=H_486.jpg
H_741,"['brick 1', 'brick 2', 'brick 3', 'brick 4', 'brick 5', 'brick 6', 'brick 7', 'brick 8', 'brick 9', 'brick 10', 'brick 11', 'brick 12', ]","['300323', '6028324', '4651236', '300124', '6004938', '4211412', '300121', '623224', '4550325', '4121967', '6104154', '4527943']",https://surfdrive.surf.nl/files/index.php/s/B7PEqFZSZZBPcW8/download?path=%2FData%2FInput%2FDatasets%2FHiba%2FImages&files=H_741.jpg
H_793,"['brick 1', 'brick 2', 'brick 3', 'brick 4', 'brick 5', 'brick 6', 'brick 7', 'brick 8', 'brick 9', 'brick 10', ]","['4114319', '300401', '6075075', '6151663', '306223', '4157124', '4181134', '4529247', '6252809', '6073026']",https://surfdrive.surf.nl/files/index.php/s/B7PEqFZSZZBPcW8/download?path=%2FData%2FInput%2FDatasets%2FHiba%2FImages&files=H_793.jpg
B_832,"['brick 1', 'brick 2', 'brick 3', 'brick 4', 'brick 5', 'brick 6', 'brick 7', 'brick 8', ]","['6225539', '4181134', '4655172', '623224', '4143562', '6028324', '6244886', '4165967']",https://surfdrive.surf.nl/files/index.php/s/B7PEqFZSZZBPcW8/download?path=%2FData%2FInput%2FDatasets%2FBerend%2FImages&files=B_832.jpg
H_457,"['brick 1', 'brick 2', 'brick 3', 'brick 4', 'brick 5', 'brick 6', 'brick 7', ]","['4160403', '4539099', '6225539', '6151663', '4550348', '6252809', '4548180']",https://surfdrive.surf.nl/files/index.php/s/B7PEqFZSZZBPcW8/download?path=%2FData%2FInput%2FDatasets%2FHiba%2FImages&files=H_457.jpg
H_603,"['brick 1', 'brick 2', 'brick 3', 'brick 4', 'brick 5', 'brick 6', 'brick 7', 'brick 8', 'brick 9', 'brick 10', 'brick 11', 'brick 12', ]","['4639693', '4517992', '6074890', '4211437', '6062574', '4529240', '4655172', '6028324', '4649749', '4211149', '4143562', '4210718']",https://surfdrive.surf.nl/files/index.php/s/B7PEqFZSZZBPcW8/download?path=%2FData%2FInput%2FDatasets%2FHiba%2FImages&files=H_603.jpg
B_1003,"['brick 1', 'brick 2', 'brick 3', 'brick 4', 'brick 5', 'brick 6', 'brick 7', 'brick 8', 'brick 9', 'brick 10', 'brick 11', ]","['4504369', '4181135', '4520632', '4529247', '300321', '6075075', '6252809', '4181144', '6244886', '6004938', '4157124']",https://surfdrive.surf.nl/files/index.php/s/B7PEqFZSZZBPcW8/download?path=%2FData%2FInput%2FDatasets%2FBerend%2FImages&files=B_1003.jpg
H_717,"['brick 1', 'brick 2', 'brick 3', 'brick 4', 'brick 5', 'brick 6', ]","['4160403', '4211221', '614321', '6073026', '6035291', '6025026']",https://surfdrive.surf.nl/files/index.php/s/B7PEqFZSZZBPcW8/download?path=%2FData%2FInput%2FDatasets%2FHiba%2FImages&files=H_717.jpg
H_713,"['brick 1', 'brick 2', 'brick 3', 'brick 4', 'brick 5', 'brick 6', 'brick 7', ]","['4160403', '4211221', '614321', '6073026', '6035291', '6025026', '4520632']",https://surfdrive.surf.nl/files/index.php/s/B7PEqFZSZZBPcW8/download?path=%2FData%2FInput%2FDatasets%2FHiba%2FImages&files=H_713.jpg
H_790,"['brick 1', 'brick 2', 'brick 3', 'brick 4', 'brick 5', 'brick 6', 'brick 7', 'brick 8', 'brick 9', 'brick 10', 'brick 11', ]","['4114319', '300401', '6075075', '6151663', '306223', '4157124', '4181134', '4529247', '6252809', '6073026', '6229071']",https://surfdrive.surf.nl/files/index.php/s/B7PEqFZSZZBPcW8/download?path=%2FData%2FInput%2FDatasets%2FHiba%2FImages&files=H_790.jpg
C_940,"['brick 1', 'brick 2', 'brick 3', 'brick 4', 'brick 5', 'brick 6', ]","['365901', '306201', '4529247', '300423', '6003007', '6244886']",https://surfdrive.surf.nl/files/index.php/s/B7PEqFZSZZBPcW8/download?path=%2FData%2FInput%2FDatasets%2FDavid%2FImages&files=C_940.jpg
B_861,"['brick 1', 'brick 2', 'brick 3', 'brick 4', 'brick 5', 'brick 6', 'brick 7', 'brick 8', 'brick 9', 'brick 10', 'brick 11', 'brick 12', 'brick 13', ]","['4517992', '300121', '6022023', '300821', '300123', '6028324', '4143562', '6244886', '6022064', '4655172', '4118793', '306223', '4527943']",https://surfdrive.surf.nl/files/index.php/s/B7PEqFZSZZBPcW8/download?path=%2FData%2FInput%2FDatasets%2FBerend%2FImages&files=B_861.jpg
B_1067,"['brick 1', 'brick 2', 'brick 3', 'brick 4', 'brick 5', 'brick 6', 'brick 7', 'brick 8', 'brick 9', ]","['4109995', '300123', '623224', '4520632', '6025026', '4504369', '4157124', '4211511', '4621545']",https://surfdrive.surf.nl/files/index.php/s/B7PEqFZSZZBPcW8/download?path=%2FData%2FInput%2FDatasets%2FBerend%2FImages&files=B_1067.jpg
H_783,"['brick 1', 'brick 2', 'brick 3', 'brick 4', 'brick 5', 'brick 6', 'brick 7', 'brick 8', 'brick 9', 'brick 10', 'brick 11', 'brick 12', 'brick 13', ]","['4114319', '300401', '6075075', '6151663', '306223', '4157124', '4181134', '4529247', '6252809', '6073026', '6229071', '4211221', '6074890']",https://surfdrive.surf.nl/files/index.php/s/B7PEqFZSZZBPcW8/download?path=%2FData%2FInput%2FDatasets%2FHiba%2FImages&files=H_783.jpg
C_1011,"['brick 1', 'brick 2', 'brick 3', 'brick 4', 'brick 5', 'brick 6', 'brick 7', 'brick 8', 'brick 9', 'brick 10', 'brick 11', 'brick 12', ]","['4109995', '6073026', '4165967', '300124', '6225539', '4211511', '4181144', '4520632', '300321', '4550325', '4211149', '4639693']",https://surfdrive.surf.nl/files/index.php/s/B7PEqFZSZZBPcW8/download?path=%2FData%2FInput%2FDatasets%2FDavid%2FImages&files=C_1011.jpg
B_1187,"['brick 1', 'brick 2', 'brick 3', 'brick 4', 'brick 5', 'brick 6', 'brick 7', 'brick 8', 'brick 9', 'brick 10', ]","['4517992', '4504369', '4504381', '4165967', '6138173', '300321', '4212454', '4520632', '4211614', '300123']",https://surfdrive.surf.nl/files/index.php/s/B7PEqFZSZZBPcW8/download?path=%2FData%2FInput%2FDatasets%2FBerend%2FImages&files=B_1187.jpg
H_632,"['brick 1', 'brick 2', 'brick 3', 'brick 4', 'brick 5', 'brick 6', 'brick 7', 'brick 8', 'brick 9', 'brick 10', 'brick 11', 'brick 12', ]","['4211412', '300421', '300121', '4529247', '300401', '6075075', '6151663', '6022023', '6223631', '4121967', '4211166', '6252809']",https://surfdrive.surf.nl/files/index.php/s/B7PEqFZSZZBPcW8/download?path=%2FData%2FInput%2FDatasets%2FHiba%2FImages&files=H_632.jpg
H_660,"['brick 1', 'brick 2', 'brick 3', 'brick 4', 'brick 5', 'brick 6', 'brick 7', 'brick 8', ]","['4109995', '6249125', '365901', '306201', '300423', '4212454', '4211201', '300821']",https://surfdrive.surf.nl/files/index.php/s/B7PEqFZSZZBPcW8/download?path=%2FData%2FInput%2FDatasets%2FHiba%2FImages&files=H_660.jpg
C_856,"['brick 1', 'brick 2', 'brick 3', 'brick 4', 'brick 5', 'brick 6', 'brick 7', 'brick 8', ]","['6138173', '6069259', '6223631', '4211166', '6075079', '300424', '6177697', '4639693']",https://surfdrive.surf.nl/files/index.php/s/B7PEqFZSZZBPcW8/download?path=%2FData%2FInput%2FDatasets%2FDavid%2FImages&files=C_856.jpg
B_1060,"['brick 1', 'brick 2', 'brick 3', 'brick 4', 'brick 5', 'brick 6', 'brick 7', 'brick 8', 'brick 9', 'brick 10', 'brick 11', ]","['4109995', '300123', '623224', '4520632', '6025026', '4504369', '4157124', '4211511', '4621545', '365901', '4639693']",https://surfdrive.surf.nl/files/index.php/s/B7PEqFZSZZBPcW8/download?path=%2FData%2FInput%2FDatasets%2FBerend%2FImages&files=B_1060.jpg
H_475,"['brick 1', 'brick 2', 'brick 3', 'brick 4', 'brick 5', 'brick 6', 'brick 7', 'brick 8', 'brick 9', ]","['6028324', '4114319', '6004938', '300121', '300421', '6249125', '306223', '6003007', '300424']",https://surfdrive.surf.nl/files/index.php/s/B7PEqFZSZZBPcW8/download?path=%2FData%2FInput%2FDatasets%2FHiba%2FImages&files=H_475.jpg
H_666,"['brick 1', 'brick 2', 'brick 3', 'brick 4', 'brick 5', 'brick 6', 'brick 7', 'brick 8', 'brick 9', 'brick 10', 'brick 11', 'brick 12', ]","['6069259', '4165967', '6238674', '4181144', '4558957', '4181134', '6244886', '4504369', '4143562', '4210718', '4548180', '4649749']",https://surfdrive.surf.nl/files/index.php/s/B7PEqFZSZZBPcW8/download?path=%2FData%2FInput%2FDatasets%2FHiba%2FImages&files=H_666.jpg
B_1102,"['brick 1', 'brick 2', 'brick 3', 'brick 4', 'brick 5', 'brick 6', 'brick 7', 'brick 8', 'brick 9', ]","['6244886', '4211201', '4153827', '6229071', '300321', '4165967', '6225539', '4548180', '306201']",https://surfdrive.surf.nl/files/index.php/s/B7PEqFZSZZBPcW8/download?path=%2FData%2FInput%2FDatasets%2FBerend%2FImages&files=B_1102.jpg
B_1001,"['brick 1', 'brick 2', 'brick 3', 'brick 4', 'brick 5', 'brick 6', 'brick 7', 'brick 8', 'brick 9', 'brick 10', 'brick 11', 'brick 12', ]","['4504369', '4181135', '4520632', '4529247', '300321', '6075075', '6252809', '4181144', '6244886', '6004938', '4157124', '4109995']",https://surfdrive.surf.nl/files/index.php/s/B7PEqFZSZZBPcW8/download?path=%2FData%2FInput%2FDatasets%2FBerend%2FImages&files=B_1001.jpg
H_515,"['brick 1', 'brick 2', 'brick 3', 'brick 4', 'brick 5', 'brick 6', 'brick 7', 'brick 8', 'brick 9', ]","['4520632', '4181134', '4211201', '4504369', '6025026', '6244886', '623224', '4529247', '654126']",https://surfdrive.surf.nl/files/index.php/s/B7PEqFZSZZBPcW8/download?path=%2FData%2FInput%2FDatasets%2FHiba%2FImages&files=H_515.jpg
B_1159,"['brick 1', 'brick 2', 'brick 3', 'brick 4', 'brick 5', 'brick 6', 'brick 7', 'brick 8', 'brick 9', 'brick 10', 'brick 11', 'brick 12', ]","['4210718', '6022023', '4211221', '654126', '4550325', '4109995', '6177697', '4529247', '6238674', '6022064', '6225539', '300124']",https://surfdrive.surf.nl/files/index.php/s/B7PEqFZSZZBPcW8/download?path=%2FData%2FInput%2FDatasets%2FBerend%2FImages&files=B_1159.jpg
H_649,"['brick 1', 'brick 2', 'brick 3', 'brick 4', 'brick 5', 'brick 6', 'brick 7', 'brick 8', 'brick 9', 'brick 10', 'brick 11', 'brick 12', ]","['4109995', '6249125', '365901', '306201', '300423', '4212454', '4211201', '300821', '4529240', '4567338', '306223', '4649749']",https://surfdrive.surf.nl/files/index.php/s/B7PEqFZSZZBPcW8/download?path=%2FData%2FInput%2FDatasets%2FHiba%2FImages&files=H_649.jpg
H_709,"['brick 1', 'brick 2', 'brick 3', 'brick 4', 'brick 5', 'brick 6', 'brick 7', 'brick 8', 'brick 9', ]","['4160403', '4211221', '614321', '6073026', '6035291', '6025026', '4520632', '6177697', '4639693']",https://surfdrive.surf.nl/files/index.php/s/B7PEqFZSZZBPcW8/download?path=%2FData%2FInput%2FDatasets%2FHiba%2FImages&files=H_709.jpg
B_1035,"['brick 1', 'brick 2', 'brick 3', 'brick 4', 'brick 5', 'brick 6', 'brick 7', 'brick 8', 'brick 9', 'brick 10', 'brick 11', ]","['654126', '4504381', '4517992', '4211221', '6177697', '6022023', '4550325', '4114319', '4143562', '4655172', '4181134']",https://surfdrive.surf.nl/files/index.php/s/B7PEqFZSZZBPcW8/download?path=%2FData%2FInput%2FDatasets%2FBerend%2FImages&files=B_1035.jpg
C_871,"['brick 1', 'brick 2', 'brick 3', 'brick 4', 'brick 5', 'brick 6', 'brick 7', 'brick 8', 'brick 9', 'brick 10', 'brick 11', ]","['4539099', '4153825', '6022064', '4211511', '4517992', '6022023', '4621545', '4520632', '6229071', '6035291', '4527943']",https://surfdrive.surf.nl/files/index.php/s/B7PEqFZSZZBPcW8/download?path=%2FData%2FInput%2FDatasets%2FDavid%2FImages&files=C_871.jpg
B_1123,"['brick 1', 'brick 2', 'brick 3', 'brick 4', 'brick 5', 'brick 6', 'brick 7', 'brick 8', 'brick 9', 'brick 10', 'brick 11', 'brick 12', 'brick 13', ]","['4181135', '4649749', '300424', '6249125', '6003007', '4650630', '4181134', '306223', '4114319', '4651236', '4548180', '4558957', '4121739']",https://surfdrive.surf.nl/files/index.php/s/B7PEqFZSZZBPcW8/download?path=%2FData%2FInput%2FDatasets%2FBerend%2FImages&files=B_1123.jpg
B_1150,"['brick 1', 'brick 2', 'brick 3', 'brick 4', 'brick 5', 'brick 6', 'brick 7', 'brick 8', 'brick 9', 'brick 10', 'brick 11', ]","['300121', '365901', '300421', '4211149', '300124', '6062574', '4639693', '300123', '6025026', '4651236', '6104154']",https://surfdrive.surf.nl/files/index.php/s/B7PEqFZSZZBPcW8/download?path=%2FData%2FInput%2FDatasets%2FBerend%2FImages&files=B_1150.jpg
B_973,"['brick 1', 'brick 2', 'brick 3', 'brick 4', 'brick 5', 'brick 6', 'brick 7', 'brick 8', 'brick 9', 'brick 10', 'brick 11', 'brick 12', 'brick 13', ]","['4211511', '6028324', '614321', '4165967', '6225539', '6138173', '6229071', '623224', '4651236', '4211054', '4121967', '6252809', '6062574']",https://surfdrive.surf.nl/files/index.php/s/B7PEqFZSZZBPcW8/download?path=%2FData%2FInput%2FDatasets%2FBerend%2FImages&files=B_973.jpg
H_484,"['brick 1', 'brick 2', 'brick 3', 'brick 4', 'brick 5', 'brick 6', ]","['6028324', '4114319', '6004938', '300121', '300421', '6249125']",https://surfdrive.surf.nl/files/index.php/s/B7PEqFZSZZBPcW8/download?path=%2FData%2FInput%2FDatasets%2FHiba%2FImages&files=H_484.jpg
B_1033,"['brick 1', 'brick 2', 'brick 3', 'brick 4', 'brick 5', 'brick 6', 'brick 7', 'brick 8', 'brick 9', 'brick 10', 'brick 11', 'brick 12', ]","['654126', '4504381', '4517992', '4211221', '6177697', '6022023', '4550325', '4114319', '4143562', '4655172', '4181134', '6223631']",https://surfdrive.surf.nl/files/index.php/s/B7PEqFZSZZBPcW8/download?path=%2FData%2FInput%2FDatasets%2FBerend%2FImages&files=B_1033.jpg
B_1218,"['brick 1', 'brick 2', 'brick 3', 'brick 4', 'brick 5', 'brick 6', 'brick 7', 'brick 8', 'brick 9', 'brick 10', ]","['4157124', '4121967', '6075075', '4181144', '4655172', '4153825', '614321', '300821', '4181135', '4550325']",https://surfdrive.surf.nl/files/index.php/s/B7PEqFZSZZBPcW8/download?path=%2FData%2FInput%2FDatasets%2FBerend%2FImages&files=B_1218.jpg
B_972,"['brick 1', 'brick 2', 'brick 3', 'brick 4', 'brick 5', 'brick 6', 'brick 7', 'brick 8', 'brick 9', 'brick 10', 'brick 11', 'brick 12', 'brick 13', ]","['4211511', '6028324', '614321', '4165967', '6225539', '6138173', '6229071', '623224', '4651236', '4211054', '4121967', '6252809', '6062574']",https://surfdrive.surf.nl/files/index.php/s/B7PEqFZSZZBPcW8/download?path=%2FData%2FInput%2FDatasets%2FBerend%2FImages&files=B_972.jpg
H_640,"['brick 1', 'brick 2', 'brick 3', 'brick 4', 'brick 5', 'brick 6', 'brick 7', 'brick 8', 'brick 9', 'brick 10', ]","['4211412', '300421', '300121', '4529247', '300401', '6075075', '6151663', '6022023', '6223631', '4121967']",https://surfdrive.surf.nl/files/index.php/s/B7PEqFZSZZBPcW8/download?path=%2FData%2FInput%2FDatasets%2FHiba%2FImages&files=H_640.jpg
B_945,"['brick 1', 'brick 2', 'brick 3', 'brick 4', 'brick 5', 'brick 6', 'brick 7', 'brick 8', ]","['654126', '4153827', '4160403', '4651236', '4655172', '4550325', '4517992', '4211201']",https://surfdrive.surf.nl/files/index.php/s/B7PEqFZSZZBPcW8/download?path=%2FData%2FInput%2FDatasets%2FBerend%2FImages&files=B_945.jpg
B_1127,"['brick 1', 'brick 2', 'brick 3', 'brick 4', 'brick 5', 'brick 6', 'brick 7', 'brick 8', 'brick 9', 'brick 10', 'brick 11', 'brick 12', ]","['4181135', '4649749', '300424', '6249125', '6003007', '4650630', '4181134', '306223', '4114319', '4651236', '4548180', '4558957']",https://surfdrive.surf.nl/files/index.php/s/B7PEqFZSZZBPcW8/download?path=%2FData%2FInput%2FDatasets%2FBerend%2FImages&files=B_1127.jpg
C_862,"['brick 1', 'brick 2', 'brick 3', 'brick 4', 'brick 5', 'brick 6', ]","['6138173', '6069259', '6223631', '4211166', '6075079', '300424']",https://surfdrive.surf.nl/files/index.php/s/B7PEqFZSZZBPcW8/download?path=%2FData%2FInput%2FDatasets%2FDavid%2FImages&files=C_862.jpg
H_500,"['brick 1', 'brick 2', 'brick 3', 'brick 4', 'brick 5', 'brick 6', 'brick 7', 'brick 8', ]","['4639693', '4211437', '4649749', '6062574', '4517992', '300124', '4153827', '4211412']",https://surfdrive.surf.nl/files/index.php/s/B7PEqFZSZZBPcW8/download?path=%2FData%2FInput%2FDatasets%2FHiba%2FImages&files=H_500.jpg
H_544,"['brick 1', 'brick 2', 'brick 3', 'brick 4', 'brick 5', 'brick 6', 'brick 7', 'brick 8', ]","['4504381', '4165967', '4211221', '6177697', '4210718', '6035291', '6069259', '4109995']",https://surfdrive.surf.nl/files/index.php/s/B7PEqFZSZZBPcW8/download?path=%2FData%2FInput%2FDatasets%2FHiba%2FImages&files=H_544.jpg
H_801,"['brick 1', 'brick 2', 'brick 3', 'brick 4', 'brick 5', 'brick 6', 'brick 7', ]","['4114319', '300401', '6075075', '6151663', '306223', '4157124', '4181134']",https://surfdrive.surf.nl/files/index.php/s/B7PEqFZSZZBPcW8/download?path=%2FData%2FInput%2FDatasets%2FHiba%2FImages&files=H_801.jpg
C_1026,"['brick 1', 'brick 2', 'brick 3', 'brick 4', 'brick 5', 'brick 6', 'brick 7', ]","['4109995', '6073026', '4165967', '300124', '6225539', '4211511', '4181144']",https://surfdrive.surf.nl/files/index.php/s/B7PEqFZSZZBPcW8/download?path=%2FData%2FInput%2FDatasets%2FDavid%2FImages&files=C_1026.jpg
B_1138,"['brick 1', 'brick 2', 'brick 3', 'brick 4', 'brick 5', 'brick 6', 'brick 7', 'brick 8', ]","['4181135', '4649749', '300424', '6249125', '6003007', '4650630', '4181134', '306223']",https://surfdrive.surf.nl/files/index.php/s/B7PEqFZSZZBPcW8/download?path=%2FData%2FInput%2FDatasets%2FBerend%2FImages&files=B_1138.jpg
B_856,"['brick 1', 'brick 2', 'brick 3', 'brick 4', 'brick 5', 'brick 6', 'brick 7', 'brick 8', ]","['6225539', '4181134', '4520632', '4639693', '300321', '6177697', '654126', '4153827']",https://surfdrive.surf.nl/files/index.php/s/B7PEqFZSZZBPcW8/download?path=%2FData%2FInput%2FDatasets%2FBerend%2FImages&files=B_856.jpg
B_869,"['brick 1', 'brick 2', 'brick 3', 'brick 4', 'brick 5', 'brick 6', 'brick 7', 'brick 8', 'brick 9', 'brick 10', 'brick 11', ]","['4517992', '300121', '6022023', '300821', '300123', '6028324', '4143562', '6244886', '6022064', '4655172', '4118793']",https://surfdrive.surf.nl/files/index.php/s/B7PEqFZSZZBPcW8/download?path=%2FData%2FInput%2FDatasets%2FBerend%2FImages&files=B_869.jpg
H_617,"['brick 1', 'brick 2', 'brick 3', 'brick 4', 'brick 5', 'brick 6', 'brick 7', 'brick 8', 'brick 9', 'brick 10', 'brick 11', 'brick 12', ]","['300124', '4181135', '6004938', '4114319', '300323', '6104154', '6003007', '4153827', '4211511', '4649749', '4211054', '4160403']",https://surfdrive.surf.nl/files/index.php/s/B7PEqFZSZZBPcW8/download?path=%2FData%2FInput%2FDatasets%2FHiba%2FImages&files=H_617.jpg
C_888,"['brick 1', 'brick 2', 'brick 3', 'brick 4', 'brick 5', 'brick 6', 'brick 7', 'brick 8', 'brick 9', 'brick 10', 'brick 11', ]","['300123', '6225539', '6062574', '4160403', '4558957', '4548180', '614321', '4647553', '4153827', '6151663', '4118793']",https://surfdrive.surf.nl/files/index.php/s/B7PEqFZSZZBPcW8/download?path=%2FData%2FInput%2FDatasets%2FDavid%2FImages&files=C_888.jpg
B_830,"['brick 1', 'brick 2', 'brick 3', 'brick 4', 'brick 5', 'brick 6', 'brick 7', 'brick 8', 'brick 9', ]","['6225539', '4181134', '4655172', '623224', '4143562', '6028324', '6244886', '4165967', '4567338']",https://surfdrive.surf.nl/files/index.php/s/B7PEqFZSZZBPcW8/download?path=%2FData%2FInput%2FDatasets%2FBerend%2FImages&files=B_830.jpg
H_637,"['brick 1', 'brick 2', 'brick 3', 'brick 4', 'brick 5', 'brick 6', 'brick 7', 'brick 8', 'brick 9', 'brick 10', 'brick 11', ]","['4211412', '300421', '300121', '4529247', '300401', '6075075', '6151663', '6022023', '6223631', '4121967', '4211166']",https://surfdrive.surf.nl/files/index.php/s/B7PEqFZSZZBPcW8/download?path=%2FData%2FInput%2FDatasets%2FHiba%2FImages&files=H_637.jpg
H_551,"['brick 1', 'brick 2', 'brick 3', 'brick 4', 'brick 5', 'brick 6', 'brick 7', 'brick 8', 'brick 9', 'brick 10', 'brick 11', 'brick 12', ]","['6022023', '4143562', '300323', '6238674', '300401', '300423', '300123', '300821', '4649749', '4118793', '306223', '4212454']",https://surfdrive.surf.nl/files/index.php/s/B7PEqFZSZZBPcW8/download?path=%2FData%2FInput%2FDatasets%2FHiba%2FImages&files=H_551.jpg
H_481,"['brick 1', 'brick 2', 'brick 3', 'brick 4', 'brick 5', 'brick 6', 'brick 7', ]","['6028324', '4114319', '6004938', '300121', '300421', '6249125', '306223']",https://surfdrive.surf.nl/files/index.php/s/B7PEqFZSZZBPcW8/download?path=%2FData%2FInput%2FDatasets%2FHiba%2FImages&files=H_481.jpg
B_1163,"['brick 1', 'brick 2', 'brick 3', 'brick 4', 'brick 5', 'brick 6', 'brick 7', 'brick 8', 'brick 9', 'brick 10', 'brick 11', ]","['4210718', '6022023', '4211221', '654126', '4550325', '4109995', '6177697', '4529247', '6238674', '6022064', '6225539']",https://surfdrive.surf.nl/files/index.php/s/B7PEqFZSZZBPcW8/download?path=%2FData%2FInput%2FDatasets%2FBerend%2FImages&files=B_1163.jpg
H_597,"['brick 1', 'brick 2', 'brick 3', 'brick 4', 'brick 5', 'brick 6', 'brick 7', 'brick 8', ]","['4157124', '4211511', '6022064', '4211149', '4550348', '4651236', '4539099', '4550325']",https://surfdrive.surf.nl/files/index.php/s/B7PEqFZSZZBPcW8/download?path=%2FData%2FInput%2FDatasets%2FHiba%2FImages&files=H_597.jpg
C_968,"['brick 1', 'brick 2', 'brick 3', 'brick 4', 'brick 5', 'brick 6', 'brick 7', 'brick 8', 'brick 9', 'brick 10', ]","['654126', '6004938', '4210718', '6238674', '4539099', '4651236', '4153825', '4114319', '4211149', '4647553']",https://surfdrive.surf.nl/files/index.php/s/B7PEqFZSZZBPcW8/download?path=%2FData%2FInput%2FDatasets%2FDavid%2FImages&files=C_968.jpg
B_828,"['brick 1', 'brick 2', 'brick 3', 'brick 4', 'brick 5', 'brick 6', 'brick 7', 'brick 8', 'brick 9', ]","['6225539', '4181134', '4655172', '623224', '4143562', '6028324', '6244886', '4165967', '4567338']",https://surfdrive.surf.nl/files/index.php/s/B7PEqFZSZZBPcW8/download?path=%2FData%2FInput%2FDatasets%2FBerend%2FImages&files=B_828.jpg
B_944,"['brick 1', 'brick 2', 'brick 3', 'brick 4', 'brick 5', 'brick 6', 'brick 7', 'brick 8', 'brick 9', ]","['654126', '4153827', '4160403', '4651236', '4655172', '4550325', '4517992', '4211201', '4550348']",https://surfdrive.surf.nl/files/index.php/s/B7PEqFZSZZBPcW8/download?path=%2FData%2FInput%2FDatasets%2FBerend%2FImages&files=B_944.jpg
B_1093,"['brick 1', 'brick 2', 'brick 3', 'brick 4', 'brick 5', 'brick 6', 'brick 7', 'brick 8', 'brick 9', 'brick 10', 'brick 11', 'brick 12', ]","['6244886', '4211201', '4153827', '6229071', '300321', '4165967', '6225539', '4548180', '306201', '6028324', '614321', '300121']",https://surfdrive.surf.nl/files/index.php/s/B7PEqFZSZZBPcW8/download?path=%2FData%2FInput%2FDatasets%2FBerend%2FImages&files=B_1093.jpg
C_972,"['brick 1', 'brick 2', 'brick 3', 'brick 4', 'brick 5', 'brick 6', 'brick 7', 'brick 8', 'brick 9', ]","['654126', '6004938', '4210718', '6238674', '4539099', '4651236', '4153825', '4114319', '4211149']",https://surfdrive.surf.nl/files/index.php/s/B7PEqFZSZZBPcW8/download?path=%2FData%2FInput%2FDatasets%2FDavid%2FImages&files=C_972.jpg
B_1208,"['brick 1', 'brick 2', 'brick 3', 'brick 4', 'brick 5', 'brick 6', 'brick 7', 'brick 8', 'brick 9', ]","['4211412', '623224', '6244886', '4153827', '4211201', '300323', '6069259', '6229071', '4211149']",https://surfdrive.surf.nl/files/index.php/s/B7PEqFZSZZBPcW8/download?path=%2FData%2FInput%2FDatasets%2FBerend%2FImages&files=B_1208.jpg
B_1005,"['brick 1', 'brick 2', 'brick 3', 'brick 4', 'brick 5', 'brick 6', 'brick 7', 'brick 8', 'brick 9', 'brick 10', ]","['4504369', '4181135', '4520632', '4529247', '300321', '6075075', '6252809', '4181144', '6244886', '6004938']",https://surfdrive.surf.nl/files/index.php/s/B7PEqFZSZZBPcW8/download?path=%2FData%2FInput%2FDatasets%2FBerend%2FImages&files=B_1005.jpg
B_875,"['brick 1', 'brick 2', 'brick 3', 'brick 4', 'brick 5', 'brick 6', 'brick 7', 'brick 8', 'brick 9', ]","['4517992', '300121', '6022023', '300821', '300123', '6028324', '4143562', '6244886', '6022064']",https://surfdrive.surf.nl/files/index.php/s/B7PEqFZSZZBPcW8/download?path=%2FData%2FInput%2FDatasets%2FBerend%2FImages&files=B_875.jpg
H_787,"['brick 1', 'brick 2', 'brick 3', 'brick 4', 'brick 5', 'brick 6', 'brick 7', 'brick 8', 'brick 9', 'brick 10', 'brick 11', 'brick 12', ]","['4114319', '300401', '6075075', '6151663', '306223', '4157124', '4181134', '4529247', '6252809', '6073026', '6229071', '4211221']",https://surfdrive.surf.nl/files/index.php/s/B7PEqFZSZZBPcW8/download?path=%2FData%2FInput%2FDatasets%2FHiba%2FImages&files=H_787.jpg
H_480,"['brick 1', 'brick 2', 'brick 3', 'brick 4', 'brick 5', 'brick 6', 'brick 7', ]","['6028324', '4114319', '6004938', '300121', '300421', '6249125', '306223']",https://surfdrive.surf.nl/files/index.php/s/B7PEqFZSZZBPcW8/download?path=%2FData%2FInput%2FDatasets%2FHiba%2FImages&files=H_480.jpg
H_716,"['brick 1', 'brick 2', 'brick 3', 'brick 4', 'brick 5', 'brick 6', ]","['4160403', '4211221', '614321', '6073026', '6035291', '6025026']",https://surfdrive.surf.nl/files/index.php/s/B7PEqFZSZZBPcW8/download?path=%2FData%2FInput%2FDatasets%2FHiba%2FImages&files=H_716.jpg
H_745,"['brick 1', 'brick 2', 'brick 3', 'brick 4', 'brick 5', 'brick 6', 'brick 7', 'brick 8', 'brick 9', 'brick 10', 'brick 11', ]","['300323', '6028324', '4651236', '300124', '6004938', '4211412', '300121', '623224', '4550325', '4121967', '6104154']",https://surfdrive.surf.nl/files/index.php/s/B7PEqFZSZZBPcW8/download?path=%2FData%2FInput%2FDatasets%2FHiba%2FImages&files=H_745.jpg
C_865,"['brick 1', 'brick 2', 'brick 3', 'brick 4', 'brick 5', 'brick 6', 'brick 7', 'brick 8', 'brick 9', 'brick 10', 'brick 11', 'brick 12', 'brick 13', ]","['4539099', '4153825', '6022064', '4211511', '4517992', '6022023', '4621545', '4520632', '6229071', '6035291', '4527943', '4651236', '4655172']",https://surfdrive.surf.nl/files/index.php/s/B7PEqFZSZZBPcW8/download?path=%2FData%2FInput%2FDatasets%2FDavid%2FImages&files=C_865.jpg
H_462,"['brick 1', 'brick 2', 'brick 3', 'brick 4', 'brick 5', 'brick 6', 'brick 7', 'brick 8', 'brick 9', 'brick 10', 'brick 11', 'brick 12', 'brick 13', ]","['6028324', '4114319', '6004938', '300121', '300421', '6249125', '306223', '6003007', '300424', '6252809', '6229071', '4160403', '4558957']",https://surfdrive.surf.nl/files/index.php/s/B7PEqFZSZZBPcW8/download?path=%2FData%2FInput%2FDatasets%2FHiba%2FImages&files=H_462.jpg
C_905,"['brick 1', 'brick 2', 'brick 3', 'brick 4', 'brick 5', 'brick 6', 'brick 7', 'brick 8', 'brick 9', 'brick 10', ]","['4529240', '6074890', '623224', '6025026', '4650630', '6028324', '4211412', '300121', '4181134', '4153827']",https://surfdrive.surf.nl/files/index.php/s/B7PEqFZSZZBPcW8/download?path=%2FData%2FInput%2FDatasets%2FDavid%2FImages&files=C_905.jpg
H_499,"['brick 1', 'brick 2', 'brick 3', 'brick 4', 'brick 5', 'brick 6', 'brick 7', 'brick 8', 'brick 9', ]","['4639693', '4211437', '4649749', '6062574', '4517992', '300124', '4153827', '4211412', '4118793']",https://surfdrive.surf.nl/files/index.php/s/B7PEqFZSZZBPcW8/download?path=%2FData%2FInput%2FDatasets%2FHiba%2FImages&files=H_499.jpg
H_633,"['brick 1', 'brick 2', 'brick 3', 'brick 4', 'brick 5', 'brick 6', 'brick 7', 'brick 8', 'brick 9', 'brick 10', 'brick 11', 'brick 12', ]","['4211412', '300421', '300121', '4529247', '300401', '6075075', '6151663', '6022023', '6223631', '4121967', '4211166', '6252809']",https://surfdrive.surf.nl/files/index.php/s/B7PEqFZSZZBPcW8/download?path=%2FData%2FInput%2FDatasets%2FHiba%2FImages&files=H_633.jpg
B_984,"['brick 1', 'brick 2', 'brick 3', 'brick 4', 'brick 5', 'brick 6', 'brick 7', 'brick 8', 'brick 9', ]","['4211511', '6028324', '614321', '4165967', '6225539', '6138173', '6229071', '623224', '4651236']",https://surfdrive.surf.nl/files/index.php/s/B7PEqFZSZZBPcW8/download?path=%2FData%2FInput%2FDatasets%2FBerend%2FImages&files=B_984.jpg
B_904,"['brick 1', 'brick 2', 'brick 3', 'brick 4', 'brick 5', 'brick 6', 'brick 7', ]","['4165967', '623224', '6075075', '6225539', '4504369', '6252809', '4181135']",https://surfdrive.surf.nl/files/index.php/s/B7PEqFZSZZBPcW8/download?path=%2FData%2FInput%2FDatasets%2FBerend%2FImages&files=B_904.jpg
B_834,"['brick 1', 'brick 2', 'brick 3', 'brick 4', 'brick 5', 'brick 6', 'brick 7', 'brick 8', ]","['6225539', '4181134', '4655172', '623224', '4143562', '6028324', '6244886', '4165967']",https://surfdrive.surf.nl/files/index.php/s/B7PEqFZSZZBPcW8/download?path=%2FData%2FInput%2FDatasets%2FBerend%2FImages&files=B_834.jpg
H_712,"['brick 1', 'brick 2', 'brick 3', 'brick 4', 'brick 5', 'brick 6', 'brick 7', 'brick 8', ]","['4160403', '4211221', '614321', '6073026', '6035291', '6025026', '4520632', '6177697']",https://surfdrive.surf.nl/files/index.php/s/B7PEqFZSZZBPcW8/download?path=%2FData%2FInput%2FDatasets%2FHiba%2FImages&files=H_712.jpg
H_512,"['brick 1', 'brick 2', 'brick 3', 'brick 4', 'brick 5', 'brick 6', 'brick 7', 'brick 8', 'brick 9', 'brick 10', ]","['4520632', '4181134', '4211201', '4504369', '6025026', '6244886', '623224', '4529247', '654126', '4211511']",https://surfdrive.surf.nl/files/index.php/s/B7PEqFZSZZBPcW8/download?path=%2FData%2FInput%2FDatasets%2FHiba%2FImages&files=H_512.jpg
B_903,"['brick 1', 'brick 2', 'brick 3', 'brick 4', 'brick 5', 'brick 6', 'brick 7', ]","['4165967', '623224', '6075075', '6225539', '4504369', '6252809', '4181135']",https://surfdrive.surf.nl/files/index.php/s/B7PEqFZSZZBPcW8/download?path=%2FData%2FInput%2FDatasets%2FBerend%2FImages&files=B_903.jpg
H_548,"['brick 1', 'brick 2', 'brick 3', 'brick 4', 'brick 5', 'brick 6', ]","['4504381', '4165967', '4211221', '6177697', '4210718', '6035291']",https://surfdrive.surf.nl/files/index.php/s/B7PEqFZSZZBPcW8/download?path=%2FData%2FInput%2FDatasets%2FHiba%2FImages&files=H_548.jpg
H_465,"['brick 1', 'brick 2', 'brick 3', 'brick 4', 'brick 5', 'brick 6', 'brick 7', 'brick 8', 'brick 9', 'brick 10', 'brick 11', 'brick 12', ]","['6028324', '4114319', '6004938', '300121', '300421', '6249125', '306223', '6003007', '300424', '6252809', '6229071', '4160403']",https://surfdrive.surf.nl/files/index.php/s/B7PEqFZSZZBPcW8/download?path=%2FData%2FInput%2FDatasets%2FHiba%2FImages&files=H_465.jpg
C_1007,"['brick 1', 'brick 2', 'brick 3', 'brick 4', 'brick 5', 'brick 6', 'brick 7', 'brick 8', 'brick 9', 'brick 10', 'brick 11', 'brick 12', 'brick 13', ]","['4109995', '6073026', '4165967', '300124', '6225539', '4211511', '4181144', '4520632', '300321', '4550325', '4211149', '4639693', '4649749']",https://surfdrive.surf.nl/files/index.php/s/B7PEqFZSZZBPcW8/download?path=%2FData%2FInput%2FDatasets%2FDavid%2FImages&files=C_1007.jpg
H_542,"['brick 1', 'brick 2', 'brick 3', 'brick 4', 'brick 5', 'brick 6', 'brick 7', 'brick 8', ]","['4504381', '4165967', '4211221', '6177697', '4210718', '6035291', '6069259', '4109995']",https://surfdrive.surf.nl/files/index.php/s/B7PEqFZSZZBPcW8/download?path=%2FData%2FInput%2FDatasets%2FHiba%2FImages&files=H_542.jpg
C_1015,"['brick 1', 'brick 2', 'brick 3', 'brick 4', 'brick 5', 'brick 6', 'brick 7', 'brick 8', 'brick 9', 'brick 10', ]","['4109995', '6073026', '4165967', '300124', '6225539', '4211511', '4181144', '4520632', '300321', '4550325']",https://surfdrive.surf.nl/files/index.php/s/B7PEqFZSZZBPcW8/download?path=%2FData%2FInput%2FDatasets%2FDavid%2FImages&files=C_1015.jpg
B_920,"['brick 1', 'brick 2', 'brick 3', 'brick 4', 'brick 5', 'brick 6', 'brick 7', 'brick 8', 'brick 9', 'brick 10', ]","['6138173', '4520632', '6229071', '6177697', '300321', '4529247', '4639693', '4181144', '4211166', '4109995']",https://surfdrive.surf.nl/files/index.php/s/B7PEqFZSZZBPcW8/download?path=%2FData%2FInput%2FDatasets%2FBerend%2FImages&files=B_920.jpg
B_895,"['brick 1', 'brick 2', 'brick 3', 'brick 4', 'brick 5', 'brick 6', 'brick 7', 'brick 8', 'brick 9', 'brick 10', ]","['4165967', '623224', '6075075', '6225539', '4504369', '6252809', '4181135', '4211511', '4181134', '4529240']",https://surfdrive.surf.nl/files/index.php/s/B7PEqFZSZZBPcW8/download?path=%2FData%2FInput%2FDatasets%2FBerend%2FImages&files=B_895.jpg
B_1020,"['brick 1', 'brick 2', 'brick 3', 'brick 4', 'brick 5', 'brick 6', 'brick 7', 'brick 8', 'brick 9', 'brick 10', 'brick 11', ]","['4211201', '4211412', '4639693', '4153827', '4160403', '4539099', '300821', '300121', '4121967', '4181134', '300323']",https://surfdrive.surf.nl/files/index.php/s/B7PEqFZSZZBPcW8/download?path=%2FData%2FInput%2FDatasets%2FBerend%2FImages&files=B_1020.jpg
C_916,"['brick 1', 'brick 2', 'brick 3', 'brick 4', 'brick 5', 'brick 6', ]","['4529240', '6074890', '623224', '6025026', '4650630', '6028324']",https://surfdrive.surf.nl/files/index.php/s/B7PEqFZSZZBPcW8/download?path=%2FData%2FInput%2FDatasets%2FDavid%2FImages&files=C_916.jpg
H_708,"['brick 1', 'brick 2', 'brick 3', 'brick 4', 'brick 5', 'brick 6', 'brick 7', 'brick 8', 'brick 9', ]","['4160403', '4211221', '614321', '6073026', '6035291', '6025026', '4520632', '6177697', '4639693']",https://surfdrive.surf.nl/files/index.php/s/B7PEqFZSZZBPcW8/download?path=%2FData%2FInput%2FDatasets%2FHiba%2FImages&files=H_708.jpg
H_593,"['brick 1', 'brick 2', 'brick 3', 'brick 4', 'brick 5', 'brick 6', 'brick 7', 'brick 8', 'brick 9', ]","['4157124', '4211511', '6022064', '4211149', '4550348', '4651236', '4539099', '4550325', '4548180']",https://surfdrive.surf.nl/files/index.php/s/B7PEqFZSZZBPcW8/download?path=%2FData%2FInput%2FDatasets%2FHiba%2FImages&files=H_593.jpg
H_800,"['brick 1', 'brick 2', 'brick 3', 'brick 4', 'brick 5', 'brick 6', 'brick 7', ]","['4114319', '300401', '6075075', '6151663', '306223', '4157124', '4181134']",https://surfdrive.surf.nl/files/index.php/s/B7PEqFZSZZBPcW8/download?path=%2FData%2FInput%2FDatasets%2FHiba%2FImages&files=H_800.jpg
B_1088,"['brick 1', 'brick 2', 'brick 3', 'brick 4', 'brick 5', 'brick 6', 'brick 7', 'brick 8', 'brick 9', ]","['4529247', '6062574', '614321', '6022064', '6028324', '4211149', '4211412', '6138173', '4211511']",https://surfdrive.surf.nl/files/index.php/s/B7PEqFZSZZBPcW8/download?path=%2FData%2FInput%2FDatasets%2FBerend%2FImages&files=B_1088.jpg
H_670,"['brick 1', 'brick 2', 'brick 3', 'brick 4', 'brick 5', 'brick 6', 'brick 7', 'brick 8', 'brick 9', 'brick 10', 'brick 11', ]","['6069259', '4165967', '6238674', '4181144', '4558957', '4181134', '6244886', '4504369', '4143562', '4210718', '4548180']",https://surfdrive.surf.nl/files/index.php/s/B7PEqFZSZZBPcW8/download?path=%2FData%2FInput%2FDatasets%2FHiba%2FImages&files=H_670.jpg
H_498,"['brick 1', 'brick 2', 'brick 3', 'brick 4', 'brick 5', 'brick 6', 'brick 7', 'brick 8', 'brick 9', ]","['4639693', '4211437', '4649749', '6062574', '4517992', '300124', '4153827', '4211412', '4118793']",https://surfdrive.surf.nl/files/index.php/s/B7PEqFZSZZBPcW8/download?path=%2FData%2FInput%2FDatasets%2FHiba%2FImages&files=H_498.jpg
B_833,"['brick 1', 'brick 2', 'brick 3', 'brick 4', 'brick 5', 'brick 6', 'brick 7', 'brick 8', ]","['6225539', '4181134', '4655172', '623224', '4143562', '6028324', '6244886', '4165967']",https://surfdrive.surf.nl/files/index.php/s/B7PEqFZSZZBPcW8/download?path=%2FData%2FInput%2FDatasets%2FBerend%2FImages&files=B_833.jpg
C_889,"['brick 1', 'brick 2', 'brick 3', 'brick 4', 'brick 5', 'brick 6', 'brick 7', 'brick 8', 'brick 9', 'brick 10', ]","['300123', '6225539', '6062574', '4160403', '4558957', '4548180', '614321', '4647553', '4153827', '6151663']",https://surfdrive.surf.nl/files/index.php/s/B7PEqFZSZZBPcW8/download?path=%2FData%2FInput%2FDatasets%2FDavid%2FImages&files=C_889.jpg
C_839,"['brick 1', 'brick 2', 'brick 3', 'brick 4', 'brick 5', 'brick 6', 'brick 7', 'brick 8', 'brick 9', ]","['365901', '300821', '4212454', '4567338', '300423', '6104154', '4143562', '6244886', '4210718']",https://surfdrive.surf.nl/files/index.php/s/B7PEqFZSZZBPcW8/download?path=%2FData%2FInput%2FDatasets%2FDavid%2FImages&files=C_839.jpg
B_908,"['brick 1', 'brick 2', 'brick 3', 'brick 4', 'brick 5', 'brick 6', ]","['4165967', '623224', '6075075', '6225539', '4504369', '6252809']",https://surfdrive.surf.nl/files/index.php/s/B7PEqFZSZZBPcW8/download?path=%2FData%2FInput%2FDatasets%2FBerend%2FImages&files=B_908.jpg
B_1104,"['brick 1', 'brick 2', 'brick 3', 'brick 4', 'brick 5', 'brick 6', 'brick 7', 'brick 8', 'brick 9', 'brick 10', 'brick 11', 'brick 12', 'brick 13', ]","['6075075', '4160403', '6252809', '4651236', '300821', '4181144', '4655172', '4539099', '6022064', '6073026', '300323', '6104154', '4504381']",https://surfdrive.surf.nl/files/index.php/s/B7PEqFZSZZBPcW8/download?path=%2FData%2FInput%2FDatasets%2FBerend%2FImages&files=B_1104.jpg
H_440,"['brick 1', 'brick 2', 'brick 3', 'brick 4', 'brick 5', 'brick 6', 'brick 7', 'brick 8', 'brick 9', 'brick 10', 'brick 11', ]","['4160403', '4539099', '6225539', '6151663', '4550348', '6252809', '4548180', '365901', '6229071', '6138173', '4121739']",https://surfdrive.surf.nl/files/index.php/s/B7PEqFZSZZBPcW8/download?path=%2FData%2FInput%2FDatasets%2FHiba%2FImages&files=H_440.jpg
H_662,"['brick 1', 'brick 2', 'brick 3', 'brick 4', 'brick 5', 'brick 6', 'brick 7', 'brick 8', 'brick 9', 'brick 10', 'brick 11', 'brick 12', 'brick 13', ]","['6069259', '4165967', '6238674', '4181144', '4558957', '4181134', '6244886', '4504369', '4143562', '4210718', '4548180', '4649749', '4211437']",https://surfdrive.surf.nl/files/index.php/s/B7PEqFZSZZBPcW8/download?path=%2FData%2FInput%2FDatasets%2FHiba%2FImages&files=H_662.jpg
C_1014,"['brick 1', 'brick 2', 'brick 3', 'brick 4', 'brick 5', 'brick 6', 'brick 7', 'brick 8', 'brick 9', 'brick 10', 'brick 11', ]","['4109995', '6073026', '4165967', '300124', '6225539', '4211511', '4181144', '4520632', '300321', '4550325', '4211149']",https://surfdrive.surf.nl/files/index.php/s/B7PEqFZSZZBPcW8/download?path=%2FData%2FInput%2FDatasets%2FDavid%2FImages&files=C_1014.jpg
C_926,"['brick 1', 'brick 2', 'brick 3', 'brick 4', 'brick 5', 'brick 6', 'brick 7', 'brick 8', 'brick 9', 'brick 10', ]","['365901', '306201', '4529247', '300423', '6003007', '6244886', '6104154', '300421', '6062574', '6075075']",https://surfdrive.surf.nl/files/index.php/s/B7PEqFZSZZBPcW8/download?path=%2FData%2FInput%2FDatasets%2FDavid%2FImages&files=C_926.jpg
H_813,"['brick 1', 'brick 2', 'brick 3', 'brick 4', 'brick 5', 'brick 6', 'brick 7', 'brick 8', 'brick 9', 'brick 10', 'brick 11', ]","['4109995', '4504381', '4211614', '4504369', '4165967', '4181144', '6238674', '6249125', '4118793', '4181135', '4211054']",https://surfdrive.surf.nl/files/index.php/s/B7PEqFZSZZBPcW8/download?path=%2FData%2FInput%2FDatasets%2FHiba%2FImages&files=H_813.jpg
C_850,"['brick 1', 'brick 2', 'brick 3', 'brick 4', 'brick 5', 'brick 6', 'brick 7', 'brick 8', 'brick 9', 'brick 10', ]","['6138173', '6069259', '6223631', '4211166', '6075079', '300424', '6177697', '4639693', '4504369', '4567338']",https://surfdrive.surf.nl/files/index.php/s/B7PEqFZSZZBPcW8/download?path=%2FData%2FInput%2FDatasets%2FDavid%2FImages&files=C_850.jpg
C_876,"['brick 1', 'brick 2', 'brick 3', 'brick 4', 'brick 5', 'brick 6', 'brick 7', 'brick 8', 'brick 9', 'brick 10', ]","['4539099', '4153825', '6022064', '4211511', '4517992', '6022023', '4621545', '4520632', '6229071', '6035291']",https://surfdrive.surf.nl/files/index.php/s/B7PEqFZSZZBPcW8/download?path=%2FData%2FInput%2FDatasets%2FDavid%2FImages&files=C_876.jpg
H_731,"['brick 1', 'brick 2', 'brick 3', 'brick 4', 'brick 5', 'brick 6', 'brick 7', 'brick 8', 'brick 9', ]","['6062574', '300123', '4655172', '6225539', '4517992', '6074890', '6022064', '4621545', '4211201']",https://surfdrive.surf.nl/files/index.php/s/B7PEqFZSZZBPcW8/download?path=%2FData%2FInput%2FDatasets%2FHiba%2FImages&files=H_731.jpg
B_1129,"['brick 1', 'brick 2', 'brick 3', 'brick 4', 'brick 5', 'brick 6', 'brick 7', 'brick 8', 'brick 9', 'brick 10', 'brick 11', ]","['4181135', '4649749', '300424', '6249125', '6003007', '4650630', '4181134', '306223', '4114319', '4651236', '4548180']",https://surfdrive.surf.nl/files/index.php/s/B7PEqFZSZZBPcW8/download?path=%2FData%2FInput%2FDatasets%2FBerend%2FImages&files=B_1129.jpg
B_1094,"['brick 1', 'brick 2', 'brick 3', 'brick 4', 'brick 5', 'brick 6', 'brick 7', 'brick 8', 'brick 9', 'brick 10', 'brick 11', 'brick 12', ]","['6244886', '4211201', '4153827', '6229071', '300321', '4165967', '6225539', '4548180', '306201', '6028324', '614321', '300121']",https://surfdrive.surf.nl/files/index.php/s/B7PEqFZSZZBPcW8/download?path=%2FData%2FInput%2FDatasets%2FBerend%2FImages&files=B_1094.jpg
H_682,"['brick 1', 'brick 2', 'brick 3', 'brick 4', 'brick 5', 'brick 6', 'brick 7', 'brick 8', 'brick 9', 'brick 10', 'brick 11', ]","['6138173', '6229071', '6075079', '4650630', '300424', '4527943', '300321', '4153825', '306201', '4558957', '4529240']",https://surfdrive.surf.nl/files/index.php/s/B7PEqFZSZZBPcW8/download?path=%2FData%2FInput%2FDatasets%2FHiba%2FImages&files=H_682.jpg
