https://surfdrive.surf.nl/files/index.php/s/B7PEqFZSZZBPcW8/download?path=%2FData%2FInput%2FDatasets%2FBerend%2FImages&files=B_1011.jpg,4608,3072
B_1011,daylight,dirty_rug,"[120, 120, 120]","['4504369', '4181135', '4520632', '4529247', '300321', '6075075', '6252809', '4181144']"
4504369,2421,1967,2539,2070
4181135,1927,1641,2572,1919
4520632,2624,1414,2857,1765
4529247,2447,1476,2571,1577
300321,2282,1297,2411,1471
6075075,1760,1721,1919,1850
6252809,1780,1017,2722,1338
4181144,1366,1452,2006,1741
