https://surfdrive.surf.nl/files/index.php/s/B7PEqFZSZZBPcW8/download?path=%2FData%2FInput%2FDatasets%2FBerend%2FImages&files=B_1054.jpg,4608,3072
B_1054,daylight,dirty_rug,"[120, 120, 120]","['4109995', '300123', '623224', '4520632', '6025026', '4504369', '4157124', '4211511', '4621545', '365901', '4639693', '4143562', '4529240']"
4109995,959,310,1196,495
300123,2084,862,2558,1113
623224,3827,1587,4164,1939
4520632,1629,991,2158,1387
6025026,2082,1819,2365,2011
4504369,533,1409,685,1554
4157124,2435,2037,2611,2298
4211511,2224,1210,2384,1391
4621545,1184,595,1403,854
365901,1481,999,1669,1450
4639693,2672,773,3505,1491
4143562,1740,1413,2036,1680
4529240,1342,1116,1475,1291
