https://surfdrive.surf.nl/files/index.php/s/B7PEqFZSZZBPcW8/download?path=%2FData%2FInput%2FDatasets%2FBerend%2FImages&files=B_1031.jpg,4608,3072
B_1031,daylight,dirty_rug,"[120, 120, 120]","['654126', '4504381', '4517992', '4211221', '6177697', '6022023', '4550325', '4114319', '4143562', '4655172', '4181134', '6223631', '300321']"
654126,2296,2111,2462,2319
4504381,2873,1984,3043,2145
4517992,1850,1388,2151,1696
4211221,2573,1464,2898,1781
6177697,1046,1452,1419,1864
6022023,1713,1625,2035,1900
4550325,1351,1494,1569,1740
4114319,2086,966,2538,1381
4143562,1924,1736,2225,2005
4655172,2856,1594,3325,2050
4181134,1171,1091,1846,1587
6223631,1926,2230,2076,2375
300321,1940,845,2180,1106
