https://surfdrive.surf.nl/files/index.php/s/B7PEqFZSZZBPcW8/download?path=%2FData%2FInput%2FDatasets%2FBerend%2FImages&files=B_1027.jpg,4608,3072
B_1027,daylight,dirty_rug,"[120, 120, 120]","['4211201', '4211412', '4639693', '4153827', '4160403', '4539099', '300821', '300121', '4121967']"
4211201,2100,908,2236,1109
4211412,1437,1737,1538,1777
4639693,2598,1677,2927,2067
4153827,1949,1167,2273,1365
4160403,1668,1685,1896,2001
4539099,1233,917,1277,974
300821,2229,1413,2401,1729
300121,2006,1541,2098,1778
4121967,1799,1576,1883,1650
