https://surfdrive.surf.nl/files/index.php/s/B7PEqFZSZZBPcW8/download?path=%2FData%2FInput%2FDatasets%2FBerend%2FImages&files=B_1070.jpg,4608,3072
B_1070,daylight,dirty_rug,"[120, 120, 120]","['4109995', '300123', '623224', '4520632', '6025026', '4504369', '4157124', '4211511']"
4109995,2251,886,2378,1036
300123,2585,1691,2895,1910
623224,2194,1887,2378,2042
4520632,2487,1059,2815,1358
6025026,3275,1979,3459,2169
4504369,3033,1956,3097,2042
4157124,3131,2186,3298,2324
4211511,1031,2169,1187,2324
