https://surfdrive.surf.nl/files/index.php/s/B7PEqFZSZZBPcW8/download?path=%2FData%2FInput%2FDatasets%2FBerend%2FImages&files=B_1024.jpg,4608,3072
B_1024,daylight,dirty_rug,"[120, 120, 120]","['4211201', '4211412', '4639693', '4153827', '4160403', '4539099', '300821', '300121', '4121967', '4181134']"
4211201,2598,575,2781,907
4211412,2180,892,2311,1018
4639693,2156,1277,2600,2087
4153827,1677,1051,2091,1410
4160403,1747,659,2276,788
4539099,1508,836,1610,946
300821,2398,946,2711,1580
300121,1534,868,1804,1212
4121967,1666,2095,1912,2245
4181134,2039,934,2441,1406
