https://surfdrive.surf.nl/files/index.php/s/B7PEqFZSZZBPcW8/download?path=%2FData%2FInput%2FDatasets%2FBerend%2FImages&files=B_1011.jpg,4608,3072
B_1011,daylight,dirty_rug,"[120, 120, 120]","['4504369', '4181135', '4520632', '4529247', '300321', '6075075', '6252809', '4181144']"
4504369,1781,1022,2714,1341
4181135,1369,1449,2019,1794
4520632,1746,1723,1924,1898
4529247,1919,1639,2572,1958
300321,2426,1962,2539,2084
6075075,2629,1392,2842,1811
6252809,2444,1477,2587,1569
4181144,2272,1295,2407,1574
