https://surfdrive.surf.nl/files/index.php/s/B7PEqFZSZZBPcW8/download?path=%2FData%2FInput%2FDatasets%2FBerend%2FImages&files=B_1073.jpg,4608,3072
B_1073,daylight,dirty_rug,"[120, 120, 120]","['4109995', '300123', '623224', '4520632', '6025026', '4504369', '4157124']"
4109995,2295,1516,2463,1682
300123,1774,1358,2074,1617
623224,1008,2000,1198,2207
4520632,2580,1205,2804,1486
6025026,3009,2159,3146,2335
4504369,1418,1105,1470,1186
4157124,2175,1516,2276,1657
