https://surfdrive.surf.nl/files/index.php/s/B7PEqFZSZZBPcW8/download?path=%2FData%2FInput%2FDatasets%2FBerend%2FImages&files=B_1077.jpg,4608,3072
B_1077,artificial_light,parquet_dark_brown,"[120, 120, 120]","['4529247', '6062574', '614321', '6022064', '6028324', '4211149', '4211412', '6138173', '4211511', '4210718', '4143562', '4181135']"
4529247,1822,1548,1909,1625
6062574,2388,2035,2483,2131
614321,3144,1028,3281,1160
6022064,1590,1621,1772,1794
6028324,1754,1652,1882,1780
4211149,2146,1836,2251,1957
4211412,2632,1626,2732,1731
6138173,1643,1774,1741,1881
4211511,2801,1764,2920,1892
4210718,2191,1573,2501,1764
4143562,2455,1345,2601,1464
4181135,1681,1755,2109,1974
