https://surfdrive.surf.nl/files/index.php/s/B7PEqFZSZZBPcW8/download?path=%2FData%2FInput%2FDatasets%2FBerend%2FImages&files=B_1082.jpg,4608,3072
B_1082,artificial_light,parquet_dark_brown,"[120, 120, 120]","['4529247', '6062574', '614321', '6022064', '6028324', '4211149', '4211412', '6138173', '4211511', '4210718', '4143562']"
4529247,3093,1629,3130,1721
6062574,2930,1795,3030,1899
614321,2472,1507,2560,1603
6022064,2416,1736,2601,1988
6028324,1392,1099,1469,1180
4211149,3116,1361,3272,1502
4211412,1558,1591,1677,1676
6138173,2680,1757,2791,1857
4211511,1300,1235,1396,1375
4210718,2824,1353,2964,1575
4143562,2624,2034,2772,2138
