https://surfdrive.surf.nl/files/index.php/s/B7PEqFZSZZBPcW8/download?path=%2FData%2FInput%2FDatasets%2FBerend%2FImages&files=B_1030.jpg,4608,3072
B_1030,daylight,dirty_rug,"[120, 120, 120]","['654126', '4504381', '4517992', '4211221', '6177697', '6022023', '4550325', '4114319', '4143562', '4655172', '4181134', '6223631', '300321']"
654126,2101,1859,2283,2050
4504381,2697,1906,2801,2007
4517992,2549,1955,2792,2241
4211221,1537,1047,1768,1304
6177697,1918,1524,2202,1964
6022023,2445,1428,2700,1637
4550325,1221,1651,1456,1886
4114319,1780,1015,1971,1475
4143562,2236,1760,2433,1920
4655172,2471,1501,2928,1892
4181134,2056,1200,2689,1497
6223631,1781,1662,1914,1800
300321,1568,647,1820,909
