https://surfdrive.surf.nl/files/index.php/s/B7PEqFZSZZBPcW8/download?path=%2FData%2FInput%2FDatasets%2FBerend%2FImages&files=B_1132.jpg,4608,3072
B_1132,artificial_light,desk_black_wood,"[120, 120, 120]","['4181135', '4649749', '300424', '6249125', '6003007', '4650630', '4181134', '306223', '4114319', '4651236']"
4181135,1862,1242,2812,1791
4649749,1651,1587,1954,1863
300424,2776,1353,3109,1710
6249125,2728,1107,2905,1263
6003007,919,732,1123,942
4650630,1970,984,2336,1326
4181134,1455,642,2336,1188
306223,715,747,964,945
4114319,2869,840,3492,1356
4651236,1377,1638,1729,1884
