https://surfdrive.surf.nl/files/index.php/s/B7PEqFZSZZBPcW8/download?path=%2FData%2FInput%2FDatasets%2FBerend%2FImages&files=B_1137.jpg,4608,3072
B_1137,artificial_light,desk_black_wood,"[120, 120, 120]","['4181135', '4649749', '300424', '6249125', '6003007', '4650630', '4181134', '306223']"
4181135,923,865,1855,1361
4649749,2003,1213,2979,1960
300424,3016,1102,3327,1457
6249125,2232,1264,2550,1405
6003007,2254,1094,2469,1294
4650630,2380,1605,2765,1990
4181134,3423,1575,3593,1775
306223,1973,1805,2158,1953
