https://surfdrive.surf.nl/files/index.php/s/B7PEqFZSZZBPcW8/download?path=%2FData%2FInput%2FDatasets%2FBerend%2FImages&files=B_1196.jpg,4608,3072
B_1196,artificial_light,parquet_light,"[120, 120, 120]","['4211412', '623224', '6244886', '4153827', '4211201', '300323', '6069259', '6229071', '4211149', '4143562', '4650630', '300321', '4650630']"
4211412,2297,1048,2927,1407
623224,1575,1306,2215,1666
6244886,911,1301,1305,1597
4153827,1635,1055,1974,1296
4211201,1147,1129,1452,1414
300323,539,1173,871,1528
6069259,2206,1518,2540,1813
6229071,1930,1577,2215,1784
4211149,1900,1808,2201,2173
4143562,1733,1636,1905,1784
4650630,2979,1715,3102,1818
4650630,3801,1296,4101,1434
300321,1787,285,2094,599
