https://surfdrive.surf.nl/files/index.php/s/B7PEqFZSZZBPcW8/download?path=%2FData%2FInput%2FDatasets%2FBerend%2FImages&files=B_1101.jpg,4608,3072
B_1101,artificial_light,parquet_dark_brown,"[120, 120, 120]","['6244886', '4211201', '4153827', '6229071', '300321', '4165967', '6225539', '4548180', '306201']"
6244886,3028,799,3195,1138
4211201,2820,1395,3411,1699
4153827,2457,1001,3029,1283
6229071,1234,1247,1424,1560
300321,1608,1117,1975,1404
4165967,1379,1995,1575,2112
6225539,2557,1832,3182,2123
4548180,2244,1740,2525,1849
306201,2263,1018,2653,1582
