https://surfdrive.surf.nl/files/index.php/s/B7PEqFZSZZBPcW8/download?path=%2FData%2FInput%2FDatasets%2FBerend%2FImages&files=B_1145.jpg,4608,3072
B_1145,artificial_light,desk_black_wood,"[120, 120, 120]","['300121', '365901', '300421', '4211149', '300124', '6062574', '4639693', '300123', '6025026', '4651236', '6104154', '4181135', '4211437']"
300121,2150,2089,2817,2284
365901,1135,1569,1494,2073
300421,688,984,877,1223
4211149,908,304,1085,493
300124,2067,1242,2665,1563
6062574,2929,1393,3030,1488
4639693,3294,1393,4144,2262
300123,2218,1714,3275,2092
6025026,3275,2507,3691,2759
4651236,1481,2243,1783,2394
6104154,1947,1569,2325,1796
4181135,3193,1286,3445,1777
4211437,745,644,889,845
