https://surfdrive.surf.nl/files/index.php/s/B7PEqFZSZZBPcW8/download?path=%2FData%2FInput%2FDatasets%2FBerend%2FImages&files=B_1153.jpg,4608,3072
B_1153,artificial_light,desk_black_wood,"[120, 120, 120]","['300121', '365901', '300421', '4211149', '300124', '6062574', '4639693', '300123', '6025026', '4651236']"
300121,2979,954,3327,1198
365901,2343,1553,2765,1783
300421,2410,1257,2668,1405
4211149,3009,1894,3223,2071
300124,3046,1479,3304,1849
6062574,1145,1227,1396,1427
4639693,2291,917,2986,1368
300123,2846,1272,3046,1679
6025026,2410,1805,2513,2005
4651236,1892,1242,2106,1412
