https://surfdrive.surf.nl/files/index.php/s/B7PEqFZSZZBPcW8/download?path=%2FData%2FInput%2FDatasets%2FBerend%2FImages&files=B_1139.jpg,4608,3072
B_1139,artificial_light,desk_black_wood,"[120, 120, 120]","['4181135', '4649749', '300424', '6249125', '6003007', '4650630', '4181134', '306223']"
4181135,1674,1179,2629,1588
4649749,903,1193,1143,1324
300424,2469,1574,2798,1846
6249125,1100,1442,1241,1639
6003007,1759,812,1914,1014
4650630,1881,713,2271,1061
4181134,1519,1451,2464,2029
306223,2873,1527,3226,1743
