https://surfdrive.surf.nl/files/index.php/s/B7PEqFZSZZBPcW8/download?path=%2FData%2FInput%2FDatasets%2FBerend%2FImages&files=B_1111.jpg,4608,3072
B_1111,artificial_light,parquet_dark_brown,"[120, 120, 120]","['6075075', '4160403', '6252809', '4651236', '300821', '4181144', '4655172', '4539099', '6022064', '6073026', '300323']"
6075075,1736,1352,1910,1437
4160403,1629,1450,2206,1624
6252809,1725,862,2583,1250
4651236,1323,1469,1514,1613
300821,2058,1402,2824,1491
4181144,1884,1062,2354,1372
4655172,2643,906,2913,1039
4539099,3205,680,3294,765
6022064,1595,1650,1858,1731
6073026,1140,1654,1255,1731
300323,2439,629,2583,747
