https://surfdrive.surf.nl/files/index.php/s/B7PEqFZSZZBPcW8/download?path=%2FData%2FInput%2FDatasets%2FBerend%2FImages&files=B_1181.jpg,4608,3072
B_1181,artificial_light,parquet_light,"[120, 120, 120]","['4517992', '4504369', '4504381', '4165967', '6138173', '300321', '4212454', '4520632', '4211614', '300123', '4212454', '6022064', '6229071']"
4517992,1599,1117,1773,1239
4504369,3203,2122,3272,2213
4504381,3233,1897,3320,1974
4165967,2224,1380,2569,1556
6138173,2648,1086,2791,1169
300321,2554,503,2635,599
4212454,3255,1702,3346,1769
4212454,1954,2287,2021,2387
4520632,2720,1535,3050,1731
4211614,2047,1554,2121,1646
300123,2469,1665,2717,1891
6022064,1891,499,2032,551
6229071,3102,1961,3250,2042
