https://surfdrive.surf.nl/files/index.php/s/B7PEqFZSZZBPcW8/download?path=%2FData%2FInput%2FDatasets%2FBerend%2FImages&files=B_1139.jpg,4608,3072
B_1139,artificial_light,desk_black_wood,"[120, 120, 120]","['4181135', '4649749', '300424', '6249125', '6003007', '4650630', '4181134', '306223']"
4181135,2891,1560,3170,1696
4649749,2510,1706,2806,1816
300424,1534,1675,2386,1906
6249125,1754,1251,2552,1451
6003007,1106,1448,1238,1631
4650630,919,1193,1113,1319
4181134,1792,813,1887,999
306223,1985,772,2199,1006
