https://surfdrive.surf.nl/files/index.php/s/B7PEqFZSZZBPcW8/download?path=%2FData%2FInput%2FDatasets%2FBerend%2FImages&files=B_113.jpg,4608,3072
B_113,daylight,wood,"[130, 130, 130]","['6022064', '4211221', '4211511', '6073026', '4550348', '6022023']"
6022064,2453,1204,2766,1405
4211221,1950,1253,2138,1510
4211511,2259,1393,2407,1556
6073026,2508,1490,2648,1655
4550348,1995,1479,2095,1688
6022023,2302,1497,2507,1757
