https://surfdrive.surf.nl/files/index.php/s/B7PEqFZSZZBPcW8/download?path=%2FData%2FInput%2FDatasets%2FBerend%2FImages&files=B_1162.jpg,4608,3072
B_1162,artificial_light,parquet_light,"[120, 120, 120]","['4210718', '6022023', '4211221', '654126', '4550325', '4109995', '6177697', '4529247', '654126', '6238674', '6022064', '6225539']"
4210718,2291,1387,2658,1565
6022023,2361,1643,2465,1835
4211221,1407,965,1521,1032
654126,2556,728,2648,806
654126,2215,1538,2276,1602
4550325,1945,1306,2121,1404
4109995,1753,1475,1902,1587
6177697,1827,1388,2015,1684
4529247,1518,1841,1625,1926
6238674,2770,2476,2902,2544
6022064,1845,1138,2060,1197
6225539,1962,1364,2217,1834
