https://surfdrive.surf.nl/files/index.php/s/B7PEqFZSZZBPcW8/download?path=%2FData%2FInput%2FDatasets%2FBerend%2FImages&files=B_1173.jpg,4608,3072
B_1173,artificial_light,parquet_light,"[120, 120, 120]","['4210718', '6022023', '4211221', '654126', '4550325', '4109995', '6177697', '4529247']"
4210718,2262,2012,2735,2338
6022023,2040,1005,2269,1264
4211221,1611,1538,1766,1790
654126,3181,1695,3357,1832
4550325,2852,1671,3109,1893
4109995,1877,1590,2106,1775
6177697,2446,924,2912,1250
4529247,1869,1887,1947,2072
