https://surfdrive.surf.nl/files/index.php/s/B7PEqFZSZZBPcW8/download?path=%2FData%2FInput%2FDatasets%2FBerend%2FImages&files=B_1172.jpg,4608,3072
B_1172,artificial_light,parquet_light,"[120, 120, 120]","['4210718', '6022023', '4211221', '654126', '4550325', '4109995', '6177697', '4529247', '654126']"
4210718,2266,1689,2647,2195
6022023,3157,1813,3402,2100
4211221,2662,1197,2966,1385
654126,1649,2021,1864,2262
654126,2966,1805,3165,2030
4550325,1441,1891,1719,2166
4109995,1959,1880,2263,2183
6177697,2448,1437,2888,1917
4529247,3289,402,3463,545
