https://surfdrive.surf.nl/files/index.php/s/B7PEqFZSZZBPcW8/download?path=%2FData%2FInput%2FDatasets%2FBerend%2FImages&files=B_1171.jpg,4608,3072
B_1171,artificial_light,parquet_light,"[120, 120, 120]","['4210718', '6022023', '4211221', '654126', '4550325', '4109995', '6177697', '4529247', '654126']"
4210718,3178,934,3511,1419
6022023,2267,1496,2596,1841
4211221,2204,401,2541,723
654126,2108,1156,2297,1356
654126,1023,416,1190,630
4550325,2427,2472,2729,2796
4109995,2408,1199,2674,1406
6177697,2744,567,3257,906
4529247,1916,1290,2066,1486
