https://surfdrive.surf.nl/files/index.php/s/B7PEqFZSZZBPcW8/download?path=%2FData%2FInput%2FDatasets%2FBerend%2FImages&files=B_1117.jpg,4608,3072
B_1117,artificial_light,parquet_dark_brown,"[120, 120, 120]","['6075075', '4160403', '6252809', '4651236', '300821', '4181144', '4655172', '4539099', '6022064']"
6075075,2136,1687,2228,1815
4160403,2868,1358,3013,1709
6252809,2772,1526,2978,2207
4651236,2563,1463,2718,1538
300821,2232,1672,2817,2102
4181144,2300,1384,2709,1765
4655172,2472,703,2750,917
4539099,1373,2017,1429,2113
6022064,3017,1228,3229,1375
