https://surfdrive.surf.nl/files/index.php/s/B7PEqFZSZZBPcW8/download?path=%2FData%2FInput%2FDatasets%2FBerend%2FImages&files=B_1137.jpg,4608,3072
B_1137,artificial_light,desk_black_wood,"[120, 120, 120]","['4181135', '4649749', '300424', '6249125', '6003007', '4650630', '4181134', '306223']"
4181135,909,865,1868,1509
4649749,2232,1282,2572,1404
300424,2370,1626,2766,1982
6249125,1977,1808,2159,1970
6003007,2269,1108,2491,1270
4650630,3001,1116,3321,1456
4181134,1985,1213,2977,1958
306223,3422,1582,3600,1796
