https://surfdrive.surf.nl/files/index.php/s/B7PEqFZSZZBPcW8/download?path=%2FData%2FInput%2FDatasets%2FBerend%2FImages&files=B_1131.jpg,4607,3072
B_1131,artificial_light,desk_black_wood,"[120, 120, 120]","['4181135', '4649749', '300424', '6249125', '6003007', '4650630', '4181134', '306223', '4114319', '4651236']"
4181135,1584,1294,2423,1934
4649749,1246,2015,1491,2264
300424,2228,959,2509,1097
6249125,3458,1161,3603,1309
6003007,978,1970,1227,2150
4650630,1185,797,1579,1199
4181134,873,1141,1833,1664
306223,1469,2037,1668,2275
4114319,2034,1085,2660,1360
4651236,1751,1984,2036,2272
