https://surfdrive.surf.nl/files/index.php/s/B7PEqFZSZZBPcW8/download?path=%2FData%2FInput%2FDatasets%2FBerend%2FImages&files=B_1191.jpg,4608,3072
B_1191,artificial_light,parquet_light,"[120, 120, 120]","['4517992', '4504369', '4504381', '4165967', '6138173', '300321', '4212454', '4520632', '4211614']"
4517992,3201,902,3512,1139
4504369,940,2216,1085,2390
4504381,1558,1828,1666,1920
4165967,1925,1095,2310,1502
6138173,3013,758,3220,969
300321,2987,1291,3231,1502
4212454,2250,2031,2332,2179
4520632,2461,1450,2943,1783
4211614,561,1530,788,1621
