https://surfdrive.surf.nl/files/index.php/s/B7PEqFZSZZBPcW8/download?path=%2FData%2FInput%2FDatasets%2FBerend%2FImages&files=B_121.jpg,4607,3072
B_121,daylight,wood,"[130, 130, 130]","['6022064', '4211221', '4211511', '6073026', '4550348', '6022023', '4621545', '4529240', '6238674']"
6022064,1913,1903,2368,2087
4211221,1869,1535,2148,1763
4211511,2405,1756,2589,1976
6073026,3691,2345,3911,2522
4550348,1443,1970,1693,2250
6022023,1443,1669,1862,1919
4621545,2817,2143,3052,2511
4529240,1884,1735,2082,1904
6238674,1622,711,1820,863
