https://surfdrive.surf.nl/files/index.php/s/B7PEqFZSZZBPcW8/download?path=%2FData%2FInput%2FDatasets%2FBerend%2FImages&files=B_1214.jpg,4608,3072
B_1214,artificial_light,parquet_light,"[120, 120, 120]","['4157124', '4121967', '6075075', '4181144', '4655172', '4153825', '614321', '300821', '4181135', '4550325', '4153825', '6223631']"
4157124,2736,424,2868,571
4121967,1910,1171,2030,1360
6075075,2561,1275,2719,1375
4181144,2256,1201,2800,1608
4655172,2287,1369,2696,1710
4153825,2106,1313,2328,1558
4153825,2583,836,2791,1054
614321,2499,676,2652,819
300821,2298,1035,2981,1226
4181135,1308,2223,1943,2580
4550325,2724,1249,2900,1390
6223631,1915,1678,2013,1782
