https://surfdrive.surf.nl/files/index.php/s/B7PEqFZSZZBPcW8/download?path=%2FData%2FInput%2FDatasets%2FBerend%2FImages&files=B_155.jpg,4608,3072
B_155,daylight,wood,"[130, 130, 130]","['300421', '6138173', '4114319', '4211221', '6004938', '4211166']"
300421,2720,1610,2862,1702
6138173,1578,1602,1704,1769
4114319,1855,1249,2182,1308
4211221,1838,1417,2006,1501
6004938,2778,1879,2871,1979
4211166,2644,1795,2728,1895
