https://surfdrive.surf.nl/files/index.php/s/B7PEqFZSZZBPcW8/download?path=%2FData%2FInput%2FDatasets%2FBerend%2FImages&files=B_152.jpg,4607,3072
B_152,daylight,wood,"[130, 130, 130]","['300421', '6138173', '4114319', '4211221', '6004938']"
300421,2233,1041,2462,1201
6138173,2191,1786,2431,1947
4114319,2304,1430,2784,1741
4211221,1713,1706,1954,1827
6004938,1833,1413,2004,1603
