https://surfdrive.surf.nl/files/index.php/s/B7PEqFZSZZBPcW8/download?path=%2FData%2FInput%2FDatasets%2FBerend%2FImages&files=B_175.jpg,4608,3072
B_175,daylight,wood,"[130, 130, 130]",['4548180']
4548180,1885,1393,2081,1655
