https://surfdrive.surf.nl/files/index.php/s/B7PEqFZSZZBPcW8/download?path=%2FData%2FInput%2FDatasets%2FBerend%2FImages&files=B_202.jpg,4607,3072
B_202,daylight,wood,"[130, 130, 130]","['4621545', '654126', '300124']"
4621545,1211,830,1450,1052
654126,1205,1683,1444,1852
300124,837,894,1147,1362
