https://surfdrive.surf.nl/files/index.php/s/B7PEqFZSZZBPcW8/download?path=%2FData%2FInput%2FDatasets%2FBerend%2FImages&files=B_20.jpg,4608,3072
B_20,daylight,wood,"[130, 130, 130]","['4650630', '6252809', '4211054', '4548180', '4649749', '300401', '6075075']"
4650630,1286,1159,1707,1290
6252809,962,1229,2320,1789
4211054,2399,1614,2758,1963
4548180,2653,748,2907,975
4649749,1470,1684,1786,1859
300401,2846,1841,3187,2095
6075075,2828,1561,3021,1920
