https://surfdrive.surf.nl/files/index.php/s/B7PEqFZSZZBPcW8/download?path=%2FData%2FInput%2FDatasets%2FBerend%2FImages&files=B_215.jpg,4608,3072
B_215,daylight,wood,"[130, 130, 130]",['4109995']
4109995,2765,1434,3053,1712
