https://surfdrive.surf.nl/files/index.php/s/B7PEqFZSZZBPcW8/download?path=%2FData%2FInput%2FDatasets%2FBerend%2FImages&files=B_24.jpg,4607,3072
B_24,daylight,wood,"[130, 130, 130]","['4650630', '6252809', '4211054', '4548180', '4649749', '300401', '6075075', '4548180', '6151663']"
4650630,2538,945,2854,1268
6252809,1708,1350,2784,2043
4211054,2919,1986,3189,2250
4548180,2787,1883,3046,2033
4548180,2678,1296,2930,1417
4649749,1142,2210,1366,2463
300401,2104,1825,2369,2054
6075075,2971,1810,3239,1969
6151663,2400,2066,2545,2315
