https://surfdrive.surf.nl/files/index.php/s/B7PEqFZSZZBPcW8/download?path=%2FData%2FInput%2FDatasets%2FBerend%2FImages&files=B_240.jpg,4607,3072
B_240,daylight,wood,"[130, 130, 130]","['6138173', '4210718', '4210718', '4121739', '4539099', '4211166', '300123']"
6138173,3118,1814,3293,2003
4210718,2375,1989,2852,2242
4210718,2001,2213,2464,2625
4121739,2489,2212,2742,2418
4539099,1790,866,1882,957
4211166,2590,1596,2792,1835
300123,2174,1338,2386,1710
