https://surfdrive.surf.nl/files/index.php/s/B7PEqFZSZZBPcW8/download?path=%2FData%2FInput%2FDatasets%2FBerend%2FImages&files=B_25.jpg,4608,3072
B_25,daylight,wood,"[130, 130, 130]","['4650630', '6252809', '4211054', '4548180', '4649749', '300401', '6075075', '4548180', '6151663']"
4650630,3417,2055,3736,2392
6252809,2428,774,3593,1135
4211054,1127,1547,1428,1764
4548180,2775,1093,3001,1311
4548180,2354,1366,2562,1607
4649749,794,1274,1058,1487
300401,1697,1861,1956,2070
6075075,2798,1371,3052,1533
6151663,1877,1426,2141,1621
