https://surfdrive.surf.nl/files/index.php/s/B7PEqFZSZZBPcW8/download?path=%2FData%2FInput%2FDatasets%2FBerend%2FImages&files=B_261.jpg,4608,3072
B_261,daylight,wood,"[130, 130, 130]","['6025026', '6223631', '4211166', '4567338', '4211054', '6249125']"
6025026,2623,1905,2705,2045
6223631,1281,1255,1358,1326
4211166,2213,1806,2346,1966
4567338,1913,1237,2010,1303
4211054,2247,1672,2419,1840
6249125,2781,1886,2848,1943
