https://surfdrive.surf.nl/files/index.php/s/B7PEqFZSZZBPcW8/download?path=%2FData%2FInput%2FDatasets%2FBerend%2FImages&files=B_310.jpg,4607,3072
B_310,daylight,wood,"[130, 130, 130]","['4211412', '300123', '6249125']"
4211412,2086,2036,2160,2115
300123,2296,2411,2627,2653
6249125,2299,2094,2385,2166
