https://surfdrive.surf.nl/files/index.php/s/B7PEqFZSZZBPcW8/download?path=%2FData%2FInput%2FDatasets%2FBerend%2FImages&files=B_318.jpg,4608,3072
B_318,daylight,wood,"[130, 130, 130]","['6003007', '4153827']"
6003007,1066,1744,1209,1853
4153827,1981,1367,2577,1602
