https://surfdrive.surf.nl/files/index.php/s/B7PEqFZSZZBPcW8/download?path=%2FData%2FInput%2FDatasets%2FBerend%2FImages&files=B_317.jpg,4608,3072
B_317,daylight,wood,"[130, 130, 130]",['6003007']
6003007,1943,1565,2117,1811
