https://surfdrive.surf.nl/files/index.php/s/B7PEqFZSZZBPcW8/download?path=%2FData%2FInput%2FDatasets%2FBerend%2FImages&files=B_338.jpg,4608,3072
B_338,daylight,wood,"[130, 130, 130]","['6003007', '4153827', '4621545', '6073026', '300401', '6074890', '4550325', '4118793']"
6003007,925,1777,1159,1930
4153827,1248,2196,1918,2747
4621545,1671,2204,2008,2392
6073026,3545,303,3663,475
300401,1668,1938,1957,2245
6074890,544,1807,744,2003
4550325,1807,2523,2092,2849
4118793,824,2132,1068,2367
