https://surfdrive.surf.nl/files/index.php/s/B7PEqFZSZZBPcW8/download?path=%2FData%2FInput%2FDatasets%2FBerend%2FImages&files=B_357.jpg,4608,3072
B_357,daylight,wood,"[130, 130, 130]","['4639693', '4121967', '4157124', '4567338', '4650630']"
4639693,1405,1146,2165,1782
4121967,2080,988,2262,1062
4157124,1636,1195,1832,1295
4567338,2147,2076,2221,2190
4650630,1936,1498,2162,1739
