https://surfdrive.surf.nl/files/index.php/s/B7PEqFZSZZBPcW8/download?path=%2FData%2FInput%2FDatasets%2FBerend%2FImages&files=B_364.jpg,4608,3072
B_364,daylight,wood,"[130, 130, 130]","['4655172', '300321']"
4655172,819,1904,1150,2439
300321,2803,1072,2951,1304
