https://surfdrive.surf.nl/files/index.php/s/B7PEqFZSZZBPcW8/download?path=%2FData%2FInput%2FDatasets%2FBerend%2FImages&files=B_411.jpg,4608,3072
B_411,daylight,wood,"[130, 130, 130]","['4548180', '4651236', '4529240', '4121739', '4527943', '300401']"
4548180,1729,1746,2114,2034
4651236,2114,2205,2498,2441
4529240,2114,1842,2254,2093
4121739,1907,687,2217,1072
4527943,1507,968,1862,1383
300401,2121,976,2506,1338
