https://surfdrive.surf.nl/files/index.php/s/B7PEqFZSZZBPcW8/download?path=%2FData%2FInput%2FDatasets%2FBerend%2FImages&files=B_426.jpg,4607,3072
B_426,daylight,wood,"[130, 130, 130]","['306201', '4153825']"
306201,3170,893,3305,985
4153825,996,2101,1241,2338
