https://surfdrive.surf.nl/files/index.php/s/B7PEqFZSZZBPcW8/download?path=%2FData%2FInput%2FDatasets%2FBerend%2FImages&files=B_447.jpg,4608,3072
B_447,daylight,wood,"[130, 130, 130]","['300423', '4165967', '4647553']"
300423,2071,1538,2737,2091
4165967,2721,1189,2911,1527
4647553,1399,1435,1579,1784
