https://surfdrive.surf.nl/files/index.php/s/B7PEqFZSZZBPcW8/download?path=%2FData%2FInput%2FDatasets%2FBerend%2FImages&files=B_455.jpg,4608,3072
B_455,daylight,wood,"[130, 130, 130]","['300423', '4165967', '4647553', '4211614', '4529247']"
300423,1386,1677,1615,1825
4165967,1956,1104,2290,1759
4647553,2342,1713,2526,2080
4211614,2342,1193,2663,1494
4529247,2376,595,2702,863
