https://surfdrive.surf.nl/files/index.php/s/B7PEqFZSZZBPcW8/download?path=%2FData%2FInput%2FDatasets%2FBerend%2FImages&files=B_507.jpg,4608,3072
B_507,daylight,wood,"[130, 130, 130]","['6075075', '4649749', '300323', '4211149', '4621545', '300424', '6244886', '300124']"
6075075,1787,1643,2057,1923
4649749,3363,1113,3599,1388
300323,2156,1449,2426,1748
4211149,2492,1667,2861,2202
4621545,1768,1355,2099,1606
300424,1759,1151,2133,1397
6244886,756,1322,1026,1430
300124,675,1175,931,1303
