https://surfdrive.surf.nl/files/index.php/s/B7PEqFZSZZBPcW8/download?path=%2FData%2FInput%2FDatasets%2FBerend%2FImages&files=B_508.jpg,4608,3072
B_508,daylight,wood,"[130, 130, 130]","['6075075', '4649749', '300323', '4211149', '4621545', '300424', '6244886', '300124']"
6075075,2210,1664,2343,1938
4649749,2232,1353,2528,1524
300323,1818,1353,2010,1553
4211149,1204,1161,1522,1427
4621545,2765,1346,3038,1509
300424,1744,1723,2003,1982
6244886,1566,1190,1759,1412
300124,2565,1524,3223,1916
