https://surfdrive.surf.nl/files/index.php/s/B7PEqFZSZZBPcW8/download?path=%2FData%2FInput%2FDatasets%2FBerend%2FImages&files=B_515.jpg,4608,3072
B_515,daylight,wood,"[130, 130, 130]",['300421']
300421,2264,1454,2501,1619
