https://surfdrive.surf.nl/files/index.php/s/B7PEqFZSZZBPcW8/download?path=%2FData%2FInput%2FDatasets%2FBerend%2FImages&files=B_537.jpg,4607,3072
B_537,daylight,wood,"[130, 130, 130]","['4212454', '6028324', '4550325']"
4212454,1803,1368,1972,1514
6028324,2045,1269,2252,1403
4550325,2920,1724,3206,1912
