https://surfdrive.surf.nl/files/index.php/s/B7PEqFZSZZBPcW8/download?path=%2FData%2FInput%2FDatasets%2FBerend%2FImages&files=B_579.jpg,4607,3072
B_579,daylight,wood,"[130, 130, 130]","['300401', '654126', '4211149']"
300401,1536,1875,1866,2164
654126,2330,1143,2588,1339
4211149,2392,1587,2681,1803
