https://surfdrive.surf.nl/files/index.php/s/B7PEqFZSZZBPcW8/download?path=%2FData%2FInput%2FDatasets%2FBerend%2FImages&files=B_579.jpg,4608,3072
B_579,daylight,wood,"[130, 130, 130]","['300401', '654126', '4211149']"
300401,1544,1834,1907,2182
654126,2387,1094,2602,1316
4211149,2387,1524,2698,1857
