https://surfdrive.surf.nl/files/index.php/s/B7PEqFZSZZBPcW8/download?path=%2FData%2FInput%2FDatasets%2FBerend%2FImages&files=B_58.jpg,4608,3072
B_58,daylight,wood,"[130, 130, 130]","['6075079', '4520632', '300421', '6073026', '365901']"
6075079,1803,583,1958,850
4520632,2639,1412,3275,2027
300421,2321,1153,2668,1494
6073026,1825,1176,2054,1398
365901,2128,2182,2816,2612
