https://surfdrive.surf.nl/files/index.php/s/B7PEqFZSZZBPcW8/download?path=%2FData%2FInput%2FDatasets%2FBerend%2FImages&files=B_581.jpg,4608,3072
B_581,daylight,wood,"[130, 130, 130]","['300401', '654126', '4211149']"
300401,2560,1582,2946,1988
654126,2237,1073,2506,1361
4211149,1099,1089,1459,1475
