https://surfdrive.surf.nl/files/index.php/s/B7PEqFZSZZBPcW8/download?path=%2FData%2FInput%2FDatasets%2FBerend%2FImages&files=B_616.jpg,4608,3072
B_616,daylight,wood,"[130, 130, 130]","['6238674', '300323', '4153825', '4211054', '6062574', '623224', '6249125', '6223631']"
6238674,2502,1035,2700,1217
300323,1521,1173,1845,1550
4153825,2304,1095,2513,1534
4211054,1616,1664,2013,2092
6062574,1986,1547,2219,1798
623224,1904,1937,2195,2417
6249125,2286,1023,2474,1134
6223631,2032,1864,2182,2039
