https://surfdrive.surf.nl/files/index.php/s/B7PEqFZSZZBPcW8/download?path=%2FData%2FInput%2FDatasets%2FBerend%2FImages&files=B_620.jpg,4608,3072
B_620,daylight,wood,"[130, 130, 130]","['6238674', '300323', '4153825', '4211054', '6062574', '623224', '6249125', '6223631', '4647553']"
6238674,3818,1503,3944,1642
300323,1602,503,1886,673
4153825,324,899,702,1145
4211054,1225,1585,1439,1831
6062574,4057,2202,4253,2322
623224,3101,1793,3403,2039
6249125,2150,1692,2282,1793
6223631,2704,1623,2817,1718
4647553,2742,1075,2962,1315
