https://surfdrive.surf.nl/files/index.php/s/B7PEqFZSZZBPcW8/download?path=%2FData%2FInput%2FDatasets%2FBerend%2FImages&files=B_64.jpg,4608,3072
B_64,daylight,wood,"[130, 130, 130]","['6075079', '4520632', '300421', '6073026', '365901', '6062574', '6238674']"
6075079,1192,855,1375,1117
4520632,1581,1379,1875,1854
300421,3083,1061,3385,1275
6073026,1176,1704,1359,1870
365901,2171,1713,2749,2021
6062574,1424,1475,1575,1587
6238674,2393,2023,2584,2277
