https://surfdrive.surf.nl/files/index.php/s/B7PEqFZSZZBPcW8/download?path=%2FData%2FInput%2FDatasets%2FBerend%2FImages&files=B_649.jpg,4608,3072
B_649,daylight,wood,"[130, 130, 130]","['4118793', '4114319', '4558957', '4539099', '6104154', '4109995', '4558957', '4529240', '4157124']"
4118793,889,1197,1051,1270
4114319,1589,1145,2062,1481
4558957,1710,756,2095,1023
4558957,1116,1133,1516,1432
4539099,1427,2343,1577,2424
6104154,1492,1517,1739,1703
4109995,1269,618,1439,797
4529240,3555,1837,3713,1970
4157124,2135,574,2337,724
