https://surfdrive.surf.nl/files/index.php/s/B7PEqFZSZZBPcW8/download?path=%2FData%2FInput%2FDatasets%2FBerend%2FImages&files=B_674.jpg,4608,3072
B_674,daylight,wood,"[130, 130, 130]","['6223631', '4160403', '4527943', '4650630', '300424', '300321', '4650630']"
6223631,2239,894,2469,1094
4160403,1330,1338,2328,1746
4527943,1537,2249,1907,2649
4650630,2306,1575,2713,1812
4650630,1507,976,1921,1368
300424,2624,1908,2986,2168
300321,2413,1146,2798,1614
