https://surfdrive.surf.nl/files/index.php/s/B7PEqFZSZZBPcW8/download?path=%2FData%2FInput%2FDatasets%2FBerend%2FImages&files=B_698.jpg,4608,3072
B_698,daylight,wood,"[130, 130, 130]","['365901', '4567338', '4121967', '6223631', '4212454', '4153825', '4504381', '6035291']"
365901,1981,1939,2580,2134
4567338,1452,1755,1523,1893
4121967,1886,2355,2082,2617
6223631,2151,296,2240,458
4212454,2307,1216,2358,1383
4153825,2553,1519,2947,1795
4504381,2903,1580,3043,1677
6035291,2937,1762,3193,1998
