https://surfdrive.surf.nl/files/index.php/s/B7PEqFZSZZBPcW8/download?path=%2FData%2FInput%2FDatasets%2FBerend%2FImages&files=B_694.jpg,4607,3072
B_694,daylight,wood,"[130, 130, 130]","['365901', '4567338', '4121967', '6223631', '4212454', '4153825', '4504381']"
365901,2067,1366,2490,1746
4567338,2466,2532,2646,2710
4121967,3284,2219,3447,2451
6223631,739,832,839,965
4212454,2883,2114,2983,2292
4153825,2675,1165,3003,1407
4504381,2564,1146,2687,1257
