https://surfdrive.surf.nl/files/index.php/s/B7PEqFZSZZBPcW8/download?path=%2FData%2FInput%2FDatasets%2FBerend%2FImages&files=B_732.jpg,4607,3072
B_732,daylight,wood,"[130, 130, 130]","['306201', '4527943', '6004938', '4121967', '4181144', '4160403', '300423']"
306201,2127,1206,2274,1330
4527943,3424,1366,3556,1557
6004938,1673,891,1812,1020
4121967,2213,1774,2449,1951
4181144,1349,1685,2085,1963
4160403,1467,1510,2183,1779
300423,1523,1340,1695,1544
