https://surfdrive.surf.nl/files/index.php/s/B7PEqFZSZZBPcW8/download?path=%2FData%2FInput%2FDatasets%2FBerend%2FImages&files=B_740.jpg,4607,3072
B_740,daylight,wood,"[130, 130, 130]","['306201', '4527943', '6004938', '4121967', '4181144', '4160403', '300423', '6151663', '6073026']"
306201,2432,1482,2566,1613
4527943,2807,1613,2996,1736
6004938,2535,950,2676,1062
4121967,2642,1327,2846,1437
4181144,2071,1862,2783,2231
4160403,1696,1298,2202,1723
300423,2165,2349,2417,2538
6151663,1308,1502,1523,1565
6073026,1871,1806,2037,1951
