https://surfdrive.surf.nl/files/index.php/s/B7PEqFZSZZBPcW8/download?path=%2FData%2FInput%2FDatasets%2FBerend%2FImages&files=B_778.jpg,4608,3072
B_778,daylight,wood,"[130, 130, 130]","['4181135', '6069259', '6003007', '4650630', '4504369']"
4181135,2282,909,2916,1418
6069259,2066,1451,2340,1785
6003007,1760,1030,1904,1202
4650630,2371,1646,2815,1868
4504369,1932,1060,2102,1148
