https://surfdrive.surf.nl/files/index.php/s/B7PEqFZSZZBPcW8/download?path=%2FData%2FInput%2FDatasets%2FBerend%2FImages&files=B_778.jpg,4608,3072
B_778,daylight,wood,"[130, 130, 130]","['4181135', '6069259', '6003007', '4650630', '4504369']"
4181135,2287,914,2902,1654
6069259,2073,1450,2343,1761
6003007,1771,1029,1893,1182
4650630,2365,1639,2813,1987
4504369,1925,1062,2106,1210
