https://surfdrive.surf.nl/files/index.php/s/B7PEqFZSZZBPcW8/download?path=%2FData%2FInput%2FDatasets%2FBerend%2FImages&files=B_798.jpg,4608,3072
B_798,daylight,wood,"[130, 130, 130]","['6151663', '4550348']"
6151663,1448,1190,1840,1596
4550348,2797,1212,3136,1673
