https://surfdrive.surf.nl/files/index.php/s/B7PEqFZSZZBPcW8/download?path=%2FData%2FInput%2FDatasets%2FBerend%2FImages&files=B_795.jpg,4608,3072
B_795,daylight,wood,"[130, 130, 130]",['6151663']
6151663,2227,1267,2610,1522
