https://surfdrive.surf.nl/files/index.php/s/B7PEqFZSZZBPcW8/download?path=%2FData%2FInput%2FDatasets%2FBerend%2FImages&files=B_813.jpg,4608,3072
B_813,daylight,wood,"[130, 130, 130]","['614321', '4550348', '6104154', '4109995']"
614321,2439,1257,2617,1516
4550348,1744,1065,1929,1227
6104154,1966,1109,2114,1301
4109995,2047,931,2210,1116
