https://surfdrive.surf.nl/files/index.php/s/B7PEqFZSZZBPcW8/download?path=%2FData%2FInput%2FDatasets%2FBerend%2FImages&files=B_839.jpg,4607,3072
B_839,daylight,parquet_dark_brown,"[120, 120, 120]","['6225539', '4181134', '4655172', '623224', '4143562', '6028324', '6244886']"
6225539,1905,1031,2443,1298
4181134,2548,1040,3110,1349
4655172,2312,1705,2691,1950
623224,2147,1218,2315,1438
4143562,2042,1715,2287,1905
6028324,1593,1565,1772,1724
6244886,2350,1552,2544,1699
