https://surfdrive.surf.nl/files/index.php/s/B7PEqFZSZZBPcW8/download?path=%2FData%2FInput%2FDatasets%2FBerend%2FImages&files=B_837.jpg,4608,3072
B_837,daylight,parquet_dark_brown,"[120, 120, 120]","['6225539', '4181134', '4655172', '623224', '4143562', '6028324', '6244886']"
6225539,1918,1166,2352,1508
4181134,2748,1205,2841,1640
4655172,1848,1531,2228,1872
623224,2437,1019,2670,1221
4143562,2406,1593,2562,1818
6028324,1545,1958,1708,2152
6244886,2174,1337,2406,1562
