https://surfdrive.surf.nl/files/index.php/s/B7PEqFZSZZBPcW8/download?path=%2FData%2FInput%2FDatasets%2FBerend%2FImages&files=B_841.jpg,4608,3072
B_841,daylight,parquet_dark_brown,"[120, 120, 120]","['6225539', '4181134', '4520632', '4639693', '300321', '6177697', '654126', '4153827', '4121739', '4550325', '6223631', '4153825', '623224']"
6225539,1614,1854,2228,1950
4181134,1871,1932,2526,2161
4520632,2158,1275,2565,1425
4639693,2178,1532,2992,1800
300321,1686,1613,1871,1850
6177697,1373,1850,1593,2170
654126,986,1008,1129,1095
4153827,1740,1480,2136,1694
4121739,1307,740,1492,823
4550325,2237,1915,2443,1991
6223631,1574,667,1666,745
4153825,1673,1969,1830,2143
623224,2596,796,2807,918
