https://surfdrive.surf.nl/files/index.php/s/B7PEqFZSZZBPcW8/download?path=%2FData%2FInput%2FDatasets%2FBerend%2FImages&files=B_849.jpg,4608,3072
B_849,daylight,parquet_dark_brown,"[120, 120, 120]","['6225539', '4181134', '4520632', '4639693', '300321', '6177697', '654126', '4153827', '4121739', '4550325']"
6225539,1614,1678,2025,2102
4181134,2265,1191,2630,1565
4520632,2326,1476,2756,1763
4639693,3205,1746,3631,2475
300321,1984,1686,2245,1960
6177697,2510,2045,2929,2228
654126,1265,1448,1372,1600
4153827,2654,1033,2889,1371
4121739,732,670,867,840
4550325,3224,2364,3429,2614
