https://surfdrive.surf.nl/files/index.php/s/B7PEqFZSZZBPcW8/download?path=%2FData%2FInput%2FDatasets%2FBerend%2FImages&files=B_854.jpg,4608,3072
B_854,daylight,parquet_dark_brown,"[120, 120, 120]","['6225539', '4181134', '4520632', '4639693', '300321', '6177697', '654126', '4153827', '4121739']"
6225539,2447,1606,3022,1840
4181134,1465,995,2035,1257
4520632,2242,1427,2647,1664
4639693,2347,1017,3058,1185
300321,1950,1247,2146,1374
6177697,2228,1225,2445,1489
654126,1342,1515,1454,1603
4153827,2672,1311,3028,1438
4121739,2595,1544,2805,1674
