https://surfdrive.surf.nl/files/index.php/s/B7PEqFZSZZBPcW8/download?path=%2FData%2FInput%2FDatasets%2FBerend%2FImages&files=B_859.jpg,4608,3072
B_859,daylight,parquet_dark_brown,"[120, 120, 120]","['6225539', '4181134', '4520632', '4639693', '300321', '6177697', '654126']"
6225539,1856,679,1973,796
4181134,3128,1149,3284,1315
4520632,2668,1481,3049,1736
4639693,1993,1061,2580,1501
300321,1787,1149,2257,1481
6177697,936,894,1435,1149
654126,1484,1197,1817,1383
