https://surfdrive.surf.nl/files/index.php/s/B7PEqFZSZZBPcW8/download?path=%2FData%2FInput%2FDatasets%2FBerend%2FImages&files=B_865.jpg,4608,3072
B_865,daylight,parquet_dark_brown,"[120, 120, 120]","['4517992', '300121', '6022023', '300821', '300123', '6028324', '4143562', '6244886', '6022064', '4655172', '4118793', '306223']"
4517992,2018,944,2173,1081
300121,2082,1473,2391,1628
6022023,2929,707,3102,880
300821,1736,880,2373,953
300123,2200,1062,2510,1272
6028324,1590,990,1690,1090
4143562,1198,2120,1335,2248
6244886,2173,1281,2300,1454
6022064,1900,1619,2109,1801
4655172,1608,1391,1945,1573
4118793,1362,1263,1481,1372
306223,2173,1682,2237,1755
