https://surfdrive.surf.nl/files/index.php/s/B7PEqFZSZZBPcW8/download?path=%2FData%2FInput%2FDatasets%2FBerend%2FImages&files=B_878.jpg,4608,3072
B_878,daylight,parquet_dark_brown,"[120, 120, 120]","['4517992', '300121', '6022023', '300821', '300123', '6028324', '4143562', '6244886']"
4517992,1741,1475,1935,1726
300121,2298,1345,2656,1657
6022023,2536,1515,2788,1679
300821,2058,1304,2415,1786
300123,2080,1464,2310,1839
6028324,2404,1795,2507,1929
4143562,1719,1858,1877,2021
6244886,2251,481,2436,650
