https://surfdrive.surf.nl/files/index.php/s/B7PEqFZSZZBPcW8/download?path=%2FData%2FInput%2FDatasets%2FBerend%2FImages&files=B_887.jpg,4608,3072
B_887,daylight,parquet_dark_brown,"[120, 120, 120]","['4165967', '623224', '6075075', '6225539', '4504369', '6252809', '4181135', '4211511', '4181134', '4529240', '4550348', '306223', '4211412']"
4165967,1610,2074,1995,2496
623224,2562,921,2761,1062
6075075,1603,2296,1642,2352
6225539,1823,1804,2341,2140
4504369,1049,2192,1257,2329
6252809,1976,636,2149,1232
4181135,1703,1302,2099,1702
4211511,1685,1765,1777,1917
4181134,2707,1670,3303,2041
4529240,2171,391,2266,495
4550348,1573,1959,1793,2137
306223,1134,2097,1255,2193
4211412,1076,1979,1200,2133
