https://surfdrive.surf.nl/files/index.php/s/B7PEqFZSZZBPcW8/download?path=%2FData%2FInput%2FDatasets%2FBerend%2FImages&files=B_891.jpg,4608,3072
B_891,daylight,parquet_dark_brown,"[120, 120, 120]","['4165967', '623224', '6075075', '6225539', '4504369', '6252809', '4181135', '4211511', '4181134', '4529240', '4550348']"
4165967,2713,1446,3013,1735
623224,2117,684,2336,865
6075075,1821,1613,1977,1743
6225539,2491,1531,2661,2027
4504369,1766,1471,1860,1536
6252809,2319,1554,2735,2412
4181135,2535,532,2868,850
4211511,3198,1306,3287,1409
4181134,2713,1057,2957,1361
4529240,1766,1384,1864,1465
4550348,1897,1349,1988,1478
