https://surfdrive.surf.nl/files/index.php/s/B7PEqFZSZZBPcW8/download?path=%2FData%2FInput%2FDatasets%2FBerend%2FImages&files=B_892.jpg,4608,3072
B_892,daylight,parquet_dark_brown,"[120, 120, 120]","['4165967', '623224', '6075075', '6225539', '4504369', '6252809', '4181135', '4211511', '4181134', '4529240', '4550348']"
4165967,2468,1449,2724,1603
623224,2223,823,2361,970
6075075,1910,2039,2048,2113
6225539,2362,1057,2713,1317
4504369,2023,1411,2083,1475
6252809,2048,1125,2233,1683
4181135,2046,864,2318,1196
4211511,2639,1043,2711,1149
4181134,2277,1608,2722,1912
4529240,2072,1665,2159,1730
4550348,2574,1663,2673,1751
