https://surfdrive.surf.nl/files/index.php/s/B7PEqFZSZZBPcW8/download?path=%2FData%2FInput%2FDatasets%2FBerend%2FImages&files=B_905.jpg,4608,3072
B_905,daylight,parquet_dark_brown,"[120, 120, 120]","['4165967', '623224', '6075075', '6225539', '4504369', '6252809', '4181135']"
4165967,2318,1060,2656,1415
623224,2136,1919,2413,2214
6075075,1798,1511,1988,1624
6225539,1503,1363,1884,1836
4504369,1930,1650,2031,1749
6252809,2143,1243,2642,1986
4181135,1884,1155,2216,1671
