https://surfdrive.surf.nl/files/index.php/s/B7PEqFZSZZBPcW8/download?path=%2FData%2FInput%2FDatasets%2FBerend%2FImages&files=B_902.jpg,4608,3072
B_902,daylight,parquet_dark_brown,"[120, 120, 120]","['4165967', '623224', '6075075', '6225539', '4504369', '6252809', '4181135', '4211511']"
4165967,2609,1605,2728,1820
623224,1919,1680,2075,1828
6075075,1629,1702,1747,1743
6225539,2210,1839,2669,2050
4504369,1492,1239,1562,1280
6252809,1506,1161,2062,1561
4181135,2361,1395,2524,1717
4211511,2820,1572,2891,1654
