https://surfdrive.surf.nl/files/index.php/s/B7PEqFZSZZBPcW8/download?path=%2FData%2FInput%2FDatasets%2FBerend%2FImages&files=B_906.jpg,4608,3072
B_906,daylight,parquet_dark_brown,"[120, 120, 120]","['4165967', '623224', '6075075', '6225539', '4504369', '6252809']"
4165967,2559,1395,2904,1614
623224,1869,1050,2210,1657
6075075,1459,1582,1685,1819
6225539,1552,942,1851,1319
4504369,1275,1370,1412,1542
6252809,1484,1535,1581,1636
