https://surfdrive.surf.nl/files/index.php/s/B7PEqFZSZZBPcW8/download?path=%2FData%2FInput%2FDatasets%2FBerend%2FImages&files=B_917.jpg,4608,3072
B_917,daylight,parquet_light,"[120, 120, 120]","['6138173', '4520632', '6229071', '6177697', '300321', '4529247', '4639693', '4181144', '4211166', '4109995', '6177697']"
6138173,2414,1477,2560,1626
4520632,1953,1262,2269,1444
6229071,2495,1586,2621,1719
6177697,2657,1485,2965,1675
6177697,2540,1335,2807,1549
300321,1973,1452,2131,1687
4529247,2863,1298,2965,1351
4639693,1484,801,2074,1096
4181144,2208,1043,2685,1339
4211166,2277,1622,2435,1760
4109995,2483,853,2649,979
