https://surfdrive.surf.nl/files/index.php/s/B7PEqFZSZZBPcW8/download?path=%2FData%2FInput%2FDatasets%2FBerend%2FImages&files=B_912.jpg,4608,3072
B_912,daylight,parquet_light,"[120, 120, 120]","['6138173', '4520632', '6229071', '6177697', '300321', '4529247', '4639693', '4181144', '4211166', '4109995', '6177697', '4639693']"
6138173,1889,2142,2014,2296
4520632,2151,1203,2398,1421
6229071,2067,2235,2198,2343
6177697,2765,1706,3035,1927
6177697,1700,1491,2006,1601
300321,1700,1531,1863,1686
4529247,2477,2218,2541,2299
4639693,1057,1040,1508,1342
4639693,2212,2049,2384,2622
4181144,2340,1901,2829,2067
4211166,2151,1459,2253,1546
4109995,2276,592,2398,691
