https://surfdrive.surf.nl/files/index.php/s/B7PEqFZSZZBPcW8/download?path=%2FData%2FInput%2FDatasets%2FBerend%2FImages&files=B_912.jpg,4607,3072
B_912,daylight,parquet_light,"[120, 120, 120]","['6138173', '4520632', '6229071', '6177697', '300321', '4529247', '4639693', '4181144', '4211166', '4109995', '6177697', '4639693']"
6138173,1866,2131,2031,2290
4520632,2094,1193,2406,1424
6229071,2061,2214,2236,2360
6177697,2752,1678,3069,1888
6177697,1687,1476,2016,1599
300321,1667,1522,1883,1681
4529247,2442,2198,2567,2321
4639693,2208,2027,2433,2620
4639693,1046,981,1516,1333
4181144,2332,1866,2839,2044
4211166,2137,1435,2286,1546
4109995,2250,588,2399,683
