https://surfdrive.surf.nl/files/index.php/s/B7PEqFZSZZBPcW8/download?path=%2FData%2FInput%2FDatasets%2FBerend%2FImages&files=B_93.jpg,4608,3072
B_93,daylight,wood,"[130, 130, 130]","['4651236', '6028324', '6225539']"
4651236,1873,1801,2210,2004
6028324,2083,1281,2400,1601
6225539,2240,1424,3070,2109
