https://surfdrive.surf.nl/files/index.php/s/B7PEqFZSZZBPcW8/download?path=%2FData%2FInput%2FDatasets%2FBerend%2FImages&files=B_933.jpg,4608,3072
B_933,daylight,parquet_light,"[120, 120, 120]","['654126', '4153827', '4160403', '4651236', '4655172', '4550325', '4517992', '4211201', '4550348', '4121739', '300124', '6075075']"
654126,1350,852,1441,900
4153827,2424,1692,2728,1799
4160403,2903,1081,3123,1309
4651236,1837,2117,1971,2271
4655172,2137,1871,2487,2065
4550325,1661,1056,1781,1152
4517992,2647,2106,2868,2283
4211201,2152,1580,2335,1808
4550348,1798,2015,1935,2184
4121739,2368,2130,2546,2275
300124,2605,1838,2931,1961
6075075,2421,2290,2595,2411
