https://surfdrive.surf.nl/files/index.php/s/B7PEqFZSZZBPcW8/download?path=%2FData%2FInput%2FDatasets%2FBerend%2FImages&files=B_930.jpg,4608,3072
B_930,daylight,parquet_light,"[120, 120, 120]","['654126', '4153827', '4160403', '4651236', '4655172', '4550325', '4517992', '4211201', '4550348', '4121739', '300124', '6075075', '654126']"
654126,2602,2026,2666,2128
654126,2072,1950,2305,2142
4153827,2387,1613,2686,1910
4160403,3152,1002,3341,1304
4651236,1398,752,1703,856
4655172,1755,1671,2026,1985
4550325,1811,1438,1921,1569
4517992,1639,1915,1834,2043
4211201,2701,1776,2890,2078
4550348,1360,1974,1499,2125
4121739,2346,2067,2456,2160
300124,2299,1915,2375,2003
6075075,2517,1993,2651,2063
