https://surfdrive.surf.nl/files/index.php/s/B7PEqFZSZZBPcW8/download?path=%2FData%2FInput%2FDatasets%2FBerend%2FImages&files=B_942.jpg,4608,3072
B_942,daylight,parquet_light,"[120, 120, 120]","['654126', '4153827', '4160403', '4651236', '4655172', '4550325', '4517992', '4211201', '4550348']"
654126,2164,1525,2351,1662
4153827,2255,1566,2770,1958
4160403,770,543,907,1026
4651236,2136,1883,2346,2047
4655172,2974,1227,3275,1637
4550325,2501,1400,2974,1810
4517992,3120,1591,3329,1792
4211201,1900,1956,2091,2184
4550348,2746,1965,2992,2193
