https://surfdrive.surf.nl/files/index.php/s/B7PEqFZSZZBPcW8/download?path=%2FData%2FInput%2FDatasets%2FBerend%2FImages&files=B_940.jpg,4607,3072
B_940,daylight,parquet_light,"[120, 120, 120]","['654126', '4153827', '4160403', '4651236', '4655172', '4550325', '4517992', '4211201', '4550348', '4121739']"
654126,1657,682,1746,741
4153827,2440,1979,2783,2202
4160403,1492,1546,1944,1807
4651236,1727,1730,1854,1839
4655172,2513,1524,2789,1743
4550325,2414,1301,2567,1387
4517992,1422,1311,1581,1419
4211201,2764,1435,2939,1648
4550348,2322,1419,2395,1556
4121739,2137,1813,2274,1947
