https://surfdrive.surf.nl/files/index.php/s/B7PEqFZSZZBPcW8/download?path=%2FData%2FInput%2FDatasets%2FBerend%2FImages&files=B_957.jpg,4608,3072
B_957,daylight,parquet_light,"[120, 120, 120]","['6244886', '6022023', '300821', '4181134', '300121', '4143562', '300123', '4114319', '6075079', '4157124', '306223', '4181144']"
6244886,1949,1743,2215,1995
6022023,2210,2168,2469,2412
300821,1573,1565,1688,2216
4181134,1388,1039,1914,1317
300121,929,1802,1314,2035
4143562,1266,516,1445,640
300123,1173,1347,1532,1487
4114319,2088,1047,2373,1354
6075079,1703,1513,1860,1682
4157124,1797,1432,1954,1526
306223,2371,1158,2482,1254
4181144,1773,1332,2187,1783
