https://surfdrive.surf.nl/files/index.php/s/B7PEqFZSZZBPcW8/download?path=%2FData%2FInput%2FDatasets%2FBerend%2FImages&files=B_963.jpg,4608,3072
B_963,daylight,parquet_light,"[120, 120, 120]","['6244886', '6022023', '300821', '4181134', '300121', '4143562', '300123', '4114319', '6075079', '4157124']"
6244886,2665,2156,2996,2424
6022023,2039,769,2354,1080
300821,1295,1395,2228,1665
4181134,2609,510,3250,939
300121,2606,1158,2943,1558
4143562,1009,1053,1247,1349
300123,1982,1928,2415,2390
4114319,2336,1709,2824,1920
6075079,1843,2638,1999,2875
4157124,1466,1894,1714,2076
