https://surfdrive.surf.nl/files/index.php/s/B7PEqFZSZZBPcW8/download?path=%2FData%2FInput%2FDatasets%2FBerend%2FImages&files=B_967.jpg,4608,3072
B_967,daylight,parquet_light,"[120, 120, 120]","['6244886', '6022023', '300821', '4181134', '300121', '4143562', '300123', '4114319', '6075079']"
6244886,1539,1737,1813,1917
6022023,2923,1294,3114,1518
300821,3153,994,3654,1511
4181134,1838,1158,2359,1371
300121,2459,1117,2678,1449
4143562,1945,1760,2081,1928
300123,819,679,1160,919
4114319,2830,1732,3059,2115
6075079,1949,2058,2125,2194
