https://surfdrive.surf.nl/files/index.php/s/B7PEqFZSZZBPcW8/download?path=%2FData%2FInput%2FDatasets%2FBerend%2FImages&files=B_986.jpg,4608,3072
B_986,daylight,parquet_light,"[120, 120, 120]","['4211511', '6028324', '614321', '4165967', '6225539', '6138173', '6229071', '623224', '4651236']"
4211511,2617,1675,2727,1814
6028324,2551,1285,2674,1409
614321,2467,1497,2635,1677
4165967,2537,1374,2806,1667
6225539,2162,1752,2642,1983
6138173,2314,1600,2408,1752
6229071,1482,1708,1593,1863
623224,2113,1210,2218,1412
4651236,1457,1868,1620,1940
