https://surfdrive.surf.nl/files/index.php/s/B7PEqFZSZZBPcW8/download?path=%2FData%2FInput%2FDatasets%2FBerend%2FImages&files=B_991.jpg,4608,3072
B_991,daylight,parquet_light,"[120, 120, 120]","['4211511', '6028324', '614321', '4165967', '6225539', '6138173', '6229071']"
4211511,2482,2100,2571,2167
6028324,1814,1732,1906,1810
614321,2469,1810,2550,1888
4165967,2472,1914,2757,2121
6225539,2010,2036,2376,2273
6138173,2720,1940,2861,2032
6229071,1118,1514,1199,1581
