https://surfdrive.surf.nl/files/index.php/s/B7PEqFZSZZBPcW8/download?path=%2FData%2FInput%2FDatasets%2FBerend%2FImages&files=B_994.jpg,4608,3072
B_994,daylight,parquet_light,"[120, 120, 120]","['4211511', '6028324', '614321', '4165967', '6225539', '6138173']"
4211511,2064,986,2376,1258
6028324,1458,1274,1914,1543
614321,2750,1674,2904,1789
4165967,1841,1753,1973,1884
6225539,1672,1838,1855,1976
6138173,1711,2770,1848,2882
