https://surfdrive.surf.nl/files/index.php/s/B7PEqFZSZZBPcW8/download?path=%2FData%2FInput%2FDatasets%2FBerend%2FImages&files=B_999.jpg,4608,3072
B_999,daylight,dirty_rug,"[120, 120, 120]","['4504369', '4181135', '4520632', '4529247', '300321', '6075075', '6252809', '4181144', '6244886', '6004938', '4157124', '4109995']"
4504369,2027,1486,2196,1685
4181135,1392,570,1740,1106
4520632,1655,951,2015,1368
4529247,2530,1833,2685,1934
300321,2403,1335,2625,1622
6075075,2806,1199,2930,1317
6252809,1762,1330,2022,2320
4181144,2244,1026,2821,1515
6244886,2211,1560,2418,1805
6004938,2770,1254,2890,1398
4157124,2612,1432,2766,1599
4109995,2660,1635,2874,1772
