https://surfdrive.surf.nl/files/index.php/s/B7PEqFZSZZBPcW8/download?path=%2FData%2FInput%2FDatasets%2FDavid%2FImages&files=C_1003.jpg,5472,3648
C_1003,daylight,couch,"[120, 120, 120]","['4527943', '300401', '4550325', '4211201', '4121967', '306223']"
4527943,2161,1427,2411,1657
300401,3267,2159,3610,2471
4550325,2010,1649,2294,1879
4211201,2590,1528,2960,2124
4121967,2372,1233,2629,1404
306223,3096,1704,3291,1891
