https://surfdrive.surf.nl/files/index.php/s/B7PEqFZSZZBPcW8/download?path=%2FData%2FInput%2FDatasets%2FDavid%2FImages&files=C_1023.jpg,5472,3648
C_1023,daylight,couch,"[120, 120, 120]","['4109995', '6073026', '4165967', '300124', '6225539', '4211511', '4181144', '4520632']"
4109995,3532,1426,3738,1575
6073026,3121,2008,3283,2208
4165967,2264,1788,2650,2315
300124,1956,1748,2286,2245
6225539,3107,1581,3798,1806
4211511,3569,1261,3754,1392
4181144,2343,1502,2998,2135
4520632,1956,1243,2417,1722
