https://surfdrive.surf.nl/files/index.php/s/B7PEqFZSZZBPcW8/download?path=%2FData%2FInput%2FDatasets%2FDavid%2FImages&files=C_1012.jpg,5472,3648
C_1012,daylight,couch,"[120, 120, 120]","['4109995', '6073026', '4165967', '300124', '6225539', '4211511', '4181144', '4520632', '300321', '4550325', '4211149']"
4109995,3105,2290,3356,2479
6073026,3039,2857,3226,3052
4165967,2066,991,2501,1290
300124,2125,1973,2461,2498
6225539,2956,1310,3233,1848
4211511,2360,1198,2521,1343
4181144,2472,1321,2782,1923
4520632,2767,1732,3281,2121
300321,2765,2685,3026,3000
4550325,2011,1611,2270,1846
4211149,2644,2863,2940,3156
