https://surfdrive.surf.nl/files/index.php/s/B7PEqFZSZZBPcW8/download?path=%2FData%2FInput%2FDatasets%2FDavid%2FImages&files=C_1009.jpg,5472,3648
C_1009,daylight,couch,"[120, 120, 120]","['4109995', '6073026', '4165967', '300124', '6225539', '4211511', '4181144', '4520632', '300321', '4550325', '4211149', '4639693']"
4109995,2732,1830,2912,2010
6073026,2688,2129,2777,2219
4165967,1970,1479,2269,1726
300124,2060,1860,2441,2122
6225539,3615,1703,4168,2040
4211511,2202,888,2336,1008
4181144,3719,1359,4235,1726
4520632,2374,1718,2665,2062
300321,3390,1770,3615,1875
4550325,1955,1359,2045,1456
4211149,2643,2286,2807,2413
4639693,1417,1075,1656,1628
