https://surfdrive.surf.nl/files/index.php/s/B7PEqFZSZZBPcW8/download?path=%2FData%2FInput%2FDatasets%2FDavid%2FImages&files=C_1001.jpg,5472,3648
C_1001,daylight,couch,"[120, 120, 120]","['4527943', '300401', '4550325', '4211201', '4121967', '306223', '4157124']"
4527943,3071,1664,3347,1976
300401,2689,1976,2989,2190
4550325,2646,1279,2911,1477
4211201,2459,1450,3051,1863
4121967,2942,2089,3183,2416
306223,2428,1360,2584,1524
4157124,2163,1800,2366,1995
