https://surfdrive.surf.nl/files/index.php/s/B7PEqFZSZZBPcW8/download?path=%2FData%2FInput%2FDatasets%2FDavid%2FImages&files=C_1005.jpg,5472,3648
C_1005,daylight,couch,"[120, 120, 120]","['4527943', '300401', '4550325', '4211201', '4121967', '306223']"
4527943,1977,2040,2261,2350
300401,1984,2373,2297,2588
4550325,2742,1526,3015,1754
4211201,2614,1943,3097,2521
4121967,2784,985,3022,1167
306223,3388,2539,3577,2759
