https://surfdrive.surf.nl/files/index.php/s/B7PEqFZSZZBPcW8/download?path=%2FData%2FInput%2FDatasets%2FDavid%2FImages&files=C_125.jpg,5472,3648
C_125,artificial,coffee_table,"[130, 130, 130]","['6238674', '4212454', '4504369']"
6238674,2527,1513,2728,1711
4212454,2727,1836,2957,1970
4504369,2864,1432,2997,1602
