https://surfdrive.surf.nl/files/index.php/s/B7PEqFZSZZBPcW8/download?path=%2FData%2FInput%2FDatasets%2FDavid%2FImages&files=C_125.jpg,5472,3648
C_125,artificial,coffee_table,"[130, 130, 130]","['6238674', '4212454', '4504369']"
6238674,2720,1826,2977,1987
4212454,2850,1410,3001,1640
4504369,2528,1506,2740,1719
