https://surfdrive.surf.nl/files/index.php/s/B7PEqFZSZZBPcW8/download?path=%2FData%2FInput%2FDatasets%2FDavid%2FImages&files=C_158.jpg,5472,3648
C_158,daylight,coffee_table,"[130, 130, 130]","['4121739', '6025026', '6238674', '6104154', '4121739']"
4121739,2274,1934,2967,2219
4121739,2564,1835,3262,2134
6025026,3390,1129,3626,1351
6238674,2284,1672,2419,1806
6104154,2036,2067,2218,2354
