https://surfdrive.surf.nl/files/index.php/s/B7PEqFZSZZBPcW8/download?path=%2FData%2FInput%2FDatasets%2FDavid%2FImages&files=C_159.jpg,5472,3648
C_159,daylight,coffee_table,"[130, 130, 130]","['4121739', '6025026', '6238674', '6104154', '4121739', '4529240']"
4121739,3272,2226,3593,2536
4121739,1442,1738,1714,2035
6025026,3312,1217,3578,1485
6238674,2870,797,3039,956
6104154,1437,1413,1760,1674
4529240,2379,1339,2564,1514
