https://surfdrive.surf.nl/files/index.php/s/B7PEqFZSZZBPcW8/download?path=%2FData%2FInput%2FDatasets%2FDavid%2FImages&files=C_174.jpg,5472,3647
C_174,daylight,coffee_table,"[130, 130, 130]",['6252809']
6252809,1986,1223,3540,2240
