https://surfdrive.surf.nl/files/index.php/s/B7PEqFZSZZBPcW8/download?path=%2FData%2FInput%2FDatasets%2FDavid%2FImages&files=C_173.jpg,5472,3648
C_173,daylight,coffee_table,"[130, 130, 130]","['4121739', '6025026', '6238674', '6104154', '4121739', '4529240', '4550325', '6225539', '623224', '4157124']"
4121739,2308,1757,2532,1995
4121739,3222,1476,3437,1559
6025026,2896,1858,3173,1959
6238674,2136,2061,2224,2263
6104154,2233,2395,2536,2606
4529240,1776,1687,1881,1819
4550325,2057,1542,2294,1735
6225539,2488,1489,3138,2078
623224,2773,1116,3072,1283
4157124,2729,1414,2910,1533
