https://surfdrive.surf.nl/files/index.php/s/B7PEqFZSZZBPcW8/download?path=%2FData%2FInput%2FDatasets%2FDavid%2FImages&files=C_208.jpg,5472,3648
C_208,daylight,coffee_table,"[130, 130, 130]","['4212454', '4649749', '4157124', '4211437', '306223']"
4212454,3301,1857,3428,2054
4649749,1419,1630,1683,1824
4157124,2247,1423,2500,1613
4211437,2090,1577,2273,1800
306223,2757,1607,2898,1794
