https://surfdrive.surf.nl/files/index.php/s/B7PEqFZSZZBPcW8/download?path=%2FData%2FInput%2FDatasets%2FDavid%2FImages&files=C_221.jpg,5472,3648
C_221,daylight,coffee_table,"[130, 130, 130]",['4118793']
4118793,2589,1774,2782,1915
