https://surfdrive.surf.nl/files/index.php/s/B7PEqFZSZZBPcW8/download?path=%2FData%2FInput%2FDatasets%2FDavid%2FImages&files=C_23.jpg,5472,3648
C_23,daylight,coffee_table,"[130, 130, 130]","['300121', '4567338', '4211149', '6022023', '6075075', '4118793', '4647553', '4655172']"
300121,1702,1065,2220,1408
4567338,2864,2613,2992,2784
4211149,3588,1179,3783,1304
6022023,3222,1335,3456,1580
6075075,3479,1966,3642,2164
4118793,935,2154,1102,2302
4647553,3405,1111,3545,1325
4655172,2183,1543,2712,1859
