https://surfdrive.surf.nl/files/index.php/s/B7PEqFZSZZBPcW8/download?path=%2FData%2FInput%2FDatasets%2FDavid%2FImages&files=C_242.jpg,5472,3648
C_242,daylight,coffee_table,"[130, 130, 130]","['4118793', '4567338', '6073026', '4211054', '4121739', '300124', '6244886', '4211166']"
4118793,2080,1625,2302,1781
4567338,3422,1270,3496,1351
6073026,2213,1959,2347,2093
4211054,2228,1388,2436,1611
4121739,2154,1811,2362,1966
300124,3066,1863,3452,2278
6244886,2681,1588,2792,1714
4211166,1865,1522,1998,1655
