https://surfdrive.surf.nl/files/index.php/s/B7PEqFZSZZBPcW8/download?path=%2FData%2FInput%2FDatasets%2FDavid%2FImages&files=C_270.jpg,5472,3648
C_270,daylight,coffee_table,"[130, 130, 130]","['6003007', '6022023']"
6003007,1623,1543,1758,1735
6022023,2870,1846,3279,2203
