https://surfdrive.surf.nl/files/index.php/s/B7PEqFZSZZBPcW8/download?path=%2FData%2FInput%2FDatasets%2FDavid%2FImages&files=C_30.jpg,5472,3648
C_30,daylight,coffee_table,"[130, 130, 130]","['4650630', '6238674']"
4650630,2407,1264,2636,1518
6238674,2621,1747,2780,1852
