https://surfdrive.surf.nl/files/index.php/s/B7PEqFZSZZBPcW8/download?path=%2FData%2FInput%2FDatasets%2FDavid%2FImages&files=C_308.jpg,5472,3648
C_308,daylight,living_room_floor,"[130, 130, 130]","['4650630', '6223631']"
4650630,2474,1827,2748,2096
6223631,2697,1546,2822,1654
