https://surfdrive.surf.nl/files/index.php/s/B7PEqFZSZZBPcW8/download?path=%2FData%2FInput%2FDatasets%2FDavid%2FImages&files=C_352.jpg,5472,3648
C_352,daylight,living_room_floor,"[130, 130, 130]","['4118793', '6035291', '4211614']"
4118793,2860,1761,3116,1988
6035291,2668,1692,2845,1847
4211614,1906,1623,2053,1806
