https://surfdrive.surf.nl/files/index.php/s/B7PEqFZSZZBPcW8/download?path=%2FData%2FInput%2FDatasets%2FDavid%2FImages&files=C_368.jpg,5472,3648
C_368,daylight,living_room_floor,"[130, 130, 130]","['4118793', '6035291', '4211614', '4567338', '4211412', '6025026', '4548180', '4655172']"
4118793,2295,2063,2428,2230
6035291,2731,1568,2846,1726
4211614,3159,2157,3342,2360
4567338,2682,1782,2820,1911
4211412,2307,1938,2446,2081
6025026,2861,1538,3076,1691
4548180,2560,1616,2727,1813
4655172,2336,2039,2751,2477
