https://surfdrive.surf.nl/files/index.php/s/B7PEqFZSZZBPcW8/download?path=%2FData%2FInput%2FDatasets%2FDavid%2FImages&files=C_363.jpg,5472,3648
C_363,daylight,living_room_floor,"[130, 130, 130]","['4118793', '6035291', '4211614', '4567338', '4211412', '6025026', '4548180']"
4118793,2459,1163,2571,1325
6035291,3407,1453,3545,1652
4211614,2582,1721,2827,1875
4567338,2106,1101,2250,1156
4211412,2350,1178,2451,1315
6025026,2732,1882,2912,2119
4548180,3103,1103,3313,1189
