https://surfdrive.surf.nl/files/index.php/s/B7PEqFZSZZBPcW8/download?path=%2FData%2FInput%2FDatasets%2FDavid%2FImages&files=C_367.jpg,5472,3648
C_367,daylight,living_room_floor,"[130, 130, 130]","['4118793', '6035291', '4211614', '4567338', '4211412', '6025026', '4548180', '4655172']"
4118793,2421,1597,2455,1678
6035291,3124,1625,3187,1678
4211614,2116,2556,2158,2668
4567338,2843,1886,2900,1936
4211412,2155,2225,2218,2300
6025026,3064,1774,3137,1842
4548180,2697,1730,2749,1829
4655172,2277,2290,2473,2350
