https://surfdrive.surf.nl/files/index.php/s/B7PEqFZSZZBPcW8/download?path=%2FData%2FInput%2FDatasets%2FDavid%2FImages&files=C_371.jpg,5472,3648
C_371,daylight,living_room_floor,"[130, 130, 130]","['4118793', '6035291', '4211614', '4567338', '4211412', '6025026', '4548180', '4655172', '4647553']"
4118793,2510,2804,2643,2998
6035291,2552,2125,2706,2345
4211614,2318,1492,2544,1666
4567338,2678,1576,2814,1671
4211412,2489,1802,2614,1958
6025026,3405,1709,3617,1861
4548180,3024,1806,3109,2006
4655172,2553,1563,2971,1956
4647553,2209,1450,2400,1614
