https://surfdrive.surf.nl/files/index.php/s/B7PEqFZSZZBPcW8/download?path=%2FData%2FInput%2FDatasets%2FDavid%2FImages&files=C_434.jpg,5472,3648
C_434,daylight,living_room_floor,"[130, 130, 130]","['6028324', '4558957', '6104154', '4651236', '4539099']"
6028324,2765,2093,2938,2314
4558957,2472,1623,2894,2036
6104154,2525,1104,2659,1305
4651236,2304,1724,2413,1889
4539099,2041,1758,2262,1978
