https://surfdrive.surf.nl/files/index.php/s/B7PEqFZSZZBPcW8/download?path=%2FData%2FInput%2FDatasets%2FDavid%2FImages&files=C_444.jpg,5472,3648
C_444,daylight,living_room_floor,"[130, 130, 130]","['6069259', '6035291', '300321', '4550348']"
6069259,2875,1402,3026,1514
6035291,2726,1821,2879,1957
300321,2254,1738,2428,1926
4550348,2628,1777,2774,1899
