https://surfdrive.surf.nl/files/index.php/s/B7PEqFZSZZBPcW8/download?path=%2FData%2FInput%2FDatasets%2FDavid%2FImages&files=C_458.jpg,5472,3648
C_458,daylight,dining_table,"[130, 130, 130]","['6075079', '306201', '4211614', '4181135']"
6075079,2635,1715,2740,1869
306201,2745,1316,2881,1359
4211614,1914,1588,2116,1751
4181135,2664,746,3002,1212
