https://surfdrive.surf.nl/files/index.php/s/B7PEqFZSZZBPcW8/download?path=%2FData%2FInput%2FDatasets%2FDavid%2FImages&files=C_467.jpg,5472,3647
C_467,daylight,dining_table,"[130, 130, 130]","['6075079', '306201', '4211614', '4181135', '6003007', '6138173', '300421']"
6075079,2273,2337,2485,2526
306201,3205,1612,3323,1734
4211614,3699,1676,3879,1932
4181135,2640,1327,3176,1839
6003007,2367,1812,2528,1968
6138173,3814,2041,4038,2308
300421,2617,1785,2870,2021
