https://surfdrive.surf.nl/files/index.php/s/B7PEqFZSZZBPcW8/download?path=%2FData%2FInput%2FDatasets%2FDavid%2FImages&files=C_511.jpg,5472,3648
C_511,daylight,coffee_table,"[130, 130, 130]","['300424', '6004938', '306201', '4211166', '4621545', '300121', '4118793', '4548180', '4539099', '654126']"
300424,2381,2067,2622,2304
6004938,1994,1864,2123,2048
306201,2355,2694,2534,2827
4211166,2395,1837,2562,2052
4621545,2661,498,2856,642
300121,2611,1624,2821,2053
4118793,2296,2830,2410,3015
4548180,2881,1172,3096,1331
4539099,1719,1991,1881,2098
654126,2070,1953,2192,2113
