https://surfdrive.surf.nl/files/index.php/s/B7PEqFZSZZBPcW8/download?path=%2FData%2FInput%2FDatasets%2FDavid%2FImages&files=C_522.jpg,5472,3648
C_522,daylight,couch,"[130, 130, 130]","['6177697', '6223631']"
6177697,2357,1479,2854,1799
6223631,2694,2040,2846,2200
