https://surfdrive.surf.nl/files/index.php/s/B7PEqFZSZZBPcW8/download?path=%2FData%2FInput%2FDatasets%2FDavid%2FImages&files=C_567.jpg,5472,3648
C_567,daylight,window_sill,"[130, 130, 130]","['6003007', '365901', '4567338', '4211166', '4504381', '6025026', '4121967']"
6003007,2312,1231,2521,1462
365901,2944,1166,3523,1742
4567338,2097,1105,2315,1273
4211166,2102,1321,2342,1637
4504381,2794,1043,2981,1217
6025026,2022,1248,2321,1497
4121967,2607,1647,2937,1877
