https://surfdrive.surf.nl/files/index.php/s/B7PEqFZSZZBPcW8/download?path=%2FData%2FInput%2FDatasets%2FDavid%2FImages&files=C_577.jpg,5472,3648
C_577,daylight,window_sill,"[130, 130, 130]","['614321', '4211221', '4651236']"
614321,3104,2142,3411,2470
4211221,2136,1310,2507,1593
4651236,2564,1641,2812,1904
