https://surfdrive.surf.nl/files/index.php/s/B7PEqFZSZZBPcW8/download?path=%2FData%2FInput%2FDatasets%2FDavid%2FImages&files=C_578.jpg,5472,3648
C_578,daylight,window_sill,"[130, 130, 130]","['614321', '4211221', '4651236']"
614321,3091,694,3226,828
4211221,1387,1494,1589,1651
4651236,2628,1815,2830,1905
