https://surfdrive.surf.nl/files/index.php/s/B7PEqFZSZZBPcW8/download?path=%2FData%2FInput%2FDatasets%2FDavid%2FImages&files=C_618.jpg,5472,3648
C_618,daylight,window_sill,"[130, 130, 130]","['300423', '6073026', '4558957', '4527943', '4121967', '6249125', '6069259']"
300423,3137,1084,3390,1345
6073026,2740,2213,2926,2415
4558957,2412,1564,2968,1977
4527943,3929,2010,4140,2314
4121967,3052,2002,3246,2154
6249125,2428,1396,2555,1505
6069259,3508,1581,3828,1775
