https://surfdrive.surf.nl/files/index.php/s/B7PEqFZSZZBPcW8/download?path=%2FData%2FInput%2FDatasets%2FDavid%2FImages&files=C_615.jpg,5472,3647
C_615,daylight,window_sill,"[130, 130, 130]","['300423', '6073026', '4558957', '4527943', '4121967', '6249125']"
300423,3836,1564,4076,1822
6073026,2797,1734,2966,1970
4558957,3422,1120,3845,1557
4527943,2090,1155,2324,1303
4121967,3157,1287,3394,1435
6249125,3494,1609,3661,1729
