https://surfdrive.surf.nl/files/index.php/s/B7PEqFZSZZBPcW8/download?path=%2FData%2FInput%2FDatasets%2FDavid%2FImages&files=C_63.jpg,5472,3647
C_63,daylight,coffee_table,"[130, 130, 130]","['4517992', '6074890']"
4517992,2521,1196,2887,1405
6074890,2723,1836,2913,2019
