https://surfdrive.surf.nl/files/index.php/s/B7PEqFZSZZBPcW8/download?path=%2FData%2FInput%2FDatasets%2FDavid%2FImages&files=C_667.jpg,5472,3648
C_667,daylight,coffee_table,"[130, 130, 130]","['6075079', '300423', '4121967', '300424', '6138173', '6003007']"
6075079,2723,1119,2982,1302
300423,1575,1196,1810,1436
4121967,2584,1797,2800,2066
300424,3314,1100,3607,1374
6138173,3525,2176,3823,2431
6003007,2684,1701,2867,1806
