https://surfdrive.surf.nl/files/index.php/s/B7PEqFZSZZBPcW8/download?path=%2FData%2FInput%2FDatasets%2FDavid%2FImages&files=C_688.jpg,5472,3647
C_688,daylight,coffee_table,"[130, 130, 130]","['4558957', '4539099', '300323', '6229071', '4157124']"
4558957,3895,1628,4012,2037
4539099,2644,1724,2720,1891
300323,2085,1167,2324,1447
6229071,3358,2011,3516,2336
4157124,1748,2044,2037,2206
