https://surfdrive.surf.nl/files/index.php/s/B7PEqFZSZZBPcW8/download?path=%2FData%2FInput%2FDatasets%2FDavid%2FImages&files=C_701.jpg,5472,3648
C_701,daylight,coffee_table,"[130, 130, 130]",['4529240']
4529240,2632,1704,2778,1864
