https://surfdrive.surf.nl/files/index.php/s/B7PEqFZSZZBPcW8/download?path=%2FData%2FInput%2FDatasets%2FDavid%2FImages&files=C_71.jpg,5472,3648
C_71,daylight,coffee_table,"[130, 130, 130]","['4517992', '6074890', '4650630', '6004938']"
4517992,3507,1667,3848,1995
6074890,3356,1646,3527,1817
4650630,1737,1366,2092,1722
6004938,1819,2029,2017,2186
