https://surfdrive.surf.nl/files/index.php/s/B7PEqFZSZZBPcW8/download?path=%2FData%2FInput%2FDatasets%2FDavid%2FImages&files=C_715.jpg,5472,3648
C_715,daylight,coffee_table,"[130, 130, 130]","['4529240', '4211437', '4211437', '4539099', '4211149', '300124']"
4529240,2067,2152,2127,2234
4211437,2695,1875,2867,2010
4211437,3032,1860,3271,1995
4539099,2179,2077,2262,2174
4211149,1843,1815,2060,1927
300124,2359,963,2598,1232
