https://surfdrive.surf.nl/files/index.php/s/B7PEqFZSZZBPcW8/download?path=%2FData%2FInput%2FDatasets%2FDavid%2FImages&files=C_72.jpg,5472,3647
C_72,daylight,coffee_table,"[130, 130, 130]","['4517992', '6074890', '4650630', '6004938', '4211437']"
4517992,2517,1590,2790,1992
6074890,2152,2042,2357,2202
4650630,3012,1595,3286,1899
6004938,2937,1487,3083,1626
4211437,2696,1495,2925,1633
