https://surfdrive.surf.nl/files/index.php/s/B7PEqFZSZZBPcW8/download?path=%2FData%2FInput%2FDatasets%2FDavid%2FImages&files=C_723.jpg,5472,3648
C_723,daylight,coffee_table,"[130, 130, 130]","['4529240', '4211437', '4211437', '4539099', '4211149', '300124', '6249125', '4160403', '4211412']"
4529240,2725,2057,2853,2257
4211437,2877,1933,3063,2160
4211437,3068,1360,3347,1501
4539099,3171,2149,3373,2248
4211149,3149,1843,3312,2054
300124,2508,1500,3044,1790
6249125,3052,2133,3156,2303
4160403,2125,1667,2791,2037
4211412,3488,1492,3674,1591
