https://surfdrive.surf.nl/files/index.php/s/B7PEqFZSZZBPcW8/download?path=%2FData%2FInput%2FDatasets%2FDavid%2FImages&files=C_769.jpg,5472,3648
C_769,daylight,couch,"[130, 130, 130]","['6074890', '4211511', '4520632', '300421', '4558957', '4143562']"
6074890,3397,1759,3582,1889
4211511,2052,1538,2232,1740
4520632,2195,1552,2594,2106
300421,2120,1862,2363,2171
4558957,2514,1370,3015,1859
4143562,3036,1666,3322,2003
