https://surfdrive.surf.nl/files/index.php/s/B7PEqFZSZZBPcW8/download?path=%2FData%2FInput%2FDatasets%2FDavid%2FImages&files=C_766.jpg,5472,3647
C_766,daylight,couch,"[130, 130, 130]","['6074890', '4211511', '4520632', '300421', '4558957']"
6074890,3174,1315,3363,1487
4211511,2223,1926,2459,2150
4520632,2527,1636,3141,1970
300421,1932,2082,2149,2441
4558957,2058,1239,2450,1741
