https://surfdrive.surf.nl/files/index.php/s/B7PEqFZSZZBPcW8/download?path=%2FData%2FInput%2FDatasets%2FDavid%2FImages&files=C_801.jpg,5472,3648
C_801,daylight,couch,"[130, 130, 130]","['4504381', '4647553', '4153827', '4520632']"
4504381,2665,1539,2718,1606
4647553,2822,1187,2987,1382
4153827,2777,1471,3002,1920
4520632,3181,985,3585,1344
