https://surfdrive.surf.nl/files/index.php/s/B7PEqFZSZZBPcW8/download?path=%2FData%2FInput%2FDatasets%2FDavid%2FImages&files=C_808.jpg,5472,3648
C_808,daylight,couch,"[130, 130, 130]","['4504381', '4647553', '4153827', '4520632', '4647553', '4550325']"
4504381,2351,2339,2461,2475
4647553,2615,2101,2751,2193
4647553,2593,1815,2729,1934
4153827,2206,1622,2400,1899
4520632,3569,1278,3793,1502
4550325,2708,1713,2888,1814
