https://surfdrive.surf.nl/files/index.php/s/B7PEqFZSZZBPcW8/download?path=%2FData%2FInput%2FDatasets%2FDavid%2FImages&files=C_80.jpg,5472,3648
C_80,daylight,coffee_table,"[130, 130, 130]","['4121739', '306223']"
4121739,2925,1180,3223,1472
306223,1950,1942,2178,2155
