https://surfdrive.surf.nl/files/index.php/s/B7PEqFZSZZBPcW8/download?path=%2FData%2FInput%2FDatasets%2FDavid%2FImages&files=C_831.jpg,5472,3648
C_831,daylight,coffee-table,"[120, 120, 120]","['365901', '300821', '4212454', '4567338', '300423', '6104154', '4143562', '6244886', '4210718', '6075075', '300321', '300323']"
365901,2667,2019,3153,2452
300821,1942,1835,2905,2063
4212454,2559,1164,2699,1283
4567338,2959,2701,3143,2810
300423,2677,2496,2959,2723
6104154,1964,1478,2202,1651
4143562,3143,2593,3445,2875
6244886,2494,1957,2787,2152
4210718,2083,2168,2624,2596
6075075,2906,2487,3149,2661
300321,2954,2190,3247,2477
300323,1791,1989,1953,2211
