https://surfdrive.surf.nl/files/index.php/s/B7PEqFZSZZBPcW8/download?path=%2FData%2FInput%2FDatasets%2FDavid%2FImages&files=C_835.jpg,5472,3648
C_835,daylight,coffee-table,"[120, 120, 120]","['365901', '300821', '4212454', '4567338', '300423', '6104154', '4143562', '6244886', '4210718', '6075075']"
365901,2409,2184,2842,2655
300821,2021,1844,2917,2174
4212454,3552,1276,3667,1418
4567338,2730,1286,2884,1418
300423,2614,1499,2784,1741
6104154,2310,1412,2522,1657
4143562,2888,1200,3113,1370
6244886,2073,1185,2340,1466
4210718,2872,1561,3356,1958
6075075,3269,1595,3494,1731
