https://surfdrive.surf.nl/files/index.php/s/B7PEqFZSZZBPcW8/download?path=%2FData%2FInput%2FDatasets%2FDavid%2FImages&files=C_859.jpg,5472,3648
C_859,daylight,coffee-table,"[120, 120, 120]","['6138173', '6069259', '6223631', '4211166', '6075079', '300424', '6177697']"
6138173,2340,1474,2679,1742
6069259,3085,1164,3318,1492
6223631,2029,887,2161,1052
4211166,2195,1930,2523,2286
6075079,1982,2243,2233,2591
300424,2571,1679,2773,1986
6177697,2718,1643,3248,2219
