https://surfdrive.surf.nl/files/index.php/s/B7PEqFZSZZBPcW8/download?path=%2FData%2FInput%2FDatasets%2FDavid%2FImages&files=C_859.jpg,5472,3648
C_859,daylight,coffee-table,"[120, 120, 120]","['6138173', '6069259', '6223631', '4211166', '6075079', '300424', '6177697']"
6138173,2353,1467,2645,1705
6069259,3078,1175,3294,1413
6223631,2029,861,2115,1002
4211166,2234,1954,2461,2171
6075079,1996,2268,2104,2485
300424,2559,1770,2732,1954
6177697,2753,1673,3218,2160
