https://surfdrive.surf.nl/files/index.php/s/B7PEqFZSZZBPcW8/download?path=%2FData%2FInput%2FDatasets%2FDavid%2FImages&files=C_868.jpg,5472,3648
C_868,daylight,coffee-table,"[120, 120, 120]","['4539099', '4153825', '6022064', '4211511', '4517992', '6022023', '4621545', '4520632', '6229071', '6035291', '4527943', '4651236']"
4539099,2628,1114,2754,1254
4153825,2696,1186,2998,1479
6022064,2907,1538,3031,1896
4211511,2498,2365,2695,2608
4517992,2303,1415,2547,1705
6022023,2402,1208,2628,1327
4621545,2360,1624,2609,1898
4520632,2565,1470,2925,1960
6229071,2554,1312,2747,1509
6035291,2362,1063,2576,1232
4527943,2420,861,2639,1074
4651236,2670,916,2822,1098
