https://surfdrive.surf.nl/files/index.php/s/B7PEqFZSZZBPcW8/download?path=%2FData%2FInput%2FDatasets%2FDavid%2FImages&files=C_866.jpg,5472,3648
C_866,daylight,coffee-table,"[120, 120, 120]","['4539099', '4153825', '6022064', '4211511', '4517992', '6022023', '4621545', '4520632', '6229071', '6035291', '4527943', '4651236', '4655172']"
4539099,2637,2355,2839,2523
4153825,2655,1639,2971,1955
6022064,3380,2245,3737,2554
4211511,3090,1874,3291,2057
4517992,1973,1714,2310,2046
6022023,2369,1951,2698,2248
4621545,2313,1694,2565,1968
4520632,1873,1248,2365,1637
6229071,3040,2148,3294,2449
6035291,2556,1857,2752,2068
4527943,2750,1889,2995,2162
4651236,2526,1297,2642,1535
4655172,2088,818,2527,1180
