https://surfdrive.surf.nl/files/index.php/s/B7PEqFZSZZBPcW8/download?path=%2FData%2FInput%2FDatasets%2FDavid%2FImages&files=C_861.jpg,5472,3648
C_861,daylight,coffee-table,"[120, 120, 120]","['6138173', '6069259', '6223631', '4211166', '6075079', '300424', '6177697']"
6138173,2598,2392,2883,2600
6069259,2471,2051,2744,2207
6223631,2337,2108,2473,2236
4211166,2200,1586,2439,1758
6075079,2642,1145,2795,1314
300424,2670,1472,2894,1683
6177697,2934,1552,3061,1944
