https://surfdrive.surf.nl/files/index.php/s/B7PEqFZSZZBPcW8/download?path=%2FData%2FInput%2FDatasets%2FDavid%2FImages&files=C_883.jpg,5472,3648
C_883,daylight,coffee-table,"[120, 120, 120]","['300123', '6225539', '6062574', '4160403', '4558957', '4548180', '614321', '4647553', '4153827', '6151663', '4118793', '6004938']"
300123,2478,1831,2926,2220
6225539,2274,1412,2964,1781
6062574,2546,2461,2663,2713
4160403,2828,926,3139,1334
4558957,2022,1762,2517,2150
4548180,1895,1713,2070,1927
614321,2440,2218,2605,2373
4647553,2974,2568,3207,2830
4153827,2410,1266,2838,1538
6151663,2634,1179,2780,1295
4118793,2828,1509,2974,1577
6004938,2838,2208,2964,2373
