https://surfdrive.surf.nl/files/index.php/s/B7PEqFZSZZBPcW8/download?path=%2FData%2FInput%2FDatasets%2FDavid%2FImages&files=C_883.jpg,5472,3648
C_883,daylight,coffee-table,"[120, 120, 120]","['300123', '6225539', '6062574', '4160403', '4558957', '4548180', '614321', '4647553', '4153827', '6151663', '4118793', '6004938']"
300123,2501,1792,2967,2170
6225539,2308,1414,2940,1712
6062574,2563,2477,2721,2653
4160403,2835,886,3098,1317
4558957,2124,1844,2536,2090
4548180,1834,1712,2062,1871
614321,2413,2222,2563,2354
4647553,2980,2611,3235,2857
4153827,2374,1231,2857,1530
6151663,2646,1161,2813,1301
4118793,2848,1512,3015,1574
6004938,2866,2180,2980,2365
