https://surfdrive.surf.nl/files/index.php/s/B7PEqFZSZZBPcW8/download?path=%2FData%2FInput%2FDatasets%2FDavid%2FImages&files=C_887.jpg,5472,3647
C_887,daylight,coffee-table,"[120, 120, 120]","['300123', '6225539', '6062574', '4160403', '4558957', '4548180', '614321', '4647553', '4153827', '6151663', '4118793']"
300123,2559,1954,2782,2228
6225539,1213,2126,1797,2482
6062574,2673,1503,2810,1602
4160403,2357,1774,2631,2333
4558957,1999,2465,2454,2866
4548180,1458,2465,1694,2681
614321,2784,1868,2846,2100
4647553,2368,1661,2576,1806
4153827,2846,1469,3227,1618
6151663,1748,2475,1795,2718
4118793,3259,1440,3329,1560
