https://surfdrive.surf.nl/files/index.php/s/B7PEqFZSZZBPcW8/download?path=%2FData%2FInput%2FDatasets%2FDavid%2FImages&files=C_89.jpg,5472,3648
C_89,daylight,coffee_table,"[130, 130, 130]","['4121739', '306223', '4210718', '6151663', '4529240']"
4121739,2475,2346,2861,2645
306223,2699,1178,2920,1338
4210718,1521,1151,2121,1822
6151663,2690,2750,3112,3082
4529240,2937,1034,3066,1249
