https://surfdrive.surf.nl/files/index.php/s/B7PEqFZSZZBPcW8/download?path=%2FData%2FInput%2FDatasets%2FDavid%2FImages&files=C_909.jpg,5472,3648
C_909,daylight,coffee-table,"[120, 120, 120]","['4529240', '6074890', '623224', '6025026', '4650630', '6028324', '4211412', '300121', '4181134']"
4529240,1739,1890,1923,2045
6074890,1677,2030,1889,2160
623224,2494,1184,2589,1507
6025026,1938,2247,2245,2503
4650630,2188,1034,2528,1222
6028324,3198,2283,3454,2458
4211412,2412,1494,2578,1680
300121,1861,1348,2415,1829
4181134,2496,1440,3048,2211
