https://surfdrive.surf.nl/files/index.php/s/B7PEqFZSZZBPcW8/download?path=%2FData%2FInput%2FDatasets%2FDavid%2FImages&files=C_910.jpg,5472,3648
C_910,daylight,coffee-table,"[120, 120, 120]","['4529240', '6074890', '623224', '6025026', '4650630', '6028324', '4211412', '300121']"
4529240,2353,1114,2468,1225
6074890,2934,2162,3122,2325
623224,1882,1662,2151,2042
6025026,2593,2402,2809,2662
4650630,2593,893,2881,1114
6028324,3030,2253,3280,2484
4211412,2973,1638,3088,1773
300121,2473,1532,2910,2061
