https://surfdrive.surf.nl/files/index.php/s/B7PEqFZSZZBPcW8/download?path=%2FData%2FInput%2FDatasets%2FDavid%2FImages&files=C_918.jpg,5472,3648
C_918,daylight,coffee-table,"[120, 120, 120]","['4529240', '6074890', '623224', '6025026', '4650630', '6028324']"
4529240,2847,970,3024,1065
6074890,2378,1529,2514,1707
623224,2536,1556,2940,1898
6025026,2796,1907,3130,2194
4650630,2290,1977,2596,2338
6028324,2690,1132,2966,1411
