https://surfdrive.surf.nl/files/index.php/s/B7PEqFZSZZBPcW8/download?path=%2FData%2FInput%2FDatasets%2FDavid%2FImages&files=C_929.jpg,5472,3648
C_929,daylight,couch,"[120, 120, 120]","['365901', '306201', '4529247', '300423', '6003007', '6244886', '6104154', '300421', '6062574', '6075075']"
365901,2569,1604,3074,1840
306201,2881,1431,3035,1556
4529247,2857,1537,3006,1609
300423,3213,1744,3463,1994
6003007,2367,2085,2478,2239
6244886,2492,1777,2761,2037
6104154,3150,1595,3386,1782
300421,2920,1768,3179,1999
6062574,2656,1604,2819,1705
6075075,2521,2061,2737,2311
