https://surfdrive.surf.nl/files/index.php/s/B7PEqFZSZZBPcW8/download?path=%2FData%2FInput%2FDatasets%2FDavid%2FImages&files=C_927.jpg,5472,3648
C_927,daylight,couch,"[120, 120, 120]","['365901', '306201', '4529247', '300423', '6003007', '6244886', '6104154', '300421', '6062574', '6075075', '300421']"
365901,3048,1753,3600,1936
306201,2732,1995,2903,2197
4529247,3079,1307,3206,1459
300423,2617,1555,2890,1870
6003007,2380,1993,2536,2186
6244886,2250,984,2551,1246
6104154,2655,1791,2837,2010
300421,2903,1901,3200,2180
300421,2468,1553,2721,1740
6062574,2358,1232,2494,1419
6075075,2358,1744,2637,1953
