https://surfdrive.surf.nl/files/index.php/s/B7PEqFZSZZBPcW8/download?path=%2FData%2FInput%2FDatasets%2FDavid%2FImages&files=C_922.jpg,5472,3648
C_922,daylight,couch,"[120, 120, 120]","['365901', '306201', '4529247', '300423', '6003007', '6244886', '6104154', '300421', '6062574', '6075075', '300421', '4621545']"
365901,2721,1672,3174,1865
306201,2333,2068,2460,2216
4529247,3047,1955,3176,2094
300423,2796,1797,3057,2057
6003007,3355,1603,3462,1707
6244886,2088,1706,2262,1818
6104154,2324,1150,2464,1376
300421,2562,1125,2761,1375
300421,2389,1546,2624,1779
6062574,2539,1701,2649,1801
6075075,2217,1769,2483,1975
4621545,2446,2030,2720,2281
