https://surfdrive.surf.nl/files/index.php/s/B7PEqFZSZZBPcW8/download?path=%2FData%2FInput%2FDatasets%2FDavid%2FImages&files=C_932.jpg,5472,3647
C_932,daylight,couch,"[120, 120, 120]","['365901', '306201', '4529247', '300423', '6003007', '6244886', '6104154', '300421', '6062574']"
365901,2994,1104,3390,1313
306201,1466,1586,1616,1730
4529247,2808,2495,2990,2641
300423,2812,2145,3049,2275
6003007,2919,1856,3080,1956
6244886,3137,1578,3297,1845
6104154,2657,1700,2896,1877
300421,2534,2266,2613,2498
6062574,2617,2290,2776,2414
