https://surfdrive.surf.nl/files/index.php/s/B7PEqFZSZZBPcW8/download?path=%2FData%2FInput%2FDatasets%2FDavid%2FImages&files=C_949.jpg,5472,3648
C_949,daylight,couch,"[120, 120, 120]","['300821', '4143562', '4211149', '4655172', '300321', '6249125', '4550348', '4211221', '300323', '4550348', '4504381']"
300821,2243,1449,3009,2331
4143562,2166,1731,2417,2097
4211149,3030,1902,3289,2232
4655172,2506,1515,3125,1908
300321,2323,1960,2624,2308
6249125,3212,1607,3363,1767
4550348,2511,2503,2707,2811
4550348,3254,1920,3461,2214
4211221,1843,1593,2150,1888
300323,1825,1793,2146,2147
4504381,3415,2124,3613,2298
