https://surfdrive.surf.nl/files/index.php/s/B7PEqFZSZZBPcW8/download?path=%2FData%2FInput%2FDatasets%2FDavid%2FImages&files=C_947.jpg,5472,3648
C_947,daylight,couch,"[120, 120, 120]","['300821', '4143562', '4211149', '4655172', '300321', '6249125', '4550348', '4211221', '300323', '4550348', '4504381', '300321']"
300821,2767,1846,3652,2052
4143562,2712,1995,2962,2274
4211149,3094,1672,3241,1876
4655172,2637,1566,3081,1883
300321,2378,1925,2655,2239
300321,2180,1652,2422,1850
6249125,3899,1707,4035,1819
4550348,3644,1927,3808,2136
4550348,2160,2274,2411,2498
4211221,2433,1028,2580,1272
300323,2387,1725,2635,1920
4504381,3786,1797,3945,1918
