https://surfdrive.surf.nl/files/index.php/s/B7PEqFZSZZBPcW8/download?path=%2FData%2FInput%2FDatasets%2FDavid%2FImages&files=C_946.jpg,5472,3648
C_946,daylight,couch,"[120, 120, 120]","['300821', '4143562', '4211149', '4655172', '300321', '6249125', '4550348', '4211221', '300323', '4550348', '4504381', '300321']"
300821,2040,1397,2937,2049
4143562,2774,1996,3062,2297
4211149,2915,1607,3131,1886
4655172,2623,962,3087,1207
300321,2601,1613,2946,1974
300321,3068,1830,3375,2168
6249125,3512,1662,3639,1803
4550348,2434,1852,2683,2115
4550348,3623,1639,3886,1801
4211221,3225,1591,3579,1958
300323,2156,1886,2448,2215
4504381,3498,1371,3650,1509
