https://surfdrive.surf.nl/files/index.php/s/B7PEqFZSZZBPcW8/download?path=%2FData%2FInput%2FDatasets%2FDavid%2FImages&files=C_953.jpg,5472,3648
C_953,daylight,couch,"[120, 120, 120]","['300821', '4143562', '4211149', '4655172', '300321', '6249125', '4550348', '4211221', '300323', '4550348']"
300821,2257,1340,3088,1718
4143562,2826,2922,3094,3175
4211149,2367,562,2571,712
4655172,2584,1973,3033,2184
300321,1780,1498,2017,1678
6249125,3248,1844,3358,1968
4550348,2892,1847,3114,1979
4550348,3088,1590,3235,1785
4211221,1716,2031,2009,2286
300323,2297,1270,2512,1369
