https://surfdrive.surf.nl/files/index.php/s/B7PEqFZSZZBPcW8/download?path=%2FData%2FInput%2FDatasets%2FDavid%2FImages&files=C_956.jpg,5472,3648
C_956,daylight,couch,"[120, 120, 120]","['300821', '4143562', '4211149', '4655172', '300321', '6249125', '4550348', '4211221', '300323']"
300821,3093,1151,3832,1838
4143562,2701,1695,3019,1957
4211149,3214,2198,3509,2542
4655172,2080,1743,2695,2206
300321,2061,1278,2429,1639
6249125,3299,1257,3428,1371
4550348,3347,1733,3623,1911
4211221,1717,1382,2076,1654
300323,2882,2065,3232,2438
