https://surfdrive.surf.nl/files/index.php/s/B7PEqFZSZZBPcW8/download?path=%2FData%2FInput%2FDatasets%2FDavid%2FImages&files=C_964.jpg,5472,3648
C_964,daylight,couch,"[120, 120, 120]","['654126', '6004938', '4210718', '6238674', '4539099', '4651236', '4153825', '4114319', '4211149', '4647553', '6177697']"
654126,3368,2629,3558,2825
6004938,3740,2040,3903,2182
4210718,2698,937,3192,1174
6238674,3104,2101,3219,2263
4539099,2692,1966,2820,2094
4651236,3551,2230,3740,2426
4153825,3294,1932,3598,2182
4114319,2759,1269,3226,1418
4211149,1974,1715,2211,1925
4647553,3111,1790,3267,2000
6177697,2645,1456,3045,1770
