https://surfdrive.surf.nl/files/index.php/s/B7PEqFZSZZBPcW8/download?path=%2FData%2FInput%2FDatasets%2FDavid%2FImages&files=C_964.jpg,5472,3648
C_964,daylight,couch,"[120, 120, 120]","['654126', '6004938', '4210718', '6238674', '4539099', '4651236', '4153825', '4114319', '4211149', '4647553', '6177697']"
654126,3358,2649,3551,2891
6004938,3692,2100,3877,2236
4210718,2688,947,3176,1298
6238674,3074,2087,3248,2281
4539099,2703,1958,2837,2158
4651236,3543,2214,3736,2478
4153825,3296,1907,3626,2197
4114319,2760,1234,3235,1568
4211149,1965,1713,2237,2025
4647553,3129,1762,3274,2052
6177697,2589,1436,3064,1814
