https://surfdrive.surf.nl/files/index.php/s/B7PEqFZSZZBPcW8/download?path=%2FData%2FInput%2FDatasets%2FDavid%2FImages&files=C_979.jpg,5472,3647
C_979,daylight,couch,"[120, 120, 120]","['654126', '6004938', '4210718', '6238674', '4539099', '4651236']"
654126,2286,1423,2469,1555
6004938,2551,2123,2756,2293
4210718,2636,1530,3062,2077
6238674,3683,1667,3873,1784
4539099,2440,1879,2632,2004
4651236,2047,1826,2230,2035
