https://surfdrive.surf.nl/files/index.php/s/B7PEqFZSZZBPcW8/download?path=%2FData%2FInput%2FDatasets%2FDavid%2FImages&files=C_975.jpg,5472,3648
C_975,daylight,couch,"[120, 120, 120]","['654126', '6004938', '4210718', '6238674', '4539099', '4651236', '4153825', '4114319']"
654126,3499,1521,3697,1739
6004938,2419,1098,2540,1284
4210718,1735,2320,2356,2741
6238674,3748,1721,3890,1867
4539099,2257,1860,2416,1984
4651236,2374,2722,2657,2819
4153825,2835,1436,3183,1690
4114319,2671,1525,2837,2119
