https://surfdrive.surf.nl/files/index.php/s/B7PEqFZSZZBPcW8/download?path=%2FData%2FInput%2FDatasets%2FDavid%2FImages&files=C_970.jpg,5472,3648
C_970,daylight,couch,"[120, 120, 120]","['654126', '6004938', '4210718', '6238674', '4539099', '4651236', '4153825', '4114319', '4211149']"
654126,1945,2026,2084,2201
6004938,3120,1032,3247,1114
4210718,2029,1838,2496,2492
6238674,3090,1278,3176,1416
4539099,3083,1659,3277,1816
4651236,4603,1753,4871,1888
4153825,2485,1883,2784,2143
4114319,2161,1398,2702,1636
4211149,2607,1719,2884,1875
