https://surfdrive.surf.nl/files/index.php/s/B7PEqFZSZZBPcW8/download?path=%2FData%2FInput%2FDatasets%2FDavid%2FImages&files=C_979.jpg,5472,3648
C_979,daylight,couch,"[120, 120, 120]","['654126', '6004938', '4210718', '6238674', '4539099', '4651236']"
654126,2289,1414,2483,1634
6004938,2543,2114,2762,2353
4210718,2624,1507,3059,2131
6238674,3688,1676,3868,1795
4539099,2442,1890,2620,2003
4651236,2061,1797,2215,2048
