https://surfdrive.surf.nl/files/index.php/s/B7PEqFZSZZBPcW8/download?path=%2FData%2FInput%2FDatasets%2FDavid%2FImages&files=C_992.jpg,5472,3648
C_992,daylight,couch,"[120, 120, 120]","['4527943', '300401', '4550325', '4211201', '4121967', '306223', '4157124', '6022064', '614321', '6069259']"
4527943,2578,1626,2734,1777
300401,2868,1810,2993,1995
4550325,2809,1474,3006,1582
4211201,2413,1278,2650,1573
4121967,3195,1619,3378,1766
306223,2842,1641,2938,1762
4157124,2617,2191,2725,2399
6022064,2723,1973,3068,2206
614321,2448,1766,2609,1918
6069259,2571,1991,2729,2175
