https://surfdrive.surf.nl/files/index.php/s/B7PEqFZSZZBPcW8/download?path=%2FData%2FInput%2FDatasets%2FDavid%2FImages&files=C_997.jpg,5472,3648
C_997,daylight,couch,"[120, 120, 120]","['4527943', '300401', '4550325', '4211201', '4121967', '306223', '4157124', '6022064']"
4527943,2842,2091,3134,2428
300401,2914,1360,3216,1604
4550325,3006,1130,3195,1377
4211201,3470,1634,3924,2246
4121967,3010,1624,3175,1944
306223,3810,1501,4006,1638
4157124,3092,2376,3401,2603
6022064,1464,1413,1663,1788
