https://surfdrive.surf.nl/files/index.php/s/B7PEqFZSZZBPcW8/download?path=%2FData%2FInput%2FDatasets%2FHiba%2FImages&files=H_100.jpg,5184,3456
H_100,daylight,wood,"[130, 130, 130]","['6074890', '6035291', '6022023']"
6074890,2204,1447,2317,1613
6035291,2572,1607,2692,1840
6022023,2796,1789,3180,1974
