https://surfdrive.surf.nl/files/index.php/s/B7PEqFZSZZBPcW8/download?path=%2FData%2FInput%2FDatasets%2FHiba%2FImages&files=H_113.jpg,5184,3455
H_113,daylight,wood,"[130, 130, 130]","['6022064', '4558957', '306223', '4527943']"
6022064,2478,1637,2733,1887
4558957,1918,1336,1982,1405
306223,3283,1211,3596,1396
4527943,1643,834,1782,944
