https://surfdrive.surf.nl/files/index.php/s/B7PEqFZSZZBPcW8/download?path=%2FData%2FInput%2FDatasets%2FHiba%2FImages&files=H_122.jpg,5184,3456
H_122,daylight,wood,"[130, 130, 130]","['6022064', '4558957', '306223', '4527943', '6003007', '4211614', '6151663']"
6022064,1841,1765,2016,1939
4558957,2306,1597,2677,1894
306223,3811,1130,3932,1224
4527943,1354,1858,1524,1988
6003007,3010,1745,3099,1870
4211614,2181,2250,2304,2493
6151663,3986,2263,4196,2344
