https://surfdrive.surf.nl/files/index.php/s/B7PEqFZSZZBPcW8/download?path=%2FData%2FInput%2FDatasets%2FHiba%2FImages&files=H_124.jpg,5184,3456
H_124,daylight,wood,"[130, 130, 130]","['6022064', '4558957', '306223', '4527943', '6003007', '4211614', '6151663', '6004938']"
6022064,2754,1800,3162,1973
4558957,2623,1190,3031,1548
306223,2326,1569,2500,1696
4527943,2257,1726,2490,1909
6003007,2446,1682,2607,1853
4211614,2794,997,3000,1168
6151663,2201,1231,2430,1400
6004938,2119,1706,2286,1837
