https://surfdrive.surf.nl/files/index.php/s/B7PEqFZSZZBPcW8/download?path=%2FData%2FInput%2FDatasets%2FHiba%2FImages&files=H_12.jpg,5184,3456
H_12,daylight,wood,"[130, 130, 130]","['623224', '6022023', '4121739', '4118793']"
623224,2297,1111,2505,1271
6022023,2922,2103,3115,2307
4121739,2104,1161,2269,1306
4118793,3280,1836,3378,1964
