https://surfdrive.surf.nl/files/index.php/s/B7PEqFZSZZBPcW8/download?path=%2FData%2FInput%2FDatasets%2FHiba%2FImages&files=H_130.jpg,5184,3456
H_130,daylight,wood,"[130, 130, 130]","['4211054', '4211054']"
4211054,3650,1600,4147,2065
4211054,2995,1197,3442,1577
