https://surfdrive.surf.nl/files/index.php/s/B7PEqFZSZZBPcW8/download?path=%2FData%2FInput%2FDatasets%2FHiba%2FImages&files=H_140.jpg,5184,3456
H_140,daylight,wood,"[130, 130, 130]","['4211054', '4211054', '306201', '6229071', '6074890']"
4211054,1063,1670,1361,1838
4211054,1193,1799,1510,2110
306201,927,1916,1096,2032
6229071,2901,997,3115,1243
6074890,2571,1864,2701,2045
