https://surfdrive.surf.nl/files/index.php/s/B7PEqFZSZZBPcW8/download?path=%2FData%2FInput%2FDatasets%2FHiba%2FImages&files=H_170.jpg,5184,3456
H_170,daylight,wood,"[130, 130, 130]","['4211412', '4153825', '4210718']"
4211412,1573,1204,2107,1645
4153825,3119,1346,3492,1683
4210718,2486,1767,2582,1955
