https://surfdrive.surf.nl/files/index.php/s/B7PEqFZSZZBPcW8/download?path=%2FData%2FInput%2FDatasets%2FHiba%2FImages&files=H_170.jpg,5184,3456
H_170,daylight,wood,"[130, 130, 130]","['4211412', '4153825', '4210718']"
4211412,2465,1748,2609,1972
4153825,3118,1343,3501,1687
4210718,1557,1200,2117,1660
