https://surfdrive.surf.nl/files/index.php/s/B7PEqFZSZZBPcW8/download?path=%2FData%2FInput%2FDatasets%2FHiba%2FImages&files=H_184.jpg,5183,3456
H_184,daylight,wood,"[130, 130, 130]",['4548180']
4548180,2415,1711,2678,2019
