https://surfdrive.surf.nl/files/index.php/s/B7PEqFZSZZBPcW8/download?path=%2FData%2FInput%2FDatasets%2FHiba%2FImages&files=H_18.jpg,5184,3456
H_18,daylight,wood,"[130, 130, 130]","['623224', '6022023', '4121739', '4118793', '4529240', '6062574']"
623224,3216,1600,3439,1870
6022023,2463,1647,2706,1830
4121739,3084,1291,3254,1468
4118793,3245,1828,3379,1972
4529240,3039,1383,3119,1481
6062574,2014,1577,2154,1730
