https://surfdrive.surf.nl/files/index.php/s/B7PEqFZSZZBPcW8/download?path=%2FData%2FInput%2FDatasets%2FHiba%2FImages&files=H_183.jpg,5184,3455
H_183,daylight,wood,"[130, 130, 130]",['4548180']
4548180,2447,1669,2756,1912
