https://surfdrive.surf.nl/files/index.php/s/B7PEqFZSZZBPcW8/download?path=%2FData%2FInput%2FDatasets%2FHiba%2FImages&files=H_211.jpg,5184,3455
H_211,daylight,wood,"[130, 130, 130]",['6069259']
6069259,2526,1702,2733,1912
