https://surfdrive.surf.nl/files/index.php/s/B7PEqFZSZZBPcW8/download?path=%2FData%2FInput%2FDatasets%2FHiba%2FImages&files=H_230.jpg,5184,3456
H_230,daylight,wood,"[130, 130, 130]","['300124', '300401', '6249125', '4121739', '6249125']"
300124,2464,1015,2861,1444
300401,2443,1778,2621,2059
6249125,2364,1682,2507,1850
6249125,2630,1992,2782,2099
4121739,2708,679,2875,893
