https://surfdrive.surf.nl/files/index.php/s/B7PEqFZSZZBPcW8/download?path=%2FData%2FInput%2FDatasets%2FHiba%2FImages&files=H_240.jpg,5184,3456
H_240,daylight,wood,"[130, 130, 130]","['6035291', '4160403', '6104154']"
6035291,3415,2027,3523,2168
4160403,2423,1467,2744,1713
6104154,2593,2106,2734,2210
