https://surfdrive.surf.nl/files/index.php/s/B7PEqFZSZZBPcW8/download?path=%2FData%2FInput%2FDatasets%2FHiba%2FImages&files=H_245.jpg,5184,3456
H_245,daylight,wood,"[130, 130, 130]","['6035291', '4160403', '6104154', '300123']"
6035291,3898,1558,4059,1633
4160403,3596,1421,4065,1573
6104154,2188,1580,2359,1723
300123,2335,1738,2683,2103
