https://surfdrive.surf.nl/files/index.php/s/B7PEqFZSZZBPcW8/download?path=%2FData%2FInput%2FDatasets%2FHiba%2FImages&files=H_252.jpg,5183,3456
H_252,daylight,wood,"[130, 130, 130]","['6035291', '4160403', '6104154', '300123', '6069259', '6075079', '4649749']"
6035291,3872,2011,3959,2190
4160403,2032,1696,2591,1876
6104154,1767,929,1922,1005
300123,3045,1306,3272,1531
6069259,1977,2144,2151,2285
6075079,2528,1906,2711,2052
4649749,3470,2047,3601,2194
