https://surfdrive.surf.nl/files/index.php/s/B7PEqFZSZZBPcW8/download?path=%2FData%2FInput%2FDatasets%2FHiba%2FImages&files=H_250.jpg,5184,3456
H_250,daylight,wood,"[130, 130, 130]","['6035291', '4160403', '6104154', '300123', '6069259', '6075079']"
6035291,3723,2451,3897,2552
4160403,2364,1656,2833,1846
6104154,2102,2134,2237,2328
300123,1951,1870,2288,2196
6069259,2588,1778,2776,1941
6075079,2537,2494,2731,2659
