https://surfdrive.surf.nl/files/index.php/s/B7PEqFZSZZBPcW8/download?path=%2FData%2FInput%2FDatasets%2FHiba%2FImages&files=H_299.jpg,5184,3456
H_299,daylight,wood,"[130, 130, 130]","['4558957', '6074890', '6075079', '4527943']"
4558957,1932,711,2308,1001
6074890,2170,1251,2333,1372
6075079,1356,936,1554,1085
4527943,2476,1681,2742,1971
