https://surfdrive.surf.nl/files/index.php/s/B7PEqFZSZZBPcW8/download?path=%2FData%2FInput%2FDatasets%2FHiba%2FImages&files=H_31.jpg,5184,3456
H_31,daylight,wood,"[130, 130, 130]","['4181135', '6238674', '300321', '4651236']"
4181135,1579,1487,2346,2035
6238674,2064,1439,2442,1694
300321,2096,970,2303,1157
4651236,3772,997,3953,1103
