https://surfdrive.surf.nl/files/index.php/s/B7PEqFZSZZBPcW8/download?path=%2FData%2FInput%2FDatasets%2FHiba%2FImages&files=H_320.jpg,5183,3456
H_320,daylight,wood,"[130, 130, 130]","['4211437', '300821', '4647553']"
4211437,2819,2006,3087,2194
300821,1251,1175,1611,1665
4647553,2572,1682,2784,1871
