https://surfdrive.surf.nl/files/index.php/s/B7PEqFZSZZBPcW8/download?path=%2FData%2FInput%2FDatasets%2FHiba%2FImages&files=H_336.jpg,5184,3456
H_336,daylight,wood,"[130, 130, 130]","['6022064', '300421', '6249125']"
6022064,2727,1481,2952,1681
300421,2411,1897,2677,2039
6249125,2203,1439,2320,1597
