https://surfdrive.surf.nl/files/index.php/s/B7PEqFZSZZBPcW8/download?path=%2FData%2FInput%2FDatasets%2FHiba%2FImages&files=H_349.jpg,5184,3456
H_349,daylight,wood,"[130, 130, 130]","['6035291', '6151663', '4181144']"
6035291,3846,1411,3974,1629
6151663,2983,1040,3241,1172
4181144,1418,1541,2428,2128
