https://surfdrive.surf.nl/files/index.php/s/B7PEqFZSZZBPcW8/download?path=%2FData%2FInput%2FDatasets%2FHiba%2FImages&files=H_349.jpg,5184,3455
H_349,daylight,wood,"[130, 130, 130]","['6035291', '6151663', '4181144']"
6035291,3849,1402,3976,1632
6151663,2980,1043,3241,1169
4181144,1413,1542,2411,2078
