https://surfdrive.surf.nl/files/index.php/s/B7PEqFZSZZBPcW8/download?path=%2FData%2FInput%2FDatasets%2FHiba%2FImages&files=H_347.jpg,5183,3456
H_347,daylight,wood,"[130, 130, 130]","['6035291', '6151663']"
6035291,3123,1664,3305,1820
6151663,1755,1796,2026,1938
