https://surfdrive.surf.nl/files/index.php/s/B7PEqFZSZZBPcW8/download?path=%2FData%2FInput%2FDatasets%2FHiba%2FImages&files=H_35.jpg,5184,3456
H_35,daylight,wood,"[130, 130, 130]",['4210718']
4210718,2265,1440,2841,1947
