https://surfdrive.surf.nl/files/index.php/s/B7PEqFZSZZBPcW8/download?path=%2FData%2FInput%2FDatasets%2FHiba%2FImages&files=H_355.jpg,5184,3456
H_355,daylight,wood,"[130, 130, 130]","['6035291', '6151663', '4181144', '4649749', '4639693']"
6035291,1238,1384,1409,1646
6151663,1154,1848,1508,2110
4181144,1527,2420,1854,2800
4649749,2260,810,2956,1597
4639693,2553,1644,3636,2104
