https://surfdrive.surf.nl/files/index.php/s/B7PEqFZSZZBPcW8/download?path=%2FData%2FInput%2FDatasets%2FHiba%2FImages&files=H_352.jpg,5184,3456
H_352,daylight,wood,"[130, 130, 130]","['6035291', '6151663', '4181144', '4649749']"
6035291,3159,1716,3496,2338
6151663,1641,1936,1892,2137
4181144,2361,1791,2583,1883
4649749,2497,1598,2710,1776
