https://surfdrive.surf.nl/files/index.php/s/B7PEqFZSZZBPcW8/download?path=%2FData%2FInput%2FDatasets%2FHiba%2FImages&files=H_364.jpg,5184,3455
H_364,daylight,wood,"[130, 130, 130]",['365901']
365901,2161,1628,2736,1736
