https://surfdrive.surf.nl/files/index.php/s/B7PEqFZSZZBPcW8/download?path=%2FData%2FInput%2FDatasets%2FHiba%2FImages&files=H_369.jpg,5184,3456
H_369,daylight,wood,"[130, 130, 130]","['365901', '300424', '4529247']"
365901,2288,1561,2635,1879
300424,2826,1646,3073,1815
4529247,1461,1773,1588,1843
