https://surfdrive.surf.nl/files/index.php/s/B7PEqFZSZZBPcW8/download?path=%2FData%2FInput%2FDatasets%2FHiba%2FImages&files=H_367.jpg,5184,3456
H_367,daylight,wood,"[130, 130, 130]","['365901', '300424']"
365901,2343,1692,2625,2061
300424,2437,1047,3023,1373
