https://surfdrive.surf.nl/files/index.php/s/B7PEqFZSZZBPcW8/download?path=%2FData%2FInput%2FDatasets%2FHiba%2FImages&files=H_398.jpg,5184,3455
H_398,daylight,wood,"[130, 130, 130]","['4211166', '4647553']"
4211166,2395,967,2720,1284
4647553,2424,1616,2694,2020
