https://surfdrive.surf.nl/files/index.php/s/B7PEqFZSZZBPcW8/download?path=%2FData%2FInput%2FDatasets%2FHiba%2FImages&files=H_418.jpg,5183,3456
H_418,daylight,wood,"[130, 130, 130]","['4211166', '4647553', '4114319', '4550348', '4567338', '4211437', '4621545', '654126', '4211201']"
4211166,2815,2396,3054,2532
4647553,1521,1582,1612,1801
4114319,1661,1520,2137,1778
4550348,1705,1305,1899,1411
4567338,1227,956,1369,1039
4211437,2461,1981,2690,2123
4621545,2542,1550,2597,1782
654126,2314,1610,2420,1710
4211201,1018,1612,1404,2016
