https://surfdrive.surf.nl/files/index.php/s/B7PEqFZSZZBPcW8/download?path=%2FData%2FInput%2FDatasets%2FHiba%2FImages&files=H_425.jpg,5184,3456
H_425,daylight,parquet_brown_medium,"[120, 120, 120]","['4157124', '4121967', '6075075', '4181144', '4655172', '4153825', '614321', '300821', '4181135']"
4157124,3593,2446,3762,2631
4121967,3143,1872,3376,2014
6075075,3743,2239,3951,2355
4181144,1862,1089,2053,1522
4655172,2952,1106,3252,1406
4153825,2511,740,2752,939
614321,3518,1114,3684,1314
300821,2270,1589,2869,2105
4181135,1762,1439,1978,1930
