https://surfdrive.surf.nl/files/index.php/s/B7PEqFZSZZBPcW8/download?path=%2FData%2FInput%2FDatasets%2FHiba%2FImages&files=H_427.jpg,5184,3456
H_427,daylight,parquet_brown_medium,"[120, 120, 120]","['4157124', '4121967', '6075075', '4181144', '4655172', '4153825', '614321', '300821', '4181135']"
4157124,2367,1197,2507,1348
4121967,2035,1322,2466,1566
6075075,3082,1813,3245,1909
4181144,2252,1794,2905,1887
4655172,2551,1558,2665,1721
4153825,1843,1735,2215,2156
614321,1670,1894,1884,2248
300821,2217,2540,2349,2724
4181135,2867,1922,2985,2049
