https://surfdrive.surf.nl/files/index.php/s/B7PEqFZSZZBPcW8/download?path=%2FData%2FInput%2FDatasets%2FHiba%2FImages&files=H_438.jpg,5184,3456
H_438,daylight,parquet_brown_medium,"[120, 120, 120]","['4160403', '4539099', '6225539', '6151663', '4550348', '6252809', '4548180', '365901', '6225539', '6229071', '6138173', '4121739', '4211054']"
4160403,642,1062,908,1388
4539099,3444,2257,3558,2370
6225539,3729,1455,4199,1703
6225539,2080,1111,2497,1343
6151663,2484,1655,2574,1803
4550348,1110,1944,1244,2096
6252809,1697,1279,1821,1862
4548180,3009,1773,3184,1918
365901,1835,1027,2103,1249
6229071,1872,1599,2015,1741
6138173,2679,1240,2801,1399
4121739,2089,2031,2219,2237
4211054,2769,1652,2987,1842
