https://surfdrive.surf.nl/files/index.php/s/B7PEqFZSZZBPcW8/download?path=%2FData%2FInput%2FDatasets%2FHiba%2FImages&files=H_438.jpg,5184,3456
H_438,daylight,parquet_brown_medium,"[120, 120, 120]","['4160403', '4539099', '6225539', '6151663', '4550348', '6252809', '4548180', '365901', '6225539', '6229071', '6138173', '4121739', '4211054']"
4160403,635,1056,931,1399
4539099,3440,2248,3580,2398
6225539,2076,1092,2503,1347
6225539,3721,1425,4210,1696
6151663,2480,1635,2589,1807
4550348,1095,1937,1277,2099
6252809,1683,1271,1834,1859
4548180,3000,1755,3203,1922
365901,1829,1021,2110,1245
6229071,1865,1562,2032,1739
6138173,2688,1229,2813,1401
4121739,2089,2026,2209,2234
4211054,2771,1635,2995,1849
