https://surfdrive.surf.nl/files/index.php/s/B7PEqFZSZZBPcW8/download?path=%2FData%2FInput%2FDatasets%2FHiba%2FImages&files=H_445.jpg,5184,3456
H_445,daylight,parquet_brown_medium,"[120, 120, 120]","['4160403', '4539099', '6225539', '6151663', '4550348', '6252809', '4548180', '365901', '6225539', '6229071', '6138173']"
4160403,2155,1190,2438,1588
4539099,2667,777,2776,877
6225539,2000,935,2293,1266
6225539,2737,699,2980,1048
6151663,3809,1121,3961,1253
4550348,2187,1864,2316,2016
6252809,2842,1311,3756,1662
4548180,1189,1991,1377,2167
365901,2496,1596,2612,1931
6229071,2314,1599,2461,1814
6138173,4434,1269,4634,1366
