https://surfdrive.surf.nl/files/index.php/s/B7PEqFZSZZBPcW8/download?path=%2FData%2FInput%2FDatasets%2FHiba%2FImages&files=H_452.jpg,5184,3456
H_452,daylight,parquet_brown_medium,"[120, 120, 120]","['4160403', '4539099', '6225539', '6151663', '4550348', '6252809', '4548180', '365901']"
4160403,2551,2156,3076,2280
4539099,2472,1719,2560,1815
6225539,1911,1574,2061,1907
6151663,2041,2053,2210,2172
4550348,2078,2253,2238,2323
6252809,3165,1295,3853,1571
4548180,2368,1750,2469,1855
365901,1917,2166,2115,2479
