https://surfdrive.surf.nl/files/index.php/s/B7PEqFZSZZBPcW8/download?path=%2FData%2FInput%2FDatasets%2FHiba%2FImages&files=H_455.jpg,5184,3456
H_455,daylight,parquet_brown_medium,"[120, 120, 120]","['4160403', '4539099', '6225539', '6151663', '4550348', '6252809', '4548180']"
4160403,3364,1847,3869,2133
4539099,2110,1800,2225,1899
6225539,2141,1347,2610,1644
6151663,1829,1441,1949,1623
4550348,2287,1821,2454,2034
6252809,1116,1706,2095,2024
4548180,3016,1753,3250,1935
