https://surfdrive.surf.nl/files/index.php/s/B7PEqFZSZZBPcW8/download?path=%2FData%2FInput%2FDatasets%2FHiba%2FImages&files=H_468.jpg,5184,3456
H_468,daylight,parquet_brown_medium,"[120, 120, 120]","['6028324', '4114319', '6004938', '300121', '300421', '6249125', '306223', '6003007', '300424', '6252809', '6229071']"
6028324,2746,1580,2942,1770
4114319,2509,1134,2882,1398
6004938,1814,1826,1986,1999
300121,1621,1322,2027,1532
300421,3404,1155,3579,1317
6249125,2679,1734,2800,1829
306223,1332,1900,1453,2061
6003007,1831,1273,1913,1337
300424,1721,1033,1917,1180
6252809,2018,2135,3179,2513
6229071,1049,1535,1262,1752
