https://surfdrive.surf.nl/files/index.php/s/B7PEqFZSZZBPcW8/download?path=%2FData%2FInput%2FDatasets%2FHiba%2FImages&files=H_460.jpg,5184,3456
H_460,daylight,parquet_brown_medium,"[120, 120, 120]","['4160403', '4539099', '6225539', '6151663', '4550348', '6252809']"
4160403,1025,1695,1203,2186
4539099,1563,1656,1643,1811
6225539,3154,1658,3762,2036
6151663,1654,1150,1826,1300
4550348,2978,1830,3200,1949
6252809,2008,1476,3007,1691
