https://surfdrive.surf.nl/files/index.php/s/B7PEqFZSZZBPcW8/download?path=%2FData%2FInput%2FDatasets%2FHiba%2FImages&files=H_469.jpg,5184,3456
H_469,daylight,parquet_brown_medium,"[120, 120, 120]","['6028324', '4114319', '6004938', '300121', '300421', '6249125', '306223', '6003007', '300424', '6252809', '6229071']"
6028324,2946,1419,3080,1504
4114319,2274,1207,2422,1398
6004938,1977,2798,2125,2904
300121,1680,2048,1786,2289
300421,2691,932,2840,995
6249125,2995,1568,3094,1646
306223,1001,2480,1107,2586
6003007,2380,1674,2521,1752
300424,3314,2218,3434,2352
6252809,3497,1603,3802,2239
6229071,1510,1462,1616,1525
