https://surfdrive.surf.nl/files/index.php/s/B7PEqFZSZZBPcW8/download?path=%2FData%2FInput%2FDatasets%2FHiba%2FImages&files=H_48.jpg,5183,3456
H_48,daylight,wood,"[130, 130, 130]",['4211511']
4211511,2534,1635,2760,1854
