https://surfdrive.surf.nl/files/index.php/s/B7PEqFZSZZBPcW8/download?path=%2FData%2FInput%2FDatasets%2FHiba%2FImages&files=H_483.jpg,5184,3456
H_483,daylight,parquet_brown_medium,"[120, 120, 120]","['6028324', '4114319', '6004938', '300121', '300421', '6249125']"
6028324,3267,1681,3415,1836
4114319,2356,1757,2584,1988
6004938,2446,1597,2530,1655
300121,2522,2286,2874,2428
300421,2374,2104,2564,2238
6249125,3616,1748,3698,1811
