https://surfdrive.surf.nl/files/index.php/s/B7PEqFZSZZBPcW8/download?path=%2FData%2FInput%2FDatasets%2FHiba%2FImages&files=H_496.jpg,5184,3456
H_496,daylight,parquet_brown_medium,"[120, 120, 120]","['4639693', '4211437', '4649749', '6062574', '4517992', '300124', '4153827', '4211412', '4118793', '4558957']"
4639693,1167,2045,1821,2304
4211437,2545,1696,2668,1838
4649749,3134,2317,3296,2446
6062574,2028,1663,2112,1767
4517992,2015,2110,2189,2330
300124,1976,1463,2274,1631
4153827,1698,1812,2008,2000
4211412,2824,1760,2927,1812
4118793,3367,1663,3484,1767
4558957,1212,1495,1458,1657
