https://surfdrive.surf.nl/files/index.php/s/B7PEqFZSZZBPcW8/download?path=%2FData%2FInput%2FDatasets%2FHiba%2FImages&files=H_522.jpg,5184,3456
H_522,daylight,parquet_brown_medium,"[120, 120, 120]","['4520632', '4181134', '4211201', '4504369', '6025026', '6244886', '623224']"
4520632,2479,1780,2635,2006
4181134,1553,1822,1956,2091
4211201,2628,1377,2847,1434
4504369,3483,1455,3561,1504
6025026,3370,1709,3434,1780
6244886,2698,1221,2840,1313
623224,3314,1879,3434,2006
