https://surfdrive.surf.nl/files/index.php/s/B7PEqFZSZZBPcW8/download?path=%2FData%2FInput%2FDatasets%2FHiba%2FImages&files=H_550.jpg,5184,3456
H_550,daylight,table_plastic_grey,"[120, 120, 120]","['4504381', '4165967', '4211221', '6177697', '4210718', '6035291']"
4504381,2876,1608,2991,1731
4165967,1749,1451,2064,1934
4211221,3356,826,3512,1094
6177697,3869,1147,4268,1524
4210718,2334,1603,2653,2071
6035291,3135,1011,3351,1185
