https://surfdrive.surf.nl/files/index.php/s/B7PEqFZSZZBPcW8/download?path=%2FData%2FInput%2FDatasets%2FHiba%2FImages&files=H_557.jpg,5184,3456
H_557,daylight,table_plastic_grey,"[120, 120, 120]","['6022023', '4143562', '300323', '6238674', '300401', '300423', '300123', '300821', '4649749', '4118793', '306223']"
6022023,2484,1179,2616,1264
4143562,2285,1292,2370,1386
300323,2710,1452,2823,1641
6238674,2049,1736,2144,1858
300401,2899,2302,3060,2406
300423,2247,1169,2342,1264
300123,2975,1112,3116,1264
300821,1549,1027,1794,1405
4649749,1492,2038,1549,2142
4118793,3126,1585,3220,1679
306223,2946,2132,3041,2227
