https://surfdrive.surf.nl/files/index.php/s/B7PEqFZSZZBPcW8/download?path=%2FData%2FInput%2FDatasets%2FHiba%2FImages&files=H_559.jpg,5184,3456
H_559,daylight,table_plastic_grey,"[120, 120, 120]","['6022023', '4143562', '300323', '6238674', '300401', '300423', '300123', '300821', '4649749', '4118793', '306223']"
6022023,3028,2385,3305,2734
4143562,3325,908,3571,1093
300323,1563,570,1830,795
6238674,3018,1749,3243,1923
300401,2649,1811,2803,2026
300423,2065,1698,2178,1903
300123,1379,990,1666,1267
300821,2547,1031,2772,1677
4649749,3121,1144,3325,1318
4118793,2055,959,2198,1072
306223,2496,529,2578,611
