https://surfdrive.surf.nl/files/index.php/s/B7PEqFZSZZBPcW8/download?path=%2FData%2FInput%2FDatasets%2FHiba%2FImages&files=H_568.jpg,5184,3456
H_568,daylight,table_plastic_grey,"[120, 120, 120]","['6138173', '6075079', '4650630', '300424', '300321', '4121967', '6223631', '614321', '4121739', '4527943', '365901', '6238674', '300423']"
6138173,2429,1538,2543,1657
6075079,3094,1165,3244,1279
4650630,1774,1980,1956,2167
300424,2443,1679,2561,1848
300321,3845,1106,4059,1301
4121967,1810,1729,1992,1843
6223631,3308,1461,3412,1561
614321,2712,1083,2821,1206
4121739,1401,2353,1587,2508
4527943,3995,1616,4127,1780
365901,2074,2604,2316,2995
6238674,2657,2203,2730,2289
300423,2570,1484,2698,1647
