https://surfdrive.surf.nl/files/index.php/s/B7PEqFZSZZBPcW8/download?path=%2FData%2FInput%2FDatasets%2FHiba%2FImages&files=H_560.jpg,5184,3456
H_560,daylight,table_plastic_grey,"[120, 120, 120]","['6022023', '4143562', '300323', '6238674', '300401', '300423', '300123', '300821', '4649749', '4118793']"
6022023,2392,1959,2609,2109
4143562,3591,1116,3752,1240
300323,1959,2027,2057,2252
6238674,3098,1835,3160,1919
300401,2174,1182,2253,1311
300423,2384,1596,2500,1775
300123,1907,1409,2219,1621
300821,2923,1484,3491,1615
4649749,3404,2173,3554,2238
4118793,2559,1530,2661,1653
