https://surfdrive.surf.nl/files/index.php/s/B7PEqFZSZZBPcW8/download?path=%2FData%2FInput%2FDatasets%2FHiba%2FImages&files=H_568.jpg,5183,3456
H_568,daylight,table_plastic_grey,"[120, 120, 120]","['6138173', '6075079', '4650630', '300424', '300321', '4121967', '6223631', '614321', '4121739', '4527943', '365901', '6238674', '300423']"
6138173,2441,1527,2535,1652
6075079,3087,1167,3237,1275
4650630,1758,1967,1966,2162
300424,1389,2350,1577,2466
300321,3875,1096,4054,1246
4121967,1810,1727,1986,1802
6223631,3305,1479,3403,1545
614321,2708,1096,2841,1160
4121739,2444,1671,2552,1804
4527943,4017,1614,4124,1712
365901,2076,2599,2305,2972
6238674,2661,2210,2734,2301
300423,2556,1477,2677,1602
