https://surfdrive.surf.nl/files/index.php/s/B7PEqFZSZZBPcW8/download?path=%2FData%2FInput%2FDatasets%2FHiba%2FImages&files=H_584.jpg,5184,3456
H_584,daylight,table_plastic_grey,"[120, 120, 120]","['4157124', '4211511', '6022064', '4211149', '4550348', '4651236', '4539099', '4550325', '4548180', '623224', '4121967', '300123']"
4157124,3185,1543,3353,1698
4211511,2775,2440,2921,2572
6022064,3412,1333,3604,1606
4211149,2639,778,2807,901
4550348,2807,486,2916,605
4651236,2325,1001,2461,1165
4539099,2024,1989,2156,2103
4550325,2370,1629,2548,1766
4548180,1906,1506,2088,1597
623224,2839,1447,3098,1702
4121967,3057,1097,3258,1229
300123,3039,628,3408,901
