https://surfdrive.surf.nl/files/index.php/s/B7PEqFZSZZBPcW8/download?path=%2FData%2FInput%2FDatasets%2FHiba%2FImages&files=H_580.jpg,5183,3456
H_580,daylight,table_plastic_grey,"[120, 120, 120]","['6138173', '6075079', '4650630', '300424', '300321', '4121967', '6223631', '614321', '4121739']"
6138173,2214,1508,2295,1660
6075079,2290,836,2447,951
4650630,2692,1689,2906,1804
300424,3235,1504,3406,1654
300321,3783,1718,4021,1922
4121967,3416,897,3598,983
6223631,2618,2131,2817,2219
614321,1311,1095,1469,1234
4121739,1635,1680,1735,1777
