https://surfdrive.surf.nl/files/index.php/s/B7PEqFZSZZBPcW8/download?path=%2FData%2FInput%2FDatasets%2FHiba%2FImages&files=H_592.jpg,5184,3456
H_592,daylight,table_plastic_grey,"[120, 120, 120]","['4157124', '4211511', '6022064', '4211149', '4550348', '4651236', '4539099', '4550325', '4548180', '623224']"
4157124,3467,1598,3551,1720
4211511,2262,1521,2353,1631
6022064,1493,1886,1713,1962
4211149,3327,2177,3509,2336
4550348,2698,1246,2846,1337
4651236,2738,1055,2847,1148
4539099,2793,864,2866,926
4550325,3119,1364,3267,1468
4548180,2238,1226,2380,1339
623224,2876,1716,3081,1868
