https://surfdrive.surf.nl/files/index.php/s/B7PEqFZSZZBPcW8/download?path=%2FData%2FInput%2FDatasets%2FHiba%2FImages&files=H_595.jpg,5184,3456
H_595,daylight,table_plastic_grey,"[120, 120, 120]","['4157124', '4211511', '6022064', '4211149', '4550348', '4651236', '4539099', '4550325', '4548180']"
4157124,2333,1524,2556,1715
4211511,3018,2461,3218,2656
6022064,2433,2378,2744,2732
4211149,3182,2027,3426,2295
4550348,3200,908,3371,975
4651236,2755,1228,2950,1412
4539099,3231,1344,3396,1466
4550325,2434,1875,2679,2071
4548180,2590,1100,2792,1271
