https://surfdrive.surf.nl/files/index.php/s/B7PEqFZSZZBPcW8/download?path=%2FData%2FInput%2FDatasets%2FHiba%2FImages&files=H_596.jpg,5184,3456
H_596,daylight,table_plastic_grey,"[120, 120, 120]","['4157124', '4211511', '6022064', '4211149', '4550348', '4651236', '4539099', '4550325']"
4157124,2252,1848,2464,1972
4211511,2340,1479,2487,1645
6022064,2913,2065,3036,2384
4211149,3136,1365,3357,1562
4550348,2959,1631,3169,1784
4651236,2305,1645,2520,1809
4539099,2978,1019,3114,1134
4550325,2523,1729,2755,1942
