https://surfdrive.surf.nl/files/index.php/s/B7PEqFZSZZBPcW8/download?path=%2FData%2FInput%2FDatasets%2FHiba%2FImages&files=H_60.jpg,5184,3455
H_60,daylight,wood,"[130, 130, 130]","['4211511', '4529240', '614321', '300423', '4212454']"
4211511,1925,1848,2157,2040
4529240,3213,1341,3391,1433
614321,2248,975,2460,1131
300423,3727,1192,3972,1346
4212454,3425,1953,3623,2142
