https://surfdrive.surf.nl/files/index.php/s/B7PEqFZSZZBPcW8/download?path=%2FData%2FInput%2FDatasets%2FHiba%2FImages&files=H_604.jpg,5184,3456
H_604,daylight,table_plastic_grey,"[120, 120, 120]","['4639693', '4517992', '6074890', '4211437', '6062574', '4529240', '4655172', '6028324', '4649749', '4211149', '4143562', '4210718']"
4639693,1223,1424,1442,2089
4517992,1660,1629,1888,1866
6074890,1546,1005,1656,1097
4211437,2661,1060,2825,1183
6062574,2498,1729,2648,1889
4529240,2461,1661,2584,1734
4655172,2548,2531,2994,2827
6028324,2498,764,2639,887
4649749,2261,1024,2438,1119
4211149,2020,1566,2211,1720
4143562,3676,1374,3913,1570
4210718,3053,1424,3258,1775
