https://surfdrive.surf.nl/files/index.php/s/B7PEqFZSZZBPcW8/download?path=%2FData%2FInput%2FDatasets%2FHiba%2FImages&files=H_615.jpg,5184,3456
H_615,daylight,table_plastic_grey,"[120, 120, 120]","['300124', '4181135', '6004938', '4114319', '300323', '6104154', '6003007', '4153827', '4211511', '4649749', '4211054', '4160403', '4520632']"
300124,2282,813,2465,1121
4181135,1474,1176,1986,1392
6004938,3017,1961,3158,2138
4114319,2180,1782,2334,2198
300323,2821,1080,2994,1284
6104154,3411,1467,3520,1672
6003007,2995,1564,3090,1701
4153827,3431,878,3693,1111
4211511,3735,1399,3858,1513
4649749,3225,1188,3469,1447
4211054,1893,2606,2090,2835
4160403,2157,1569,2692,1753
4520632,2269,1359,2384,1538
