https://surfdrive.surf.nl/files/index.php/s/B7PEqFZSZZBPcW8/download?path=%2FData%2FInput%2FDatasets%2FHiba%2FImages&files=H_618.jpg,5184,3455
H_618,daylight,table_plastic_grey,"[120, 120, 120]","['300124', '4181135', '6004938', '4114319', '300323', '6104154', '6003007', '4153827', '4211511', '4649749', '4211054', '4160403']"
300124,2552,884,2899,1102
4181135,1897,2331,2572,2856
6004938,2329,978,2453,1120
4114319,2647,2038,2963,2527
300323,3736,1118,3993,1360
6104154,1610,776,1786,913
6003007,3626,1374,3688,1498
4153827,3054,1346,3447,1617
4211511,3665,1566,3783,1641
4649749,2308,1562,2406,1734
4211054,2445,1376,2702,1640
4160403,3237,1813,3696,2194
