https://surfdrive.surf.nl/files/index.php/s/B7PEqFZSZZBPcW8/download?path=%2FData%2FInput%2FDatasets%2FHiba%2FImages&files=H_620.jpg,5184,3456
H_620,daylight,table_plastic_grey,"[120, 120, 120]","['300124', '4181135', '6004938', '4114319', '300323', '6104154', '6003007', '4153827', '4211511', '4649749', '4211054']"
300124,2276,1331,2649,1720
4181135,3054,1578,3525,2140
6004938,2095,1433,2225,1602
4114319,1875,1621,2347,1963
300323,4079,1291,4275,1519
6104154,3713,1068,3898,1280
6003007,2040,2222,2217,2379
4153827,2688,1142,2979,1519
4211511,1365,1708,1518,1826
4649749,2853,2108,3077,2320
4211054,2417,1778,2696,2049
