https://surfdrive.surf.nl/files/index.php/s/B7PEqFZSZZBPcW8/download?path=%2FData%2FInput%2FDatasets%2FHiba%2FImages&files=H_625.jpg,5184,3456
H_625,daylight,parquet_brown_light,"[120, 120, 120]","['300124', '4181135', '6004938', '4114319', '300323', '6104154', '6003007', '4153827', '4211511', '4649749']"
300124,3797,1626,4063,1975
4181135,2434,1154,3059,1339
6004938,1317,1882,1471,1995
4114319,2178,1657,2660,1831
300323,3602,713,3838,847
6104154,1963,1544,2127,1739
6003007,3643,2139,3797,2313
4153827,1789,1954,2229,2354
4211511,2608,570,2741,682
4649749,1072,1523,1266,1677
