https://surfdrive.surf.nl/files/index.php/s/B7PEqFZSZZBPcW8/download?path=%2FData%2FInput%2FDatasets%2FHiba%2FImages&files=H_631.jpg,5183,3456
H_631,daylight,parquet_brown_light,"[120, 120, 120]","['4211412', '300421', '300121', '4529247', '300401', '6075075', '6151663', '6022023', '6223631', '4121967', '4211166', '6252809', '4211511']"
4211412,1347,2008,1491,2124
300421,2420,1568,2632,1706
300121,2336,1841,2763,1989
4529247,1612,2489,1749,2659
300401,4074,1518,4276,1608
6075075,2464,1077,2629,1202
6151663,2918,1951,3139,2070
6022023,3106,2089,3324,2374
6223631,2495,1319,2563,1398
4121967,3425,481,3502,626
4211166,1622,1244,1799,1398
6252809,3385,1267,3528,1956
4211511,4028,1394,4099,1498
