https://surfdrive.surf.nl/files/index.php/s/B7PEqFZSZZBPcW8/download?path=%2FData%2FInput%2FDatasets%2FHiba%2FImages&files=H_648.jpg,5184,3456
H_648,daylight,parquet_brown_light,"[120, 120, 120]","['4109995', '6249125', '365901', '306201', '300423', '4212454', '4211201', '300821', '4529240', '4567338', '306223', '4649749']"
4109995,2385,1711,2660,1922
6249125,1756,1609,1904,1719
365901,1151,965,1470,1269
306201,1023,2300,1199,2458
300423,3234,1366,3459,1556
4212454,1317,1796,1424,1932
4211201,3042,857,3469,1091
300821,1943,1225,2804,1425
4529240,3255,1042,3403,1132
4567338,1841,860,1947,936
306223,2302,966,2446,1040
4649749,1445,1479,1618,1689
