https://surfdrive.surf.nl/files/index.php/s/B7PEqFZSZZBPcW8/download?path=%2FData%2FInput%2FDatasets%2FHiba%2FImages&files=H_645.jpg,5184,3456
H_645,daylight,parquet_brown_light,"[120, 120, 120]","['4109995', '6249125', '365901', '306201', '300423', '4212454', '4211201', '300821', '4529240', '4567338', '306223', '4649749', '6025026']"
4109995,2258,1517,2466,1722
6249125,1759,1711,1859,1804
365901,2822,1589,3220,1812
306201,2870,2176,2981,2341
300423,2875,1713,3069,1846
4212454,2042,2007,2147,2108
4211201,2441,1330,2825,1618
300821,2398,1147,3062,1291
4529240,2728,1980,2850,2120
4567338,2520,2260,2656,2404
306223,2473,1966,2624,2099
4649749,1468,1955,1576,2149
6025026,2549,1625,2732,1718
