https://surfdrive.surf.nl/files/index.php/s/B7PEqFZSZZBPcW8/download?path=%2FData%2FInput%2FDatasets%2FHiba%2FImages&files=H_659.jpg,5184,3456
H_659,daylight,parquet_brown_light,"[120, 120, 120]","['4109995', '6249125', '365901', '306201', '300423', '4212454', '4211201', '300821']"
4109995,2673,1594,2892,1836
6249125,1774,1798,1915,1902
365901,2182,1885,2573,2302
306201,2011,723,2151,794
300423,2242,2404,2513,2617
4212454,1611,2344,1828,2502
4211201,2825,1159,3250,1455
300821,2290,1128,2946,1640
