https://surfdrive.surf.nl/files/index.php/s/B7PEqFZSZZBPcW8/download?path=%2FData%2FInput%2FDatasets%2FHiba%2FImages&files=H_654.jpg,5184,3455
H_654,daylight,parquet_brown_light,"[120, 120, 120]","['4109995', '6249125', '365901', '306201', '300423', '4212454', '4211201', '300821', '4529240', '4567338']"
4109995,2105,1157,2384,1385
6249125,1676,958,1797,1046
365901,2378,1556,2616,2065
306201,2140,2381,2290,2511
300423,2182,1018,2431,1192
4212454,2431,999,2603,1116
4211201,3247,830,3611,1245
300821,2943,604,3197,1225
4529240,2833,1431,2923,1571
4567338,3448,1247,3620,1331
