https://surfdrive.surf.nl/files/index.php/s/B7PEqFZSZZBPcW8/download?path=%2FData%2FInput%2FDatasets%2FHiba%2FImages&files=H_679.jpg,5184,3456
H_679,daylight,parquet_brown_light,"[120, 120, 120]","['6138173', '6229071', '6075079', '4650630', '300424', '4527943', '300321', '4153825', '306201', '4558957', '4650630', '4529240', '4114319']"
6138173,2391,1823,2656,2094
6229071,1443,1912,1719,2161
6075079,1683,1370,1901,1480
4650630,3140,834,3364,1110
4650630,3218,1131,3437,1313
300424,1927,1360,2177,1558
4527943,2464,1552,2693,1807
300321,2984,1474,3244,1755
4153825,2791,1636,3099,1974
306201,3057,2130,3255,2286
4558957,1979,1001,2411,1391
4529240,1793,1200,1928,1361
4114319,3474,1189,3870,1626
