https://surfdrive.surf.nl/files/index.php/s/B7PEqFZSZZBPcW8/download?path=%2FData%2FInput%2FDatasets%2FHiba%2FImages&files=H_687.jpg,5184,3456
H_687,daylight,parquet_brown_light,"[120, 120, 120]","['6138173', '6229071', '6075079', '4650630', '300424', '4527943', '300321', '4153825', '306201', '4558957']"
6138173,3342,1073,3490,1183
6229071,3103,1172,3260,1384
6075079,3656,988,3794,1089
4650630,3407,1825,3665,2074
300424,2072,841,2173,997
4527943,1584,1328,1768,1549
300321,2827,1117,2983,1282
4153825,3048,740,3278,832
306201,1446,988,1584,1108
4558957,2302,1770,2762,2267
