https://surfdrive.surf.nl/files/index.php/s/B7PEqFZSZZBPcW8/download?path=%2FData%2FInput%2FDatasets%2FHiba%2FImages&files=H_699.jpg,5183,3456
H_699,daylight,parquet_brown_light,"[120, 120, 120]","['4160403', '4211221', '614321', '6073026', '6035291', '6025026', '4520632', '6177697', '4639693', '6022023', '4211614', '4118793']"
4160403,1384,1181,1664,1630
4211221,3235,2574,3459,2778
614321,2387,1772,2606,1932
6073026,3717,1251,3846,1339
6035291,1486,1710,1669,1878
6025026,1291,1737,1385,1912
4520632,1654,1902,1916,2289
6177697,2590,1190,3005,1302
4639693,3440,1779,3874,2546
6022023,2389,1578,2700,1752
4211614,2391,870,2543,1036
4118793,2306,2191,2348,2344
