https://surfdrive.surf.nl/files/index.php/s/B7PEqFZSZZBPcW8/download?path=%2FData%2FInput%2FDatasets%2FHiba%2FImages&files=H_704.jpg,5184,3456
H_704,daylight,parquet_brown_light,"[120, 120, 120]","['4160403', '4211221', '614321', '6073026', '6035291', '6025026', '4520632', '6177697', '4639693', '6022023']"
4160403,2995,1158,3648,1527
4211221,1216,800,1581,1129
614321,1621,790,1870,1085
6073026,3497,1556,3716,1742
6035291,1345,1871,1636,2162
6025026,1627,1974,1850,2276
4520632,748,1264,1253,1842
6177697,2627,1015,3143,1306
4639693,2253,1297,2771,2333
6022023,2609,1541,2870,1928
