https://surfdrive.surf.nl/files/index.php/s/B7PEqFZSZZBPcW8/download?path=%2FData%2FInput%2FDatasets%2FHiba%2FImages&files=H_704.jpg,5184,3456
H_704,daylight,parquet_brown_light,"[120, 120, 120]","['4160403', '4211221', '614321', '6073026', '6035291', '6025026', '4520632', '6177697', '4639693', '6022023']"
4160403,3027,1170,3643,1519
4211221,1224,799,1570,1124
614321,1632,820,1840,1045
6073026,3531,1561,3685,1732
6035291,1357,1878,1636,2161
6025026,1686,1973,1849,2265
4520632,775,1265,1245,1844
6177697,2632,1024,3127,1295
4639693,2278,1311,2732,2327
6022023,2619,1553,2831,1923
