https://surfdrive.surf.nl/files/index.php/s/B7PEqFZSZZBPcW8/download?path=%2FData%2FInput%2FDatasets%2FHiba%2FImages&files=H_718.jpg,5184,3456
H_718,daylight,parquet_brown_light,"[120, 120, 120]","['4160403', '4211221', '614321', '6073026', '6035291', '6025026']"
4160403,2831,1822,3522,1998
4211221,3084,2078,3361,2272
614321,2447,1503,2642,1743
6073026,2641,1310,2788,1476
6035291,2458,1760,2685,1959
6025026,1898,1859,2131,2006
