https://surfdrive.surf.nl/files/index.php/s/B7PEqFZSZZBPcW8/download?path=%2FData%2FInput%2FDatasets%2FHiba%2FImages&files=H_718.jpg,5184,3456
H_718,daylight,parquet_brown_light,"[120, 120, 120]","['4160403', '4211221', '614321', '6073026', '6035291', '6025026']"
4160403,2844,1787,3522,1937
4211221,3084,2063,3366,2273
614321,2436,1493,2652,1745
6073026,2622,1307,2778,1457
6035291,2442,1751,2694,1949
6025026,1890,1859,2142,1997
