https://surfdrive.surf.nl/files/index.php/s/B7PEqFZSZZBPcW8/download?path=%2FData%2FInput%2FDatasets%2FHiba%2FImages&files=H_724.jpg,5184,3456
H_724,daylight,parquet_brown_light,"[120, 120, 120]","['6062574', '300123', '4655172', '6225539', '4517992', '6074890', '6022064', '4621545', '4211201', '4539099', '4550325', '4157124']"
6062574,1205,1882,1369,2016
300123,2239,1636,2752,1934
4655172,2352,652,2629,918
6225539,2035,888,2178,1329
4517992,2793,447,3018,621
6074890,836,2087,1020,2262
6022064,2977,1277,3223,1544
4621545,3325,1411,3561,1626
4211201,3110,806,3325,1113
4539099,2188,2467,2321,2621
4550325,1778,867,2004,1052
4157124,1860,1462,2096,1595
