https://surfdrive.surf.nl/files/index.php/s/B7PEqFZSZZBPcW8/download?path=%2FData%2FInput%2FDatasets%2FHiba%2FImages&files=H_727.jpg,5184,3456
H_727,daylight,parquet_brown_light,"[120, 120, 120]","['6062574', '300123', '4655172', '6225539', '4517992', '6074890', '6022064', '4621545', '4211201', '4539099', '4550325']"
6062574,2526,1634,2666,1787
300123,2755,1641,3140,1853
4655172,1949,2132,2405,2561
6225539,2028,1507,2508,1927
4517992,2229,1684,2499,1964
6074890,1636,1814,1735,1915
6022064,1932,2415,2199,2723
4621545,2929,1478,3129,1616
4211201,3108,1926,3529,2234
4539099,2116,1521,2236,1640
4550325,2372,1143,2493,1349
