https://surfdrive.surf.nl/files/index.php/s/B7PEqFZSZZBPcW8/download?path=%2FData%2FInput%2FDatasets%2FHiba%2FImages&files=H_736.jpg,5184,3456
H_736,daylight,parquet_brown_light,"[120, 120, 120]","['6062574', '300123', '4655172', '6225539', '4517992', '6074890', '6022064', '4621545']"
6062574,2701,1315,2848,1486
300123,3572,1295,4034,1536
4655172,3619,1020,3982,1218
6225539,2237,1180,2776,1578
4517992,3494,1917,3810,2256
6074890,1952,2285,2120,2447
6022064,2200,1781,2618,1961
4621545,1818,1216,2057,1425
