https://surfdrive.surf.nl/files/index.php/s/B7PEqFZSZZBPcW8/download?path=%2FData%2FInput%2FDatasets%2FHiba%2FImages&files=H_739.jpg,5184,3456
H_739,artificial_light,parquet_brown_medium,"[120, 120, 120]","['300323', '6028324', '4651236', '300124', '6004938', '4211412', '300121', '623224', '4550325', '4121967', '6104154', '4527943', '300321']"
300323,2913,1315,3098,1497
6028324,2072,2271,2216,2370
4651236,1926,1709,2037,1849
300124,2313,1200,2609,1391
6004938,2418,1842,2505,1952
4211412,1513,1620,1572,1714
300121,3150,1521,3479,1748
623224,3267,1753,3466,1948
4550325,2531,1788,2674,1890
4121967,3132,1247,3247,1382
6104154,2719,1994,2881,2131
4527943,2965,1679,3107,1794
300321,2465,1586,2602,1755
