https://surfdrive.surf.nl/files/index.php/s/B7PEqFZSZZBPcW8/download?path=%2FData%2FInput%2FDatasets%2FHiba%2FImages&files=H_739.jpg,5184,3455
H_739,artificial_light,parquet_brown_medium,"[120, 120, 120]","['300323', '6028324', '4651236', '300124', '6004938', '4211412', '300121', '623224', '4550325', '4121967', '6104154', '4527943', '300321']"
300323,2921,1321,3103,1453
6028324,2068,2240,2189,2340
4651236,1925,1702,2036,1851
300124,2313,1198,2606,1350
6004938,2403,1842,2501,1917
4211412,1510,1619,1570,1701
300121,3163,1516,3482,1708
623224,3276,1746,3476,1912
4550325,2531,1783,2673,1855
4121967,3134,1248,3244,1348
6104154,2718,1994,2883,2099
4527943,2970,1651,3120,1770
300321,2463,1585,2610,1711
