https://surfdrive.surf.nl/files/index.php/s/B7PEqFZSZZBPcW8/download?path=%2FData%2FInput%2FDatasets%2FHiba%2FImages&files=H_749.jpg,5184,3456
H_749,artificial_light,parquet_brown_medium,"[120, 120, 120]","['300323', '6028324', '4651236', '300124', '6004938', '4211412', '300121', '623224', '4550325']"
300323,3431,2138,3669,2334
6028324,2393,1087,2483,1147
4651236,2191,1797,2335,1937
300124,2392,1484,2728,1714
6004938,2684,1886,2815,1977
4211412,2040,2241,2169,2304
300121,2080,1349,2416,1540
623224,1335,1861,1509,1992
4550325,3017,1124,3145,1215
