https://surfdrive.surf.nl/files/index.php/s/B7PEqFZSZZBPcW8/download?path=%2FData%2FInput%2FDatasets%2FHiba%2FImages&files=H_749.jpg,5184,3456
H_749,artificial_light,parquet_brown_medium,"[120, 120, 120]","['300323', '6028324', '4651236', '300124', '6004938', '4211412', '300121', '623224', '4550325']"
300323,3426,2134,3665,2311
6028324,2041,2232,2167,2308
4651236,2173,1788,2334,1927
300124,2403,1487,2732,1703
6004938,2685,1883,2816,1962
4211412,2382,1106,2521,1187
300121,2083,1355,2414,1534
623224,1328,1861,1502,1981
4550325,3021,1122,3131,1203
