https://surfdrive.surf.nl/files/index.php/s/B7PEqFZSZZBPcW8/download?path=%2FData%2FInput%2FDatasets%2FHiba%2FImages&files=H_752.jpg,5184,3456
H_752,artificial_light,parquet_brown_medium,"[120, 120, 120]","['300323', '6028324', '4651236', '300124', '6004938', '4211412', '300121', '623224']"
300323,3295,1626,3489,1739
6028324,3520,1934,3705,2108
4651236,1840,1862,2004,2016
300124,2065,1123,2393,1318
6004938,3121,2354,3274,2477
4211412,2403,1770,2537,1893
300121,2280,1411,2639,1534
623224,3121,1390,3366,1534
