https://surfdrive.surf.nl/files/index.php/s/B7PEqFZSZZBPcW8/download?path=%2FData%2FInput%2FDatasets%2FHiba%2FImages&files=H_751.jpg,5184,3456
H_751,artificial_light,parquet_brown_medium,"[120, 120, 120]","['300323', '6028324', '4651236', '300124', '6004938', '4211412', '300121', '623224', '4550325']"
300323,2261,1323,2432,1452
6028324,3535,1919,3685,2064
4651236,2400,1537,2533,1666
300124,2232,1736,2557,1910
6004938,3396,1907,3485,2019
4211412,2346,2204,2413,2296
300121,2752,1286,2936,1523
623224,2049,1444,2132,1561
4550325,2961,1711,3056,1810
