https://surfdrive.surf.nl/files/index.php/s/B7PEqFZSZZBPcW8/download?path=%2FData%2FInput%2FDatasets%2FHiba%2FImages&files=H_754.jpg,5184,3456
H_754,artificial_light,parquet_brown_medium,"[120, 120, 120]","['300323', '6028324', '4651236', '300124', '6004938', '4211412', '300121', '623224']"
300323,2328,1497,2511,1689
6028324,2236,1831,2345,1939
4651236,2528,1356,2661,1464
300124,2311,1173,2611,1356
6004938,2536,2463,2627,2572
4211412,2303,1139,2419,1198
300121,2836,1248,3027,1514
623224,2627,1631,2819,1881
