https://surfdrive.surf.nl/files/index.php/s/B7PEqFZSZZBPcW8/download?path=%2FData%2FInput%2FDatasets%2FHiba%2FImages&files=H_767.jpg,5184,3456
H_767,artificial_light,parquet_brown_medium,"[120, 120, 120]","['4550348', '4153827', '300421', '6003007', '4211437', '654126', '4181135', '6252809', '4211437', '4548180']"
4550348,2636,1877,2852,2044
4153827,3827,1761,4047,2189
300421,2403,1665,2611,1852
6003007,1532,1807,1701,1915
4211437,3058,1734,3298,1890
4211437,3321,653,3473,760
654126,2521,1315,2627,1469
4181135,3559,1264,3859,1747
6252809,938,1048,1621,1681
4548180,2323,1144,2494,1265
