https://surfdrive.surf.nl/files/index.php/s/B7PEqFZSZZBPcW8/download?path=%2FData%2FInput%2FDatasets%2FHiba%2FImages&files=H_761.jpg,5184,3456
H_761,artificial_light,parquet_brown_medium,"[120, 120, 120]","['4550348', '4153827', '300421', '6003007', '4211437', '654126', '4181135', '6252809', '4211437', '4548180', '4211149', '4655172']"
4550348,1315,2134,1524,2264
4153827,2930,1090,3222,1412
300421,2663,2111,2881,2307
6003007,1779,1825,1911,1957
4211437,2804,1850,3014,1970
4211437,3325,1420,3453,1542
654126,1203,1638,1356,1793
4181135,3390,1572,3824,2069
6252809,2939,1505,3632,2168
4548180,1833,1428,1923,1607
4211149,3219,1321,3406,1454
4655172,1790,764,2078,974
