https://surfdrive.surf.nl/files/index.php/s/B7PEqFZSZZBPcW8/download?path=%2FData%2FInput%2FDatasets%2FHiba%2FImages&files=H_778.jpg,5184,3456
H_778,artificial_light,parquet_brown_medium,"[120, 120, 120]","['4550348', '4153827', '300421', '6003007', '4211437', '654126', '4181135']"
4550348,2118,1488,2223,1664
4153827,1442,1479,1835,1707
300421,2109,1921,2268,2051
6003007,2662,1642,2813,1737
4211437,2638,859,2805,999
654126,3056,2440,3203,2556
4181135,2665,1419,3299,1684
