https://surfdrive.surf.nl/files/index.php/s/B7PEqFZSZZBPcW8/download?path=%2FData%2FInput%2FDatasets%2FHiba%2FImages&files=H_772.jpg,5184,3455
H_772,artificial_light,parquet_brown_medium,"[120, 120, 120]","['4550348', '4153827', '300421', '6003007', '4211437', '654126', '4181135', '6252809', '4211437']"
4550348,1805,1723,1899,1816
4153827,2448,1258,2689,1389
300421,3230,2200,3400,2342
6003007,2301,1138,2382,1184
4211437,2230,1496,2351,1561
4211437,3066,1673,3188,1766
654126,2008,1778,2088,1878
4181135,2492,1664,2741,2037
6252809,2338,1449,2559,1967
