https://surfdrive.surf.nl/files/index.php/s/B7PEqFZSZZBPcW8/download?path=%2FData%2FInput%2FDatasets%2FHiba%2FImages&files=H_805.jpg,5184,3455
H_805,artificial_light,parquet_brown_medium,"[120, 120, 120]","['4114319', '300401', '6075075', '6151663', '306223', '4157124']"
4114319,2053,1739,2257,2204
300401,3112,1471,3266,1624
6075075,3119,1088,3294,1174
6151663,2203,1374,2296,1535
306223,2970,1957,3031,2000
4157124,2148,844,2219,961
