https://surfdrive.surf.nl/files/index.php/s/B7PEqFZSZZBPcW8/download?path=%2FData%2FInput%2FDatasets%2FHiba%2FImages&files=H_81.jpg,5183,3456
H_81,daylight,wood,"[130, 130, 130]","['4647553', '4153825', '4118793']"
4647553,2237,1552,2396,1852
4153825,2371,1419,2679,1585
4118793,2893,1887,3091,1997
