https://surfdrive.surf.nl/files/index.php/s/B7PEqFZSZZBPcW8/download?path=%2FData%2FInput%2FDatasets%2FHiba%2FImages&files=H_816.jpg,5184,3456
H_816,artificial_light,parquet_brown_medium,"[120, 120, 120]","['4109995', '4504381', '4211614', '4504369', '4165967', '4181144', '6238674', '6249125', '4118793', '4181135']"
4109995,1076,1943,1250,2117
4504381,3038,1825,3394,2205
4211614,3208,1110,3507,1522
4504369,2686,932,3143,1150
4165967,1978,1728,2095,1935
4181144,2546,1925,2654,2022
6238674,2434,1594,2558,1703
6249125,2103,1354,2194,1444
4118793,2394,877,2516,980
4181135,2723,761,2786,862
