https://surfdrive.surf.nl/files/index.php/s/B7PEqFZSZZBPcW8/download?path=%2FData%2FInput%2FDatasets%2FHiba%2FImages&files=H_81.jpg,5184,3456
H_81,daylight,wood,"[130, 130, 130]","['4647553', '4153825', '4118793']"
4647553,2218,1546,2405,1627
4153825,2371,1410,2696,1575
4118793,2904,1885,3094,1997
