https://surfdrive.surf.nl/files/index.php/s/B7PEqFZSZZBPcW8/download?path=%2FData%2FInput%2FDatasets%2FHiba%2FImages&files=H_818.jpg,5184,3456
H_818,artificial_light,parquet_brown_medium,"[120, 120, 120]","['4109995', '4504381', '4211614', '4504369', '4165967', '4181144', '6238674', '6249125', '4118793']"
4109995,2376,1275,2492,1395
4504381,2197,1647,2269,1727
4211614,2472,1930,2552,2042
4504369,2069,1898,2133,1946
4165967,2209,2182,2492,2374
4181144,2959,1914,3323,2182
6238674,2732,2174,2832,2282
6249125,2281,2098,2352,2162
4118793,2534,1686,2585,1756
