https://surfdrive.surf.nl/files/index.php/s/B7PEqFZSZZBPcW8/download?path=%2FData%2FInput%2FDatasets%2FHiba%2FImages&files=H_820.jpg,5184,3456
H_820,artificial_light,parquet_brown_medium,"[120, 120, 120]","['4109995', '4504381', '4211614', '4504369', '4165967', '4181144', '6238674', '6249125', '4118793']"
4109995,3156,1810,3391,2022
4504381,1648,1574,1789,1680
4211614,2555,1723,2673,1857
4504369,2025,1405,2123,1476
4165967,2661,1857,3038,2265
4181144,3171,1217,3395,1621
6238674,2417,1598,2571,1751
6249125,2013,1445,2119,1558
4118793,1911,2210,2052,2364
