https://surfdrive.surf.nl/files/index.php/s/B7PEqFZSZZBPcW8/download?path=%2FData%2FInput%2FDatasets%2FHiba%2FImages&files=H_96.jpg,5184,3456
H_96,daylight,wood,"[130, 130, 130]","['6074890', '6035291']"
6074890,3181,1665,3314,1819
6035291,2436,1631,2698,1885
