https://surfdrive.surf.nl/files/index.php/s/B7PEqFZSZZBPcW8/download?path=%2FData%2FInput%2FDatasets%2FHiba%2FImages&files=H_99.jpg,5184,3456
H_99,daylight,wood,"[130, 130, 130]","['6074890', '6035291', '6022023']"
6074890,2078,1889,2236,2047
6035291,2453,1731,2736,1889
6022023,2935,1914,3260,2230
