"Worker ID","Link to Individual Worker Page","Number of HITs approved or rejected - Lifetime","Number of HITs approved - Lifetime","Your Lifetime approval rate","Number of HITs approved or rejected - Last 30 days","Number of HITs approved - Last 30 days","Your Last 30 days approval rate","Number of HITs approved or rejected - Last 7 days","Number of HITs approved - Last 7 days","Your Last 7 days approval rate","CURRENT-Worked on draw task","UPDATE-Worked on draw task","CURRENT BlockStatus","UPDATE BlockStatus","BlockReason"
"A002160837SWJFPIAI7L7","https://master-requester.mturk.com/workers/A002160837SWJFPIAI7L7","0","0","0.00%","0","0","0.00%","0","0","0.00%","","","Never Blocked","",""
"A094612415T5EHTYKXTQ","https://master-requester.mturk.com/workers/A094612415T5EHTYKXTQ","1","1","100.00%","1","1","100.00%","0","0","0.00%","","","Never Blocked","",""
"A10N9TMLGLISJR","https://master-requester.mturk.com/workers/A10N9TMLGLISJR","1","1","100.00%","1","1","100.00%","0","0","0.00%","","","Never Blocked","",""
"A10TK0RNU3VJDB","https://master-requester.mturk.com/workers/A10TK0RNU3VJDB","1","1","100.00%","1","1","100.00%","0","0","0.00%","","","Never Blocked","",""
"A11U6Q4MLE4B2Z","https://master-requester.mturk.com/workers/A11U6Q4MLE4B2Z","0","0","0.00%","0","0","0.00%","0","0","0.00%","","","Never Blocked","",""
"A12B4ECUQUWYJW","https://master-requester.mturk.com/workers/A12B4ECUQUWYJW","3","3","100.00%","3","3","100.00%","0","0","0.00%","","","Never Blocked","",""
"A132ZUH96A11A","https://master-requester.mturk.com/workers/A132ZUH96A11A","1","1","100.00%","1","1","100.00%","0","0","0.00%","","","Never Blocked","",""
"A1366LR1S7TYG","https://master-requester.mturk.com/workers/A1366LR1S7TYG","1","1","100.00%","1","1","100.00%","0","0","0.00%","100","","Never Blocked","",""
"A13PVNQT2WWWVL","https://master-requester.mturk.com/workers/A13PVNQT2WWWVL","0","0","0.00%","0","0","0.00%","0","0","0.00%","100","","Never Blocked","",""
"A13Q5DNNL0XKZG","https://master-requester.mturk.com/workers/A13Q5DNNL0XKZG","14","14","100.00%","14","14","100.00%","0","0","0.00%","100","","Never Blocked","",""
"A13ZAQJQO0EN46","https://master-requester.mturk.com/workers/A13ZAQJQO0EN46","0","0","0.00%","0","0","0.00%","0","0","0.00%","","","Never Blocked","",""
"A14N7TK3CEQVAE","https://master-requester.mturk.com/workers/A14N7TK3CEQVAE","6","5","83.33%","6","5","83.33%","0","0","0.00%","","","Never Blocked","",""
"A14O8IA2LCQBDA","https://master-requester.mturk.com/workers/A14O8IA2LCQBDA","6","6","100.00%","6","6","100.00%","0","0","0.00%","100","","Never Blocked","",""
"A14UJPO621M1X0","https://master-requester.mturk.com/workers/A14UJPO621M1X0","7","7","100.00%","7","7","100.00%","0","0","0.00%","100","","Never Blocked","",""
"A14VXUVO11BI6Q","https://master-requester.mturk.com/workers/A14VXUVO11BI6Q","0","0","0.00%","0","0","0.00%","0","0","0.00%","100","","Never Blocked","",""
"A15MGJF1BEJ9JD","https://master-requester.mturk.com/workers/A15MGJF1BEJ9JD","2","2","100.00%","2","2","100.00%","0","0","0.00%","100","","Never Blocked","",""
"A15UGQSBRSH5MG","https://master-requester.mturk.com/workers/A15UGQSBRSH5MG","2","2","100.00%","2","2","100.00%","0","0","0.00%","100","","Never Blocked","",""
"A163OTO59PSWLZ","https://master-requester.mturk.com/workers/A163OTO59PSWLZ","5","0","0.00%","5","0","0.00%","0","0","0.00%","","","Never Blocked","",""
"A16FVMBSNMXG9F","https://master-requester.mturk.com/workers/A16FVMBSNMXG9F","1","1","100.00%","1","1","100.00%","0","0","0.00%","","","Never Blocked","",""
"A16GH5GPKBX5GA","https://master-requester.mturk.com/workers/A16GH5GPKBX5GA","0","0","0.00%","0","0","0.00%","0","0","0.00%","100","","Never Blocked","",""
"A16J2CW30USNJI","https://master-requester.mturk.com/workers/A16J2CW30USNJI","3","3","100.00%","3","3","100.00%","3","3","100.00%","","","Never Blocked","",""
"A16OY7UFVY025H","https://master-requester.mturk.com/workers/A16OY7UFVY025H","0","0","0.00%","0","0","0.00%","0","0","0.00%","100","","Never Blocked","",""
"A16QZSBYXE5VY8","https://master-requester.mturk.com/workers/A16QZSBYXE5VY8","5","5","100.00%","5","5","100.00%","1","1","100.00%","","","Never Blocked","",""
"A16XI3JQN3EWLZ","https://master-requester.mturk.com/workers/A16XI3JQN3EWLZ","11","10","90.91%","11","10","90.91%","0","0","0.00%","","","Never Blocked","",""
"A18H3EK547GHD4","https://master-requester.mturk.com/workers/A18H3EK547GHD4","5","5","100.00%","5","5","100.00%","0","0","0.00%","","","Never Blocked","",""
"A18I566TMVVSFQ","https://master-requester.mturk.com/workers/A18I566TMVVSFQ","0","0","0.00%","0","0","0.00%","0","0","0.00%","","","Never Blocked","",""
"A1936LUSP0IU9P","https://master-requester.mturk.com/workers/A1936LUSP0IU9P","2","2","100.00%","2","2","100.00%","0","0","0.00%","100","","Never Blocked","",""
"A1BGF87FIRBR9I","https://master-requester.mturk.com/workers/A1BGF87FIRBR9I","1","1","100.00%","1","1","100.00%","0","0","0.00%","","","Never Blocked","",""
"A1BHYWN5NND00V","https://master-requester.mturk.com/workers/A1BHYWN5NND00V","1","1","100.00%","1","1","100.00%","0","0","0.00%","","","Never Blocked","",""
"A1BW6WBC6KO5GG","https://master-requester.mturk.com/workers/A1BW6WBC6KO5GG","1","1","100.00%","1","1","100.00%","0","0","0.00%","","","Never Blocked","",""
"A1C0ADB64EHZU4","https://master-requester.mturk.com/workers/A1C0ADB64EHZU4","0","0","0.00%","0","0","0.00%","0","0","0.00%","","","Never Blocked","",""
"A1C8FN01981A69","https://master-requester.mturk.com/workers/A1C8FN01981A69","13","13","100.00%","13","13","100.00%","0","0","0.00%","","","Never Blocked","",""
"A1CQK70BFYLIG5","https://master-requester.mturk.com/workers/A1CQK70BFYLIG5","1","1","100.00%","1","1","100.00%","0","0","0.00%","100","","Never Blocked","",""
"A1D9FECXIKCO4O","https://master-requester.mturk.com/workers/A1D9FECXIKCO4O","0","0","0.00%","0","0","0.00%","0","0","0.00%","100","","Never Blocked","",""
"A1DELTBBPT0CKO","https://master-requester.mturk.com/workers/A1DELTBBPT0CKO","0","0","0.00%","0","0","0.00%","0","0","0.00%","","","Never Blocked","",""
"A1DRVN147Z2GF6","https://master-requester.mturk.com/workers/A1DRVN147Z2GF6","12","12","100.00%","12","12","100.00%","0","0","0.00%","","","Never Blocked","",""
"A1DT99CTT9CBIJ","https://master-requester.mturk.com/workers/A1DT99CTT9CBIJ","1","1","100.00%","1","1","100.00%","0","0","0.00%","100","","Never Blocked","",""
"A1DXFMUVK5015A","https://master-requester.mturk.com/workers/A1DXFMUVK5015A","4","4","100.00%","4","4","100.00%","0","0","0.00%","","","Never Blocked","",""
"A1EGJBJBFBZJBA","https://master-requester.mturk.com/workers/A1EGJBJBFBZJBA","1","1","100.00%","1","1","100.00%","0","0","0.00%","","","Never Blocked","",""
"A1EGQAMPW9N5FT","https://master-requester.mturk.com/workers/A1EGQAMPW9N5FT","0","0","0.00%","0","0","0.00%","0","0","0.00%","","","Never Blocked","",""
"A1ESKJFDQUMBL4","https://master-requester.mturk.com/workers/A1ESKJFDQUMBL4","8","7","87.50%","8","7","87.50%","0","0","0.00%","","","Never Blocked","",""
"A1F3MG1N529WTY","https://master-requester.mturk.com/workers/A1F3MG1N529WTY","0","0","0.00%","0","0","0.00%","0","0","0.00%","","","Never Blocked","",""
"A1FD2I3FRNPDIJ","https://master-requester.mturk.com/workers/A1FD2I3FRNPDIJ","4","3","75.00%","4","3","75.00%","0","0","0.00%","","","Never Blocked","",""
"A1FPCIKO68OQ63","https://master-requester.mturk.com/workers/A1FPCIKO68OQ63","0","0","0.00%","0","0","0.00%","0","0","0.00%","100","","Never Blocked","",""
"A1FYI7G3F8AD8L","https://master-requester.mturk.com/workers/A1FYI7G3F8AD8L","0","0","0.00%","0","0","0.00%","0","0","0.00%","100","","Never Blocked","",""
"A1FZSZS2NQMELT","https://master-requester.mturk.com/workers/A1FZSZS2NQMELT","1","1","100.00%","1","1","100.00%","0","0","0.00%","","","Never Blocked","",""
"A1G1FW77VS7XCD","https://master-requester.mturk.com/workers/A1G1FW77VS7XCD","6","6","100.00%","6","6","100.00%","0","0","0.00%","","","Never Blocked","",""
"A1G3UKFCYBTBKR","https://master-requester.mturk.com/workers/A1G3UKFCYBTBKR","1","1","100.00%","1","1","100.00%","0","0","0.00%","","","Never Blocked","",""
"A1G5QD65UH20TR","https://master-requester.mturk.com/workers/A1G5QD65UH20TR","3","3","100.00%","3","3","100.00%","0","0","0.00%","","","Never Blocked","",""
"A1G99Z6K5221A8","https://master-requester.mturk.com/workers/A1G99Z6K5221A8","0","0","0.00%","0","0","0.00%","0","0","0.00%","100","","Never Blocked","",""
"A1GJO1XN06Z8DU","https://master-requester.mturk.com/workers/A1GJO1XN06Z8DU","0","0","0.00%","0","0","0.00%","0","0","0.00%","","","Never Blocked","",""
"A1HEB7F1J8ENZI","https://master-requester.mturk.com/workers/A1HEB7F1J8ENZI","7","7","100.00%","7","7","100.00%","0","0","0.00%","","","Never Blocked","",""
"A1HKEBZGXYG4TM","https://master-requester.mturk.com/workers/A1HKEBZGXYG4TM","0","0","0.00%","0","0","0.00%","0","0","0.00%","","","Never Blocked","",""
"A1HSAS87QTQPVZ","https://master-requester.mturk.com/workers/A1HSAS87QTQPVZ","30","0","0.00%","30","0","0.00%","0","0","0.00%","","","Never Blocked","",""
"A1I0WOGP2D47N","https://master-requester.mturk.com/workers/A1I0WOGP2D47N","39","39","100.00%","39","39","100.00%","6","6","100.00%","100","","Never Blocked","",""
"A1I191EFSS3UDR","https://master-requester.mturk.com/workers/A1I191EFSS3UDR","28","28","100.00%","28","28","100.00%","0","0","0.00%","100","","Never Blocked","",""
"A1I8EWT2DMNAKU","https://master-requester.mturk.com/workers/A1I8EWT2DMNAKU","0","0","0.00%","0","0","0.00%","0","0","0.00%","","","Never Blocked","",""
"A1IBBJ0G7HS04","https://master-requester.mturk.com/workers/A1IBBJ0G7HS04","0","0","0.00%","0","0","0.00%","0","0","0.00%","100","","Never Blocked","",""
"A1IBXGY8S2NL9X","https://master-requester.mturk.com/workers/A1IBXGY8S2NL9X","2","0","0.00%","2","0","0.00%","2","0","0.00%","","","Never Blocked","",""
"A1IE6RADOI82ET","https://master-requester.mturk.com/workers/A1IE6RADOI82ET","0","0","0.00%","0","0","0.00%","0","0","0.00%","","","Never Blocked","",""
"A1IL2K0ELYI090","https://master-requester.mturk.com/workers/A1IL2K0ELYI090","0","0","0.00%","0","0","0.00%","0","0","0.00%","100","","Never Blocked","",""
"A1JAW8YSR4LM8N","https://master-requester.mturk.com/workers/A1JAW8YSR4LM8N","3","3","100.00%","3","3","100.00%","0","0","0.00%","","","Never Blocked","",""
"A1JMLIR4TD5QHT","https://master-requester.mturk.com/workers/A1JMLIR4TD5QHT","3","3","100.00%","3","3","100.00%","0","0","0.00%","","","Never Blocked","",""
"A1MCNONKVHV5P4","https://master-requester.mturk.com/workers/A1MCNONKVHV5P4","7","7","100.00%","7","7","100.00%","0","0","0.00%","100","","Never Blocked","",""
"A1MK9E61C7IV5Q","https://master-requester.mturk.com/workers/A1MK9E61C7IV5Q","2","2","100.00%","2","2","100.00%","0","0","0.00%","","","Never Blocked","",""
"A1MYCZT6OX9G20","https://master-requester.mturk.com/workers/A1MYCZT6OX9G20","14","14","100.00%","14","14","100.00%","0","0","0.00%","100","","Never Blocked","",""
"A1NGIISM3B2M2V","https://master-requester.mturk.com/workers/A1NGIISM3B2M2V","22","4","18.18%","22","4","18.18%","0","0","0.00%","100","","Never Blocked","",""
"A1NRZ7O1TEJB1V","https://master-requester.mturk.com/workers/A1NRZ7O1TEJB1V","16","16","100.00%","16","16","100.00%","11","11","100.00%","100","","Never Blocked","",""
"A1O8V8H2K3XTMO","https://master-requester.mturk.com/workers/A1O8V8H2K3XTMO","1","1","100.00%","1","1","100.00%","0","0","0.00%","","","Never Blocked","",""
"A1OFG93Z1NN049","https://master-requester.mturk.com/workers/A1OFG93Z1NN049","0","0","0.00%","0","0","0.00%","0","0","0.00%","100","","Never Blocked","",""
"A1OQ8FTWV9JRE9","https://master-requester.mturk.com/workers/A1OQ8FTWV9JRE9","6","5","83.33%","6","5","83.33%","0","0","0.00%","100","","Never Blocked","",""
"A1PPJJHOPZQ3E5","https://master-requester.mturk.com/workers/A1PPJJHOPZQ3E5","0","0","0.00%","0","0","0.00%","0","0","0.00%","","","Never Blocked","",""
"A1PS4V0OY27K1F","https://master-requester.mturk.com/workers/A1PS4V0OY27K1F","11","11","100.00%","11","11","100.00%","0","0","0.00%","100","","Never Blocked","",""
"A1QJFM0T6PHFD2","https://master-requester.mturk.com/workers/A1QJFM0T6PHFD2","44","43","97.73%","44","43","97.73%","0","0","0.00%","","","Never Blocked","",""
"A1QMUXF80QEULU","https://master-requester.mturk.com/workers/A1QMUXF80QEULU","0","0","0.00%","0","0","0.00%","0","0","0.00%","","","Never Blocked","",""
"A1QUDNLO95AKS5","https://master-requester.mturk.com/workers/A1QUDNLO95AKS5","0","0","0.00%","0","0","0.00%","0","0","0.00%","","","Never Blocked","",""
"A1R5B8KT4EIIKB","https://master-requester.mturk.com/workers/A1R5B8KT4EIIKB","0","0","0.00%","0","0","0.00%","0","0","0.00%","100","","Never Blocked","",""
"A1R8VD9ANYR0MH","https://master-requester.mturk.com/workers/A1R8VD9ANYR0MH","3","3","100.00%","3","3","100.00%","0","0","0.00%","","","Never Blocked","",""
"A1RQLE4ZMTU22A","https://master-requester.mturk.com/workers/A1RQLE4ZMTU22A","0","0","0.00%","0","0","0.00%","0","0","0.00%","","","Never Blocked","",""
"A1RZCGQQCRFE4W","https://master-requester.mturk.com/workers/A1RZCGQQCRFE4W","47","44","93.62%","47","44","93.62%","0","0","0.00%","","","Never Blocked","",""
"A1S1K7134S2VUC","https://master-requester.mturk.com/workers/A1S1K7134S2VUC","0","0","0.00%","0","0","0.00%","0","0","0.00%","","","Never Blocked","",""
"A1SSOSW7CTVGBV","https://master-requester.mturk.com/workers/A1SSOSW7CTVGBV","1","1","100.00%","1","1","100.00%","0","0","0.00%","","","Never Blocked","",""
"A1T02KY1E9YI3I","https://master-requester.mturk.com/workers/A1T02KY1E9YI3I","0","0","0.00%","0","0","0.00%","0","0","0.00%","100","","Never Blocked","",""
"A1TIO97G4K0ZFF","https://master-requester.mturk.com/workers/A1TIO97G4K0ZFF","149","149","100.00%","149","149","100.00%","0","0","0.00%","100","","Never Blocked","",""
"A1TPAWKDXT353U","https://master-requester.mturk.com/workers/A1TPAWKDXT353U","7","7","100.00%","7","7","100.00%","0","0","0.00%","","","Never Blocked","",""
"A1ULHXPHPJRQVZ","https://master-requester.mturk.com/workers/A1ULHXPHPJRQVZ","4","4","100.00%","4","4","100.00%","0","0","0.00%","100","","Never Blocked","",""
"A1ULLPIT6EU99K","https://master-requester.mturk.com/workers/A1ULLPIT6EU99K","1","1","100.00%","1","1","100.00%","0","0","0.00%","100","","Never Blocked","",""
"A1VCXFV7V6WVQT","https://master-requester.mturk.com/workers/A1VCXFV7V6WVQT","1","1","100.00%","1","1","100.00%","0","0","0.00%","","","Never Blocked","",""
"A1VI8NKBW2Q7MM","https://master-requester.mturk.com/workers/A1VI8NKBW2Q7MM","3","3","100.00%","3","3","100.00%","0","0","0.00%","","","Never Blocked","",""
"A1VPBKQ6AMVUSE","https://master-requester.mturk.com/workers/A1VPBKQ6AMVUSE","2","2","100.00%","2","2","100.00%","0","0","0.00%","100","","Never Blocked","",""
"A1VPJFCJDIXGW7","https://master-requester.mturk.com/workers/A1VPJFCJDIXGW7","0","0","0.00%","0","0","0.00%","0","0","0.00%","","","Never Blocked","",""
"A1VSXRU9NOJ43M","https://master-requester.mturk.com/workers/A1VSXRU9NOJ43M","0","0","0.00%","0","0","0.00%","0","0","0.00%","","","Never Blocked","",""
"A1W2LKPRQ98CWA","https://master-requester.mturk.com/workers/A1W2LKPRQ98CWA","0","0","0.00%","0","0","0.00%","0","0","0.00%","","","Never Blocked","",""
"A1W7F4L83SEZXF","https://master-requester.mturk.com/workers/A1W7F4L83SEZXF","0","0","0.00%","0","0","0.00%","0","0","0.00%","100","","Never Blocked","",""
"A1WAAWQH57B1TE","https://master-requester.mturk.com/workers/A1WAAWQH57B1TE","0","0","0.00%","0","0","0.00%","0","0","0.00%","100","","Never Blocked","",""
"A1WF1X8PQQJ2OQ","https://master-requester.mturk.com/workers/A1WF1X8PQQJ2OQ","51","51","100.00%","51","51","100.00%","0","0","0.00%","100","","Never Blocked","",""
"A1YNGE7LM9TQHL","https://master-requester.mturk.com/workers/A1YNGE7LM9TQHL","0","0","0.00%","0","0","0.00%","0","0","0.00%","","","Never Blocked","",""
"A1YT0SNR8C6HN9","https://master-requester.mturk.com/workers/A1YT0SNR8C6HN9","22","21","95.45%","22","21","95.45%","0","0","0.00%","","","Never Blocked","",""
"A1YZRW3T6NBEFK","https://master-requester.mturk.com/workers/A1YZRW3T6NBEFK","0","0","0.00%","0","0","0.00%","0","0","0.00%","","","Never Blocked","",""
"A1Z690DTMGCTA","https://master-requester.mturk.com/workers/A1Z690DTMGCTA","3","3","100.00%","3","3","100.00%","0","0","0.00%","100","","Never Blocked","",""
"A20OYAY9PGHAYA","https://master-requester.mturk.com/workers/A20OYAY9PGHAYA","4","3","75.00%","4","3","75.00%","0","0","0.00%","","","Never Blocked","",""
"A20WK0SH2FBTUE","https://master-requester.mturk.com/workers/A20WK0SH2FBTUE","28","28","100.00%","28","28","100.00%","0","0","0.00%","","","Never Blocked","",""
"A21VFGQ9NQ1SY7","https://master-requester.mturk.com/workers/A21VFGQ9NQ1SY7","0","0","0.00%","0","0","0.00%","0","0","0.00%","","","Never Blocked","",""
"A21XTK9Y0QZ8AB","https://master-requester.mturk.com/workers/A21XTK9Y0QZ8AB","29","29","100.00%","29","29","100.00%","0","0","0.00%","","","Never Blocked","",""
"A226S9LUL53Q01","https://master-requester.mturk.com/workers/A226S9LUL53Q01","0","0","0.00%","0","0","0.00%","0","0","0.00%","","","Never Blocked","",""
"A22MXSBTT7NFDL","https://master-requester.mturk.com/workers/A22MXSBTT7NFDL","0","0","0.00%","0","0","0.00%","0","0","0.00%","","","Never Blocked","",""
"A22RHH2RPR3QIN","https://master-requester.mturk.com/workers/A22RHH2RPR3QIN","6","6","100.00%","6","6","100.00%","0","0","0.00%","","","Never Blocked","",""
"A22ZN0DVCW0844","https://master-requester.mturk.com/workers/A22ZN0DVCW0844","0","0","0.00%","0","0","0.00%","0","0","0.00%","","","Never Blocked","",""
"A232DYGFQXUCS8","https://master-requester.mturk.com/workers/A232DYGFQXUCS8","9","9","100.00%","9","9","100.00%","0","0","0.00%","100","","Never Blocked","",""
"A234FNXWRIM5RZ","https://master-requester.mturk.com/workers/A234FNXWRIM5RZ","1","1","100.00%","1","1","100.00%","0","0","0.00%","","","Never Blocked","",""
"A234WZ4KX8IW07","https://master-requester.mturk.com/workers/A234WZ4KX8IW07","1","1","100.00%","1","1","100.00%","0","0","0.00%","","","Never Blocked","",""
"A235FPDFFWUZI7","https://master-requester.mturk.com/workers/A235FPDFFWUZI7","21","21","100.00%","21","21","100.00%","0","0","0.00%","","","Never Blocked","",""
"A2376J62P0EZLR","https://master-requester.mturk.com/workers/A2376J62P0EZLR","3","3","100.00%","3","3","100.00%","0","0","0.00%","","","Never Blocked","",""
"A23BGNP50WTKI2","https://master-requester.mturk.com/workers/A23BGNP50WTKI2","0","0","0.00%","0","0","0.00%","0","0","0.00%","100","","Never Blocked","",""
"A23H0D5PGBCG8O","https://master-requester.mturk.com/workers/A23H0D5PGBCG8O","0","0","0.00%","0","0","0.00%","0","0","0.00%","","","Never Blocked","",""
"A23ZN76FQZFRAG","https://master-requester.mturk.com/workers/A23ZN76FQZFRAG","0","0","0.00%","0","0","0.00%","0","0","0.00%","","","Never Blocked","",""
"A2456WCEWI8N27","https://master-requester.mturk.com/workers/A2456WCEWI8N27","2","2","100.00%","2","2","100.00%","0","0","0.00%","100","","Never Blocked","",""
"A24BWO5FOSZZY","https://master-requester.mturk.com/workers/A24BWO5FOSZZY","20","20","100.00%","20","20","100.00%","0","0","0.00%","","","Never Blocked","",""
"A24H9XZ7OE8WMW","https://master-requester.mturk.com/workers/A24H9XZ7OE8WMW","2","1","50.00%","2","1","50.00%","0","0","0.00%","","","Never Blocked","",""
"A24K1I5GD6XVH6","https://master-requester.mturk.com/workers/A24K1I5GD6XVH6","0","0","0.00%","0","0","0.00%","0","0","0.00%","","","Never Blocked","",""
"A253PQSDVQ8JWA","https://master-requester.mturk.com/workers/A253PQSDVQ8JWA","9","9","100.00%","9","9","100.00%","0","0","0.00%","","","Never Blocked","",""
"A258G4DF7TF5IF","https://master-requester.mturk.com/workers/A258G4DF7TF5IF","1","0","0.00%","1","0","0.00%","0","0","0.00%","","","Never Blocked","",""
"A25J1XF62KBXFC","https://master-requester.mturk.com/workers/A25J1XF62KBXFC","27","27","100.00%","27","27","100.00%","0","0","0.00%","","","Never Blocked","",""
"A26OOAGHOYSGYF","https://master-requester.mturk.com/workers/A26OOAGHOYSGYF","0","0","0.00%","0","0","0.00%","0","0","0.00%","","","Never Blocked","",""
"A26WS1DOMK9SG2","https://master-requester.mturk.com/workers/A26WS1DOMK9SG2","31","27","87.10%","31","27","87.10%","0","0","0.00%","","","Never Blocked","",""
"A275STSZHFODG6","https://master-requester.mturk.com/workers/A275STSZHFODG6","0","0","0.00%","0","0","0.00%","0","0","0.00%","","","Never Blocked","",""
"A277Y2HW4L10CR","https://master-requester.mturk.com/workers/A277Y2HW4L10CR","8","7","87.50%","8","7","87.50%","0","0","0.00%","","","Never Blocked","",""
"A27BZ9MFK68R15","https://master-requester.mturk.com/workers/A27BZ9MFK68R15","27","25","92.59%","27","25","92.59%","0","0","0.00%","100","","Never Blocked","",""
"A27HUIHPV6D0VM","https://master-requester.mturk.com/workers/A27HUIHPV6D0VM","17","17","100.00%","17","17","100.00%","0","0","0.00%","100","","Never Blocked","",""
"A27Z6Q35IF7OQV","https://master-requester.mturk.com/workers/A27Z6Q35IF7OQV","1","1","100.00%","1","1","100.00%","0","0","0.00%","100","","Never Blocked","",""
"A28QUR0QYD2WI7","https://master-requester.mturk.com/workers/A28QUR0QYD2WI7","9","9","100.00%","9","9","100.00%","2","2","100.00%","100","","Never Blocked","",""
"A28UOASDK07CKF","https://master-requester.mturk.com/workers/A28UOASDK07CKF","3","3","100.00%","3","3","100.00%","0","0","0.00%","","","Never Blocked","",""
"A297WCJYDD9QBQ","https://master-requester.mturk.com/workers/A297WCJYDD9QBQ","9","9","100.00%","9","9","100.00%","0","0","0.00%","100","","Never Blocked","",""
"A29COLL6IZ35Y","https://master-requester.mturk.com/workers/A29COLL6IZ35Y","0","0","0.00%","0","0","0.00%","0","0","0.00%","","","Never Blocked","",""
"A29NA4283YJ26D","https://master-requester.mturk.com/workers/A29NA4283YJ26D","1","1","100.00%","1","1","100.00%","0","0","0.00%","","","Never Blocked","",""
"A29PKMLH38N148","https://master-requester.mturk.com/workers/A29PKMLH38N148","16","16","100.00%","16","16","100.00%","0","0","0.00%","","","Never Blocked","",""
"A2ARZP7HVBKQJV","https://master-requester.mturk.com/workers/A2ARZP7HVBKQJV","20","20","100.00%","20","20","100.00%","0","0","0.00%","","","Never Blocked","",""
"A2B607EMRHNR5B","https://master-requester.mturk.com/workers/A2B607EMRHNR5B","1","0","0.00%","1","0","0.00%","1","0","0.00%","","","Never Blocked","",""
"A2BD4TWZKC2Y99","https://master-requester.mturk.com/workers/A2BD4TWZKC2Y99","3","3","100.00%","3","3","100.00%","0","0","0.00%","","","Never Blocked","",""
"A2BQ3PBAZ99AS2","https://master-requester.mturk.com/workers/A2BQ3PBAZ99AS2","0","0","0.00%","0","0","0.00%","0","0","0.00%","","","Never Blocked","",""
"A2BT0LQYMBL7LV","https://master-requester.mturk.com/workers/A2BT0LQYMBL7LV","5","5","100.00%","5","5","100.00%","0","0","0.00%","","","Never Blocked","",""
"A2CKYCHQGXUI10","https://master-requester.mturk.com/workers/A2CKYCHQGXUI10","8","8","100.00%","8","8","100.00%","0","0","0.00%","","","Never Blocked","",""
"A2CYBDG86D68SM","https://master-requester.mturk.com/workers/A2CYBDG86D68SM","0","0","0.00%","0","0","0.00%","0","0","0.00%","","","Never Blocked","",""
"A2D7SENPITZW61","https://master-requester.mturk.com/workers/A2D7SENPITZW61","19","19","100.00%","19","19","100.00%","0","0","0.00%","100","","Never Blocked","",""
"A2DVEFYE4H040O","https://master-requester.mturk.com/workers/A2DVEFYE4H040O","0","0","0.00%","0","0","0.00%","0","0","0.00%","","","Never Blocked","",""
"A2EAMB1BJ45N0A","https://master-requester.mturk.com/workers/A2EAMB1BJ45N0A","0","0","0.00%","0","0","0.00%","0","0","0.00%","","","Never Blocked","",""
"A2EAPAPRF8ZH0E","https://master-requester.mturk.com/workers/A2EAPAPRF8ZH0E","0","0","0.00%","0","0","0.00%","0","0","0.00%","","","Never Blocked","",""
"A2EARNRMFJOSIY","https://master-requester.mturk.com/workers/A2EARNRMFJOSIY","2","2","100.00%","2","2","100.00%","0","0","0.00%","","","Never Blocked","",""
"A2EN7IXP9RG0O2","https://master-requester.mturk.com/workers/A2EN7IXP9RG0O2","0","0","0.00%","0","0","0.00%","0","0","0.00%","","","Never Blocked","",""
"A2FKSN83NQ7URY","https://master-requester.mturk.com/workers/A2FKSN83NQ7URY","0","0","0.00%","0","0","0.00%","0","0","0.00%","100","","Never Blocked","",""
"A2FZ88OU42EFC8","https://master-requester.mturk.com/workers/A2FZ88OU42EFC8","1","0","0.00%","1","0","0.00%","0","0","0.00%","","","Never Blocked","",""
"A2G4SX2VMF4YLJ","https://master-requester.mturk.com/workers/A2G4SX2VMF4YLJ","13","8","61.54%","13","8","61.54%","0","0","0.00%","","","Never Blocked","",""
"A2H1RXUC8XNNIW","https://master-requester.mturk.com/workers/A2H1RXUC8XNNIW","4","4","100.00%","4","4","100.00%","0","0","0.00%","100","","Never Blocked","",""
"A2IC4FWRJ1SBJH","https://master-requester.mturk.com/workers/A2IC4FWRJ1SBJH","12","12","100.00%","12","12","100.00%","0","0","0.00%","","","Never Blocked","",""
"A2J7A1ALH7ZAID","https://master-requester.mturk.com/workers/A2J7A1ALH7ZAID","3","3","100.00%","3","3","100.00%","0","0","0.00%","","","Never Blocked","",""
"A2J87TXKJ36KH0","https://master-requester.mturk.com/workers/A2J87TXKJ36KH0","3","3","100.00%","3","3","100.00%","0","0","0.00%","","","Never Blocked","",""
"A2JAMNGL6SDAHQ","https://master-requester.mturk.com/workers/A2JAMNGL6SDAHQ","0","0","0.00%","0","0","0.00%","0","0","0.00%","100","","Never Blocked","",""
"A2JVJ7J2MVGW9S","https://master-requester.mturk.com/workers/A2JVJ7J2MVGW9S","0","0","0.00%","0","0","0.00%","0","0","0.00%","","","Never Blocked","",""
"A2KFVSJQGOHZN8","https://master-requester.mturk.com/workers/A2KFVSJQGOHZN8","34","34","100.00%","34","34","100.00%","9","9","100.00%","","","Never Blocked","",""
"A2KJ983WWTEK4L","https://master-requester.mturk.com/workers/A2KJ983WWTEK4L","1","1","100.00%","1","1","100.00%","0","0","0.00%","","","Never Blocked","",""
"A2L9QL5S7KUL6V","https://master-requester.mturk.com/workers/A2L9QL5S7KUL6V","2","2","100.00%","2","2","100.00%","0","0","0.00%","","","Never Blocked","",""
"A2LASUDS4NLOZW","https://master-requester.mturk.com/workers/A2LASUDS4NLOZW","3","3","100.00%","3","3","100.00%","1","1","100.00%","","","Never Blocked","",""
"A2LCRHTK0WQEOM","https://master-requester.mturk.com/workers/A2LCRHTK0WQEOM","0","0","0.00%","0","0","0.00%","0","0","0.00%","100","","Never Blocked","",""
"A2LILVPSVI4HJ7","https://master-requester.mturk.com/workers/A2LILVPSVI4HJ7","2","0","0.00%","2","0","0.00%","0","0","0.00%","","","Never Blocked","",""
"A2MCG5W6LHSRG9","https://master-requester.mturk.com/workers/A2MCG5W6LHSRG9","23","23","100.00%","23","23","100.00%","0","0","0.00%","","","Never Blocked","",""
"A2MH5LSEGJZAXF","https://master-requester.mturk.com/workers/A2MH5LSEGJZAXF","18","18","100.00%","18","18","100.00%","0","0","0.00%","","","Never Blocked","",""
"A2MWYYKPY2JZ8B","https://master-requester.mturk.com/workers/A2MWYYKPY2JZ8B","0","0","0.00%","0","0","0.00%","0","0","0.00%","100","","Never Blocked","",""
"A2NIGFC7WOIOUF","https://master-requester.mturk.com/workers/A2NIGFC7WOIOUF","55","0","0.00%","55","0","0.00%","55","0","0.00%","","","Never Blocked","",""
"A2O7LTLFX4QHIT","https://master-requester.mturk.com/workers/A2O7LTLFX4QHIT","0","0","0.00%","0","0","0.00%","0","0","0.00%","","","Never Blocked","",""
"A2OCVU34E4SD3I","https://master-requester.mturk.com/workers/A2OCVU34E4SD3I","32","31","96.88%","32","31","96.88%","0","0","0.00%","100","","Never Blocked","",""
"A2OP2ZANIM5ZV","https://master-requester.mturk.com/workers/A2OP2ZANIM5ZV","0","0","0.00%","0","0","0.00%","0","0","0.00%","100","","Never Blocked","",""
"A2ORR2N8P495R6","https://master-requester.mturk.com/workers/A2ORR2N8P495R6","1","1","100.00%","1","1","100.00%","0","0","0.00%","100","","Never Blocked","",""
"A2PDEHYI2M81EC","https://master-requester.mturk.com/workers/A2PDEHYI2M81EC","3","0","0.00%","3","0","0.00%","0","0","0.00%","","","Never Blocked","",""
"A2PU0O2EMQQ058","https://master-requester.mturk.com/workers/A2PU0O2EMQQ058","15","15","100.00%","15","15","100.00%","0","0","0.00%","100","","Never Blocked","",""
"A2Q6L9LKSNU7EB","https://master-requester.mturk.com/workers/A2Q6L9LKSNU7EB","2","2","100.00%","2","2","100.00%","0","0","0.00%","","","Never Blocked","",""
"A2QP5UY1GIQZ5Y","https://master-requester.mturk.com/workers/A2QP5UY1GIQZ5Y","8","8","100.00%","8","8","100.00%","0","0","0.00%","","","Never Blocked","",""
"A2RHSVLXA16TLN","https://master-requester.mturk.com/workers/A2RHSVLXA16TLN","0","0","0.00%","0","0","0.00%","0","0","0.00%","","","Never Blocked","",""
"A2RKUDGK5PQ44X","https://master-requester.mturk.com/workers/A2RKUDGK5PQ44X","8","8","100.00%","8","8","100.00%","0","0","0.00%","","","Never Blocked","",""
"A2RV6QX6SN4YIC","https://master-requester.mturk.com/workers/A2RV6QX6SN4YIC","0","0","0.00%","0","0","0.00%","0","0","0.00%","100","","Never Blocked","",""
"A2S834OHCORO1W","https://master-requester.mturk.com/workers/A2S834OHCORO1W","1","0","0.00%","1","0","0.00%","0","0","0.00%","","","Never Blocked","",""
"A2SBTTY0ZX10ST","https://master-requester.mturk.com/workers/A2SBTTY0ZX10ST","31","31","100.00%","31","31","100.00%","0","0","0.00%","","","Never Blocked","",""
"A2SY3BKOFNTTNC","https://master-requester.mturk.com/workers/A2SY3BKOFNTTNC","1","1","100.00%","1","1","100.00%","0","0","0.00%","","","Never Blocked","",""
"A2T6XDKASM3ZEU","https://master-requester.mturk.com/workers/A2T6XDKASM3ZEU","1","1","100.00%","1","1","100.00%","0","0","0.00%","","","Never Blocked","",""
"A2T82A0E42NI51","https://master-requester.mturk.com/workers/A2T82A0E42NI51","19","0","0.00%","19","0","0.00%","0","0","0.00%","","","Never Blocked","",""
"A2TOWOPTMZQLGL","https://master-requester.mturk.com/workers/A2TOWOPTMZQLGL","31","31","100.00%","31","31","100.00%","0","0","0.00%","","","Never Blocked","",""
"A2UD62TKBJ5HZ2","https://master-requester.mturk.com/workers/A2UD62TKBJ5HZ2","1","1","100.00%","1","1","100.00%","0","0","0.00%","","","Never Blocked","",""
"A2UTHXLZL8TNBK","https://master-requester.mturk.com/workers/A2UTHXLZL8TNBK","1","0","0.00%","1","0","0.00%","0","0","0.00%","","","Never Blocked","",""
"A2V3M8VSE66MMQ","https://master-requester.mturk.com/workers/A2V3M8VSE66MMQ","5","0","0.00%","5","0","0.00%","5","0","0.00%","","","Never Blocked","",""
"A2VN67U8MB9NTT","https://master-requester.mturk.com/workers/A2VN67U8MB9NTT","1","1","100.00%","1","1","100.00%","0","0","0.00%","","","Never Blocked","",""
"A2VNE375MVLU8J","https://master-requester.mturk.com/workers/A2VNE375MVLU8J","1","1","100.00%","1","1","100.00%","0","0","0.00%","","","Never Blocked","",""
"A2WAR6J3IYD6LK","https://master-requester.mturk.com/workers/A2WAR6J3IYD6LK","4","4","100.00%","4","4","100.00%","0","0","0.00%","100","","Never Blocked","",""
"A2WPHVMLLEV5ZB","https://master-requester.mturk.com/workers/A2WPHVMLLEV5ZB","1","1","100.00%","1","1","100.00%","0","0","0.00%","","","Never Blocked","",""
"A2WYGPR0ECWJFZ","https://master-requester.mturk.com/workers/A2WYGPR0ECWJFZ","0","0","0.00%","0","0","0.00%","0","0","0.00%","100","","Never Blocked","",""
"A2XYH9ATPS54W0","https://master-requester.mturk.com/workers/A2XYH9ATPS54W0","28","28","100.00%","28","28","100.00%","0","0","0.00%","","","Never Blocked","",""
"A2Y7OVN2GP3M2F","https://master-requester.mturk.com/workers/A2Y7OVN2GP3M2F","0","0","0.00%","0","0","0.00%","0","0","0.00%","100","","Never Blocked","",""
"A2YLF04UAKYVF1","https://master-requester.mturk.com/workers/A2YLF04UAKYVF1","10","10","100.00%","10","10","100.00%","0","0","0.00%","","","Never Blocked","",""
"A2YUS3H6ZGQWE7","https://master-requester.mturk.com/workers/A2YUS3H6ZGQWE7","19","19","100.00%","19","19","100.00%","0","0","0.00%","","","Never Blocked","",""
"A2ZJFL84SA9MU2","https://master-requester.mturk.com/workers/A2ZJFL84SA9MU2","1","1","100.00%","1","1","100.00%","0","0","0.00%","","","Never Blocked","",""
"A2ZZ7PQHKI88H0","https://master-requester.mturk.com/workers/A2ZZ7PQHKI88H0","2","2","100.00%","2","2","100.00%","0","0","0.00%","100","","Never Blocked","",""
"A304PUXIRA930J","https://master-requester.mturk.com/workers/A304PUXIRA930J","4","3","75.00%","4","3","75.00%","0","0","0.00%","","","Never Blocked","",""
"A30BPQ2QGZOXN8","https://master-requester.mturk.com/workers/A30BPQ2QGZOXN8","1","1","100.00%","1","1","100.00%","0","0","0.00%","","","Never Blocked","",""
"A30NZAZ04OUGQD","https://master-requester.mturk.com/workers/A30NZAZ04OUGQD","1","1","100.00%","1","1","100.00%","0","0","0.00%","","","Never Blocked","",""
"A30V2K5KZQ6HM9","https://master-requester.mturk.com/workers/A30V2K5KZQ6HM9","3","3","100.00%","3","3","100.00%","0","0","0.00%","","","Never Blocked","",""
"A31BMZBG9TXAZT","https://master-requester.mturk.com/workers/A31BMZBG9TXAZT","29","28","96.55%","29","28","96.55%","0","0","0.00%","100","","Never Blocked","",""
"A31CNXHGR49DJR","https://master-requester.mturk.com/workers/A31CNXHGR49DJR","1","0","0.00%","1","0","0.00%","1","0","0.00%","","","Never Blocked","",""
"A31ZTDCVGIJUKM","https://master-requester.mturk.com/workers/A31ZTDCVGIJUKM","1","1","100.00%","1","1","100.00%","0","0","0.00%","100","","Never Blocked","",""
"A322PKD0V62M27","https://master-requester.mturk.com/workers/A322PKD0V62M27","0","0","0.00%","0","0","0.00%","0","0","0.00%","","","Never Blocked","",""
"A323N4NFWUUT17","https://master-requester.mturk.com/workers/A323N4NFWUUT17","1","1","100.00%","1","1","100.00%","0","0","0.00%","","","Never Blocked","",""
"A32ELRKYFCQU6B","https://master-requester.mturk.com/workers/A32ELRKYFCQU6B","0","0","0.00%","0","0","0.00%","0","0","0.00%","","","Never Blocked","",""
"A32JRJ14HC1J4C","https://master-requester.mturk.com/workers/A32JRJ14HC1J4C","4","4","100.00%","4","4","100.00%","0","0","0.00%","","","Never Blocked","",""
"A32NFF6EM31R8P","https://master-requester.mturk.com/workers/A32NFF6EM31R8P","3","3","100.00%","3","3","100.00%","0","0","0.00%","","","Never Blocked","",""
"A33S7DVS9FVUUB","https://master-requester.mturk.com/workers/A33S7DVS9FVUUB","0","0","0.00%","0","0","0.00%","0","0","0.00%","","","Never Blocked","",""
"A33WY4DHUFP8ZQ","https://master-requester.mturk.com/workers/A33WY4DHUFP8ZQ","10","10","100.00%","10","10","100.00%","0","0","0.00%","100","","Never Blocked","",""
"A33XTYSMK1H8IV","https://master-requester.mturk.com/workers/A33XTYSMK1H8IV","1","0","0.00%","1","0","0.00%","0","0","0.00%","","","Never Blocked","",""
"A34FEDYGGZ4BN8","https://master-requester.mturk.com/workers/A34FEDYGGZ4BN8","24","24","100.00%","24","24","100.00%","0","0","0.00%","","","Never Blocked","",""
"A3584VXNQL4T0E","https://master-requester.mturk.com/workers/A3584VXNQL4T0E","6","6","100.00%","6","6","100.00%","0","0","0.00%","","","Never Blocked","",""
"A35HTQR5XIZ9H4","https://master-requester.mturk.com/workers/A35HTQR5XIZ9H4","7","6","85.71%","7","6","85.71%","0","0","0.00%","","","Never Blocked","",""
"A35MQUGC3B5Q7Y","https://master-requester.mturk.com/workers/A35MQUGC3B5Q7Y","0","0","0.00%","0","0","0.00%","0","0","0.00%","","","Never Blocked","",""
"A3696JXTRKL2FI","https://master-requester.mturk.com/workers/A3696JXTRKL2FI","13","13","100.00%","13","13","100.00%","0","0","0.00%","","","Never Blocked","",""
"A36NRERHG2J726","https://master-requester.mturk.com/workers/A36NRERHG2J726","22","21","95.45%","22","21","95.45%","0","0","0.00%","","","Never Blocked","",""
"A36Q6B9394Q4Q1","https://master-requester.mturk.com/workers/A36Q6B9394Q4Q1","3","3","100.00%","3","3","100.00%","0","0","0.00%","","","Never Blocked","",""
"A36XZUTF95M29H","https://master-requester.mturk.com/workers/A36XZUTF95M29H","1","1","100.00%","1","1","100.00%","1","1","100.00%","","","Never Blocked","",""
"A3746TDKYH8SJ9","https://master-requester.mturk.com/workers/A3746TDKYH8SJ9","123","121","98.37%","123","121","98.37%","0","0","0.00%","100","","Never Blocked","",""
"A37E2SOKV6I0VZ","https://master-requester.mturk.com/workers/A37E2SOKV6I0VZ","3","3","100.00%","3","3","100.00%","0","0","0.00%","100","","Never Blocked","",""
"A37O5SYY9VWSPY","https://master-requester.mturk.com/workers/A37O5SYY9VWSPY","8","8","100.00%","8","8","100.00%","0","0","0.00%","100","","Never Blocked","",""
"A38CY365JD6R6M","https://master-requester.mturk.com/workers/A38CY365JD6R6M","1","1","100.00%","1","1","100.00%","0","0","0.00%","100","","Never Blocked","",""
"A38E9SI8119L5G","https://master-requester.mturk.com/workers/A38E9SI8119L5G","0","0","0.00%","0","0","0.00%","0","0","0.00%","100","","Never Blocked","",""
"A38L57IOL19S6C","https://master-requester.mturk.com/workers/A38L57IOL19S6C","0","0","0.00%","0","0","0.00%","0","0","0.00%","","","Never Blocked","",""
"A399I9H4W5VFMS","https://master-requester.mturk.com/workers/A399I9H4W5VFMS","1","1","100.00%","1","1","100.00%","0","0","0.00%","","","Never Blocked","",""
"A39PQOGN8NIWNA","https://master-requester.mturk.com/workers/A39PQOGN8NIWNA","0","0","0.00%","0","0","0.00%","0","0","0.00%","100","","Never Blocked","",""
"A3AP1K85CP8CEQ","https://master-requester.mturk.com/workers/A3AP1K85CP8CEQ","13","13","100.00%","13","13","100.00%","0","0","0.00%","100","","Never Blocked","",""
"A3AW887GI0NLKF","https://master-requester.mturk.com/workers/A3AW887GI0NLKF","0","0","0.00%","0","0","0.00%","0","0","0.00%","","","Never Blocked","",""
"A3AYHESLQSDY5T","https://master-requester.mturk.com/workers/A3AYHESLQSDY5T","0","0","0.00%","0","0","0.00%","0","0","0.00%","","","Never Blocked","",""
"A3AYR3H2AYYT5G","https://master-requester.mturk.com/workers/A3AYR3H2AYYT5G","0","0","0.00%","0","0","0.00%","0","0","0.00%","100","","Never Blocked","",""
"A3B0AB2C9SIHN","https://master-requester.mturk.com/workers/A3B0AB2C9SIHN","43","43","100.00%","43","43","100.00%","0","0","0.00%","","","Never Blocked","",""
"A3BYO91D2DPEHV","https://master-requester.mturk.com/workers/A3BYO91D2DPEHV","1","1","100.00%","1","1","100.00%","0","0","0.00%","100","","Never Blocked","",""
"A3C6ST1COY4UX6","https://master-requester.mturk.com/workers/A3C6ST1COY4UX6","20","20","100.00%","20","20","100.00%","0","0","0.00%","","","Never Blocked","",""
"A3CBAWI8GVDQVL","https://master-requester.mturk.com/workers/A3CBAWI8GVDQVL","0","0","0.00%","0","0","0.00%","0","0","0.00%","","","Never Blocked","",""
"A3CBOZUTFR0NR7","https://master-requester.mturk.com/workers/A3CBOZUTFR0NR7","0","0","0.00%","0","0","0.00%","0","0","0.00%","","","Never Blocked","",""
"A3CPXID0CCAPS0","https://master-requester.mturk.com/workers/A3CPXID0CCAPS0","35","34","97.14%","35","34","97.14%","0","0","0.00%","","","Never Blocked","",""
"A3CTPF03CRIP67","https://master-requester.mturk.com/workers/A3CTPF03CRIP67","1","1","100.00%","1","1","100.00%","0","0","0.00%","","","Never Blocked","",""
"A3CUGYL51ZKJJ3","https://master-requester.mturk.com/workers/A3CUGYL51ZKJJ3","23","23","100.00%","23","23","100.00%","0","0","0.00%","","","Never Blocked","",""
"A3DDAQQ46WVDUZ","https://master-requester.mturk.com/workers/A3DDAQQ46WVDUZ","3","2","66.67%","3","2","66.67%","0","0","0.00%","","","Never Blocked","",""
"A3DHYTZ1GPN0T8","https://master-requester.mturk.com/workers/A3DHYTZ1GPN0T8","0","0","0.00%","0","0","0.00%","0","0","0.00%","100","","Never Blocked","",""
"A3DLJHO64AS2FK","https://master-requester.mturk.com/workers/A3DLJHO64AS2FK","0","0","0.00%","0","0","0.00%","0","0","0.00%","","","Never Blocked","",""
"A3E0FVTU4DYQZ8","https://master-requester.mturk.com/workers/A3E0FVTU4DYQZ8","1","1","100.00%","1","1","100.00%","0","0","0.00%","","","Never Blocked","",""
"A3FA5P7O80KJAP","https://master-requester.mturk.com/workers/A3FA5P7O80KJAP","28","28","100.00%","28","28","100.00%","0","0","0.00%","100","","Never Blocked","",""
"A3GMEOJFNKDT79","https://master-requester.mturk.com/workers/A3GMEOJFNKDT79","0","0","0.00%","0","0","0.00%","0","0","0.00%","","","Never Blocked","",""
"A3HDMUCPQ5O3H6","https://master-requester.mturk.com/workers/A3HDMUCPQ5O3H6","0","0","0.00%","0","0","0.00%","0","0","0.00%","","","Never Blocked","",""
"A3HLQWB5WTC7UL","https://master-requester.mturk.com/workers/A3HLQWB5WTC7UL","23","23","100.00%","23","23","100.00%","0","0","0.00%","","","Never Blocked","",""
"A3IHA7DUL59ODF","https://master-requester.mturk.com/workers/A3IHA7DUL59ODF","0","0","0.00%","0","0","0.00%","0","0","0.00%","","","Never Blocked","",""
"A3IJILP55BWIOP","https://master-requester.mturk.com/workers/A3IJILP55BWIOP","1","1","100.00%","1","1","100.00%","0","0","0.00%","100","","Never Blocked","",""
"A3IKND0OT3YZTF","https://master-requester.mturk.com/workers/A3IKND0OT3YZTF","1","1","100.00%","1","1","100.00%","0","0","0.00%","","","Never Blocked","",""
"A3J0JPB4GMMEPQ","https://master-requester.mturk.com/workers/A3J0JPB4GMMEPQ","2","2","100.00%","2","2","100.00%","0","0","0.00%","","","Never Blocked","",""
"A3JR5NWESBMVIH","https://master-requester.mturk.com/workers/A3JR5NWESBMVIH","0","0","0.00%","0","0","0.00%","0","0","0.00%","","","Never Blocked","",""
"A3L5J7CICPV3FG","https://master-requester.mturk.com/workers/A3L5J7CICPV3FG","1","1","100.00%","1","1","100.00%","0","0","0.00%","","","Never Blocked","",""
"A3LRB53ZXOXECI","https://master-requester.mturk.com/workers/A3LRB53ZXOXECI","0","0","0.00%","0","0","0.00%","0","0","0.00%","100","","Never Blocked","",""
"A3LTZ8MO60ENI3","https://master-requester.mturk.com/workers/A3LTZ8MO60ENI3","11","11","100.00%","11","11","100.00%","0","0","0.00%","","","Never Blocked","",""
"A3N1AJWCS8MPKH","https://master-requester.mturk.com/workers/A3N1AJWCS8MPKH","0","0","0.00%","0","0","0.00%","0","0","0.00%","100","","Never Blocked","",""
"A3NNDNMBKSZ22H","https://master-requester.mturk.com/workers/A3NNDNMBKSZ22H","0","0","0.00%","0","0","0.00%","0","0","0.00%","","","Never Blocked","",""
"A3NNWJI1G86RJ2","https://master-requester.mturk.com/workers/A3NNWJI1G86RJ2","12","12","100.00%","12","12","100.00%","0","0","0.00%","","","Never Blocked","",""
"A3O59390G2QOQO","https://master-requester.mturk.com/workers/A3O59390G2QOQO","0","0","0.00%","0","0","0.00%","0","0","0.00%","100","","Never Blocked","",""
"A3O6JEMSPII9JX","https://master-requester.mturk.com/workers/A3O6JEMSPII9JX","0","0","0.00%","0","0","0.00%","0","0","0.00%","","","Never Blocked","",""
"A3O8R8BC87XGV5","https://master-requester.mturk.com/workers/A3O8R8BC87XGV5","0","0","0.00%","0","0","0.00%","0","0","0.00%","100","","Never Blocked","",""
"A3OA5PYRJP9L6I","https://master-requester.mturk.com/workers/A3OA5PYRJP9L6I","0","0","0.00%","0","0","0.00%","0","0","0.00%","","","Never Blocked","",""
"A3OO9OXNV1K6AV","https://master-requester.mturk.com/workers/A3OO9OXNV1K6AV","1","0","0.00%","1","0","0.00%","0","0","0.00%","","","Never Blocked","",""
"A3OXTH66HS7SAW","https://master-requester.mturk.com/workers/A3OXTH66HS7SAW","3","3","100.00%","3","3","100.00%","0","0","0.00%","","","Never Blocked","",""
"A3P04JZJNOYILR","https://master-requester.mturk.com/workers/A3P04JZJNOYILR","0","0","0.00%","0","0","0.00%","0","0","0.00%","100","","Never Blocked","",""
"A3P60WR4IST2B1","https://master-requester.mturk.com/workers/A3P60WR4IST2B1","4","4","100.00%","4","4","100.00%","0","0","0.00%","","","Never Blocked","",""
"A3PBRIKY94OG07","https://master-requester.mturk.com/workers/A3PBRIKY94OG07","1","1","100.00%","1","1","100.00%","0","0","0.00%","","","Never Blocked","",""
"A3PGYM90AJ92IT","https://master-requester.mturk.com/workers/A3PGYM90AJ92IT","1","1","100.00%","1","1","100.00%","0","0","0.00%","","","Never Blocked","",""
"A3PQ5Q456J981M","https://master-requester.mturk.com/workers/A3PQ5Q456J981M","18","18","100.00%","18","18","100.00%","0","0","0.00%","","","Never Blocked","",""
"A3QICVSXVFK63L","https://master-requester.mturk.com/workers/A3QICVSXVFK63L","1","0","0.00%","1","0","0.00%","0","0","0.00%","","","Never Blocked","",""
"A3QZMGTVA4VO44","https://master-requester.mturk.com/workers/A3QZMGTVA4VO44","1","1","100.00%","1","1","100.00%","0","0","0.00%","","","Never Blocked","",""
"A3RN9V5GSG9IHY","https://master-requester.mturk.com/workers/A3RN9V5GSG9IHY","1","1","100.00%","1","1","100.00%","0","0","0.00%","100","","Never Blocked","",""
"A3RYMPE9G4IN0H","https://master-requester.mturk.com/workers/A3RYMPE9G4IN0H","17","15","88.23%","17","15","88.23%","0","0","0.00%","","","Never Blocked","",""
"A3S5AA4R3RIEEP","https://master-requester.mturk.com/workers/A3S5AA4R3RIEEP","31","31","100.00%","31","31","100.00%","0","0","0.00%","100","","Never Blocked","",""
"A3TCJ04GGZODU","https://master-requester.mturk.com/workers/A3TCJ04GGZODU","0","0","0.00%","0","0","0.00%","0","0","0.00%","100","","Never Blocked","",""
"A3TF0TA67EBKBE","https://master-requester.mturk.com/workers/A3TF0TA67EBKBE","0","0","0.00%","0","0","0.00%","0","0","0.00%","","","Never Blocked","",""
"A3TGYQ19581IOC","https://master-requester.mturk.com/workers/A3TGYQ19581IOC","7","7","100.00%","7","7","100.00%","0","0","0.00%","100","","Never Blocked","",""
"A3TWYQENN82FJI","https://master-requester.mturk.com/workers/A3TWYQENN82FJI","4","4","100.00%","4","4","100.00%","0","0","0.00%","","","Never Blocked","",""
"A3U7KCX5530RT4","https://master-requester.mturk.com/workers/A3U7KCX5530RT4","6","6","100.00%","6","6","100.00%","0","0","0.00%","","","Never Blocked","",""
"A3U7RDVJNFHHLZ","https://master-requester.mturk.com/workers/A3U7RDVJNFHHLZ","0","0","0.00%","0","0","0.00%","0","0","0.00%","100","","Never Blocked","",""
"A3UF6XXFFRR237","https://master-requester.mturk.com/workers/A3UF6XXFFRR237","0","0","0.00%","0","0","0.00%","0","0","0.00%","100","","Never Blocked","",""
"A3UG41H3PF39J5","https://master-requester.mturk.com/workers/A3UG41H3PF39J5","9","9","100.00%","9","9","100.00%","0","0","0.00%","","","Never Blocked","",""
"A3VCGIVOQAQQH1","https://master-requester.mturk.com/workers/A3VCGIVOQAQQH1","36","35","97.22%","36","35","97.22%","0","0","0.00%","","","Never Blocked","",""
"A3VHNIFFP8Y9H7","https://master-requester.mturk.com/workers/A3VHNIFFP8Y9H7","22","22","100.00%","22","22","100.00%","13","13","100.00%","","","Never Blocked","",""
"A3VTJKM0X30UC4","https://master-requester.mturk.com/workers/A3VTJKM0X30UC4","0","0","0.00%","0","0","0.00%","0","0","0.00%","","","Never Blocked","",""
"A47E0Z3LTH37V","https://master-requester.mturk.com/workers/A47E0Z3LTH37V","4","4","100.00%","4","4","100.00%","4","4","100.00%","100","","Never Blocked","",""
"A4D99Y82KOLC8","https://master-requester.mturk.com/workers/A4D99Y82KOLC8","2","2","100.00%","2","2","100.00%","0","0","0.00%","","","Never Blocked","",""
"A4FECWQRIIM71","https://master-requester.mturk.com/workers/A4FECWQRIIM71","1","1","100.00%","1","1","100.00%","0","0","0.00%","","","Never Blocked","",""
"A5P54KQ17YLIR","https://master-requester.mturk.com/workers/A5P54KQ17YLIR","1","1","100.00%","1","1","100.00%","0","0","0.00%","","","Never Blocked","",""
"A6FCD9EAQY571","https://master-requester.mturk.com/workers/A6FCD9EAQY571","0","0","0.00%","0","0","0.00%","0","0","0.00%","","","Never Blocked","",""
"A6PO7JT39QQGP","https://master-requester.mturk.com/workers/A6PO7JT39QQGP","1","1","100.00%","1","1","100.00%","0","0","0.00%","","","Never Blocked","",""
"A7EHYA5OOK4YZ","https://master-requester.mturk.com/workers/A7EHYA5OOK4YZ","8","8","100.00%","8","8","100.00%","0","0","0.00%","","","Never Blocked","",""
"A7MAY55G8JP3Y","https://master-requester.mturk.com/workers/A7MAY55G8JP3Y","0","0","0.00%","0","0","0.00%","0","0","0.00%","","","Never Blocked","",""
"A7NFGUPBQNJZ8","https://master-requester.mturk.com/workers/A7NFGUPBQNJZ8","0","0","0.00%","0","0","0.00%","0","0","0.00%","100","","Never Blocked","",""
"A84KU212XVQU0","https://master-requester.mturk.com/workers/A84KU212XVQU0","0","0","0.00%","0","0","0.00%","0","0","0.00%","","","Never Blocked","",""
"A84KYYIRZ3K00","https://master-requester.mturk.com/workers/A84KYYIRZ3K00","2","2","100.00%","2","2","100.00%","0","0","0.00%","100","","Never Blocked","",""
"A8SNO98K3BCWO","https://master-requester.mturk.com/workers/A8SNO98K3BCWO","0","0","0.00%","0","0","0.00%","0","0","0.00%","","","Never Blocked","",""
"A9PT8NLPGDTOQ","https://master-requester.mturk.com/workers/A9PT8NLPGDTOQ","36","36","100.00%","36","36","100.00%","0","0","0.00%","","","Never Blocked","",""
"AA9Y4BEMJYWN1","https://master-requester.mturk.com/workers/AA9Y4BEMJYWN1","11","11","100.00%","11","11","100.00%","0","0","0.00%","","","Never Blocked","",""
"AATL9DKBHXYW9","https://master-requester.mturk.com/workers/AATL9DKBHXYW9","10","10","100.00%","10","10","100.00%","0","0","0.00%","","","Never Blocked","",""
"ABBABO3YKITWQ","https://master-requester.mturk.com/workers/ABBABO3YKITWQ","1","0","0.00%","1","0","0.00%","1","0","0.00%","","","Never Blocked","",""
"ABVM2KJ7CRNZ0","https://master-requester.mturk.com/workers/ABVM2KJ7CRNZ0","2","1","50.00%","2","1","50.00%","0","0","0.00%","","","Never Blocked","",""
"AC927LNLIESM4","https://master-requester.mturk.com/workers/AC927LNLIESM4","10","10","100.00%","10","10","100.00%","0","0","0.00%","","","Never Blocked","",""
"ACMSQ19X53TUR","https://master-requester.mturk.com/workers/ACMSQ19X53TUR","1","1","100.00%","1","1","100.00%","0","0","0.00%","","","Never Blocked","",""
"ACQXQEQBHQ6GR","https://master-requester.mturk.com/workers/ACQXQEQBHQ6GR","0","0","0.00%","0","0","0.00%","0","0","0.00%","","","Never Blocked","",""
"ACTT2MEG1JOOO","https://master-requester.mturk.com/workers/ACTT2MEG1JOOO","8","8","100.00%","8","8","100.00%","0","0","0.00%","","","Never Blocked","",""
"AD1ILDUXZHASF","https://master-requester.mturk.com/workers/AD1ILDUXZHASF","51","51","100.00%","51","51","100.00%","0","0","0.00%","","","Never Blocked","",""
"ADI3J1D1WQIO3","https://master-requester.mturk.com/workers/ADI3J1D1WQIO3","0","0","0.00%","0","0","0.00%","0","0","0.00%","","","Never Blocked","",""
"ADO4WN8SKYVYQ","https://master-requester.mturk.com/workers/ADO4WN8SKYVYQ","8","7","87.50%","8","7","87.50%","0","0","0.00%","","","Never Blocked","",""
"AF15EUS91PMEX","https://master-requester.mturk.com/workers/AF15EUS91PMEX","10","9","90.00%","10","9","90.00%","0","0","0.00%","","","Never Blocked","",""
"AG1OG2FU9F09G","https://master-requester.mturk.com/workers/AG1OG2FU9F09G","1","1","100.00%","1","1","100.00%","0","0","0.00%","100","","Never Blocked","",""
"AG5J2O4FES043","https://master-requester.mturk.com/workers/AG5J2O4FES043","0","0","0.00%","0","0","0.00%","0","0","0.00%","","","Never Blocked","",""
"AHBJPKHFURJ3I","https://master-requester.mturk.com/workers/AHBJPKHFURJ3I","1","1","100.00%","1","1","100.00%","0","0","0.00%","","","Never Blocked","",""
"AHFEDGGIOG8DK","https://master-requester.mturk.com/workers/AHFEDGGIOG8DK","5","5","100.00%","5","5","100.00%","0","0","0.00%","100","","Never Blocked","",""
"AHLS6AZ1VTNH7","https://master-requester.mturk.com/workers/AHLS6AZ1VTNH7","41","40","97.56%","41","40","97.56%","0","0","0.00%","","","Never Blocked","",""
"AHNSE0G2AWDEO","https://master-requester.mturk.com/workers/AHNSE0G2AWDEO","9","9","100.00%","9","9","100.00%","0","0","0.00%","","","Never Blocked","",""
"AIATL7ENFF2EP","https://master-requester.mturk.com/workers/AIATL7ENFF2EP","1","1","100.00%","1","1","100.00%","0","0","0.00%","100","","Never Blocked","",""
"AII76H1T5282P","https://master-requester.mturk.com/workers/AII76H1T5282P","0","0","0.00%","0","0","0.00%","0","0","0.00%","100","","Never Blocked","",""
"AJ1AMPTCQL4RR","https://master-requester.mturk.com/workers/AJ1AMPTCQL4RR","2","2","100.00%","2","2","100.00%","0","0","0.00%","","","Never Blocked","",""
"AJY5G987IRT25","https://master-requester.mturk.com/workers/AJY5G987IRT25","6","6","100.00%","6","6","100.00%","0","0","0.00%","100","","Never Blocked","",""
"AL0OO84JETD31","https://master-requester.mturk.com/workers/AL0OO84JETD31","1","1","100.00%","1","1","100.00%","0","0","0.00%","","","Never Blocked","",""
"ALPARR84EASL2","https://master-requester.mturk.com/workers/ALPARR84EASL2","1","1","100.00%","1","1","100.00%","0","0","0.00%","100","","Never Blocked","",""
"AM3S9Y61E0Q2J","https://master-requester.mturk.com/workers/AM3S9Y61E0Q2J","2","2","100.00%","2","2","100.00%","0","0","0.00%","","","Never Blocked","",""
"AM7960QZS2HRU","https://master-requester.mturk.com/workers/AM7960QZS2HRU","1","1","100.00%","1","1","100.00%","0","0","0.00%","","","Never Blocked","",""
"AM7YPTLYTFOZD","https://master-requester.mturk.com/workers/AM7YPTLYTFOZD","3","3","100.00%","3","3","100.00%","0","0","0.00%","","","Never Blocked","",""
"AME98XVLFFLCH","https://master-requester.mturk.com/workers/AME98XVLFFLCH","1","1","100.00%","1","1","100.00%","1","1","100.00%","","","Never Blocked","",""
"AMHGLKAIOX9ST","https://master-requester.mturk.com/workers/AMHGLKAIOX9ST","2","2","100.00%","2","2","100.00%","0","0","0.00%","100","","Never Blocked","",""
"AN708FWWYGN1E","https://master-requester.mturk.com/workers/AN708FWWYGN1E","8","8","100.00%","8","8","100.00%","0","0","0.00%","","","Never Blocked","",""
"ANBXSFLLCOE71","https://master-requester.mturk.com/workers/ANBXSFLLCOE71","72","67","93.06%","72","67","93.06%","0","0","0.00%","","","Never Blocked","",""
"AO1CR6C88FLKQ","https://master-requester.mturk.com/workers/AO1CR6C88FLKQ","8","6","75.00%","8","6","75.00%","0","0","0.00%","","","Never Blocked","",""
"AOH1ZTM5CE2L5","https://master-requester.mturk.com/workers/AOH1ZTM5CE2L5","0","0","0.00%","0","0","0.00%","0","0","0.00%","100","","Never Blocked","",""
"AOL9NMTTKNEC7","https://master-requester.mturk.com/workers/AOL9NMTTKNEC7","8","8","100.00%","8","8","100.00%","0","0","0.00%","","","Never Blocked","",""
"AOM4UJQEDKXAC","https://master-requester.mturk.com/workers/AOM4UJQEDKXAC","2","2","100.00%","2","2","100.00%","0","0","0.00%","100","","Never Blocked","",""
"AOMFEAWQHU3D8","https://master-requester.mturk.com/workers/AOMFEAWQHU3D8","0","0","0.00%","0","0","0.00%","0","0","0.00%","","","Never Blocked","",""
"AP9TUT1V7MGAG","https://master-requester.mturk.com/workers/AP9TUT1V7MGAG","1","1","100.00%","1","1","100.00%","0","0","0.00%","","","Never Blocked","",""
"APEB5ERGCYP6D","https://master-requester.mturk.com/workers/APEB5ERGCYP6D","0","0","0.00%","0","0","0.00%","0","0","0.00%","100","","Never Blocked","",""
"APF4DODEF8HBC","https://master-requester.mturk.com/workers/APF4DODEF8HBC","0","0","0.00%","0","0","0.00%","0","0","0.00%","","","Never Blocked","",""
"APKO12PP5J5LW","https://master-requester.mturk.com/workers/APKO12PP5J5LW","118","117","99.15%","118","117","99.15%","0","0","0.00%","100","","Never Blocked","",""
"APKOKRKRT56X3","https://master-requester.mturk.com/workers/APKOKRKRT56X3","0","0","0.00%","0","0","0.00%","0","0","0.00%","100","","Never Blocked","",""
"APX3BGOGRC419","https://master-requester.mturk.com/workers/APX3BGOGRC419","1","0","0.00%","1","0","0.00%","0","0","0.00%","","","Never Blocked","",""
"AQ2R7TQHBPJPP","https://master-requester.mturk.com/workers/AQ2R7TQHBPJPP","7","7","100.00%","7","7","100.00%","0","0","0.00%","","","Never Blocked","",""
"AQ3KPKZ6UIYPF","https://master-requester.mturk.com/workers/AQ3KPKZ6UIYPF","0","0","0.00%","0","0","0.00%","0","0","0.00%","","","Never Blocked","",""
"AQ4PFIRZX9JLT","https://master-requester.mturk.com/workers/AQ4PFIRZX9JLT","2","2","100.00%","2","2","100.00%","0","0","0.00%","","","Never Blocked","",""
"AQ9ISCTDF9B48","https://master-requester.mturk.com/workers/AQ9ISCTDF9B48","0","0","0.00%","0","0","0.00%","0","0","0.00%","100","","Never Blocked","",""
"AQA4AX0RCRPSV","https://master-requester.mturk.com/workers/AQA4AX0RCRPSV","17","14","82.35%","17","14","82.35%","0","0","0.00%","100","","Never Blocked","",""
"AQDXJG6NGLY2","https://master-requester.mturk.com/workers/AQDXJG6NGLY2","5","5","100.00%","5","5","100.00%","0","0","0.00%","","","Never Blocked","",""
"AQFH0P2AKEMQ1","https://master-requester.mturk.com/workers/AQFH0P2AKEMQ1","2","2","100.00%","2","2","100.00%","0","0","0.00%","","","Never Blocked","",""
"ARUKOYG71MKP3","https://master-requester.mturk.com/workers/ARUKOYG71MKP3","2","2","100.00%","2","2","100.00%","0","0","0.00%","100","","Never Blocked","",""
"ASL9LVC97FUCZ","https://master-requester.mturk.com/workers/ASL9LVC97FUCZ","3","3","100.00%","3","3","100.00%","0","0","0.00%","100","","Never Blocked","",""
"ASROVV61167I6","https://master-requester.mturk.com/workers/ASROVV61167I6","0","0","0.00%","0","0","0.00%","0","0","0.00%","","","Never Blocked","",""
"AT1W8C7FPKKVM","https://master-requester.mturk.com/workers/AT1W8C7FPKKVM","64","62","96.88%","64","62","96.88%","0","0","0.00%","","","Never Blocked","",""
"AT2F5XE66HQLC","https://master-requester.mturk.com/workers/AT2F5XE66HQLC","12","12","100.00%","12","12","100.00%","0","0","0.00%","","","Never Blocked","",""
"AT8O683NZT0JA","https://master-requester.mturk.com/workers/AT8O683NZT0JA","1","1","100.00%","1","1","100.00%","0","0","0.00%","100","","Never Blocked","",""
"ATE32OFUXHUF8","https://master-requester.mturk.com/workers/ATE32OFUXHUF8","2","2","100.00%","2","2","100.00%","0","0","0.00%","","","Never Blocked","",""
"AUFIJSWMX9MZI","https://master-requester.mturk.com/workers/AUFIJSWMX9MZI","9","9","100.00%","9","9","100.00%","1","1","100.00%","","","Never Blocked","",""
"AUMM5IE22KG6I","https://master-requester.mturk.com/workers/AUMM5IE22KG6I","0","0","0.00%","0","0","0.00%","0","0","0.00%","","","Never Blocked","",""
"AUS3O4CPGHYR5","https://master-requester.mturk.com/workers/AUS3O4CPGHYR5","0","0","0.00%","0","0","0.00%","0","0","0.00%","","","Never Blocked","",""
"AUZ6D57S6ZENL","https://master-requester.mturk.com/workers/AUZ6D57S6ZENL","0","0","0.00%","0","0","0.00%","0","0","0.00%","100","","Never Blocked","",""
"AW02W1A865GT4","https://master-requester.mturk.com/workers/AW02W1A865GT4","3","3","100.00%","3","3","100.00%","0","0","0.00%","","","Never Blocked","",""
"AW2HEHEFKRGR6","https://master-requester.mturk.com/workers/AW2HEHEFKRGR6","1","1","100.00%","1","1","100.00%","1","1","100.00%","100","","Never Blocked","",""
"AWEO28LHUCQ25","https://master-requester.mturk.com/workers/AWEO28LHUCQ25","0","0","0.00%","0","0","0.00%","0","0","0.00%","","","Never Blocked","",""
"AWJ0LF6A0LXJN","https://master-requester.mturk.com/workers/AWJ0LF6A0LXJN","162","161","99.38%","162","161","99.38%","0","0","0.00%","100","","Never Blocked","",""
"AWKZHU8MJG60R","https://master-requester.mturk.com/workers/AWKZHU8MJG60R","2","2","100.00%","2","2","100.00%","0","0","0.00%","","","Never Blocked","",""
"AWPPIW21DGL29","https://master-requester.mturk.com/workers/AWPPIW21DGL29","0","0","0.00%","0","0","0.00%","0","0","0.00%","","","Never Blocked","",""
"AX3RDV6XXR1XB","https://master-requester.mturk.com/workers/AX3RDV6XXR1XB","20","20","100.00%","20","20","100.00%","0","0","0.00%","","","Never Blocked","",""
"AX5YKKRJ8IMN4","https://master-requester.mturk.com/workers/AX5YKKRJ8IMN4","0","0","0.00%","0","0","0.00%","0","0","0.00%","","","Never Blocked","",""
"AX8990LBL63YT","https://master-requester.mturk.com/workers/AX8990LBL63YT","1","1","100.00%","1","1","100.00%","0","0","0.00%","100","","Never Blocked","",""
"AXAXLC0TXQ0QW","https://master-requester.mturk.com/workers/AXAXLC0TXQ0QW","0","0","0.00%","0","0","0.00%","0","0","0.00%","100","","Never Blocked","",""
"AXDRBMVBO6IZU","https://master-requester.mturk.com/workers/AXDRBMVBO6IZU","2","0","0.00%","2","0","0.00%","0","0","0.00%","","","Never Blocked","",""
"AXGY6EGK05ZOV","https://master-requester.mturk.com/workers/AXGY6EGK05ZOV","3","3","100.00%","3","3","100.00%","0","0","0.00%","100","","Never Blocked","",""
"AXHLESLYR86OU","https://master-requester.mturk.com/workers/AXHLESLYR86OU","1","1","100.00%","1","1","100.00%","0","0","0.00%","","","Never Blocked","",""
"AXZFO1I37NT6M","https://master-requester.mturk.com/workers/AXZFO1I37NT6M","25","0","0.00%","25","0","0.00%","25","0","0.00%","","","Never Blocked","",""
"AY3W2L53R7EL3","https://master-requester.mturk.com/workers/AY3W2L53R7EL3","0","0","0.00%","0","0","0.00%","0","0","0.00%","","","Never Blocked","",""
"AZ09864AT2T29","https://master-requester.mturk.com/workers/AZ09864AT2T29","0","0","0.00%","0","0","0.00%","0","0","0.00%","","","Never Blocked","",""
"AZ0KS5UTO3EJ2","https://master-requester.mturk.com/workers/AZ0KS5UTO3EJ2","0","0","0.00%","0","0","0.00%","0","0","0.00%","","","Never Blocked","",""
"AZPJUBGJZ3BT4","https://master-requester.mturk.com/workers/AZPJUBGJZ3BT4","0","0","0.00%","0","0","0.00%","0","0","0.00%","","","Never Blocked","",""