https://surfdrive.surf.nl/files/index.php/s/B7PEqFZSZZBPcW8/download?path=%2FData%2FInput%2FDatasets%2FBerend%2FImages&files=B_656.jpg,4608,3072
B_656,daylight,wood,"[130, 130, 130]",['6223631']
6223631,2133,1402,2318,1593
