https://surfdrive.surf.nl/files/index.php/s/B7PEqFZSZZBPcW8/download?path=%2FData%2FInput%2FDatasets%2FBerend%2FImages&files=B_73.jpg,4608,3072
B_73,daylight,wood,"[130, 130, 130]","['300121', '4211412', '4550325']"
4550325,1609,2269,1825,2429
300121,2068,1413,2408,1616
4211412,2807,673,2911,755
