https://surfdrive.surf.nl/files/index.php/s/B7PEqFZSZZBPcW8/download?path=%2FData%2FInput%2FDatasets%2FBerend%2FImages&files=B_1050.jpg,4608,3072
B_1050,daylight,dirty_rug,"[120, 120, 120]","['654126', '4504381', '4517992', '4211221', '6177697', '6022023']"
654126,3076,1104,3264,1296
4504381,1149,1942,1338,2118
4517992,1970,1358,2281,1689
4211221,2298,1416,2624,1691
6177697,1239,981,1726,1326
6022023,1253,1678,1607,2016
