https://surfdrive.surf.nl/files/index.php/s/B7PEqFZSZZBPcW8/download?path=%2FData%2FInput%2FDatasets%2FBerend%2FImages&files=B_1104.jpg,4608,3072
B_1104,artificial_light,parquet_dark_brown,"[120, 120, 120]","['6075075', '4160403', '6252809', '4651236', '300821', '4181144', '4655172', '4539099', '6022064', '6073026', '300323', '6104154', '4504381']"
6075075,1622,1695,1917,1889
4160403,2370,2151,3212,2500
6252809,2822,517,3378,1346
4651236,2261,1033,2478,1205
300821,2857,1201,3823,1664
4181144,2041,1181,2729,1812
4655172,2734,1415,3272,1922
4539099,982,1141,1119,1322
6022064,2584,1273,2773,1635
6073026,2561,1172,2698,1300
300323,2579,755,2769,1073
6104154,1679,848,1931,1046
4504381,2354,1196,2504,1342
