https://surfdrive.surf.nl/files/index.php/s/B7PEqFZSZZBPcW8/download?path=%2FData%2FInput%2FDatasets%2FBerend%2FImages&files=B_1102.jpg,4608,3072
B_1102,artificial_light,parquet_dark_brown,"[120, 120, 120]","['6244886', '4211201', '4153827', '6229071', '300321', '4165967', '6225539', '4548180', '306201']"
6244886,2692,695,3088,1054
4211201,2100,1415,2758,1865
4153827,2512,1635,3204,2188
6229071,1240,1278,1544,1624
300321,1856,720,2094,1118
4165967,2366,911,2892,1441
6225539,1633,1329,2505,1726
4548180,1606,1814,1934,2023
306201,1423,1629,1653,1789
