https://surfdrive.surf.nl/files/index.php/s/B7PEqFZSZZBPcW8/download?path=%2FData%2FInput%2FDatasets%2FBerend%2FImages&files=B_1194.jpg,4608,3072
B_1194,artificial_light,parquet_light,"[120, 120, 120]","['4211412', '623224', '6244886', '4153827', '4211201', '300323', '6069259', '6229071', '4211149', '4143562', '4650630', '300321', '4650630']"
4211412,1607,1854,1867,2079
623224,2714,1269,3151,1754
6244886,1772,1825,2240,2319
4153827,2046,1225,2562,1887
4211201,1170,830,1761,1492
300323,1285,1417,1717,1792
6069259,1616,2043,1938,2396
6229071,2202,537,2529,916
4211149,896,1448,1258,1664
4143562,1660,1589,2048,1893
4650630,923,1682,1267,2052
4650630,1289,2057,1779,2564
300321,1254,1726,1624,2127
