https://surfdrive.surf.nl/files/index.php/s/B7PEqFZSZZBPcW8/download?path=%2FData%2FInput%2FDatasets%2FBerend%2FImages&files=B_1130.jpg,4608,3072
B_1130,artificial_light,desk_black_wood,"[120, 120, 120]","['4181135', '4649749', '300424', '6249125', '6003007', '4650630', '4181134', '306223', '4114319', '4651236', '4548180']"
4181135,2018,1089,2878,1400
4649749,2005,1478,2339,1671
300424,2367,800,2633,1081
6249125,3587,993,3733,1123
6003007,1728,1498,1969,1645
4650630,1569,1267,1969,1564
4181134,1645,578,2130,1196
306223,1061,1335,1300,1508
4114319,2662,837,3253,1329
4651236,2170,1382,2482,1548
4548180,1983,2035,2318,2216
