https://surfdrive.surf.nl/files/index.php/s/B7PEqFZSZZBPcW8/download?path=%2FData%2FInput%2FDatasets%2FBerend%2FImages&files=B_1216.jpg,4608,3072
B_1216,artificial_light,parquet_light,"[120, 120, 120]","['4157124', '4121967', '6075075', '4181144', '4655172', '4153825', '614321', '300821', '4181135', '4550325', '4153825']"
4157124,852,720,1021,861
4121967,829,1025,1019,1154
6075075,1795,1047,1944,1221
4181144,1288,984,1800,1400
4655172,1889,496,2230,746
4153825,1700,406,1912,608
4153825,1187,618,1404,818
614321,1729,902,1893,1088
300821,1122,850,1758,1027
4181135,2295,829,2793,1181
4550325,3706,871,3882,1055
