https://surfdrive.surf.nl/files/index.php/s/B7PEqFZSZZBPcW8/download?path=%2FData%2FInput%2FDatasets%2FBerend%2FImages&files=B_829.jpg,4608,3072
B_829,daylight,parquet_dark_brown,"[120, 120, 120]","['6225539', '4181134', '4655172', '623224', '4143562', '6028324', '6244886', '4165967', '4655172', '4567338']"
6225539,2917,1132,3476,1617
4181134,2500,1186,3063,1791
4655172,2525,894,3035,1226
4655172,2756,1090,3225,1497
623224,3052,1499,3425,1779
4143562,782,1731,1045,1977
6028324,2481,1793,2735,2038
6244886,2464,1571,2808,1840
4165967,2845,1771,3373,2079
4567338,3339,1770,3449,1968
