https://surfdrive.surf.nl/files/index.php/s/B7PEqFZSZZBPcW8/download?path=%2FData%2FInput%2FDatasets%2FBerend%2FImages&files=B_843.jpg,4608,3072
B_843,daylight,parquet_dark_brown,"[120, 120, 120]","['6225539', '4181134', '4520632', '4639693', '300321', '6177697', '654126', '4153827', '4121739', '4550325', '6223631', '4153825']"
6225539,2050,1625,2681,1878
4181134,2566,1658,3063,2233
4520632,2021,1125,2303,1500
4639693,2565,939,3304,1465
300321,1319,1367,1615,1653
6177697,2203,1399,2594,1662
654126,2893,1021,3025,1110
4153827,2348,1498,2788,1807
4121739,2183,1837,2397,2096
4550325,3009,1554,3249,1771
6223631,845,1394,1003,1532
4153825,1766,1085,2032,1348
