https://surfdrive.surf.nl/files/index.php/s/B7PEqFZSZZBPcW8/download?path=%2FData%2FInput%2FDatasets%2FBerend%2FImages&files=B_951.jpg,4608,3072
B_951,daylight,parquet_light,"[120, 120, 120]","['654126', '4153827', '4160403', '4651236', '4655172', '4550325']"
654126,2277,539,2392,667
4153827,2388,1677,2573,2030
4160403,1518,1377,1871,1787
4651236,2471,2410,2661,2533
4655172,1638,2379,1871,2798
4550325,1946,1610,2083,1799
