https://surfdrive.surf.nl/files/index.php/s/B7PEqFZSZZBPcW8/download?path=%2FData%2FInput%2FDatasets%2FBerend%2FImages&files=B_954.jpg,4608,3072
B_954,daylight,parquet_light,"[120, 120, 120]","['6244886', '6022023', '300821', '4181134', '300121', '4143562', '300123', '4114319', '6075079', '4157124', '306223', '4181144', '4143562']"
6244886,1975,1544,2150,1726
6022023,1854,1363,2020,1544
300821,2302,1123,2749,1383
4181134,2014,1686,2411,1845
300121,1563,1589,1840,1754
4143562,2193,1646,2326,1704
4143562,2230,1805,2403,1965
300123,1926,1808,2201,1996
4114319,2407,1553,2618,1829
6075079,2584,1650,2701,1754
4157124,2471,1434,2590,1525
306223,2445,1527,2544,1603
4181144,2031,1333,2400,1630
