https://surfdrive.surf.nl/files/index.php/s/B7PEqFZSZZBPcW8/download?path=%2FData%2FInput%2FDatasets%2FDavid%2FImages&files=C_1014.jpg,5472,3648
C_1014,daylight,couch,"[120, 120, 120]","['4109995', '6073026', '4165967', '300124', '6225539', '4211511', '4181144', '4520632', '300321', '4550325', '4211149']"
4109995,3660,1868,4032,2203
6073026,3645,2046,3901,2287
4165967,2487,1601,2822,2146
300124,3016,1836,3608,2434
6225539,2482,2140,3414,2727
4211511,1497,1582,1706,1823
4181144,3058,1294,3833,1886
4520632,3760,1483,4342,2038
300321,3529,1603,3917,1975
4550325,2752,1111,3045,1336
4211149,3446,2125,3697,2460
