https://surfdrive.surf.nl/files/index.php/s/B7PEqFZSZZBPcW8/download?path=%2FData%2FInput%2FDatasets%2FDavid%2FImages&files=C_1008.jpg,5472,3648
C_1008,daylight,couch,"[120, 120, 120]","['4109995', '6073026', '4165967', '300124', '6225539', '4211511', '4181144', '4520632', '300321', '4550325', '4211149', '4639693', '4649749']"
4109995,2721,1910,2983,2109
6073026,2470,2072,2637,2276
4165967,2229,1422,2763,1799
300124,1731,1794,2140,2323
6225539,3093,2051,3811,2302
4211511,2433,1910,2632,2088
4181144,1684,985,2312,1572
4520632,2226,2334,2755,2617
300321,2635,2109,3028,2481
4550325,2959,1936,3169,2140
4211149,1969,2376,2226,2559
4639693,2483,1663,3452,2056
4649749,3703,1663,3965,1831
