https://surfdrive.surf.nl/files/index.php/s/B7PEqFZSZZBPcW8/download?path=%2FData%2FInput%2FDatasets%2FDavid%2FImages&files=C_842.jpg,5472,3648
C_842,daylight,coffee-table,"[120, 120, 120]","['6138173', '6069259', '6223631', '4211166', '6075079', '300424', '6177697', '4639693', '4504369', '4567338', '6229071', '4211149', '4212454']"
6138173,2099,1534,2373,1797
6069259,2749,1597,2900,1772
6223631,2332,1823,2485,1982
4211166,2531,1484,2774,1741
6075079,1761,1878,2005,2103
300424,2859,1618,3109,1905
6177697,2282,1289,2749,1600
4639693,2970,1191,3731,1956
4504369,2888,2024,3043,2161
4567338,2886,1576,3053,1709
6229071,2441,1670,2690,1947
4211149,2688,1760,2864,2030
4212454,2481,1928,2648,2121
