https://surfdrive.surf.nl/files/index.php/s/B7PEqFZSZZBPcW8/download?path=%2FData%2FInput%2FDatasets%2FDavid%2FImages&files=C_899.jpg,5472,3648
C_899,daylight,coffee-table,"[120, 120, 120]","['4529240', '6074890', '623224', '6025026', '4650630', '6028324', '4211412', '300121', '4181134', '4153827', '6028324', '4567338']"
4529240,2031,2037,2226,2229
6074890,2612,2208,2815,2397
623224,2611,1248,2928,1552
6025026,3193,2024,3471,2241
4650630,2169,2174,2491,2508
6028324,2502,1564,2740,1784
6028324,2922,1179,3145,1409
4211412,2092,1928,2291,2083
300121,2716,1464,3126,1977
4181134,2945,1410,3472,2089
4153827,2328,1745,2798,2293
4567338,2617,2087,2817,2262
