https://surfdrive.surf.nl/files/index.php/s/B7PEqFZSZZBPcW8/download?path=%2FData%2FInput%2FDatasets%2FDavid%2FImages&files=C_936.jpg,5472,3648
C_936,daylight,couch,"[120, 120, 120]","['365901', '306201', '4529247', '300423', '6003007', '6244886', '6104154', '300421']"
365901,1988,2098,2618,2366
306201,2419,2021,2649,2143
4529247,3305,2042,3537,2185
300423,2226,1938,2428,2215
6003007,2575,1648,2790,1802
6244886,2077,2329,2455,2634
6104154,3228,1190,3522,1429
300421,1962,1908,2262,2162
