https://surfdrive.surf.nl/files/index.php/s/B7PEqFZSZZBPcW8/download?path=%2FData%2FInput%2FDatasets%2FDavid%2FImages&files=C_976.jpg,5472,3648
C_976,daylight,couch,"[120, 120, 120]","['654126', '6004938', '4210718', '6238674', '4539099', '4651236', '4153825']"
654126,2345,1502,2550,1670
6004938,3110,1974,3299,2204
4210718,2529,1633,3137,2168
6238674,2466,1890,2618,2100
4539099,3131,2236,3351,2393
4651236,2744,2163,3048,2341
4153825,2744,1440,3058,1801
