https://surfdrive.surf.nl/files/index.php/s/B7PEqFZSZZBPcW8/download?path=%2FData%2FInput%2FDatasets%2FDavid%2FImages&files=C_972.jpg,5472,3648
C_972,daylight,couch,"[120, 120, 120]","['654126', '6004938', '4210718', '6238674', '4539099', '4651236', '4153825', '4114319', '4211149']"
654126,1900,1661,2101,1831
6004938,2687,1008,2856,1179
4210718,1984,1671,2309,2355
6238674,2274,1241,2442,1396
4539099,2431,1849,2617,2021
4651236,1798,1308,2024,1545
4153825,2474,2143,2767,2459
4114319,3370,1680,3925,2086
4211149,2690,1978,2966,2286
