https://surfdrive.surf.nl/files/index.php/s/B7PEqFZSZZBPcW8/download?path=%2FData%2FInput%2FDatasets%2FHiba%2FImages&files=H_498.jpg,5184,3456
H_498,daylight,parquet_brown_medium,"[120, 120, 120]","['4639693', '4211437', '4649749', '6062574', '4517992', '300124', '4153827', '4211412', '4118793']"
4639693,2020,2145,2703,2512
4211437,2542,1718,2691,1874
4649749,3553,2113,3752,2250
6062574,2372,1623,2485,1730
4517992,3015,1696,3229,1900
300124,1914,1245,2211,1475
4153827,1636,1631,1966,1822
4211412,1715,1925,1828,2024
4118793,3004,1363,3114,1471
