https://surfdrive.surf.nl/files/index.php/s/B7PEqFZSZZBPcW8/download?path=%2FData%2FInput%2FDatasets%2FHiba%2FImages&files=H_513.jpg,5184,3456
H_513,daylight,parquet_brown_medium,"[120, 120, 120]","['4520632', '4181134', '4211201', '4504369', '6025026', '6244886', '623224', '4529247', '654126', '4211511']"
4520632,1906,1462,2176,1753
4181134,2287,1886,2767,2080
4211201,2350,1511,2675,1737
4504369,3304,1561,3385,1634
6025026,3483,1771,3653,1911
6244886,3140,1297,3284,1414
623224,1208,1200,1422,1352
4529247,2804,1471,2912,1542
654126,3303,1211,3404,1328
4211511,2558,1168,2674,1273
