https://surfdrive.surf.nl/files/index.php/s/B7PEqFZSZZBPcW8/download?path=%2FData%2FInput%2FDatasets%2FHiba%2FImages&files=H_523.jpg,5184,3456
H_523,daylight,parquet_brown_medium,"[120, 120, 120]","['4520632', '4181134', '4211201', '4504369', '6025026', '6244886', '623224']"
4520632,2314,1756,2683,1995
4181134,2549,1533,3008,1728
4211201,1842,1710,2202,1976
4504369,3666,1558,3747,1651
6025026,3027,1598,3157,1744
6244886,1737,1452,1954,1604
623224,2304,1390,2512,1595
