https://surfdrive.surf.nl/files/index.php/s/B7PEqFZSZZBPcW8/download?path=%2FData%2FInput%2FDatasets%2FHiba%2FImages&files=H_557.jpg,5184,3456
H_557,daylight,table_plastic_grey,"[120, 120, 120]","['6022023', '4143562', '300323', '6238674', '300401', '300423', '300123', '300821', '4649749', '4118793', '306223']"
6022023,2463,1160,2640,1327
4143562,2243,1312,2404,1436
300323,2683,1420,2873,1656
6238674,2040,1743,2148,1870
300401,2867,2225,3071,2411
300423,2218,1180,2386,1319
300123,2938,1068,3174,1357
300821,1502,981,1815,1434
4649749,1466,1996,1575,2163
4118793,3093,1551,3233,1706
306223,2936,2144,3076,2252
