https://surfdrive.surf.nl/files/index.php/s/B7PEqFZSZZBPcW8/download?path=%2FData%2FInput%2FDatasets%2FHiba%2FImages&files=H_666.jpg,5184,3456
H_666,daylight,parquet_brown_light,"[120, 120, 120]","['6069259', '4165967', '6238674', '4181144', '4558957', '4181134', '6244886', '4504369', '4143562', '4210718', '4548180', '4649749']"
6069259,3053,1766,3237,2024
4165967,3530,880,3813,1292
6238674,1162,1808,1361,2012
4181144,3636,2121,4604,2627
4558957,3073,801,3535,1183
4181134,2631,830,3083,1381
6244886,2363,1595,2666,1883
4504369,1405,1902,1614,2111
4143562,2304,1039,2631,1282
4210718,3569,1520,4324,1897
4548180,2924,1997,3257,2245
4649749,2349,1922,2666,2111
