https://surfdrive.surf.nl/files/index.php/s/B7PEqFZSZZBPcW8/download?path=%2FData%2FInput%2FDatasets%2FHiba%2FImages&files=H_678.jpg,5184,3456
H_678,daylight,parquet_brown_light,"[120, 120, 120]","['6138173', '6229071', '6075079', '4650630', '300424', '4527943', '300321', '4153825', '306201', '4558957', '4650630', '4529240', '4114319']"
6138173,2357,1618,2659,1888
6229071,1025,2206,1358,2563
6075079,2056,777,2278,912
4650630,2246,562,2421,856
4650630,1858,905,2175,1151
300424,2175,913,2437,1144
4527943,3047,1453,3293,1771
300321,2365,786,2682,1040
4153825,2444,1009,2682,1271
306201,2595,2678,2857,2908
4558957,1199,1407,1731,1892
4529240,2064,1094,2246,1205
4114319,2778,895,3253,1324
