https://surfdrive.surf.nl/files/index.php/s/B7PEqFZSZZBPcW8/download?path=%2FData%2FInput%2FDatasets%2FHiba%2FImages&files=H_696.jpg,5184,3456
H_696,daylight,parquet_brown_light,"[120, 120, 120]","['4160403', '4211221', '614321', '6073026', '6035291', '6025026', '4520632', '6177697', '4639693', '6022023', '4211614', '4118793', '6244886']"
4160403,2322,1133,2573,1635
4211221,1731,2483,2021,2831
614321,2112,1539,2328,1786
6073026,2002,1683,2176,1878
6035291,2484,1554,2707,1756
6025026,1942,1379,2148,1486
4520632,3415,1454,3739,1884
6177697,2564,1269,2932,1615
4639693,3113,1154,3326,1869
6022023,2520,2129,2811,2435
4211614,2687,739,2906,904
4118793,2774,982,2890,1138
6244886,3670,1876,3968,2139
