https://surfdrive.surf.nl/files/index.php/s/B7PEqFZSZZBPcW8/download?path=%2FData%2FInput%2FDatasets%2FHiba%2FImages&files=H_763.jpg,5184,3456
H_763,artificial_light,parquet_brown_medium,"[120, 120, 120]","['4550348', '4153827', '300421', '6003007', '4211437', '654126', '4181135', '6252809', '4211437', '4548180', '4211149', '4655172']"
4550348,2432,1431,2582,1586
4153827,2679,1187,3009,1482
300421,4043,2243,4285,2477
6003007,2004,1666,2096,1782
4211437,2741,1649,2857,1798
4211437,4138,2066,4323,2303
654126,2285,1580,2427,1725
4181135,2167,1882,2581,2421
6252809,2704,1610,3058,2348
4548180,1439,1842,1624,1988
4211149,3676,1582,3879,1733
4655172,2282,1780,2631,2146
