https://surfdrive.surf.nl/files/index.php/s/B7PEqFZSZZBPcW8/download?path=%2FData%2FInput%2FDatasets%2FHiba%2FImages&files=H_796.jpg,5184,3456
H_796,artificial_light,parquet_brown_medium,"[120, 120, 120]","['4114319', '300401', '6075075', '6151663', '306223', '4157124', '4181134', '4529247', '6252809']"
4114319,3125,1262,3443,1501
300401,2867,1530,3051,1719
6075075,2500,1530,2694,1659
6151663,2326,1724,2450,1878
306223,2371,2260,2480,2424
4157124,2510,1823,2669,1977
4181134,3081,1803,3602,2235
4529247,2589,1649,2699,1739
6252809,1259,1391,1775,1883
