https://surfdrive.surf.nl/files/index.php/s/B7PEqFZSZZBPcW8/download?path=%2FData%2FInput%2FDatasets%2FBerend%2FImages&files=B_129.jpg,4608,3072
B_129,daylight,wood,"[130, 130, 130]","['6252809', '300323']"
300323,2966,1027,3403,1520
6252809,901,1603,2727,2260
