https://surfdrive.surf.nl/files/index.php/s/B7PEqFZSZZBPcW8/download?path=%2FData%2FInput%2FDatasets%2FBerend%2FImages&files=B_154.jpg,4608,3072
B_154,daylight,wood,"[130, 130, 130]","['300421', '6138173', '4114319', '4211221', '6004938', '4211166']"
6138173,1571,1616,1800,1899
6004938,2464,2099,2642,2324
300421,2542,1280,2796,1482
4211166,2270,1255,2493,1499
4114319,1983,1311,2433,1769
4211221,1771,1521,2028,1833
