https://surfdrive.surf.nl/files/index.php/s/B7PEqFZSZZBPcW8/download?path=%2FData%2FInput%2FDatasets%2FBerend%2FImages&files=B_245.jpg,4608,3072
B_245,daylight,wood,"[130, 130, 130]","['6138173', '4210718', '4210718', '4121739', '4539099', '4211166', '300123', '6035291']"
4210718,2127,655,2461,1201
4121739,1528,994,1722,1300
4210718,1193,1812,1846,2276
300123,1936,1830,2576,2367
6138173,1555,2299,1843,2669
4539099,4030,967,4165,1147
6035291,2520,1183,2750,1449
4211166,2461,1485,2700,1769
