https://surfdrive.surf.nl/files/index.php/s/B7PEqFZSZZBPcW8/download?path=%2FData%2FInput%2FDatasets%2FBerend%2FImages&files=B_339.jpg,4608,3072
B_339,daylight,wood,"[130, 130, 130]","['6003007', '4153827', '4621545', '6073026', '300401', '6074890', '4550325', '4118793', '4504369']"
4504369,2486,1972,2603,2083
4550325,1876,2173,2056,2373
4621545,1848,1986,2036,2141
4153827,1608,1990,1963,2317
4118793,1437,1932,1553,2065
300401,1871,1824,2011,2004
6003007,1515,1713,1637,1810
6074890,1324,1740,1423,1853
6073026,3009,869,3073,965
