https://surfdrive.surf.nl/files/index.php/s/B7PEqFZSZZBPcW8/download?path=%2FData%2FInput%2FDatasets%2FBerend%2FImages&files=B_337.jpg,4608,3072
B_337,daylight,wood,"[130, 130, 130]","['6003007', '4153827', '4621545', '6073026', '300401', '6074890', '4550325', '4118793']"
4118793,1212,1296,1443,1542
300401,1475,1188,1873,1410
4153827,1690,1327,2290,1953
4550325,2031,1833,2454,2200
4621545,2549,1542,2935,1896
6003007,2556,1359,2834,1511
6073026,2606,1207,2872,1391
6074890,2669,834,2916,1043
