https://surfdrive.surf.nl/files/index.php/s/B7PEqFZSZZBPcW8/download?path=%2FData%2FInput%2FDatasets%2FBerend%2FImages&files=B_336.jpg,4608,3072
B_336,daylight,wood,"[130, 130, 130]","['6003007', '4153827', '4621545', '6073026', '300401', '6074890', '4550325', '4118793']"
4153827,1706,1178,2316,1574
4550325,1759,1559,2061,1800
300401,1266,1040,1555,1260
6074890,2898,865,2989,997
6003007,2842,1170,2958,1336
4621545,1728,1071,2016,1246
4118793,1914,938,2063,1115
6073026,1631,1211,1766,1286
