https://surfdrive.surf.nl/files/index.php/s/B7PEqFZSZZBPcW8/download?path=%2FData%2FInput%2FDatasets%2FBerend%2FImages&files=B_340.jpg,4607,3072
B_340,daylight,wood,"[130, 130, 130]","['6003007', '4153827', '4621545', '6073026', '300401', '6074890', '4550325', '4118793', '4504369']"
6073026,1607,1474,1739,1608
4118793,1687,1591,1833,1720
6074890,1850,1560,1919,1671
6003007,1924,1454,2013,1571
4621545,1744,1668,1904,1814
300401,1696,1824,1916,2047
4504369,1939,1987,2047,2078
4550325,1782,2027,2021,2218
4153827,1416,2082,1756,2519
