https://surfdrive.surf.nl/files/index.php/s/B7PEqFZSZZBPcW8/download?path=%2FData%2FInput%2FDatasets%2FBerend%2FImages&files=B_527.jpg,4608,3072
B_527,daylight,wood,"[130, 130, 130]","['6035291', '4567338', '6177697']"
4567338,1876,1555,2136,1718
6177697,2230,1262,2363,1444
6035291,2185,1064,2701,1350
