https://surfdrive.surf.nl/files/index.php/s/B7PEqFZSZZBPcW8/download?path=%2FData%2FInput%2FDatasets%2FBerend%2FImages&files=B_565.jpg,4608,3072
B_565,daylight,wood,"[130, 130, 130]","['4550325', '6229071', '4639693', '6004938', '6069259']"
6004938,1157,1443,1397,1693
6229071,1323,1749,1536,1952
6069259,2757,555,2952,814
4639693,2332,1203,3239,2221
4550325,2665,1305,2924,1527
