https://surfdrive.surf.nl/files/index.php/s/B7PEqFZSZZBPcW8/download?path=%2FData%2FInput%2FDatasets%2FBerend%2FImages&files=B_574.jpg,4608,3072
B_574,daylight,wood,"[130, 130, 130]",['300401']
300401,2034,1425,2391,1664
