https://surfdrive.surf.nl/files/index.php/s/B7PEqFZSZZBPcW8/download?path=%2FData%2FInput%2FDatasets%2FBerend%2FImages&files=B_647.jpg,4608,3072
B_647,daylight,wood,"[130, 130, 130]","['4118793', '4114319', '4558957', '4539099', '6104154', '4109995', '4558957', '4529240']"
4529240,1308,678,1359,776
4558957,2836,1245,3113,1471
4109995,2479,1593,2665,1770
4558957,2200,1697,2539,1977
4114319,1901,1977,2277,2413
6104154,2960,1870,3164,2034
4118793,3332,1863,3447,1994
4539099,3178,2421,3336,2529
