https://surfdrive.surf.nl/files/index.php/s/B7PEqFZSZZBPcW8/download?path=%2FData%2FInput%2FDatasets%2FBerend%2FImages&files=B_653.jpg,4608,3072
B_653,daylight,wood,"[130, 130, 130]","['4118793', '4114319', '4558957', '4539099', '6104154', '4109995', '4558957', '4529240', '4157124', '4651236']"
4558957,705,996,1032,1237
4114319,2579,1618,2975,1934
4651236,2452,1642,2567,1786
6104154,2962,1653,3132,1808
4558957,2495,1358,2822,1584
4109995,2379,1274,2576,1463
4157124,2474,1217,2650,1316
4539099,3350,1319,3436,1423
4118793,2034,1370,2112,1512
4529240,2112,1491,2206,1593
