https://surfdrive.surf.nl/files/index.php/s/B7PEqFZSZZBPcW8/download?path=%2FData%2FInput%2FDatasets%2FBerend%2FImages&files=B_709.jpg,4608,3072
B_709,daylight,wood,"[130, 130, 130]","['300121', '6075079']"
300121,2148,1710,3124,2474
6075079,813,704,1219,997
