https://surfdrive.surf.nl/files/index.php/s/B7PEqFZSZZBPcW8/download?path=%2FData%2FInput%2FDatasets%2FBerend%2FImages&files=B_743.jpg,4608,3072
B_743,daylight,wood,"[130, 130, 130]","['306201', '4527943', '6004938', '4121967', '4181144', '4160403', '300423', '6151663', '6073026', '6244886']"
4181144,1934,1532,2594,2005
6073026,1858,1870,2017,2007
4527943,1683,1575,1893,1738
306201,1679,1436,1820,1542
6004938,1532,1353,1683,1479
300423,2150,1245,2364,1416
6244886,2184,1147,2408,1400
6151663,1930,1123,2115,1314
4121967,1850,1294,1952,1445
4160403,1877,1477,2559,1674
