https://surfdrive.surf.nl/files/index.php/s/B7PEqFZSZZBPcW8/download?path=%2FData%2FInput%2FDatasets%2FBerend%2FImages&files=B_799.jpg,4608,3072
B_799,daylight,wood,"[130, 130, 130]","['6151663', '4550348']"
6151663,2353,1133,2727,1512
4550348,1702,1537,2121,1939
