https://surfdrive.surf.nl/files/index.php/s/B7PEqFZSZZBPcW8/download?path=%2FData%2FInput%2FDatasets%2FDavid%2FImages&files=C_130.jpg,5472,3648
C_130,artificial,coffee_table,"[130, 130, 130]","['6238674', '4212454', '4504369', '4550348', '4527943']"
4504369,2764,1335,2911,1459
4212454,2727,1584,2911,1783
4550348,2572,1675,2701,1818
4527943,2474,1545,2589,1653
6238674,2634,1861,2760,2099
