https://surfdrive.surf.nl/files/index.php/s/B7PEqFZSZZBPcW8/download?path=%2FData%2FInput%2FDatasets%2FDavid%2FImages&files=C_161.jpg,5472,3647
C_161,daylight,coffee_table,"[130, 130, 130]","['4121739', '6025026', '6238674', '6104154', '4121739', '4529240']"
6104154,2105,1919,2366,2078
4121739,2224,1740,2478,1914
6025026,2705,1904,2959,2132
4121739,1643,2122,1883,2306
4529240,2308,1425,2468,1578
6238674,3733,1551,3929,1679
