https://surfdrive.surf.nl/files/index.php/s/B7PEqFZSZZBPcW8/download?path=%2FData%2FInput%2FDatasets%2FDavid%2FImages&files=C_253.jpg,5472,3648
C_253,daylight,coffee_table,"[130, 130, 130]","['6223631', '300424']"
6223631,1952,1530,2059,1704
300424,3162,1601,3366,1924
