https://surfdrive.surf.nl/files/index.php/s/B7PEqFZSZZBPcW8/download?path=%2FData%2FInput%2FDatasets%2FDavid%2FImages&files=C_287.jpg,5472,3648
C_287,daylight,coffee_table,"[130, 130, 130]","['6151663', '365901', '4211201', '300401', '6252809']"
6252809,2039,1051,3416,1996
300401,3090,1256,3436,1578
4211201,2459,1693,3148,2181
6151663,3332,1532,3629,1840
365901,3010,1501,3557,2101
