https://surfdrive.surf.nl/files/index.php/s/B7PEqFZSZZBPcW8/download?path=%2FData%2FInput%2FDatasets%2FDavid%2FImages&files=C_304.jpg,5472,3648
C_304,daylight,living_room_floor,"[130, 130, 130]",['4650630']
4650630,2654,1679,2840,1853
