https://surfdrive.surf.nl/files/index.php/s/B7PEqFZSZZBPcW8/download?path=%2FData%2FInput%2FDatasets%2FDavid%2FImages&files=C_399.jpg,5472,3648
C_399,daylight,living_room_floor,"[130, 130, 130]","['300421', '300321', '300424']"
300321,2612,1712,2819,1937
300421,3354,1634,3516,1770
300424,2846,1166,2996,1275
