https://surfdrive.surf.nl/files/index.php/s/B7PEqFZSZZBPcW8/download?path=%2FData%2FInput%2FDatasets%2FDavid%2FImages&files=C_413.jpg,5472,3648
C_413,daylight,living_room_floor,"[130, 130, 130]","['300421', '300321', '300424', '614321', '4153827', '4165967', '4165967']"
300424,2148,1640,2277,1829
4153827,2160,1303,2346,1621
4165967,2452,1757,2833,2129
4165967,3129,1744,3509,2042
300321,2784,2029,3028,2260
300421,3688,1497,3833,1689
614321,3202,782,3350,954
