https://surfdrive.surf.nl/files/index.php/s/B7PEqFZSZZBPcW8/download?path=%2FData%2FInput%2FDatasets%2FDavid%2FImages&files=C_428.jpg,5472,3648
C_428,daylight,living_room_floor,"[130, 130, 130]","['6028324', '4558957', '6104154']"
4558957,1825,1585,2141,1909
6104154,2627,1716,2815,1918
6028324,3284,2174,3417,2336
