https://surfdrive.surf.nl/files/index.php/s/B7PEqFZSZZBPcW8/download?path=%2FData%2FInput%2FDatasets%2FDavid%2FImages&files=C_521.jpg,5472,3648
C_521,daylight,couch,"[130, 130, 130]",['6177697']
6177697,2699,1470,2863,1887
