https://surfdrive.surf.nl/files/index.php/s/B7PEqFZSZZBPcW8/download?path=%2FData%2FInput%2FDatasets%2FDavid%2FImages&files=C_531.jpg,5472,3648
C_531,daylight,couch,"[130, 130, 130]","['6177697', '6223631', '6073026', '300124', '4647553']"
300124,2576,1907,2868,2078
4647553,2669,1720,2830,1872
6177697,3283,1615,3365,1844
6073026,3121,1233,3217,1327
6223631,2576,1900,2645,1918
