https://surfdrive.surf.nl/files/index.php/s/B7PEqFZSZZBPcW8/download?path=%2FData%2FInput%2FDatasets%2FDavid%2FImages&files=C_61.jpg,5472,3648
C_61,daylight,coffee_table,"[130, 130, 130]",['4517992']
4517992,2650,1500,2852,1884
