https://surfdrive.surf.nl/files/index.php/s/B7PEqFZSZZBPcW8/download?path=%2FData%2FInput%2FDatasets%2FDavid%2FImages&files=C_735.jpg,5472,3648
C_735,daylight,couch,"[130, 130, 130]","['6069259', '4211054']"
4211054,2671,1699,2955,2010
6069259,2093,1314,2269,1544
