https://surfdrive.surf.nl/files/index.php/s/B7PEqFZSZZBPcW8/download?path=%2FData%2FInput%2FDatasets%2FDavid%2FImages&files=C_770.jpg,5472,3648
C_770,daylight,couch,"[130, 130, 130]","['6074890', '4211511', '4520632', '300421', '4558957', '4143562']"
4520632,2427,1325,2823,1876
4558957,2910,1508,3374,1942
6074890,2638,1982,2754,2153
4143562,2299,1873,2444,2154
300421,2037,1467,2186,1723
4211511,2489,1142,2656,1307
