https://surfdrive.surf.nl/files/index.php/s/B7PEqFZSZZBPcW8/download?path=%2FData%2FInput%2FDatasets%2FHiba%2FImages&files=H_160.jpg,5184,3456
H_160,daylight,wood,"[130, 130, 130]","['4109995', '6025026', '6025026']"
6025026,1821,1806,2100,2087
4109995,2157,1106,2374,1389
6025026,3101,1146,3392,1330
