https://surfdrive.surf.nl/files/index.php/s/B7PEqFZSZZBPcW8/download?path=%2FData%2FInput%2FDatasets%2FHiba%2FImages&files=H_247.jpg,5184,3456
H_247,daylight,wood,"[130, 130, 130]","['6035291', '4160403', '6104154', '300123', '6069259']"
6104154,1744,1871,1975,2068
4160403,1809,1780,2364,2016
300123,2603,1731,2813,2120
6035291,2276,2102,2468,2227
6069259,2515,1049,2631,1199
