https://surfdrive.surf.nl/files/index.php/s/B7PEqFZSZZBPcW8/download?path=%2FData%2FInput%2FDatasets%2FHiba%2FImages&files=H_333.jpg,5184,3455
H_333,daylight,wood,"[130, 130, 130]","['6022064', '300421']"
6022064,2445,1477,2774,1848
300421,2354,1870,2699,2139
