https://surfdrive.surf.nl/files/index.php/s/B7PEqFZSZZBPcW8/download?path=%2FData%2FInput%2FDatasets%2FHiba%2FImages&files=H_359.jpg,5184,3456
H_359,daylight,wood,"[130, 130, 130]","['6035291', '6151663', '4181144', '4649749', '4639693', '300124']"
4639693,3087,1299,4005,2257
6151663,2330,1847,2639,2083
4649749,2027,1212,2285,1407
4181144,1141,1606,1482,2324
6035291,1655,946,1868,1086
300124,2635,649,2937,1094
