https://surfdrive.surf.nl/files/index.php/s/B7PEqFZSZZBPcW8/download?path=%2FData%2FInput%2FDatasets%2FHiba%2FImages&files=H_372.jpg,5184,3456
H_372,daylight,wood,"[130, 130, 130]","['365901', '300424', '4529247', '4211412']"
365901,2400,1579,2625,1937
4529247,1960,2017,2180,2129
4211412,3294,1641,3395,1797
300424,3734,1937,4011,2150
