https://surfdrive.surf.nl/files/index.php/s/B7PEqFZSZZBPcW8/download?path=%2FData%2FInput%2FDatasets%2FHiba%2FImages&files=H_382.jpg,5184,3456
H_382,daylight,wood,"[130, 130, 130]","['365901', '300424', '4529247', '4211412', '6238674', '4539099', '4211054']"
4529247,2358,1037,2500,1184
4211412,1628,1226,1752,1371
365901,2784,1387,3002,1803
300424,2566,1458,2774,1716
6238674,2264,1363,2424,1500
4539099,2627,1708,2807,1870
4211054,2008,2224,2343,2538
