https://surfdrive.surf.nl/files/index.php/s/B7PEqFZSZZBPcW8/download?path=%2FData%2FInput%2FDatasets%2FHiba%2FImages&files=H_419.jpg,5184,3456
H_419,daylight,wood,"[130, 130, 130]","['4211166', '4647553', '4114319', '4550348', '4567338', '4211437', '4621545', '654126', '4211201']"
4211201,3358,1786,3656,2084
4114319,1694,2208,2215,2713
4647553,2592,1204,2737,1424
4621545,2153,1506,2368,1668
4550348,1880,1490,2062,1643
4567338,1052,1440,1188,1535
4211166,2476,1676,2683,1838
4211437,2584,1544,2758,1738
654126,2188,1638,2342,1818
