https://surfdrive.surf.nl/files/index.php/s/B7PEqFZSZZBPcW8/download?path=%2FData%2FInput%2FDatasets%2FHiba%2FImages&files=H_55.jpg,5184,3456
H_55,daylight,wood,"[130, 130, 130]","['4211511', '4529240', '614321']"
614321,3799,1234,4002,1492
4529240,2490,1135,2655,1267
4211511,2437,1561,2650,1733
