https://surfdrive.surf.nl/files/index.php/s/B7PEqFZSZZBPcW8/download?path=%2FData%2FInput%2FDatasets%2FHiba%2FImages&files=H_83.jpg,5184,3456
H_83,daylight,wood,"[130, 130, 130]","['4647553', '4153825', '4118793']"
4153825,3684,1586,3865,1758
4647553,2454,1702,2716,1974
4118793,3954,1156,4026,1227
