https://surfdrive.surf.nl/files/index.php/s/B7PEqFZSZZBPcW8/download?path=%2FData%2FInput%2FDatasets%2FBerend%2FImages&files=B_149.jpg,4608,3072
B_149,daylight,wood,"[130, 130, 130]","['300421', '6138173', '4114319', '4211221']"
300421,3070,1272,3268,1372
6138173,964,1640,1150,1791
4114319,3027,1854,3424,2062
4211221,2344,1219,2533,1439
