https://surfdrive.surf.nl/files/index.php/s/B7PEqFZSZZBPcW8/download?path=%2FData%2FInput%2FDatasets%2FBerend%2FImages&files=B_324.jpg,4608,3072
B_324,daylight,wood,"[130, 130, 130]","['6003007', '4153827', '4621545', '6073026']"
6003007,2368,1215,2539,1392
4153827,2100,1347,2401,1730
4621545,1927,1912,2251,2127
6073026,2822,1395,3023,1625
