https://surfdrive.surf.nl/files/index.php/s/B7PEqFZSZZBPcW8/download?path=%2FData%2FInput%2FDatasets%2FBerend%2FImages&files=B_377.jpg,4608,3072
B_377,daylight,wood,"[130, 130, 130]",['4181144']
4181144,2132,1358,2867,1644
