https://surfdrive.surf.nl/files/index.php/s/B7PEqFZSZZBPcW8/download?path=%2FData%2FInput%2FDatasets%2FBerend%2FImages&files=B_38.jpg,4608,3072
B_38,daylight,wood,"[130, 130, 130]","['306201', '4649749', '6025026']"
306201,3075,954,3269,1144
4649749,1942,2045,2252,2222
6025026,1445,2020,1715,2323
