https://surfdrive.surf.nl/files/index.php/s/B7PEqFZSZZBPcW8/download?path=%2FData%2FInput%2FDatasets%2FBerend%2FImages&files=B_468.jpg,4608,3072
B_468,daylight,wood,"[130, 130, 130]","['6075079', '4211201', '4165967']"
6075079,1354,1379,1939,1962
4211201,2169,1234,2727,1829
4165967,2651,1670,2993,1938
