https://surfdrive.surf.nl/files/index.php/s/B7PEqFZSZZBPcW8/download?path=%2FData%2FInput%2FDatasets%2FBerend%2FImages&files=B_53.jpg,4608,3072
B_53,daylight,wood,"[130, 130, 130]","['6075079', '4520632', '300421']"
6075079,2170,981,2679,1340
4520632,1655,1399,1920,1598
300421,1987,2081,2137,2352
