https://surfdrive.surf.nl/files/index.php/s/B7PEqFZSZZBPcW8/download?path=%2FData%2FInput%2FDatasets%2FBerend%2FImages&files=B_53.jpg,4608,3072
B_53,daylight,wood,"[130, 130, 130]","['6075079', '4520632', '300421']"
6075079,1981,2084,2211,2352
4520632,2167,978,2684,1441
300421,1651,1393,1934,1681
