https://surfdrive.surf.nl/files/index.php/s/B7PEqFZSZZBPcW8/download?path=%2FData%2FInput%2FDatasets%2FBerend%2FImages&files=B_543.jpg,4608,3072
B_543,daylight,wood,"[130, 130, 130]",['4504369']
4504369,2126,1428,2383,1631
