https://surfdrive.surf.nl/files/index.php/s/B7PEqFZSZZBPcW8/download?path=%2FData%2FInput%2FDatasets%2FBerend%2FImages&files=B_582.jpg,4608,3072
B_582,daylight,wood,"[130, 130, 130]","['300401', '654126', '4211149', '300423']"
300401,1461,2300,1870,2652
654126,2427,1045,2572,1187
4211149,1882,1413,2112,1801
300423,2663,2051,3035,2378
