https://surfdrive.surf.nl/files/index.php/s/B7PEqFZSZZBPcW8/download?path=%2FData%2FInput%2FDatasets%2FBerend%2FImages&files=B_591.jpg,4608,3072
B_591,daylight,wood,"[130, 130, 130]","['300401', '654126', '4211149', '300423', '4504381', '4181135', '4517992']"
300401,1824,1297,2275,1710
654126,2860,709,3154,1002
4211149,3229,658,3642,1006
300423,3134,1652,3368,2111
4181135,1146,1269,1874,1666
4504381,1137,1274,1877,1630
4517992,1745,2001,2296,2482
