https://surfdrive.surf.nl/files/index.php/s/B7PEqFZSZZBPcW8/download?path=%2FData%2FInput%2FDatasets%2FBerend%2FImages&files=B_631.jpg,4608,3072
B_631,daylight,wood,"[130, 130, 130]","['4118793', '4114319', '4558957']"
4118793,1801,1051,1975,1274
4114319,2468,2088,2822,2703
4558957,2175,865,2652,1239
