https://surfdrive.surf.nl/files/index.php/s/B7PEqFZSZZBPcW8/download?path=%2FData%2FInput%2FDatasets%2FBerend%2FImages&files=B_631.jpg,4608,3072
B_631,daylight,wood,"[130, 130, 130]","['4118793', '4114319', '4558957']"
4118793,1802,1054,1993,1279
4114319,2467,2078,2843,2708
4558957,2125,767,2687,1310
