https://surfdrive.surf.nl/files/index.php/s/B7PEqFZSZZBPcW8/download?path=%2FData%2FInput%2FDatasets%2FBerend%2FImages&files=B_6.jpg,4608,3072
B_6,daylight,wood,"[130, 130, 130]","['4650630', '6252809', '4211054']"
4650630,1768,1140,2146,1490
6252809,1478,1176,1700,2483
4211054,2301,968,2591,1197
