https://surfdrive.surf.nl/files/index.php/s/B7PEqFZSZZBPcW8/download?path=%2FData%2FInput%2FDatasets%2FBerend%2FImages&files=B_70.jpg,4608,3072
B_70,daylight,wood,"[130, 130, 130]","['300121', '4211412']"
300121,2223,796,2865,1231
4211412,1876,2333,2090,2582
