https://surfdrive.surf.nl/files/index.php/s/B7PEqFZSZZBPcW8/download?path=%2FData%2FInput%2FDatasets%2FBerend%2FImages&files=B_82.jpg,4608,3072
B_82,daylight,wood,"[130, 130, 130]","['4211149', '4539099', '6025026']"
4211149,2069,1291,2306,1617
4539099,1467,1287,1654,1439
6025026,1319,756,1602,1111
