https://surfdrive.surf.nl/files/index.php/s/B7PEqFZSZZBPcW8/download?path=%2FData%2FInput%2FDatasets%2FDavid%2FImages&files=C_129.jpg,5472,3648
C_129,artificial,coffee_table,"[130, 130, 130]","['6238674', '4212454', '4504369', '4550348', '4527943']"
6238674,2160,2114,2311,2261
4212454,2419,1760,2552,1892
4504369,2349,1870,2485,1974
4550348,2383,1912,2627,2096
4527943,2806,1469,3010,1609
