https://surfdrive.surf.nl/files/index.php/s/B7PEqFZSZZBPcW8/download?path=%2FData%2FInput%2FDatasets%2FDavid%2FImages&files=C_123.jpg,5472,3648
C_123,artificial,coffee_table,"[130, 130, 130]","['6238674', '4212454', '4504369']"
6238674,2692,1683,2870,1807
4212454,2169,1873,2304,2005
4504369,3284,2142,3470,2296
