https://surfdrive.surf.nl/files/index.php/s/B7PEqFZSZZBPcW8/download?path=%2FData%2FInput%2FDatasets%2FDavid%2FImages&files=C_139.jpg,5472,3648
C_139,artificial,coffee_table,"[130, 130, 130]","['6238674', '4212454', '4504369', '4550348', '4527943', '6074890', '6244886', '4651236']"
6238674,3195,1768,3383,2054
4212454,2694,1775,2957,2030
4504369,2462,1751,2696,1986
4550348,2160,1631,2529,1895
4527943,2716,1299,3056,1683
6074890,2524,1569,2798,1778
6244886,2431,1209,2880,1575
4651236,2209,1256,2456,1545
