https://surfdrive.surf.nl/files/index.php/s/B7PEqFZSZZBPcW8/download?path=%2FData%2FInput%2FDatasets%2FDavid%2FImages&files=C_131.jpg,5472,3648
C_131,artificial,coffee_table,"[130, 130, 130]","['6238674', '4212454', '4504369', '4550348', '4527943']"
6238674,2417,1495,2519,1679
4212454,2541,1490,2644,1663
4504369,2535,1881,2700,2066
4550348,2582,1754,2868,1914
4527943,2920,1832,3180,2144
