https://surfdrive.surf.nl/files/index.php/s/B7PEqFZSZZBPcW8/download?path=%2FData%2FInput%2FDatasets%2FDavid%2FImages&files=C_135.jpg,5472,3648
C_135,artificial,coffee_table,"[130, 130, 130]","['6238674', '4212454', '4504369', '4550348', '4527943', '6074890', '6244886']"
6238674,2336,2113,2546,2361
4212454,2518,2440,2758,2609
4504369,2203,2445,2423,2693
4550348,1887,1971,2211,2282
4527943,3488,1658,3806,2045
6074890,2603,1811,2826,1922
6244886,2238,1000,2609,1294
