https://surfdrive.surf.nl/files/index.php/s/B7PEqFZSZZBPcW8/download?path=%2FData%2FInput%2FDatasets%2FDavid%2FImages&files=C_19.jpg,5472,3648
C_19,daylight,coffee_table,"[130, 130, 130]","['300121', '4567338', '4211149', '6022023', '6075075', '4118793', '4647553']"
300121,1935,1263,2212,1696
4567338,2889,1353,3068,1443
4211149,1030,2080,1389,2341
6022023,1658,1476,1976,1688
6075075,3672,2006,3949,2218
4118793,3452,1296,3566,1451
4647553,2522,1606,2816,1867
