https://surfdrive.surf.nl/files/index.php/s/B7PEqFZSZZBPcW8/download?path=%2FData%2FInput%2FDatasets%2FDavid%2FImages&files=C_240.jpg,5472,3648
C_240,daylight,coffee_table,"[130, 130, 130]","['4118793', '4567338', '6073026', '4211054', '4121739', '300124', '6244886', '4211166']"
4118793,2965,2473,3106,2709
4567338,2232,891,2345,1037
6073026,3169,2074,3355,2303
4211054,2568,1688,2906,1896
4121739,2896,1969,3137,2283
300124,3152,1559,3466,2040
6244886,2330,1567,2565,1826
4211166,2343,1940,2605,2170
