https://surfdrive.surf.nl/files/index.php/s/B7PEqFZSZZBPcW8/download?path=%2FData%2FInput%2FDatasets%2FDavid%2FImages&files=C_257.jpg,5472,3648
C_257,daylight,coffee_table,"[130, 130, 130]","['6223631', '300424', '4153825']"
6223631,2613,1931,2775,2077
300424,2698,1904,3011,2245
4153825,2738,1289,3057,1603
