https://surfdrive.surf.nl/files/index.php/s/B7PEqFZSZZBPcW8/download?path=%2FData%2FInput%2FDatasets%2FDavid%2FImages&files=C_25.jpg,5472,3648
C_25,daylight,coffee_table,"[130, 130, 130]","['300121', '4567338', '4211149', '6022023', '6075075', '4118793', '4647553', '4655172', '4550325']"
300121,2260,1686,2617,1999
4567338,2953,1045,3061,1129
4211149,2232,1475,2368,1636
6022023,3210,1222,3426,1414
6075075,1576,1161,1740,1287
4118793,3295,1403,3420,1537
4647553,2102,1109,2262,1259
4655172,2167,1111,2470,1381
4550325,2406,1589,2591,1725
