https://surfdrive.surf.nl/files/index.php/s/B7PEqFZSZZBPcW8/download?path=%2FData%2FInput%2FDatasets%2FDavid%2FImages&files=C_258.jpg,5472,3648
C_258,daylight,coffee_table,"[130, 130, 130]","['6223631', '300424', '4153825', '654126']"
6223631,2799,2234,2969,2385
300424,2300,1976,2560,2287
4153825,2068,1578,2328,1858
654126,3104,1277,3242,1461
