https://surfdrive.surf.nl/files/index.php/s/B7PEqFZSZZBPcW8/download?path=%2FData%2FInput%2FDatasets%2FDavid%2FImages&files=C_31.jpg,5472,3648
C_31,daylight,coffee_table,"[130, 130, 130]","['4650630', '6238674']"
4650630,3340,1478,3594,1700
6238674,2737,1789,2854,1900
