https://surfdrive.surf.nl/files/index.php/s/B7PEqFZSZZBPcW8/download?path=%2FData%2FInput%2FDatasets%2FDavid%2FImages&files=C_386.jpg,5472,3648
C_386,daylight,living_room_floor,"[130, 130, 130]","['300401', '300423', '4529240', '6004938', '4550348']"
300401,2374,2445,2563,2694
300423,2709,1702,2928,1813
4529240,3680,1183,3791,1295
6004938,3396,2606,3534,2744
4550348,2536,1842,2745,1960
