https://surfdrive.surf.nl/files/index.php/s/B7PEqFZSZZBPcW8/download?path=%2FData%2FInput%2FDatasets%2FDavid%2FImages&files=C_405.jpg,5472,3648
C_405,daylight,living_room_floor,"[130, 130, 130]","['300421', '300321', '300424', '614321', '4153827']"
300421,2110,1855,2240,2008
300321,2143,1752,2264,1861
300424,2629,1770,2774,1899
614321,2829,1911,2965,2023
4153827,3053,1737,3217,1993
