https://surfdrive.surf.nl/files/index.php/s/B7PEqFZSZZBPcW8/download?path=%2FData%2FInput%2FDatasets%2FDavid%2FImages&files=C_400.jpg,5472,3647
C_400,daylight,living_room_floor,"[130, 130, 130]","['300421', '300321', '300424']"
300421,3321,1979,3544,2205
300321,2642,1731,2909,1936
300424,1809,1407,2051,1615
