https://surfdrive.surf.nl/files/index.php/s/B7PEqFZSZZBPcW8/download?path=%2FData%2FInput%2FDatasets%2FDavid%2FImages&files=C_410.jpg,5472,3648
C_410,daylight,living_room_floor,"[130, 130, 130]","['300421', '300321', '300424', '614321', '4153827', '4165967']"
300421,1753,1640,1895,1832
300321,3354,1670,3608,1923
300424,3141,2078,3364,2321
614321,2635,1774,2807,1956
4153827,3405,1044,3638,1368
4165967,2473,1308,2848,1530
