https://surfdrive.surf.nl/files/index.php/s/B7PEqFZSZZBPcW8/download?path=%2FData%2FInput%2FDatasets%2FDavid%2FImages&files=C_423.jpg,5472,3648
C_423,daylight,living_room_floor,"[130, 130, 130]","['6028324', '4558957']"
6028324,1828,1747,2041,1960
4558957,2506,1652,2912,2086
