https://surfdrive.surf.nl/files/index.php/s/B7PEqFZSZZBPcW8/download?path=%2FData%2FInput%2FDatasets%2FDavid%2FImages&files=C_447.jpg,5472,3648
C_447,daylight,dining_table,"[130, 130, 130]",['6075079']
6075079,2653,1771,2899,1935
