https://surfdrive.surf.nl/files/index.php/s/B7PEqFZSZZBPcW8/download?path=%2FData%2FInput%2FDatasets%2FDavid%2FImages&files=C_465.jpg,5472,3647
C_465,daylight,dining_table,"[130, 130, 130]","['6075079', '306201', '4211614', '4181135', '6003007', '6138173', '300421']"
6075079,1290,2261,1606,2455
306201,2039,2297,2208,2518
4211614,3478,1645,3711,1952
4181135,2252,1377,3082,1935
6003007,2907,2185,3016,2374
6138173,2590,2660,2915,3007
300421,1769,1649,2028,1895
