https://surfdrive.surf.nl/files/index.php/s/B7PEqFZSZZBPcW8/download?path=%2FData%2FInput%2FDatasets%2FDavid%2FImages&files=C_482.jpg,5472,3647
C_482,daylight,dining_table,"[130, 130, 130]","['4153825', '4621545', '306201', '4211412']"
4153825,1794,1741,2075,2006
4621545,3414,1522,3622,1724
306201,3470,1690,3628,1831
4211412,2069,1893,2238,2073
