https://surfdrive.surf.nl/files/index.php/s/B7PEqFZSZZBPcW8/download?path=%2FData%2FInput%2FDatasets%2FDavid%2FImages&files=C_482.jpg,5472,3648
C_482,daylight,dining_table,"[130, 130, 130]","['4153825', '4621545', '306201', '4211412']"
4153825,1779,1729,2078,2008
4621545,3396,1531,3658,1730
306201,3464,1688,3626,1831
4211412,2071,1902,2233,2060
