https://surfdrive.surf.nl/files/index.php/s/B7PEqFZSZZBPcW8/download?path=%2FData%2FInput%2FDatasets%2FDavid%2FImages&files=C_504.jpg,5472,3648
C_504,daylight,coffee_table,"[130, 130, 130]","['300424', '6004938', '306201', '4211166', '4621545', '300121', '4118793', '4548180']"
300424,2791,1682,3055,1879
6004938,3349,2143,3549,2372
306201,2901,1868,3076,2015
4211166,2034,1963,2326,2270
4621545,2203,2144,2499,2450
300121,2286,1301,2738,1569
4118793,3412,2045,3588,2211
4548180,2375,1261,2493,1307
