https://surfdrive.surf.nl/files/index.php/s/B7PEqFZSZZBPcW8/download?path=%2FData%2FInput%2FDatasets%2FDavid%2FImages&files=C_541.jpg,5472,3648
C_541,daylight,couch,"[130, 130, 130]","['6177697', '6223631', '6073026', '300124', '4647553', '6035291', '4109995', '4527943']"
6177697,2710,1251,3093,1480
6223631,2297,2111,2423,2243
6073026,4084,1073,4215,1208
300124,2949,1070,3330,1348
4647553,2287,1522,2486,1617
6035291,2728,1668,2883,1853
4109995,3017,1547,3229,1675
4527943,3257,1323,3431,1443
