https://surfdrive.surf.nl/files/index.php/s/B7PEqFZSZZBPcW8/download?path=%2FData%2FInput%2FDatasets%2FDavid%2FImages&files=C_557.jpg,5472,3648
C_557,daylight,window_sill,"[130, 130, 130]","['6003007', '365901', '4567338']"
6003007,2286,1945,2497,2127
365901,2497,1549,2832,2103
4567338,3191,1544,3367,1707
