https://surfdrive.surf.nl/files/index.php/s/B7PEqFZSZZBPcW8/download?path=%2FData%2FInput%2FDatasets%2FDavid%2FImages&files=C_55.jpg,5472,3648
C_55,daylight,coffee_table,"[130, 130, 130]","['6104154', '4527943', '4157124', '4211201', '4211614', '4504381', '300421', '4649749']"
6104154,1509,1835,1748,2075
4527943,1933,1231,2181,1378
4157124,2276,2290,2497,2540
4211201,1675,1884,2271,2080
4211614,3858,1473,4147,1688
4504381,3497,1909,3670,2101
300421,2745,944,2982,1078
4649749,1861,2488,2171,2641
