https://surfdrive.surf.nl/files/index.php/s/B7PEqFZSZZBPcW8/download?path=%2FData%2FInput%2FDatasets%2FDavid%2FImages&files=C_569.jpg,5472,3648
C_569,daylight,window_sill,"[130, 130, 130]","['6003007', '365901', '4567338', '4211166', '4504381', '6025026', '4121967']"
6003007,1385,1228,1573,1398
365901,2889,2310,3047,2945
4567338,1052,1882,1255,2023
4211166,1768,2503,2088,2843
4504381,2570,1712,2769,1897
6025026,2116,2658,2430,2996
4121967,1850,2149,2159,2363
