https://surfdrive.surf.nl/files/index.php/s/B7PEqFZSZZBPcW8/download?path=%2FData%2FInput%2FDatasets%2FDavid%2FImages&files=C_642.jpg,5472,3648
C_642,daylight,coffee_table,"[130, 130, 130]","['6074890', '6073026', '4211221', '4211166', '4181144', '4211149', '6062574', '4548180']"
6074890,3189,1437,3370,1604
6073026,2752,1817,2920,2038
4211221,3223,1189,3548,1515
4211166,2612,1633,2876,1901
4181144,2234,1338,2764,2072
4211149,3582,1372,3846,1597
6062574,3124,1166,3298,1369
4548180,2720,2060,3004,2327
