https://surfdrive.surf.nl/files/index.php/s/B7PEqFZSZZBPcW8/download?path=%2FData%2FInput%2FDatasets%2FDavid%2FImages&files=C_679.jpg,5472,3648
C_679,daylight,coffee_table,"[130, 130, 130]","['4558957', '4539099']"
4558957,3629,1159,4095,1561
4539099,1882,1776,2048,1950
