https://surfdrive.surf.nl/files/index.php/s/B7PEqFZSZZBPcW8/download?path=%2FData%2FInput%2FDatasets%2FDavid%2FImages&files=C_680.jpg,5472,3648
C_680,daylight,coffee_table,"[130, 130, 130]","['4558957', '4539099']"
4558957,1867,1812,2276,2240
4539099,3265,1573,3481,1719
