https://surfdrive.surf.nl/files/index.php/s/B7PEqFZSZZBPcW8/download?path=%2FData%2FInput%2FDatasets%2FDavid%2FImages&files=C_805.jpg,5472,3647
C_805,daylight,couch,"[130, 130, 130]","['4504381', '4647553', '4153827', '4520632', '4647553']"
4504381,2268,2125,2345,2232
4647553,2364,2115,2550,2300
4647553,3275,904,3386,1045
4153827,2103,2395,2428,2768
4520632,2673,2027,3057,2304
