https://surfdrive.surf.nl/files/index.php/s/B7PEqFZSZZBPcW8/download?path=%2FData%2FInput%2FDatasets%2FDavid%2FImages&files=C_800.jpg,5472,3647
C_800,daylight,couch,"[130, 130, 130]","['4504381', '4647553', '4153827']"
4504381,3859,1648,3979,1754
4647553,2262,1492,2718,1869
4153827,2830,2265,3116,2516
