https://surfdrive.surf.nl/files/index.php/s/B7PEqFZSZZBPcW8/download?path=%2FData%2FInput%2FDatasets%2FHiba%2FImages&files=H_101.jpg,5183,3456
H_101,daylight,wood,"[130, 130, 130]","['6074890', '6035291', '6022023']"
6074890,2460,1744,2597,1842
6035291,1808,1362,1982,1512
6022023,2861,2362,3183,2614
