https://surfdrive.surf.nl/files/index.php/s/B7PEqFZSZZBPcW8/download?path=%2FData%2FInput%2FDatasets%2FHiba%2FImages&files=H_119.jpg,5184,3456
H_119,daylight,wood,"[130, 130, 130]","['6022064', '4558957', '306223', '4527943', '6003007', '4211614']"
6022064,2613,2345,2920,2456
4558957,2425,1436,2755,1707
306223,2014,2199,2165,2302
4527943,2093,2027,2289,2244
6003007,1988,1781,2121,1878
4211614,2712,1444,2858,1618
