https://surfdrive.surf.nl/files/index.php/s/B7PEqFZSZZBPcW8/download?path=%2FData%2FInput%2FDatasets%2FHiba%2FImages&files=H_177.jpg,5184,3456
H_177,daylight,wood,"[130, 130, 130]","['4211412', '4153825', '4210718', '6104154', '4157124', '4121739']"
4211412,3603,1568,3779,1725
4153825,2306,1382,2487,1703
4210718,1049,2000,1698,2518
6104154,898,1218,1061,1422
4157124,2960,1978,3222,2173
4121739,2575,1912,2872,2191
