https://surfdrive.surf.nl/files/index.php/s/B7PEqFZSZZBPcW8/download?path=%2FData%2FInput%2FDatasets%2FHiba%2FImages&files=H_291.jpg,5184,3456
H_291,daylight,wood,"[130, 130, 130]","['4558957', '6074890']"
4558957,2472,1734,2708,1897
