https://surfdrive.surf.nl/files/index.php/s/B7PEqFZSZZBPcW8/download?path=%2FData%2FInput%2FDatasets%2FHiba%2FImages&files=H_69.jpg,5184,3456
H_69,daylight,wood,"[130, 130, 130]","['4211511', '4529240', '614321', '300423', '4212454', '6062574', '4650630', '4529247']"
4211511,4103,1546,4353,1779
4529240,2174,1308,2351,1467
614321,3220,1555,3463,1839
300423,2605,719,2845,972
4212454,2380,1891,2586,2094
6062574,2528,1771,2720,2011
4650630,2604,1104,2868,1398
4529247,1232,1286,1395,1456
