https://surfdrive.surf.nl/files/index.php/s/B7PEqFZSZZBPcW8/download?path=%2FData%2FInput%2FDatasets%2FBerend%2FImages&files=B_1016.jpg,4608,3072
B_1016,daylight,dirty_rug,"[120, 120, 120]","['4211201', '4211412', '4639693', '4153827', '4160403', '4539099', '300821', '300121', '4121967', '4181134', '300323', '4181135', '6229071']"
4211201,1773,670,2025,998
4211412,903,1043,1043,1155
4639693,2032,434,2584,883
4153827,1938,1765,2322,2001
4160403,2607,1848,2815,2394
4539099,2922,2062,3056,2208
300821,1296,1120,1640,1712
300121,1673,1124,1969,1481
4121967,1166,1412,1324,1609
4181134,1796,1594,2352,1796
300323,1281,1615,1550,1890
4181135,1548,1765,2126,2217
6229071,2933,1190,3118,1392
