https://surfdrive.surf.nl/files/index.php/s/B7PEqFZSZZBPcW8/download?path=%2FData%2FInput%2FDatasets%2FBerend%2FImages&files=B_1015.jpg,4608,3072
B_1015,daylight,dirty_rug,"[120, 120, 120]","['4211201', '4211412', '4639693', '4153827', '4160403', '4539099', '300821', '300121', '4121967', '4181134', '300323', '4181135', '6229071']"
4211201,2446,1567,2788,1763
4211412,1260,1427,1369,1552
4639693,2295,876,2887,1274
4153827,2123,1841,2309,2187
4160403,1774,1399,2248,1611
4539099,2396,1745,2480,1815
300821,1529,1556,2009,2091
300121,1658,697,1985,937
4121967,1188,1560,1362,1720
4181134,1672,1476,2166,1792
300323,1845,1687,2079,1931
4181135,2292,1713,2818,2035
6229071,3024,1266,3208,1450
