https://surfdrive.surf.nl/files/index.php/s/B7PEqFZSZZBPcW8/download?path=%2FData%2FInput%2FDatasets%2FBerend%2FImages&files=B_1101.jpg,4608,3072
B_1101,artificial_light,parquet_dark_brown,"[120, 120, 120]","['6244886', '4211201', '4153827', '6229071', '300321', '4165967', '6225539', '4548180', '306201']"
6244886,1581,1110,2004,1432
4211201,2419,982,3045,1370
4153827,2781,1379,3438,1754
6229071,1113,1225,1440,1560
300321,3019,788,3385,1150
4165967,2547,1633,3204,2145
6225539,2150,989,2688,1673
4548180,2234,1690,2529,1858
306201,1360,1959,1612,2153
