https://surfdrive.surf.nl/files/index.php/s/B7PEqFZSZZBPcW8/download?path=%2FData%2FInput%2FDatasets%2FBerend%2FImages&files=B_1185.jpg,4608,3072
B_1185,artificial_light,parquet_light,"[120, 120, 120]","['4517992', '4504369', '4504381', '4165967', '6138173', '300321', '4212454', '4520632', '4211614', '300123', '4212454']"
4517992,1794,913,2107,1273
4504369,974,1459,1183,1677
4504381,869,925,1060,1072
4165967,2430,1642,2741,2271
6138173,1917,1796,2270,2065
300321,2444,1170,2812,1559
4212454,2905,1699,3104,1928
4212454,2237,1740,2398,1985
4520632,2653,1207,3241,1774
4211614,2117,1925,2375,2314
300123,1579,1227,2206,1625
