https://surfdrive.surf.nl/files/index.php/s/B7PEqFZSZZBPcW8/download?path=%2FData%2FInput%2FDatasets%2FBerend%2FImages&files=B_129.jpg,4608,3072
B_129,daylight,wood,"[130, 130, 130]","['6252809', '300323']"
300323,2984,1016,3383,1519
6252809,885,1598,2736,2288
