https://surfdrive.surf.nl/files/index.php/s/B7PEqFZSZZBPcW8/download?path=%2FData%2FInput%2FDatasets%2FBerend%2FImages&files=B_130.jpg,4608,3072
B_130,daylight,wood,"[130, 130, 130]","['6252809', '300323']"
6252809,480,1474,1835,2497
300323,2810,712,3142,1044
