https://surfdrive.surf.nl/files/index.php/s/B7PEqFZSZZBPcW8/download?path=%2FData%2FInput%2FDatasets%2FBerend%2FImages&files=B_21.jpg,4608,3072
B_21,daylight,wood,"[130, 130, 130]","['4650630', '6252809', '4211054', '4548180', '4649749', '300401', '6075075', '4548180']"
4650630,2684,1018,2988,1319
6252809,1930,1265,2292,2487
4211054,2550,1472,2876,1721
4548180,2456,1164,2644,1430
4649749,1674,1662,1971,1920
300401,2538,786,2768,1119
6075075,2926,1423,3240,1680
4548180,1752,2090,1970,2375
