https://surfdrive.surf.nl/files/index.php/s/B7PEqFZSZZBPcW8/download?path=%2FData%2FInput%2FDatasets%2FBerend%2FImages&files=B_253.jpg,4608,3072
B_253,daylight,wood,"[130, 130, 130]","['6025026', '6223631', '4211166']"
6025026,2299,1414,2618,1674
6223631,2041,1305,2220,1466
4211166,2272,1724,2559,2066
