https://surfdrive.surf.nl/files/index.php/s/B7PEqFZSZZBPcW8/download?path=%2FData%2FInput%2FDatasets%2FBerend%2FImages&files=B_252.jpg,4608,3072
B_252,daylight,wood,"[130, 130, 130]","['6025026', '6223631', '4211166']"
6025026,1210,1405,1520,1594
6223631,2716,1015,2928,1219
4211166,1971,1314,2277,1658
