https://surfdrive.surf.nl/files/index.php/s/B7PEqFZSZZBPcW8/download?path=%2FData%2FInput%2FDatasets%2FBerend%2FImages&files=B_29.jpg,4608,3072
B_29,daylight,wood,"[130, 130, 130]","['4650630', '6252809', '4211054', '4548180', '4649749', '300401', '6075075', '4548180', '6151663', '4520632']"
4650630,3081,1581,3492,1902
6252809,1580,2090,2954,2653
4211054,3178,854,3541,1217
4520632,1980,1254,2524,1720
300401,2234,969,2464,1248
4649749,776,1593,1036,1841
6151663,413,1672,709,1902
4548180,1199,2126,1514,2405
4548180,2131,2005,2440,2253
6075075,1871,1914,2161,2156
