https://surfdrive.surf.nl/files/index.php/s/B7PEqFZSZZBPcW8/download?path=%2FData%2FInput%2FDatasets%2FBerend%2FImages&files=B_345.jpg,4608,3072
B_345,daylight,wood,"[130, 130, 130]",['4639693']
4639693,1232,1262,2027,1845
