https://surfdrive.surf.nl/files/index.php/s/B7PEqFZSZZBPcW8/download?path=%2FData%2FInput%2FDatasets%2FBerend%2FImages&files=B_378.jpg,4608,3072
B_378,daylight,wood,"[130, 130, 130]","['4181144', '6238674']"
4181144,2190,1514,2951,1912
6238674,2045,1219,2215,1390
