https://surfdrive.surf.nl/files/index.php/s/B7PEqFZSZZBPcW8/download?path=%2FData%2FInput%2FDatasets%2FBerend%2FImages&files=B_418.jpg,4608,3072
B_418,daylight,wood,"[130, 130, 130]","['6003007', '4153827']"
6003007,1425,1566,1557,1675
4153827,2366,1853,2735,2278
