https://surfdrive.surf.nl/files/index.php/s/B7PEqFZSZZBPcW8/download?path=%2FData%2FInput%2FDatasets%2FBerend%2FImages&files=B_41.jpg,4608,3072
B_41,daylight,wood,"[130, 130, 130]","['306201', '4649749', '6025026', '6229071']"
306201,3196,1537,3453,1761
4649749,1579,1473,1863,1810
6025026,2170,1764,2416,2064
6229071,2670,1870,3006,2272
