https://surfdrive.surf.nl/files/index.php/s/B7PEqFZSZZBPcW8/download?path=%2FData%2FInput%2FDatasets%2FBerend%2FImages&files=B_450.jpg,4608,3072
B_450,daylight,wood,"[130, 130, 130]","['300423', '4165967', '4647553', '4211614']"
300423,1080,474,1390,715
4165967,2213,1857,2507,2544
4647553,1445,1664,1714,2004
4211614,3161,2249,3424,2631
