https://surfdrive.surf.nl/files/index.php/s/B7PEqFZSZZBPcW8/download?path=%2FData%2FInput%2FDatasets%2FBerend%2FImages&files=B_452.jpg,4608,3072
B_452,daylight,wood,"[130, 130, 130]","['300423', '4165967', '4647553', '4211614']"
4647553,1974,728,2288,988
300423,1387,1164,1720,1425
4165967,1332,1497,2064,2079
4211614,2476,2511,2875,2820
