https://surfdrive.surf.nl/files/index.php/s/B7PEqFZSZZBPcW8/download?path=%2FData%2FInput%2FDatasets%2FBerend%2FImages&files=B_470.jpg,4608,3072
B_470,daylight,wood,"[130, 130, 130]","['6075079', '4211201', '4165967']"
4211201,1363,1815,2119,2584
4165967,2294,925,3081,1512
6075079,2542,858,2809,1016
