https://surfdrive.surf.nl/files/index.php/s/B7PEqFZSZZBPcW8/download?path=%2FData%2FInput%2FDatasets%2FBerend%2FImages&files=B_488.jpg,4608,3072
B_488,daylight,wood,"[130, 130, 130]",['6075075']
6075075,2154,1422,2358,1643
