https://surfdrive.surf.nl/files/index.php/s/B7PEqFZSZZBPcW8/download?path=%2FData%2FInput%2FDatasets%2FBerend%2FImages&files=B_529.jpg,4608,3072
B_529,daylight,wood,"[130, 130, 130]","['6035291', '4567338', '6177697', '4529240']"
4567338,2818,2128,3022,2332
4529240,2047,1278,2241,1465
6035291,2000,1077,2255,1247
6177697,1626,1143,2042,1576
