https://surfdrive.surf.nl/files/index.php/s/B7PEqFZSZZBPcW8/download?path=%2FData%2FInput%2FDatasets%2FBerend%2FImages&files=B_611.jpg,4608,3072
B_611,daylight,wood,"[130, 130, 130]","['6238674', '300323', '4153825', '4211054', '6062574', '623224']"
6238674,2260,1475,2498,1653
300323,1234,1570,1548,1914
4153825,1700,1903,2037,2289
4211054,2514,1691,2960,2047
623224,1990,1042,2365,1504
6062574,2032,754,2247,947
