https://surfdrive.surf.nl/files/index.php/s/B7PEqFZSZZBPcW8/download?path=%2FData%2FInput%2FDatasets%2FBerend%2FImages&files=B_675.jpg,4608,3072
B_675,daylight,wood,"[130, 130, 130]",['365901']
365901,2087,1248,2462,1899
