https://surfdrive.surf.nl/files/index.php/s/B7PEqFZSZZBPcW8/download?path=%2FData%2FInput%2FDatasets%2FBerend%2FImages&files=B_774.jpg,4608,3072
B_774,daylight,wood,"[130, 130, 130]","['4181135', '6069259', '6003007', '4650630']"
4181135,2111,1388,2993,1855
6069259,2459,993,2766,1264
6003007,2986,687,3202,836
4650630,2642,1245,2933,1527
