https://surfdrive.surf.nl/files/index.php/s/B7PEqFZSZZBPcW8/download?path=%2FData%2FInput%2FDatasets%2FBerend%2FImages&files=B_799.jpg,4608,3072
B_799,daylight,wood,"[130, 130, 130]","['6151663', '4550348']"
6151663,2353,1137,2745,1557
4550348,1692,1529,2136,1949
