https://surfdrive.surf.nl/files/index.php/s/B7PEqFZSZZBPcW8/download?path=%2FData%2FInput%2FDatasets%2FBerend%2FImages&files=B_7.jpg,4608,3072
B_7,daylight,wood,"[130, 130, 130]","['4650630', '6252809', '4211054']"
4650630,2806,880,3166,1263
6252809,927,861,2143,1977
4211054,3193,1739,3698,2196
