https://surfdrive.surf.nl/files/index.php/s/B7PEqFZSZZBPcW8/download?path=%2FData%2FInput%2FDatasets%2FBerend%2FImages&files=B_836.jpg,4608,3072
B_836,daylight,parquet_dark_brown,"[120, 120, 120]","['6225539', '4181134', '4655172', '623224', '4143562', '6028324', '6244886', '4165967']"
6225539,1669,890,1812,1376
4181134,2580,1151,3120,1653
4655172,1819,1046,2172,1454
623224,2314,736,2468,1028
4143562,2391,1410,2598,1635
6028324,1619,1911,1839,2140
6244886,2197,1408,2400,1642
4165967,2477,682,2676,1048
