https://surfdrive.surf.nl/files/index.php/s/B7PEqFZSZZBPcW8/download?path=%2FData%2FInput%2FDatasets%2FBerend%2FImages&files=B_917.jpg,4608,3072
B_917,daylight,parquet_light,"[120, 120, 120]","['6138173', '4520632', '6229071', '6177697', '300321', '4529247', '4639693', '4181144', '4211166', '4109995', '6177697']"
6138173,2408,1473,2564,1665
4520632,1941,1254,2282,1474
6229071,2470,1585,2649,1776
6177697,2530,1321,2828,1580
6177697,2641,1483,2974,1701
300321,1985,1450,2144,1696
4529247,2859,1296,2969,1384
4639693,1466,790,2089,1110
4181144,2205,1035,2696,1358
4211166,2269,1614,2440,1818
4109995,2481,853,2663,1013
