https://surfdrive.surf.nl/files/index.php/s/B7PEqFZSZZBPcW8/download?path=%2FData%2FInput%2FDatasets%2FBerend%2FImages&files=B_977.jpg,4608,3072
B_977,daylight,parquet_light,"[120, 120, 120]","['4211511', '6028324', '614321', '4165967', '6225539', '6138173', '6229071', '623224', '4651236', '4211054', '4121967', '6252809']"
4211511,2672,1933,2807,2065
6028324,2614,1814,2749,1971
614321,1500,1797,1660,1988
4165967,2041,1001,2344,1229
6225539,2551,1555,2973,1864
6138173,1061,1629,1226,1767
6229071,2791,867,2937,1021
623224,3005,1627,3253,1831
4651236,2486,1833,2619,1993
4211054,2299,1527,2473,1695
4121967,2233,1902,2409,2057
6252809,2849,1308,3287,1752
