https://surfdrive.surf.nl/files/index.php/s/B7PEqFZSZZBPcW8/download?path=%2FData%2FInput%2FDatasets%2FDavid%2FImages&files=C_162.jpg,5472,3648
C_162,daylight,coffee_table,"[130, 130, 130]","['4121739', '6025026', '6238674', '6104154', '4121739', '4529240', '4550325']"
4121739,1698,1589,1906,1892
4121739,2368,1743,2665,2072
6025026,2584,2029,2748,2327
6238674,2663,1172,2851,1306
6104154,2060,1648,2322,1969
4529240,2385,1613,2583,1788
4550325,3085,1397,3379,1689
