https://surfdrive.surf.nl/files/index.php/s/B7PEqFZSZZBPcW8/download?path=%2FData%2FInput%2FDatasets%2FDavid%2FImages&files=C_18.jpg,5472,3648
C_18,daylight,coffee_table,"[130, 130, 130]","['300121', '4567338', '4211149', '6022023', '6075075', '4118793', '4647553']"
300121,1998,1135,2444,1410
4567338,2021,1344,2182,1446
4211149,1929,2411,2232,2668
6022023,829,1823,1147,2114
6075075,3728,1965,3938,2193
4118793,1546,689,1702,818
4647553,2679,1623,2867,1863
