https://surfdrive.surf.nl/files/index.php/s/B7PEqFZSZZBPcW8/download?path=%2FData%2FInput%2FDatasets%2FDavid%2FImages&files=C_203.jpg,5472,3648
C_203,daylight,coffee_table,"[130, 130, 130]","['4212454', '4649749', '4157124']"
4212454,1623,1161,1771,1327
4649749,3012,2375,3313,2536
4157124,2472,1269,2666,1525
