https://surfdrive.surf.nl/files/index.php/s/B7PEqFZSZZBPcW8/download?path=%2FData%2FInput%2FDatasets%2FDavid%2FImages&files=C_307.jpg,5472,3648
C_307,daylight,living_room_floor,"[130, 130, 130]","['4650630', '6223631']"
4650630,2707,1710,2943,1991
6223631,2502,1769,2648,1890
