https://surfdrive.surf.nl/files/index.php/s/B7PEqFZSZZBPcW8/download?path=%2FData%2FInput%2FDatasets%2FDavid%2FImages&files=C_357.jpg,5472,3648
C_357,daylight,living_room_floor,"[130, 130, 130]","['4118793', '6035291', '4211614', '4567338', '4211412']"
4118793,2735,567,2867,705
6035291,2676,1737,2805,1935
4211614,2352,1864,2571,2028
4567338,2300,2279,2463,2380
4211412,1993,1894,2142,2023
