https://surfdrive.surf.nl/files/index.php/s/B7PEqFZSZZBPcW8/download?path=%2FData%2FInput%2FDatasets%2FDavid%2FImages&files=C_365.jpg,5472,3648
C_365,daylight,living_room_floor,"[130, 130, 130]","['4118793', '6035291', '4211614', '4567338', '4211412', '6025026', '4548180']"
4118793,1927,2244,2084,2438
6035291,3617,1175,3815,1291
6025026,3212,1543,3383,1745
4211614,2691,1296,2884,1516
4548180,2713,1759,2844,1957
4567338,2115,2078,2295,2204
4211412,1868,2204,2008,2325
