https://surfdrive.surf.nl/files/index.php/s/B7PEqFZSZZBPcW8/download?path=%2FData%2FInput%2FDatasets%2FDavid%2FImages&files=C_406.jpg,5472,3648
C_406,daylight,living_room_floor,"[130, 130, 130]","['300421', '300321', '300424', '614321', '4153827']"
300421,2308,1782,2500,1938
300321,2777,877,2982,1098
300424,2702,671,2861,851
614321,2620,1788,2810,2010
4153827,3632,1816,3896,2192
