https://surfdrive.surf.nl/files/index.php/s/B7PEqFZSZZBPcW8/download?path=%2FData%2FInput%2FDatasets%2FDavid%2FImages&files=C_455.jpg,5472,3648
C_455,daylight,dining_table,"[130, 130, 130]","['6075079', '306201', '4211614']"
6075079,2590,1720,2868,1939
306201,2415,1234,2607,1383
4211614,2018,1366,2224,1658
