https://surfdrive.surf.nl/files/index.php/s/B7PEqFZSZZBPcW8/download?path=%2FData%2FInput%2FDatasets%2FDavid%2FImages&files=C_467.jpg,5472,3648
C_467,daylight,dining_table,"[130, 130, 130]","['6075079', '306201', '4211614', '4181135', '6003007', '6138173', '300421']"
6075079,2266,2336,2485,2518
6003007,2361,1809,2531,1972
300421,2618,1783,2874,2026
306201,3182,1607,3348,1735
4181135,2642,1316,3191,1863
4211614,3693,1674,3880,1935
4211614,3812,2045,4043,2315
