https://surfdrive.surf.nl/files/index.php/s/B7PEqFZSZZBPcW8/download?path=%2FData%2FInput%2FDatasets%2FDavid%2FImages&files=C_616.jpg,5472,3648
C_616,daylight,window_sill,"[130, 130, 130]","['300423', '6073026', '4558957', '4527943', '4121967', '6249125']"
300423,2782,1369,3099,1662
6073026,2651,1488,2847,1709
4558957,1214,1299,1804,1858
4527943,2450,1581,2797,1918
4121967,2177,1012,2482,1245
6249125,2365,2548,2527,2708
