https://surfdrive.surf.nl/files/index.php/s/B7PEqFZSZZBPcW8/download?path=%2FData%2FInput%2FDatasets%2FDavid%2FImages&files=C_626.jpg,5472,3648
C_626,daylight,coffee_table,"[130, 130, 130]","['6074890', '6073026']"
6074890,1714,1517,1871,1733
6073026,2662,1755,2878,1985
