https://surfdrive.surf.nl/files/index.php/s/B7PEqFZSZZBPcW8/download?path=%2FData%2FInput%2FDatasets%2FDavid%2FImages&files=C_66.jpg,5472,3648
C_66,daylight,coffee_table,"[130, 130, 130]","['4517992', '6074890', '4650630']"
4517992,2314,1433,2579,1748
6074890,2233,2116,2395,2327
4650630,2867,1303,3191,1613
