https://surfdrive.surf.nl/files/index.php/s/B7PEqFZSZZBPcW8/download?path=%2FData%2FInput%2FDatasets%2FDavid%2FImages&files=C_695.jpg,5472,3648
C_695,daylight,coffee_table,"[130, 130, 130]","['4558957', '4539099', '300323', '6229071', '4157124', '4504369', '4649749']"
4558957,2341,1748,2852,2202
4539099,3059,1323,3174,1489
300323,2399,1287,2690,1569
6229071,3290,1588,3552,1873
4157124,2256,1455,2482,1651
4504369,3090,1572,3232,1699
4649749,2173,1372,2424,1535
