https://surfdrive.surf.nl/files/index.php/s/B7PEqFZSZZBPcW8/download?path=%2FData%2FInput%2FDatasets%2FDavid%2FImages&files=C_792.jpg,5472,3648
C_792,daylight,couch,"[130, 130, 130]",['4504381']
4504381,2651,1719,2890,1916
