https://surfdrive.surf.nl/files/index.php/s/B7PEqFZSZZBPcW8/download?path=%2FData%2FInput%2FDatasets%2FDavid%2FImages&files=C_812.jpg,5472,3648
C_812,daylight,couch,"[130, 130, 130]","['4504381', '4647553', '4153827', '4520632', '4647553', '4550325', '6244886']"
4550325,2229,2599,2538,2966
4504381,2344,2168,2545,2355
4647553,3522,1844,3788,2161
4647553,3069,1391,3357,1657
4520632,2441,1077,2699,1462
4520632,2736,1223,3034,1656
6244886,2469,1535,2733,1847
