https://surfdrive.surf.nl/files/index.php/s/B7PEqFZSZZBPcW8/download?path=%2FData%2FInput%2FDatasets%2FDavid%2FImages&files=C_81.jpg,5472,3648
C_81,daylight,coffee_table,"[130, 130, 130]","['4121739', '306223', '4210718']"
4121739,1955,2013,2271,2264
306223,2919,1679,3049,1870
4210718,2236,1305,2953,1585
