https://surfdrive.surf.nl/files/index.php/s/B7PEqFZSZZBPcW8/download?path=%2FData%2FInput%2FDatasets%2FDavid%2FImages&files=C_911.jpg,5472,3648
C_911,daylight,coffee-table,"[120, 120, 120]","['4529240', '6074890', '623224', '6025026', '4650630', '6028324', '4211412', '300121']"
4529240,2813,1110,2991,1241
6074890,2169,2336,2373,2603
623224,1965,1781,2300,2184
6025026,1786,1817,1986,2116
4650630,2656,1597,3075,2006
6028324,2242,1304,2509,1592
4211412,3122,1257,3337,1404
300121,2022,1629,2593,2137
