https://surfdrive.surf.nl/files/index.php/s/B7PEqFZSZZBPcW8/download?path=%2FData%2FInput%2FDatasets%2FHiba%2FImages&files=H_224.jpg,5184,3456
H_224,daylight,wood,"[130, 130, 130]","['300124', '300401', '6249125']"
300124,3102,1868,3396,2390
300401,1518,2032,1827,2269
6249125,2510,1788,2641,1907
