https://surfdrive.surf.nl/files/index.php/s/B7PEqFZSZZBPcW8/download?path=%2FData%2FInput%2FDatasets%2FHiba%2FImages&files=H_37.jpg,5184,3456
H_37,daylight,wood,"[130, 130, 130]","['4210718', '6249125']"
4210718,2313,1527,2809,1952
6249125,1810,1724,1957,1843
