https://surfdrive.surf.nl/files/index.php/s/B7PEqFZSZZBPcW8/download?path=%2FData%2FInput%2FDatasets%2FHiba%2FImages&files=H_420.jpg,5184,3456
H_420,daylight,wood,"[130, 130, 130]","['4211166', '4647553', '4114319', '4550348', '4567338', '4211437', '4621545', '654126', '4211201', '6252809']"
4211166,2618,689,2822,924
4647553,2805,737,2983,961
4114319,1231,2326,1627,2877
4550348,1726,1145,1938,1274
4567338,882,1159,1031,1268
4211437,2463,1016,2716,1214
4621545,1990,930,2199,1108
654126,2120,1131,2301,1340
4211201,3063,1158,3505,1594
6252809,2547,1539,3600,2332
