https://surfdrive.surf.nl/files/index.php/s/B7PEqFZSZZBPcW8/download?path=%2FData%2FInput%2FDatasets%2FHiba%2FImages&files=H_470.jpg,5184,3456
H_470,daylight,parquet_brown_medium,"[120, 120, 120]","['6028324', '4114319', '6004938', '300121', '300421', '6249125', '306223', '6003007', '300424', '6252809']"
6028324,2349,1724,2548,1933
4114319,2860,972,3238,1269
6004938,1529,1700,1672,1867
300121,1936,1097,2310,1315
300421,4256,1209,4442,1386
6249125,3452,1786,3586,1886
306223,1628,1012,1720,1151
6003007,3044,1442,3190,1535
300424,1635,1754,1821,1980
6252809,1218,1345,2023,1902
