https://surfdrive.surf.nl/files/index.php/s/B7PEqFZSZZBPcW8/download?path=%2FData%2FInput%2FDatasets%2FHiba%2FImages&files=H_51.jpg,5184,3456
H_51,daylight,wood,"[130, 130, 130]","['4211511', '4529240']"
4211511,3925,1704,4128,1925
4529240,2627,1603,2744,1808
