https://surfdrive.surf.nl/files/index.php/s/B7PEqFZSZZBPcW8/download?path=%2FData%2FInput%2FDatasets%2FHiba%2FImages&files=H_519.jpg,5184,3456
H_519,daylight,parquet_brown_medium,"[120, 120, 120]","['4520632', '4181134', '4211201', '4504369', '6025026', '6244886', '623224', '4529247']"
4520632,2501,1564,2715,1850
4181134,1698,1502,2067,1881
4211201,1394,1465,1720,1701
4504369,2526,1912,2650,2036
6025026,2520,1831,2684,1937
6244886,2932,1493,3159,1701
623224,1602,1841,1831,2076
4529247,1884,1403,1952,1515
