https://surfdrive.surf.nl/files/index.php/s/B7PEqFZSZZBPcW8/download?path=%2FData%2FInput%2FDatasets%2FHiba%2FImages&files=H_527.jpg,5184,3456
H_527,daylight,table_plastic_grey,"[120, 120, 120]","['4504381', '4165967', '4211221', '6177697', '4210718', '6035291', '6069259', '4109995', '4504381', '4527943', '4212454', '4647553', '4529247']"
4504381,2842,1998,3001,2147
4504381,2658,1145,2802,1269
4165967,2326,1125,2728,1477
4211221,2847,1279,3070,1507
6177697,3279,1284,3601,1646
4210718,2827,1760,3403,2127
6035291,2648,1894,2867,2058
6069259,2088,1026,2217,1184
4109995,1998,1160,2227,1323
4527943,1899,1259,2112,1477
4212454,2961,2197,3105,2371
4647553,1690,1621,1909,1874
4529247,2316,1636,2445,1740
