https://surfdrive.surf.nl/files/index.php/s/B7PEqFZSZZBPcW8/download?path=%2FData%2FInput%2FDatasets%2FHiba%2FImages&files=H_554.jpg,5184,3456
H_554,daylight,table_plastic_grey,"[120, 120, 120]","['6022023', '4143562', '300323', '6238674', '300401', '300423', '300123', '300821', '4649749', '4118793', '306223', '4212454']"
6022023,3217,1182,3434,1407
4143562,2279,950,2498,1101
300323,3273,622,3520,851
6238674,1873,2028,1999,2187
300401,1970,1070,2175,1277
300423,2365,1182,2549,1391
300123,2386,2513,2874,2790
300821,2684,896,3049,1456
4649749,3451,1353,3674,1538
4118793,3650,2006,3841,2195
306223,1966,1658,2132,1784
4212454,2416,1395,2577,1515
