https://surfdrive.surf.nl/files/index.php/s/B7PEqFZSZZBPcW8/download?path=%2FData%2FInput%2FDatasets%2FHiba%2FImages&files=H_560.jpg,5184,3456
H_560,daylight,table_plastic_grey,"[120, 120, 120]","['6022023', '4143562', '300323', '6238674', '300401', '300423', '300123', '300821', '4649749', '4118793']"
6022023,2381,1906,2629,2124
4143562,3567,1102,3781,1261
300323,1915,2020,2074,2258
6238674,3081,1807,3180,1941
300401,2138,1161,2277,1335
300423,2371,1573,2510,1777
300123,1900,1400,2232,1638
300821,2902,1459,3513,1628
4649749,3384,2149,3572,2253
4118793,2545,1514,2674,1658
