https://surfdrive.surf.nl/files/index.php/s/B7PEqFZSZZBPcW8/download?path=%2FData%2FInput%2FDatasets%2FHiba%2FImages&files=H_581.jpg,5184,3456
H_581,daylight,table_plastic_grey,"[120, 120, 120]","['4157124', '4211511', '6022064', '4211149', '4550348', '4651236', '4539099', '4550325', '4548180', '623224', '4121967', '300123', '6003007']"
4157124,1716,1413,1961,1593
4211511,3418,1987,3627,2221
6022064,3066,2102,3448,2300
4211149,3527,700,3751,893
4550348,2736,1834,2994,1988
4651236,2200,1829,2423,2102
4539099,1525,1509,1659,1697
4550325,3525,2209,3828,2521
4548180,3445,1380,3699,1544
623224,3810,759,4078,1082
4121967,3210,1395,3413,1678
300123,3850,1266,4351,1742
6003007,2788,1375,2897,1549
