https://surfdrive.surf.nl/files/index.php/s/B7PEqFZSZZBPcW8/download?path=%2FData%2FInput%2FDatasets%2FHiba%2FImages&files=H_695.jpg,5184,3456
H_695,daylight,parquet_brown_light,"[120, 120, 120]","['4160403', '4211221', '614321', '6073026', '6035291', '6025026', '4520632', '6177697', '4639693', '6022023', '4211614', '4118793', '6244886']"
4160403,2267,1187,2816,1455
4211221,2179,2623,2376,2972
614321,1826,2403,2065,2680
6073026,2194,1416,2339,1589
6035291,2444,1510,2667,1685
6025026,1979,1660,2211,1815
4520632,2806,918,3150,1292
6177697,2657,1277,2949,1628
4639693,2596,1522,3247,2234
6022023,1827,1445,2066,1628
4211614,3033,874,3148,1009
4118793,2631,1056,2781,1208
6244886,2520,2628,2787,3000
