https://surfdrive.surf.nl/files/index.php/s/B7PEqFZSZZBPcW8/download?path=%2FData%2FInput%2FDatasets%2FHiba%2FImages&files=H_702.jpg,5184,3456
H_702,daylight,parquet_brown_light,"[120, 120, 120]","['4160403', '4211221', '614321', '6073026', '6035291', '6025026', '4520632', '6177697', '4639693', '6022023', '4211614']"
4160403,3314,709,4039,1141
4211221,1438,1299,1791,1617
614321,1530,2024,1858,2376
6073026,2002,714,2220,937
6035291,1550,798,1843,1007
6025026,1441,1116,1739,1334
4520632,2126,1438,2771,1970
6177697,1888,967,2414,1185
4639693,2711,917,3754,1275
6022023,2540,1964,2883,2302
4211614,982,1785,1220,2128
