https://surfdrive.surf.nl/files/index.php/s/B7PEqFZSZZBPcW8/download?path=%2FData%2FInput%2FDatasets%2FHiba%2FImages&files=H_718.jpg,5184,3456
H_718,daylight,parquet_brown_light,"[120, 120, 120]","['4160403', '4211221', '614321', '6073026', '6035291', '6025026']"
4160403,2829,1814,3524,1988
4211221,3077,2057,3365,2261
614321,2432,1481,2670,1744
6073026,2611,1303,2809,1476
6035291,2452,1754,2705,1963
6025026,1896,1844,2144,2017
