https://surfdrive.surf.nl/files/index.php/s/B7PEqFZSZZBPcW8/download?path=%2FData%2FInput%2FDatasets%2FHiba%2FImages&files=H_764.jpg,5184,3456
H_764,artificial_light,parquet_brown_medium,"[120, 120, 120]","['4550348', '4153827', '300421', '6003007', '4211437', '654126', '4181135', '6252809', '4211437', '4548180', '4211149']"
4550348,3134,1194,3305,1313
4153827,1743,1127,2013,1393
300421,2006,1278,2128,1442
6003007,2310,1828,2447,1919
4211437,1837,1739,2017,1906
4211437,3988,1379,4140,1557
654126,1746,1857,1858,2012
4181135,2344,1195,2825,1392
6252809,2412,1709,3319,1932
4548180,2900,1930,3058,2095
4211149,2376,889,2524,1003
