https://surfdrive.surf.nl/files/index.php/s/B7PEqFZSZZBPcW8/download?path=%2FData%2FInput%2FDatasets%2FHiba%2FImages&files=H_784.jpg,5184,3456
H_784,artificial_light,parquet_brown_medium,"[120, 120, 120]","['4114319', '300401', '6075075', '6151663', '306223', '4157124', '4181134', '4529247', '6252809', '6073026', '6229071', '4211221', '6074890']"
4114319,3045,1623,3423,1910
300401,2140,1849,2281,2045
6075075,1765,1500,1937,1611
6151663,1384,1657,1570,1801
306223,1547,1508,1638,1629
4157124,1537,1748,1717,1898
4181134,2438,1707,2714,2189
4529247,2148,2123,2287,2229
6252809,2707,2029,3595,2178
6073026,1458,1552,1560,1679
6229071,1881,2033,2068,2252
4211221,2383,1466,2612,1651
6074890,4121,1626,4227,1745
