https://surfdrive.surf.nl/files/index.php/s/B7PEqFZSZZBPcW8/download?path=%2FData%2FInput%2FDatasets%2FHiba%2FImages&files=H_785.jpg,5184,3456
H_785,artificial_light,parquet_brown_medium,"[120, 120, 120]","['4114319', '300401', '6075075', '6151663', '306223', '4157124', '4181134', '4529247', '6252809', '6073026', '6229071', '4211221']"
4114319,1801,1090,2079,1261
300401,2844,1468,3012,1607
6075075,3301,1165,3442,1246
6151663,1402,1333,1576,1481
306223,2487,909,2591,1001
4157124,1981,2413,2166,2580
4181134,2576,1301,3010,1486
4529247,2697,2315,2808,2454
6252809,3283,1782,3563,2494
6073026,3682,1503,3802,1630
6229071,2559,1616,2714,1798
4211221,3301,1623,3500,1833
