https://surfdrive.surf.nl/files/index.php/s/B7PEqFZSZZBPcW8/download?path=%2FData%2FInput%2FDatasets%2FHiba%2FImages&files=H_90.jpg,5184,3456
H_90,daylight,wood,"[130, 130, 130]","['6223631', '300421', '4550348']"
6223631,3516,1967,3695,2150
300421,2468,1596,2775,1826
4550348,1587,1886,1817,2146
