https://surfdrive.surf.nl/files/index.php/s/B7PEqFZSZZBPcW8/download?path=%2FData%2FInput%2FDatasets%2FBerend%2FImages&files=B_1065.jpg,4608,3072
B_1065,daylight,dirty_rug,"[120, 120, 120]","['4109995', '300123', '623224', '4520632', '6025026', '4504369', '4157124', '4211511', '4621545']"
4109995,1737,1249,1920,1365
300123,2591,1810,2790,2136
623224,2251,1185,2478,1381
4520632,1985,1595,2372,1823
6025026,2140,1221,2272,1332
4504369,2018,2068,2128,2174
4157124,1400,1202,1561,1317
4211511,2804,1671,2932,1803
4621545,2027,1372,2211,1529
