https://surfdrive.surf.nl/files/index.php/s/B7PEqFZSZZBPcW8/download?path=%2FData%2FInput%2FDatasets%2FBerend%2FImages&files=B_1088.jpg,4608,3072
B_1088,artificial_light,parquet_dark_brown,"[120, 120, 120]","['4529247', '6062574', '614321', '6022064', '6028324', '4211149', '4211412', '6138173', '4211511']"
614321,2389,1460,2618,1710
4211149,2092,1278,2263,1606
6062574,1844,1261,2010,1486
4211511,2105,1145,2333,1353
4211412,1125,1770,1352,1942
4529247,1307,1385,1523,1564
6022064,2468,1285,2909,1462
6028324,2535,1118,2751,1318
6138173,2794,1017,3052,1281
