https://surfdrive.surf.nl/files/index.php/s/B7PEqFZSZZBPcW8/download?path=%2FData%2FInput%2FDatasets%2FBerend%2FImages&files=B_1003.jpg,4608,3072
B_1003,daylight,dirty_rug,"[120, 120, 120]","['4504369', '4181135', '4520632', '4529247', '300321', '6075075', '6252809', '4181144', '6244886', '6004938', '4157124']"
300321,2687,1261,2925,1484
4157124,2699,1476,2838,1650
4504369,2505,1940,2636,2043
6244886,2247,1793,2485,2035
6004938,2147,1793,2270,1916
4520632,1758,1678,2159,1948
4529247,1683,2059,1794,2186
6252809,1604,1500,2576,1821
6075075,1854,1464,2016,1571
4181144,1592,1130,2159,1285
4181135,1266,984,1675,1357
