https://surfdrive.surf.nl/files/index.php/s/B7PEqFZSZZBPcW8/download?path=%2FData%2FInput%2FDatasets%2FBerend%2FImages&files=B_1014.jpg,4607,3072
B_1014,daylight,dirty_rug,"[120, 120, 120]","['4211201', '4211412', '4639693', '4153827', '4160403', '4539099', '300821', '300121', '4121967', '4181134', '300323', '4181135', '6229071']"
4160403,1572,1634,1871,2146
4211412,1802,1709,1912,1818
4539099,1923,1335,1998,1421
4181134,1768,943,2309,1300
6229071,1963,518,2078,696
4639693,2343,869,2947,1352
4153827,2723,920,3051,1266
300821,2067,1329,2786,1594
4121967,2096,1369,2274,1484
300121,1981,1076,2360,1271
4181135,2309,1432,2769,1939
4211201,2032,1576,2378,1783
300323,2073,1772,2320,2025
