https://surfdrive.surf.nl/files/index.php/s/B7PEqFZSZZBPcW8/download?path=%2FData%2FInput%2FDatasets%2FBerend%2FImages&files=B_1084.jpg,4608,3072
B_1084,artificial_light,parquet_dark_brown,"[120, 120, 120]","['4529247', '6062574', '614321', '6022064', '6028324', '4211149', '4211412', '6138173', '4211511', '4210718']"
6028324,1947,826,2050,943
4211149,1761,1021,1898,1090
4211511,2270,865,2368,943
4211412,2779,904,2827,1007
4529247,2050,1198,2162,1242
614321,2236,1383,2314,1550
6062574,2700,1667,2808,1745
6138173,2950,1755,3038,1912
4210718,2769,1467,3082,1579
6022064,2979,1417,3194,1493
