https://surfdrive.surf.nl/files/index.php/s/B7PEqFZSZZBPcW8/download?path=%2FData%2FInput%2FDatasets%2FBerend%2FImages&files=B_1086.jpg,4608,3072
B_1086,artificial_light,parquet_dark_brown,"[120, 120, 120]","['4529247', '6062574', '614321', '6022064', '6028324', '4211149', '4211412', '6138173', '4211511']"
614321,476,1122,665,1317
4211511,1525,2372,1719,2549
4211412,1152,1346,1295,1489
4529247,1891,1352,2058,1420
6022064,1983,452,2316,635
6028324,2436,578,2602,767
6138173,3124,1088,3261,1357
4211149,3766,1311,3995,1529
6062574,4041,1197,4230,1357
