https://surfdrive.surf.nl/files/index.php/s/B7PEqFZSZZBPcW8/download?path=%2FData%2FInput%2FDatasets%2FBerend%2FImages&files=B_1094.jpg,4608,3072
B_1094,artificial_light,parquet_dark_brown,"[120, 120, 120]","['6244886', '4211201', '4153827', '6229071', '300321', '4165967', '6225539', '4548180', '306201', '6028324', '614321', '300121']"
306201,1610,340,1699,509
6244886,2022,905,2467,1347
300321,2813,1180,3089,1461
4548180,1541,1404,1743,1610
6225539,1285,1819,1514,2011
6028324,1910,1789,2077,1887
4211201,2244,1973,2748,2332
614321,2592,2008,2863,2134
300121,2355,1682,2790,1998
4153827,2410,1532,2860,1872
6229071,2916,1528,3389,1839
4165967,3337,2011,3564,2272
