https://surfdrive.surf.nl/files/index.php/s/B7PEqFZSZZBPcW8/download?path=%2FData%2FInput%2FDatasets%2FBerend%2FImages&files=B_1019.jpg,4608,3072
B_1019,daylight,dirty_rug,"[120, 120, 120]","['4211201', '4211412', '4639693', '4153827', '4160403', '4539099', '300821', '300121', '4121967', '4181134', '300323', '4181135']"
4211201,2678,781,3012,962
4211412,1279,1360,1414,1455
4639693,2398,1223,3090,1536
4153827,1845,1427,2192,1747
4160403,2975,1117,3112,1363
4539099,1808,1437,1944,1549
300821,1557,739,1862,1265
300121,2371,1677,2739,2049
4121967,963,714,1092,891
4181134,2761,1495,3296,1771
300323,1994,726,2195,933
4181135,1941,991,2103,1480
