https://surfdrive.surf.nl/files/index.php/s/B7PEqFZSZZBPcW8/download?path=%2FData%2FInput%2FDatasets%2FBerend%2FImages&files=B_1009.jpg,4608,3072
B_1009,daylight,dirty_rug,"[120, 120, 120]","['4504369', '4181135', '4520632', '4529247', '300321', '6075075', '6252809', '4181144', '6244886']"
4504369,2997,2099,3135,2261
4181135,1950,1791,2513,2045
4520632,2521,1863,2929,2265
4529247,960,1185,1096,1300
300321,2105,2242,2339,2496
6075075,2652,1776,2823,1944
6252809,1627,1579,2033,2426
4181144,2047,1279,2448,1782
6244886,2706,468,2931,640
