https://surfdrive.surf.nl/files/index.php/s/B7PEqFZSZZBPcW8/download?path=%2FData%2FInput%2FDatasets%2FBerend%2FImages&files=B_1001.jpg,4608,3072
B_1001,daylight,dirty_rug,"[120, 120, 120]","['4504369', '4181135', '4520632', '4529247', '300321', '6075075', '6252809', '4181144', '6244886', '6004938', '4157124', '4109995']"
6075075,1935,1664,2059,1819
4529247,2142,1852,2269,1904
300321,2860,1686,3104,1906
6244886,2740,1937,2962,2181
4520632,3069,1717,3406,2096
4504369,2476,1542,2579,1618
4157124,2701,1553,2825,1690
6252809,2435,939,3004,1577
4109995,2562,859,2743,968
4181135,2776,1073,3140,1524
4181144,3265,717,3652,1133
6004938,558,830,658,892
