https://surfdrive.surf.nl/files/index.php/s/B7PEqFZSZZBPcW8/download?path=%2FData%2FInput%2FDatasets%2FBerend%2FImages&files=B_10.jpg,4608,3072
B_10,daylight,wood,"[130, 130, 130]","['4650630', '6252809', '4211054', '4548180']"
4211054,1356,1390,1728,1774
6252809,2077,988,2661,2228
4650630,2537,1738,2892,2140
4548180,2073,1569,2227,1764
