https://surfdrive.surf.nl/files/index.php/s/B7PEqFZSZZBPcW8/download?path=%2FData%2FInput%2FDatasets%2FBerend%2FImages&files=B_111.jpg,4608,3072
B_111,daylight,wood,"[130, 130, 130]","['6022064', '4211221', '4211511', '6073026', '4550348', '6022023']"
4211511,2791,1866,2956,2045
6073026,2956,1230,3100,1388
6022023,1692,1141,1886,1345
4550348,1628,965,1804,1115
4211221,1387,1119,1635,1302
6022064,1261,1266,1459,1500
