https://surfdrive.surf.nl/files/index.php/s/B7PEqFZSZZBPcW8/download?path=%2FData%2FInput%2FDatasets%2FBerend%2FImages&files=B_1166.jpg,4608,3072
B_1166,artificial_light,parquet_light,"[120, 120, 120]","['4210718', '6022023', '4211221', '654126', '4550325', '4109995', '6177697', '4529247', '654126', '6238674', '6022064']"
4211221,1815,1022,2021,1230
4109995,2823,1150,3031,1364
654126,2887,1389,3038,1559
6177697,2122,1524,2491,1892
6022064,2318,1384,2598,1655
6022023,2107,1480,2244,1707
4550325,2103,1319,2301,1471
654126,1960,1336,2075,1501
6238674,1925,1490,2062,1640
4529247,1649,1766,1799,1907
4210718,2342,1083,2665,1453
