https://surfdrive.surf.nl/files/index.php/s/B7PEqFZSZZBPcW8/download?path=%2FData%2FInput%2FDatasets%2FBerend%2FImages&files=B_1152.jpg,4608,3072
B_1152,artificial_light,desk_black_wood,"[120, 120, 120]","['300121', '365901', '300421', '4211149', '300124', '6062574', '4639693', '300123', '6025026', '4651236']"
4651236,1631,1590,1827,1691
300421,1824,1468,1988,1681
300121,2012,1488,2454,1796
4639693,2116,1056,2782,1508
6025026,2697,1801,2921,1965
4211149,2697,1694,2920,1823
365901,2546,1455,2942,1707
6062574,2979,1588,3112,1668
300123,2686,1286,3082,1573
300124,3137,1153,3544,1353
