https://surfdrive.surf.nl/files/index.php/s/B7PEqFZSZZBPcW8/download?path=%2FData%2FInput%2FDatasets%2FBerend%2FImages&files=B_1192.jpg,4608,3072
B_1192,artificial_light,parquet_light,"[120, 120, 120]","['4517992', '4504369', '4504381', '4165967', '6138173', '300321', '4212454', '4520632', '4211614']"
4517992,2183,1703,2578,2130
4504369,932,1900,1126,2125
4504381,2816,1551,2974,1754
4165967,1896,691,2394,1251
6138173,2655,748,2946,1000
300321,2738,938,2955,1313
4212454,1885,1629,2127,1796
4520632,1770,954,1942,1558
4211614,3226,1399,3499,1690
