https://surfdrive.surf.nl/files/index.php/s/B7PEqFZSZZBPcW8/download?path=%2FData%2FInput%2FDatasets%2FBerend%2FImages&files=B_1199.jpg,4608,3072
B_1199,artificial_light,parquet_light,"[120, 120, 120]","['4211412', '623224', '6244886', '4153827', '4211201', '300323', '6069259', '6229071', '4211149', '4143562', '4650630', '300321']"
6229071,1169,1932,1525,2346
6244886,1710,1587,2170,1974
4211201,2021,1292,2663,1956
623224,2800,1578,3235,2073
4153827,3174,975,3882,1516
6069259,1624,1257,1875,1604
4143562,2148,924,2496,1246
4211149,2611,660,2858,838
300321,2501,783,2867,1173
4211412,2432,1219,2674,1404
300323,2617,1118,2960,1593
4650630,984,997,1277,1444
