https://surfdrive.surf.nl/files/index.php/s/B7PEqFZSZZBPcW8/download?path=%2FData%2FInput%2FDatasets%2FBerend%2FImages&files=B_1169.jpg,4608,3072
B_1169,artificial_light,parquet_light,"[120, 120, 120]","['4210718', '6022023', '4211221', '654126', '4550325', '4109995', '6177697', '4529247', '654126', '6238674']"
4210718,1515,968,2539,1503
6022023,2254,2485,2818,3010
4211221,3744,1684,4300,2216
654126,1468,910,1734,1117
654126,2540,536,2777,841
4550325,915,932,1196,1339
4109995,1251,993,1667,1312
6177697,1764,1246,2504,1709
4529247,1748,1874,2047,2090
6238674,1107,1193,1370,1456
