https://surfdrive.surf.nl/files/index.php/s/B7PEqFZSZZBPcW8/download?path=%2FData%2FInput%2FDatasets%2FBerend%2FImages&files=B_1135.jpg,4608,3072
B_1135,artificial_light,desk_black_wood,"[120, 120, 120]","['4181135', '4649749', '300424', '6249125', '6003007', '4650630', '4181134', '306223', '4114319']"
4181135,2139,1467,3045,1780
4649749,2905,1365,3116,1487
300424,2439,1738,2733,1929
6249125,1550,1748,1649,1894
6003007,1156,713,1346,832
4650630,2903,1799,3082,2216
4181134,1856,1118,2729,1457
306223,2884,872,3023,1013
4114319,1951,763,2494,1128
