https://surfdrive.surf.nl/files/index.php/s/B7PEqFZSZZBPcW8/download?path=%2FData%2FInput%2FDatasets%2FBerend%2FImages&files=B_1114.jpg,4608,3072
B_1114,artificial_light,parquet_dark_brown,"[120, 120, 120]","['6075075', '4160403', '6252809', '4651236', '300821', '4181144', '4655172', '4539099', '6022064', '6073026']"
6075075,1641,1863,1908,2032
4160403,3071,1470,3325,2074
6252809,2575,920,3562,1465
4651236,2246,1751,2413,1975
300821,807,1408,1559,1990
4181144,2448,1307,3119,1600
4655172,2271,558,2685,932
4539099,2581,1998,2767,2126
6022064,2408,1649,2764,1866
6073026,3117,1349,3298,1533
