https://surfdrive.surf.nl/files/index.php/s/B7PEqFZSZZBPcW8/download?path=%2FData%2FInput%2FDatasets%2FBerend%2FImages&files=B_111.jpg,4608,3072
B_111,daylight,wood,"[130, 130, 130]","['6022064', '4211221', '4211511', '6073026', '4550348', '6022023']"
6022064,1256,1255,1460,1494
4211221,1372,1104,1640,1298
4550348,1618,957,1805,1104
6022023,1682,1130,1883,1338
4211511,2785,1855,2965,2046
6073026,2946,1225,3104,1384
