https://surfdrive.surf.nl/files/index.php/s/B7PEqFZSZZBPcW8/download?path=%2FData%2FInput%2FDatasets%2FBerend%2FImages&files=B_1178.jpg,4608,3072
B_1178,artificial_light,parquet_light,"[120, 120, 120]","['4210718', '6022023', '4211221', '654126', '4550325', '4109995', '6177697']"
4210718,2587,871,3117,1306
6022023,2349,775,2644,1053
4211221,1079,1124,1347,1497
654126,2257,1440,2457,1625
4550325,1805,1769,2088,2041
4109995,1491,1543,1801,1763
6177697,1613,1546,2129,1969
