https://surfdrive.surf.nl/files/index.php/s/B7PEqFZSZZBPcW8/download?path=%2FData%2FInput%2FDatasets%2FBerend%2FImages&files=B_1179.jpg,4608,3072
B_1179,artificial_light,parquet_light,"[120, 120, 120]","['4517992', '4504369', '4504381', '4165967', '6138173', '300321', '4212454', '4520632', '4211614', '300123', '4212454', '6022064', '6229071']"
4517992,1896,999,2157,1201
4504369,2242,1323,2356,1428
4504381,1037,519,1168,661
4165967,1952,1459,2173,1826
6138173,2819,1227,3060,1447
300321,3529,1643,3790,1855
4212454,3344,1574,3508,1703
4212454,2760,1676,2845,1807
4520632,3119,1898,3573,2284
4211614,2752,1978,2901,2214
300123,2011,2006,2444,2420
6022064,2117,750,2333,959
6229071,2574,2365,2765,2548
