https://surfdrive.surf.nl/files/index.php/s/B7PEqFZSZZBPcW8/download?path=%2FData%2FInput%2FDatasets%2FBerend%2FImages&files=B_1143.jpg,4607,3072
B_1143,artificial_light,desk_black_wood,"[120, 120, 120]","['300121', '365901', '300421', '4211149', '300124', '6062574', '4639693', '300123', '6025026', '4651236', '6104154', '4181135', '4211437']"
4211437,1056,1126,1318,1338
6062574,1314,872,1511,1098
6104154,1586,951,1787,1187
4651236,1590,886,1841,987
4181135,1762,854,2020,1398
365901,2052,1316,2629,1585
4639693,2492,1413,2980,2312
6025026,3094,1742,3417,2018
300124,2697,1019,3116,1402
4211149,2990,1406,3173,1596
300421,3144,947,3291,1141
300121,2349,911,2715,1270
300123,2399,725,2908,883
