https://surfdrive.surf.nl/files/index.php/s/B7PEqFZSZZBPcW8/download?path=%2FData%2FInput%2FDatasets%2FBerend%2FImages&files=B_1124.jpg,4608,3072
B_1124,artificial_light,desk_black_wood,"[120, 120, 120]","['4181135', '4649749', '300424', '6249125', '6003007', '4650630', '4181134', '306223', '4114319', '4651236', '4548180', '4558957', '4121739']"
306223,876,1501,1105,1730
4548180,1017,1298,1220,1549
4650630,1184,1237,1712,1703
4649749,1776,1565,2095,1765
6249125,2128,1518,2337,1677
6003007,2203,1400,2445,1598
4651236,1728,1109,2014,1268
4558957,1039,753,1594,1221
4181134,1884,860,2637,1494
4114319,2113,733,2672,1182
4121739,2426,478,2716,742
4181135,2716,852,3575,1257
None,4407,1368,4512,1406
