https://surfdrive.surf.nl/files/index.php/s/B7PEqFZSZZBPcW8/download?path=%2FData%2FInput%2FDatasets%2FBerend%2FImages&files=B_110.jpg,4607,3072
B_110,daylight,wood,"[130, 130, 130]","['6022064', '4211221', '4211511', '6073026', '4550348']"
6022064,2220,1365,2721,1734
4211221,1675,1452,2139,1869
4211511,3074,1005,3264,1217
6073026,917,945,1124,1168
4550348,2960,1609,3307,1879
