https://surfdrive.surf.nl/files/index.php/s/B7PEqFZSZZBPcW8/download?path=%2FData%2FInput%2FDatasets%2FBerend%2FImages&files=B_1185.jpg,4608,3072
B_1185,artificial_light,parquet_light,"[120, 120, 120]","['4517992', '4504369', '4504381', '4165967', '6138173', '300321', '4212454', '4520632', '4211614', '300123', '4212454']"
4517992,1821,921,2099,1188
4504369,984,1468,1177,1670
4504381,883,923,1049,1048
4165967,2438,1653,2750,2172
6138173,1943,1805,2252,2004
300321,2459,1186,2796,1468
4212454,2921,1702,3098,1904
4212454,2241,1753,2383,1923
4520632,2741,1251,3202,1697
4211614,2150,1932,2367,2298
300123,1600,1238,2195,1540
