https://surfdrive.surf.nl/files/index.php/s/B7PEqFZSZZBPcW8/download?path=%2FData%2FInput%2FDatasets%2FBerend%2FImages&files=B_125.jpg,4607,3072
B_125,daylight,wood,"[130, 130, 130]","['6022064', '4211221', '4211511', '6073026', '4550348', '6022023', '4621545', '4529240', '6238674', '4529247']"
4621545,2249,660,2547,976
4211511,1438,719,1654,980
4211221,1383,989,1803,1260
4550348,2621,1111,2915,1358
4529247,1771,1485,1902,1652
6238674,1144,2360,1370,2576
6022023,2763,1341,3124,1729
6073026,3715,790,3889,1036
4529240,3852,1058,4080,1178
6022064,1839,750,2227,1043
