https://surfdrive.surf.nl/files/index.php/s/B7PEqFZSZZBPcW8/download?path=%2FData%2FInput%2FDatasets%2FBerend%2FImages&files=B_1201.jpg,4608,3072
B_1201,artificial_light,parquet_light,"[120, 120, 120]","['4211412', '623224', '6244886', '4153827', '4211201', '300323', '6069259', '6229071', '4211149', '4143562', '4650630']"
4211412,1738,2085,1958,2230
623224,2665,1201,3048,1530
6244886,3073,847,3365,1151
4153827,2025,1011,2558,1577
4211201,3087,1311,3617,1892
300323,2485,1458,2677,1814
6069259,1295,478,1563,686
6229071,2673,1916,2946,2229
4211149,3114,1108,3296,1303
4143562,2894,1853,3172,2081
4650630,2150,1633,2384,1954
