https://surfdrive.surf.nl/files/index.php/s/B7PEqFZSZZBPcW8/download?path=%2FData%2FInput%2FDatasets%2FBerend%2FImages&files=B_1202.jpg,4608,3072
B_1202,artificial_light,parquet_light,"[120, 120, 120]","['4211412', '623224', '6244886', '4153827', '4211201', '300323', '6069259', '6229071', '4211149', '4143562', '4650630']"
4211412,1747,2412,1827,2562
623224,2314,1339,2582,1507
6244886,2093,939,2237,1145
4153827,1804,1288,2234,1593
4211201,2883,935,3009,1223
300323,2429,1575,2569,1738
6069259,2672,893,2786,1069
6229071,2603,1566,2773,1715
4211149,2376,792,2513,918
4143562,2679,1477,2814,1574
4650630,1959,2371,2121,2629
