https://surfdrive.surf.nl/files/index.php/s/B7PEqFZSZZBPcW8/download?path=%2FData%2FInput%2FDatasets%2FBerend%2FImages&files=B_137.jpg,4607,3072
B_137,daylight,wood,"[130, 130, 130]","['6062574', '6022023']"
6062574,1532,1477,1811,1810
6022023,2716,1510,3155,1830
