https://surfdrive.surf.nl/files/index.php/s/B7PEqFZSZZBPcW8/download?path=%2FData%2FInput%2FDatasets%2FBerend%2FImages&files=B_144.jpg,4608,3072
B_144,daylight,wood,"[130, 130, 130]","['300421', '6138173', '4114319']"
4114319,2485,760,3001,1295
300421,1672,1219,2245,1535
6138173,1691,1496,2236,1726
