https://surfdrive.surf.nl/files/index.php/s/B7PEqFZSZZBPcW8/download?path=%2FData%2FInput%2FDatasets%2FBerend%2FImages&files=B_146.jpg,4607,3072
B_146,daylight,wood,"[130, 130, 130]","['300421', '6138173', '4114319']"
300421,2060,1214,2328,1411
6138173,2333,589,2536,874
4114319,1635,1939,2226,2338
