https://surfdrive.surf.nl/files/index.php/s/B7PEqFZSZZBPcW8/download?path=%2FData%2FInput%2FDatasets%2FBerend%2FImages&files=B_166.jpg,4608,3072
B_166,daylight,wood,"[130, 130, 130]","['300421', '6138173', '4114319', '4211221', '6004938', '4211166', '6069259', '4212454', '4157124', '4211437']"
4211166,3229,1847,3402,2071
6138173,1768,1657,2027,1893
6004938,1302,1571,1480,1766
4114319,2263,1444,2717,1726
300421,2792,1248,3022,1404
6069259,2153,1283,2332,1444
4211221,2355,1283,2544,1455
4157124,2332,1168,2539,1312
4212454,1969,1197,2107,1317
4211437,1779,1018,1952,1254
