https://surfdrive.surf.nl/files/index.php/s/B7PEqFZSZZBPcW8/download?path=%2FData%2FInput%2FDatasets%2FBerend%2FImages&files=B_160.jpg,4608,3072
B_160,daylight,wood,"[130, 130, 130]","['300421', '6138173', '4114319', '4211221', '6004938', '4211166', '6069259', '4212454']"
300421,2629,1803,2802,2034
6138173,2217,1680,2435,1873
4114319,2445,1593,2833,1838
4211221,2716,1231,2935,1459
6004938,3009,1803,3140,1966
4211166,1431,1065,1608,1268
6069259,2251,1464,2433,1598
4212454,2246,1615,2393,1699
