https://surfdrive.surf.nl/files/index.php/s/B7PEqFZSZZBPcW8/download?path=%2FData%2FInput%2FDatasets%2FBerend%2FImages&files=B_163.jpg,4608,3072
B_163,daylight,wood,"[130, 130, 130]","['300421', '6138173', '4114319', '4211221', '6004938', '4211166', '6069259', '4212454', '4157124']"
300421,2494,1469,2632,1596
6138173,2496,1666,2681,1800
4114319,2060,1534,2342,1783
4211221,2055,1108,2232,1230
6004938,2679,1850,2780,1950
4211166,2469,2162,2613,2278
6069259,2503,1972,2610,2078
4212454,2205,1821,2301,1898
4157124,2364,1130,2525,1217
