https://surfdrive.surf.nl/files/index.php/s/B7PEqFZSZZBPcW8/download?path=%2FData%2FInput%2FDatasets%2FBerend%2FImages&files=B_189.jpg,4608,3072
B_189,daylight,wood,"[130, 130, 130]","['300821', '4211412', '4181134', '306223']"
4211412,1513,804,1915,1492
300821,4081,2546,4276,2741
4181134,1341,712,1548,873
306223,413,816,780,1698
