https://surfdrive.surf.nl/files/index.php/s/B7PEqFZSZZBPcW8/download?path=%2FData%2FInput%2FDatasets%2FBerend%2FImages&files=B_18.jpg,4608,3072
B_18,daylight,wood,"[130, 130, 130]","['4650630', '6252809', '4211054', '4548180', '4649749', '300401', '6075075']"
4650630,2164,606,2457,938
6252809,1661,1460,2791,2705
4211054,1407,1244,1740,1462
4548180,2130,1006,2460,1224
4649749,2520,1302,2818,1477
300401,1444,571,1793,790
6075075,1360,880,1612,1130
