https://surfdrive.surf.nl/files/index.php/s/B7PEqFZSZZBPcW8/download?path=%2FData%2FInput%2FDatasets%2FBerend%2FImages&files=B_185.jpg,4608,3072
B_185,daylight,wood,"[130, 130, 130]","['300821', '4211412']"
300821,2602,1266,3494,1850
4211412,1494,1338,1621,1499
