https://surfdrive.surf.nl/files/index.php/s/B7PEqFZSZZBPcW8/download?path=%2FData%2FInput%2FDatasets%2FBerend%2FImages&files=B_19.jpg,4607,3072
B_19,daylight,wood,"[130, 130, 130]","['4650630', '6252809', '4211054', '4548180', '4649749', '300401', '6075075']"
4649749,1845,2622,2106,2824
6252809,2690,1927,3511,2760
4650630,1843,1362,2185,1659
300401,2335,1308,2572,1545
4211054,2162,1005,2280,1198
6075075,1920,910,2085,1125
4548180,2371,505,2622,685
