https://surfdrive.surf.nl/files/index.php/s/B7PEqFZSZZBPcW8/download?path=%2FData%2FInput%2FDatasets%2FBerend%2FImages&files=B_192.jpg,4608,3072
B_192,daylight,wood,"[130, 130, 130]","['300821', '4211412', '4181134', '306223', '4529247']"
4529247,703,1508,1066,1853
306223,1223,1399,1508,1756
4181134,2306,835,3444,2065
4211412,2863,1925,3256,2234
300821,2724,605,4073,1944
