https://surfdrive.surf.nl/files/index.php/s/B7PEqFZSZZBPcW8/download?path=%2FData%2FInput%2FDatasets%2FBerend%2FImages&files=B_204.jpg,4608,3072
B_204,daylight,wood,"[130, 130, 130]","['4621545', '654126', '300124', '306201']"
4621545,1789,945,2009,1267
306201,1812,1233,2035,1384
654126,2046,1657,2300,1933
300124,2319,1774,2595,2406
