https://surfdrive.surf.nl/files/index.php/s/B7PEqFZSZZBPcW8/download?path=%2FData%2FInput%2FDatasets%2FBerend%2FImages&files=B_219.jpg,4607,3072
B_219,daylight,wood,"[130, 130, 130]","['4109995', '4651236', '6177697']"
4109995,1522,852,1870,1208
4651236,1516,1527,1860,1807
6177697,2662,1356,2933,1955
