https://surfdrive.surf.nl/files/index.php/s/B7PEqFZSZZBPcW8/download?path=%2FData%2FInput%2FDatasets%2FBerend%2FImages&files=B_226.jpg,4608,3072
B_226,daylight,wood,"[130, 130, 130]","['6138173', '4210718']"
6138173,1549,1043,1835,1289
4210718,2550,1200,2978,1846
