https://surfdrive.surf.nl/files/index.php/s/B7PEqFZSZZBPcW8/download?path=%2FData%2FInput%2FDatasets%2FBerend%2FImages&files=B_227.jpg,4608,3072
B_227,daylight,wood,"[130, 130, 130]","['6138173', '4210718']"
6138173,1808,1256,2006,1417
4210718,2633,1209,2903,1703
