https://surfdrive.surf.nl/files/index.php/s/B7PEqFZSZZBPcW8/download?path=%2FData%2FInput%2FDatasets%2FBerend%2FImages&files=B_223.jpg,4608,3072
B_223,daylight,wood,"[130, 130, 130]",['6138173']
6138173,2342,1135,2653,1378
