https://surfdrive.surf.nl/files/index.php/s/B7PEqFZSZZBPcW8/download?path=%2FData%2FInput%2FDatasets%2FBerend%2FImages&files=B_236.jpg,4607,3072
B_236,daylight,wood,"[130, 130, 130]","['6138173', '4210718', '4210718', '4121739', '4539099']"
4210718,1353,864,1864,1325
6138173,2072,936,2381,1238
4539099,2834,1354,3014,1490
4210718,2331,1526,2604,2087
4121739,1346,1893,1634,2217
