https://surfdrive.surf.nl/files/index.php/s/B7PEqFZSZZBPcW8/download?path=%2FData%2FInput%2FDatasets%2FBerend%2FImages&files=B_232.jpg,4607,3072
B_232,daylight,wood,"[130, 130, 130]","['6138173', '4210718', '4210718', '4121739']"
4121739,1266,1869,1580,2161
4210718,2601,1655,3142,2153
4210718,1741,1391,2291,1856
6138173,1654,634,1924,857
