https://surfdrive.surf.nl/files/index.php/s/B7PEqFZSZZBPcW8/download?path=%2FData%2FInput%2FDatasets%2FBerend%2FImages&files=B_241.jpg,4608,3072
B_241,daylight,wood,"[130, 130, 130]","['6138173', '4210718', '4210718', '4121739', '4539099', '4211166', '300123']"
6138173,2469,1443,2625,1644
4210718,2476,1692,2783,2120
4210718,2564,1118,2844,1574
4121739,2979,1945,3136,2167
4539099,2415,1101,2560,1195
4211166,2699,2107,2877,2285
300123,2834,1585,3247,1797
