https://surfdrive.surf.nl/files/index.php/s/B7PEqFZSZZBPcW8/download?path=%2FData%2FInput%2FDatasets%2FBerend%2FImages&files=B_243.jpg,4608,3072
B_243,daylight,wood,"[130, 130, 130]","['6138173', '4210718', '4210718', '4121739', '4539099', '4211166', '300123', '6035291']"
6138173,1350,1511,1612,1829
4210718,1865,1797,2705,2294
4210718,1708,1044,2041,1768
4121739,2132,1583,2439,1878
4539099,1582,1972,1752,2204
4211166,2650,2070,2945,2401
300123,2693,1549,3303,1958
6035291,1566,1730,1796,2007
