https://surfdrive.surf.nl/files/index.php/s/B7PEqFZSZZBPcW8/download?path=%2FData%2FInput%2FDatasets%2FBerend%2FImages&files=B_250.jpg,4607,3072
B_250,daylight,wood,"[130, 130, 130]","['6025026', '6223631']"
6025026,1819,1284,2119,1455
6223631,2863,1383,2991,1573
