https://surfdrive.surf.nl/files/index.php/s/B7PEqFZSZZBPcW8/download?path=%2FData%2FInput%2FDatasets%2FBerend%2FImages&files=B_25.jpg,4607,3072
B_25,daylight,wood,"[130, 130, 130]","['4650630', '6252809', '4211054', '4548180', '4649749', '300401', '6075075', '4548180', '6151663']"
4650630,3415,2061,3736,2397
6252809,2421,778,3597,1135
4211054,1121,1552,1404,1764
4548180,2359,1379,2548,1606
4548180,2792,1100,2977,1273
4649749,804,1277,1052,1488
300401,1702,1862,1957,2066
6075075,2794,1350,3066,1526
6151663,1868,1435,2122,1623
