https://surfdrive.surf.nl/files/index.php/s/B7PEqFZSZZBPcW8/download?path=%2FData%2FInput%2FDatasets%2FBerend%2FImages&files=B_266.jpg,4608,3072
B_266,daylight,wood,"[130, 130, 130]","['6025026', '6223631', '4211166', '4567338', '4211054', '6249125', '6225539']"
6223631,1982,1126,2064,1205
6025026,2079,1249,2238,1362
4211166,1911,1313,2056,1485
6225539,1623,1501,2092,1631
4211054,2290,1597,2446,1750
6249125,2383,1818,2479,1919
4567338,2485,1750,2602,1806
