https://surfdrive.surf.nl/files/index.php/s/B7PEqFZSZZBPcW8/download?path=%2FData%2FInput%2FDatasets%2FBerend%2FImages&files=B_272.jpg,4607,3072
B_272,daylight,wood,"[130, 130, 130]",['4211614']
4211614,2111,1405,2322,1605
