https://surfdrive.surf.nl/files/index.php/s/B7PEqFZSZZBPcW8/download?path=%2FData%2FInput%2FDatasets%2FBerend%2FImages&files=B_281.jpg,4607,3072
B_281,daylight,wood,"[130, 130, 130]","['4211614', '4121739', '300423', '300323']"
4211614,1885,1963,2072,2209
300423,1805,1796,2051,2025
300323,2036,1569,2309,1853
4121739,2333,1499,2434,1712
