https://surfdrive.surf.nl/files/index.php/s/B7PEqFZSZZBPcW8/download?path=%2FData%2FInput%2FDatasets%2FBerend%2FImages&files=B_309.jpg,4607,3072
B_309,daylight,wood,"[130, 130, 130]","['4211412', '300123', '6249125']"
4211412,1439,1340,1553,1467
300123,1877,1218,2274,1543
6249125,1641,1337,1732,1400
