https://surfdrive.surf.nl/files/index.php/s/B7PEqFZSZZBPcW8/download?path=%2FData%2FInput%2FDatasets%2FBerend%2FImages&files=B_310.jpg,4607,3072
B_310,daylight,wood,"[130, 130, 130]","['4211412', '300123', '6249125']"
4211412,2084,2028,2162,2132
300123,2292,2412,2634,2706
6249125,2293,2092,2388,2171
