https://surfdrive.surf.nl/files/index.php/s/B7PEqFZSZZBPcW8/download?path=%2FData%2FInput%2FDatasets%2FBerend%2FImages&files=B_322.jpg,4607,3072
B_322,daylight,wood,"[130, 130, 130]","['6003007', '4153827', '4621545']"
4621545,1481,1652,1733,1827
6003007,2421,1462,2762,1879
4153827,1708,1038,1862,1099
