https://surfdrive.surf.nl/files/index.php/s/B7PEqFZSZZBPcW8/download?path=%2FData%2FInput%2FDatasets%2FBerend%2FImages&files=B_33.jpg,4608,3072
B_33,daylight,wood,"[130, 130, 130]","['306201', '4649749']"
306201,1812,1211,1956,1352
4649749,2720,1496,2949,1686
