https://surfdrive.surf.nl/files/index.php/s/B7PEqFZSZZBPcW8/download?path=%2FData%2FInput%2FDatasets%2FBerend%2FImages&files=B_346.jpg,4608,3072
B_346,daylight,wood,"[130, 130, 130]",['4639693']
4639693,1911,885,2493,1370
