https://surfdrive.surf.nl/files/index.php/s/B7PEqFZSZZBPcW8/download?path=%2FData%2FInput%2FDatasets%2FBerend%2FImages&files=B_353.jpg,4608,3072
B_353,daylight,wood,"[130, 130, 130]","['4639693', '4121967', '4157124']"
4639693,1877,1308,2181,2219
4121967,2268,1463,2469,1782
4157124,2039,1002,2266,1234
