https://surfdrive.surf.nl/files/index.php/s/B7PEqFZSZZBPcW8/download?path=%2FData%2FInput%2FDatasets%2FBerend%2FImages&files=B_356.jpg,4607,3072
B_356,daylight,wood,"[130, 130, 130]","['4639693', '4121967', '4157124', '4567338']"
4639693,1552,1112,2178,2016
4121967,1181,1129,1464,1307
4157124,1733,781,1863,1015
4567338,2538,1292,2699,1472
