https://surfdrive.surf.nl/files/index.php/s/B7PEqFZSZZBPcW8/download?path=%2FData%2FInput%2FDatasets%2FBerend%2FImages&files=B_385.jpg,4608,3072
B_385,daylight,wood,"[130, 130, 130]","['4181144', '6238674', '6025026', '6074890']"
4181144,2856,1504,3564,2236
6238674,956,1296,1150,1437
6025026,2692,1171,2934,1390
6074890,3109,1387,3476,1757
