https://surfdrive.surf.nl/files/index.php/s/B7PEqFZSZZBPcW8/download?path=%2FData%2FInput%2FDatasets%2FBerend%2FImages&files=B_383.jpg,4608,3072
B_383,daylight,wood,"[130, 130, 130]","['4181144', '6238674', '6025026']"
4181144,1539,1316,2032,2114
6238674,2842,1492,3044,1642
6025026,1892,1287,2128,1524
