https://surfdrive.surf.nl/files/index.php/s/B7PEqFZSZZBPcW8/download?path=%2FData%2FInput%2FDatasets%2FBerend%2FImages&files=B_393.jpg,4607,3072
B_393,daylight,wood,"[130, 130, 130]",['4121739']
4121739,2200,1341,2361,1628
