https://surfdrive.surf.nl/files/index.php/s/B7PEqFZSZZBPcW8/download?path=%2FData%2FInput%2FDatasets%2FBerend%2FImages&files=B_427.jpg,4608,3072
B_427,daylight,wood,"[130, 130, 130]","['306201', '4153825']"
306201,2332,1239,2589,1422
4153825,1721,1443,1935,1594
