https://surfdrive.surf.nl/files/index.php/s/B7PEqFZSZZBPcW8/download?path=%2FData%2FInput%2FDatasets%2FBerend%2FImages&files=B_431.jpg,4608,3072
B_431,daylight,wood,"[130, 130, 130]","['306201', '4153825', '4647553']"
306201,2640,1586,2762,1756
4153825,1766,1355,1989,1605
4647553,2039,1135,2164,1362
