https://surfdrive.surf.nl/files/index.php/s/B7PEqFZSZZBPcW8/download?path=%2FData%2FInput%2FDatasets%2FBerend%2FImages&files=B_445.jpg,4608,3072
B_445,daylight,wood,"[130, 130, 130]","['300423', '4165967']"
4165967,2671,2108,3332,2798
300423,1181,634,1506,934
