https://surfdrive.surf.nl/files/index.php/s/B7PEqFZSZZBPcW8/download?path=%2FData%2FInput%2FDatasets%2FBerend%2FImages&files=B_452.jpg,4608,3072
B_452,daylight,wood,"[130, 130, 130]","['300423', '4165967', '4647553', '4211614']"
4211614,2514,2517,2847,2743
4165967,1367,1529,2011,2077
300423,1378,1142,1678,1422
4647553,1989,734,2257,992
