https://surfdrive.surf.nl/files/index.php/s/B7PEqFZSZZBPcW8/download?path=%2FData%2FInput%2FDatasets%2FBerend%2FImages&files=B_451.jpg,4608,3072
B_451,daylight,wood,"[130, 130, 130]","['300423', '4165967', '4647553', '4211614']"
4211614,1178,1751,1487,2037
300423,1737,1467,2052,1731
4165967,1313,1192,1687,1812
4647553,2576,729,2810,1018
