https://surfdrive.surf.nl/files/index.php/s/B7PEqFZSZZBPcW8/download?path=%2FData%2FInput%2FDatasets%2FBerend%2FImages&files=B_458.jpg,4608,3072
B_458,daylight,wood,"[130, 130, 130]","['300423', '4165967', '4647553', '4211614', '4529247', '300424']"
300423,2365,1417,2514,1531
4165967,2237,1716,2536,1995
4647553,976,1905,1125,2007
4211614,1638,1650,1779,1747
4529247,2870,1301,2952,1386
300424,2399,1115,2537,1229
