https://surfdrive.surf.nl/files/index.php/s/B7PEqFZSZZBPcW8/download?path=%2FData%2FInput%2FDatasets%2FBerend%2FImages&files=B_465.jpg,4608,3072
B_465,daylight,wood,"[130, 130, 130]","['6075079', '4211201']"
4211201,2070,1251,2574,1628
6075079,1716,1397,1956,1551
