https://surfdrive.surf.nl/files/index.php/s/B7PEqFZSZZBPcW8/download?path=%2FData%2FInput%2FDatasets%2FBerend%2FImages&files=B_460.jpg,4608,3072
B_460,daylight,wood,"[130, 130, 130]","['300423', '4165967', '4647553', '4211614', '4529247', '300424', '6074890']"
300423,1831,1651,1998,1826
4165967,2202,1977,2537,2283
4647553,2838,2112,3004,2244
4211614,2526,1296,2620,1428
4529247,1061,1068,1113,1126
300424,2733,1895,2912,2050
6074890,2418,1954,2525,2048
