https://surfdrive.surf.nl/files/index.php/s/B7PEqFZSZZBPcW8/download?path=%2FData%2FInput%2FDatasets%2FBerend%2FImages&files=B_494.jpg,4608,3072
B_494,daylight,wood,"[130, 130, 130]","['6075075', '4649749', '300323']"
6075075,2238,1211,2448,1425
4649749,2608,1560,2877,1741
300323,1963,1247,2279,1535
