https://surfdrive.surf.nl/files/index.php/s/B7PEqFZSZZBPcW8/download?path=%2FData%2FInput%2FDatasets%2FBerend%2FImages&files=B_49.jpg,4608,3072
B_49,daylight,wood,"[130, 130, 130]","['6075079', '4520632']"
6075079,2270,2148,2580,2476
4520632,1763,522,2292,1098
