https://surfdrive.surf.nl/files/index.php/s/B7PEqFZSZZBPcW8/download?path=%2FData%2FInput%2FDatasets%2FBerend%2FImages&files=B_513.jpg,4608,3072
B_513,daylight,wood,"[130, 130, 130]",['300421']
300421,2088,1238,2360,1533
