https://surfdrive.surf.nl/files/index.php/s/B7PEqFZSZZBPcW8/download?path=%2FData%2FInput%2FDatasets%2FBerend%2FImages&files=B_535.jpg,4607,3072
B_535,daylight,wood,"[130, 130, 130]","['4212454', '6028324']"
4212454,1796,1502,2008,1640
6028324,2275,1233,2498,1441
