https://surfdrive.surf.nl/files/index.php/s/B7PEqFZSZZBPcW8/download?path=%2FData%2FInput%2FDatasets%2FBerend%2FImages&files=B_545.jpg,4607,3072
B_545,daylight,wood,"[130, 130, 130]",['4504369']
4504369,2132,1380,2376,1639
