https://surfdrive.surf.nl/files/index.php/s/B7PEqFZSZZBPcW8/download?path=%2FData%2FInput%2FDatasets%2FBerend%2FImages&files=B_558.jpg,4608,3072
B_558,daylight,wood,"[130, 130, 130]","['4550325', '6229071', '4639693']"
4639693,1813,307,2613,1381
4550325,2641,1837,3018,2169
6229071,1731,2542,1981,2829
