https://surfdrive.surf.nl/files/index.php/s/B7PEqFZSZZBPcW8/download?path=%2FData%2FInput%2FDatasets%2FBerend%2FImages&files=B_550.jpg,4608,3072
B_550,daylight,wood,"[130, 130, 130]","['4504369', '4211149', '4118793']"
4118793,1485,691,1688,925
4211149,1704,2270,2087,2638
4504369,2966,417,3168,594
