https://surfdrive.surf.nl/files/index.php/s/B7PEqFZSZZBPcW8/download?path=%2FData%2FInput%2FDatasets%2FBerend%2FImages&files=B_562.jpg,4608,3072
B_562,daylight,wood,"[130, 130, 130]","['4550325', '6229071', '4639693', '6004938']"
4550325,1405,1254,1673,1575
6229071,1401,1939,1735,2312
4639693,2501,362,3270,1490
6004938,2152,982,2386,1217
