https://surfdrive.surf.nl/files/index.php/s/B7PEqFZSZZBPcW8/download?path=%2FData%2FInput%2FDatasets%2FBerend%2FImages&files=B_600.jpg,4608,3072
B_600,daylight,wood,"[130, 130, 130]","['6238674', '300323', '4153825']"
6238674,1074,1001,1215,1200
300323,2967,1495,3384,1869
4153825,3095,1842,3479,2240
