https://surfdrive.surf.nl/files/index.php/s/B7PEqFZSZZBPcW8/download?path=%2FData%2FInput%2FDatasets%2FBerend%2FImages&files=B_605.jpg,4607,3072
B_605,daylight,wood,"[130, 130, 130]","['6238674', '300323', '4153825', '4211054']"
6238674,3162,1238,3311,1414
300323,2648,1242,3005,1599
4153825,2407,886,2755,1230
4211054,2031,1631,2387,1909
