https://surfdrive.surf.nl/files/index.php/s/B7PEqFZSZZBPcW8/download?path=%2FData%2FInput%2FDatasets%2FBerend%2FImages&files=B_629.jpg,4608,3072
B_629,daylight,wood,"[130, 130, 130]","['4118793', '4114319']"
4118793,3536,1134,3735,1341
4114319,1308,1033,1805,1594
