https://surfdrive.surf.nl/files/index.php/s/B7PEqFZSZZBPcW8/download?path=%2FData%2FInput%2FDatasets%2FBerend%2FImages&files=B_628.jpg,4608,3072
B_628,daylight,wood,"[130, 130, 130]","['4118793', '4114319']"
4118793,2381,640,2690,995
4114319,1566,1566,2387,2397
