https://surfdrive.surf.nl/files/index.php/s/B7PEqFZSZZBPcW8/download?path=%2FData%2FInput%2FDatasets%2FBerend%2FImages&files=B_62.jpg,4608,3072
B_62,daylight,wood,"[130, 130, 130]","['6075079', '4520632', '300421', '6073026', '365901', '6062574']"
6073026,1577,939,1740,1147
365901,1541,1255,2073,1589
4520632,1731,1742,2294,2044
300421,1952,1449,2245,1715
6075079,2668,1016,2903,1097
6062574,3221,1550,3404,1750
