https://surfdrive.surf.nl/files/index.php/s/B7PEqFZSZZBPcW8/download?path=%2FData%2FInput%2FDatasets%2FBerend%2FImages&files=B_63.jpg,4607,3072
B_63,daylight,wood,"[130, 130, 130]","['6075079', '4520632', '300421', '6073026', '365901', '6062574', '6238674']"
365901,2247,1422,2889,1949
300421,2897,1600,3186,1975
6238674,3076,1941,3305,2098
4520632,2706,805,3263,1498
6075079,1703,588,2055,792
6073026,1953,1035,2208,1311
6062574,1368,1921,1632,2219
