https://surfdrive.surf.nl/files/index.php/s/B7PEqFZSZZBPcW8/download?path=%2FData%2FInput%2FDatasets%2FBerend%2FImages&files=B_636.jpg,4608,3072
B_636,daylight,wood,"[130, 130, 130]","['4118793', '4114319', '4558957', '4539099', '6104154']"
4118793,2279,2046,2447,2306
4114319,1782,1396,2407,1780
4558957,1615,1625,2234,2229
4539099,1339,1723,1566,1947
6104154,2128,806,2420,1044
