https://surfdrive.surf.nl/files/index.php/s/B7PEqFZSZZBPcW8/download?path=%2FData%2FInput%2FDatasets%2FBerend%2FImages&files=B_645.jpg,4608,3072
B_645,daylight,wood,"[130, 130, 130]","['4118793', '4114319', '4558957', '4539099', '6104154', '4109995', '4558957', '4529240']"
4529240,1055,1736,1232,1850
4109995,1582,1117,1823,1340
4558957,1725,1340,2092,1701
4558957,1949,1397,2373,1850
4118793,2407,1489,2573,1661
4114319,2224,1180,2671,1437
4539099,3261,864,3387,985
6104154,1891,916,2144,1134
