https://surfdrive.surf.nl/files/index.php/s/B7PEqFZSZZBPcW8/download?path=%2FData%2FInput%2FDatasets%2FBerend%2FImages&files=B_641.jpg,4608,3072
B_641,daylight,wood,"[130, 130, 130]","['4118793', '4114319', '4558957', '4539099', '6104154', '4109995']"
4118793,1872,826,1954,928
4114319,2256,1639,2581,1836
4558957,2530,1394,2784,1641
4539099,2428,1541,2487,1647
6104154,3047,1393,3189,1560
4109995,2866,1466,2981,1636
