https://surfdrive.surf.nl/files/index.php/s/B7PEqFZSZZBPcW8/download?path=%2FData%2FInput%2FDatasets%2FBerend%2FImages&files=B_654.jpg,4607,3072
B_654,daylight,wood,"[130, 130, 130]",['6223631']
6223631,2269,1460,2390,1585
