https://surfdrive.surf.nl/files/index.php/s/B7PEqFZSZZBPcW8/download?path=%2FData%2FInput%2FDatasets%2FBerend%2FImages&files=B_658.jpg,4608,3072
B_658,daylight,wood,"[130, 130, 130]","['6223631', '4160403']"
4160403,1424,1576,1802,2490
6223631,2789,1114,2906,1290
