https://surfdrive.surf.nl/files/index.php/s/B7PEqFZSZZBPcW8/download?path=%2FData%2FInput%2FDatasets%2FBerend%2FImages&files=B_651.jpg,4608,3072
B_651,daylight,wood,"[130, 130, 130]","['4118793', '4114319', '4558957', '4539099', '6104154', '4109995', '4558957', '4529240', '4157124', '4651236']"
4114319,1901,1341,2273,1564
4651236,2318,1471,2533,1598
4558957,2630,1721,3017,1996
4558957,2214,1613,2571,1873
6104154,2065,2174,2273,2271
4157124,2478,1404,2603,1530
4118793,2647,1452,2749,1606
4529240,2612,1413,2737,1468
4109995,2506,1524,2695,1646
4539099,2593,1728,2715,1833
