https://surfdrive.surf.nl/files/index.php/s/B7PEqFZSZZBPcW8/download?path=%2FData%2FInput%2FDatasets%2FBerend%2FImages&files=B_667.jpg,4608,3072
B_667,daylight,wood,"[130, 130, 130]","['6223631', '4160403', '4527943', '4650630', '300424']"
6223631,2084,1174,2243,1347
4160403,2408,1914,3247,2408
4527943,1635,951,1922,1274
4650630,1884,1603,2311,2014
300424,1883,778,2103,1071
