https://surfdrive.surf.nl/files/index.php/s/B7PEqFZSZZBPcW8/download?path=%2FData%2FInput%2FDatasets%2FBerend%2FImages&files=B_68.jpg,4608,3072
B_68,daylight,wood,"[130, 130, 130]",['300121']
300121,2050,1353,2564,1749
