https://surfdrive.surf.nl/files/index.php/s/B7PEqFZSZZBPcW8/download?path=%2FData%2FInput%2FDatasets%2FBerend%2FImages&files=B_695.jpg,4608,3072
B_695,daylight,wood,"[130, 130, 130]","['365901', '4567338', '4121967', '6223631', '4212454', '4153825', '4504381']"
365901,2214,1748,2807,1995
4153825,2304,1348,2656,1724
6223631,2211,1213,2376,1375
4121967,1897,1301,2161,1596
4567338,1953,1734,2174,1862
4212454,2589,1654,2799,1769
4504381,2044,1835,2198,1976
