https://surfdrive.surf.nl/files/index.php/s/B7PEqFZSZZBPcW8/download?path=%2FData%2FInput%2FDatasets%2FBerend%2FImages&files=B_703.jpg,4607,3072
B_703,daylight,wood,"[130, 130, 130]","['365901', '4567338', '4121967', '6223631', '4212454', '4153825', '4504381', '6035291', '4558957', '4529247']"
4504381,1705,2115,1917,2321
6035291,2087,1906,2385,2240
4529247,1336,1706,1563,1827
4567338,1775,1567,1971,1806
365901,1821,1195,2432,1494
4212454,2051,916,2202,1131
4121967,2239,941,2565,1198
6223631,2653,1022,2765,1192
4153825,2610,1128,2943,1249
4558957,2423,1244,2941,1804
