https://surfdrive.surf.nl/files/index.php/s/B7PEqFZSZZBPcW8/download?path=%2FData%2FInput%2FDatasets%2FBerend%2FImages&files=B_716.jpg,4607,3072
B_716,daylight,wood,"[130, 130, 130]",['306201']
306201,2237,1408,2412,1576
