https://surfdrive.surf.nl/files/index.php/s/B7PEqFZSZZBPcW8/download?path=%2FData%2FInput%2FDatasets%2FBerend%2FImages&files=B_729.jpg,4608,3072
B_729,daylight,wood,"[130, 130, 130]","['306201', '4527943', '6004938', '4121967', '4181144', '4160403']"
306201,952,1038,1217,1289
4527943,2121,640,2537,960
6004938,1609,789,1848,1108
4121967,3160,1267,3464,1696
4181144,1887,984,3149,1453
4160403,1733,1364,2268,2495
