https://surfdrive.surf.nl/files/index.php/s/B7PEqFZSZZBPcW8/download?path=%2FData%2FInput%2FDatasets%2FBerend%2FImages&files=B_721.jpg,4608,3072
B_721,daylight,wood,"[130, 130, 130]","['306201', '4527943', '6004938']"
4527943,1974,1833,2246,2149
306201,2164,1410,2372,1637
6004938,2606,1056,2783,1340
