https://surfdrive.surf.nl/files/index.php/s/B7PEqFZSZZBPcW8/download?path=%2FData%2FInput%2FDatasets%2FBerend%2FImages&files=B_723.jpg,4608,3072
B_723,daylight,wood,"[130, 130, 130]","['306201', '4527943', '6004938', '4121967']"
6004938,2042,1601,2281,1777
306201,2302,1623,2466,1787
4121967,1909,1205,2078,1523
4527943,2141,907,2399,1087
