https://surfdrive.surf.nl/files/index.php/s/B7PEqFZSZZBPcW8/download?path=%2FData%2FInput%2FDatasets%2FBerend%2FImages&files=B_734.jpg,4608,3072
B_734,daylight,wood,"[130, 130, 130]","['306201', '4527943', '6004938', '4121967', '4181144', '4160403', '300423']"
306201,1665,1713,1895,1858
4527943,2433,889,2663,1180
4181144,1974,1083,2427,1828
300423,2273,2013,2602,2323
6004938,1856,1801,2065,2009
4121967,1995,878,2195,1166
4160403,1283,995,2044,1196
