https://surfdrive.surf.nl/files/index.php/s/B7PEqFZSZZBPcW8/download?path=%2FData%2FInput%2FDatasets%2FBerend%2FImages&files=B_735.jpg,4608,3072
B_735,daylight,wood,"[130, 130, 130]","['306201', '4527943', '6004938', '4121967', '4181144', '4160403', '300423', '6151663']"
4527943,1484,1094,1692,1329
6004938,1139,1245,1314,1412
300423,1378,1541,1586,1791
4160403,1533,1363,2059,1741
4181144,1961,1374,2551,1904
6151663,2832,1302,3055,1473
306201,3146,1060,3297,1219
4121967,1953,1934,2131,2169
