https://surfdrive.surf.nl/files/index.php/s/B7PEqFZSZZBPcW8/download?path=%2FData%2FInput%2FDatasets%2FBerend%2FImages&files=B_746.jpg,4608,3072
B_746,daylight,wood,"[130, 130, 130]",['6074890']
6074890,2151,1384,2298,1593
