https://surfdrive.surf.nl/files/index.php/s/B7PEqFZSZZBPcW8/download?path=%2FData%2FInput%2FDatasets%2FBerend%2FImages&files=B_768.jpg,4608,3072
B_768,daylight,wood,"[130, 130, 130]","['4181135', '6069259']"
4181135,3235,1465,3793,2294
6069259,929,1128,1256,1338
