https://surfdrive.surf.nl/files/index.php/s/B7PEqFZSZZBPcW8/download?path=%2FData%2FInput%2FDatasets%2FBerend%2FImages&files=B_762.jpg,4608,3072
B_762,daylight,wood,"[130, 130, 130]","['6035291', '4118793', '4109995', '6022064', '6249125', '4539099']"
6022064,2957,1183,3177,1464
4539099,2615,886,2753,986
6035291,2835,580,3060,779
6249125,2413,359,2596,480
4109995,1731,559,1856,648
4118793,1109,1134,1207,1259
