https://surfdrive.surf.nl/files/index.php/s/B7PEqFZSZZBPcW8/download?path=%2FData%2FInput%2FDatasets%2FBerend%2FImages&files=B_770.jpg,4607,3072
B_770,daylight,wood,"[130, 130, 130]","['4181135', '6069259']"
4181135,1808,1427,2421,2243
6069259,2144,1043,2430,1199
