https://surfdrive.surf.nl/files/index.php/s/B7PEqFZSZZBPcW8/download?path=%2FData%2FInput%2FDatasets%2FBerend%2FImages&files=B_790.jpg,4608,3072
B_790,daylight,wood,"[130, 130, 130]","['4181135', '6069259', '6003007', '4650630', '4504369', '4527943', '6062574', '4211166', '4211437']"
4211166,3344,1338,3555,1585
4650630,3090,1060,3372,1329
4181135,2138,1044,2774,1313
4504369,2218,1274,2337,1382
6069259,2428,1289,2639,1461
6062574,1921,1299,2060,1491
4211437,2160,717,2288,908
6003007,2259,670,2321,801
4527943,885,950,1019,1163
