https://surfdrive.surf.nl/files/index.php/s/B7PEqFZSZZBPcW8/download?path=%2FData%2FInput%2FDatasets%2FBerend%2FImages&files=B_796.jpg,4607,3072
B_796,daylight,wood,"[130, 130, 130]",['6151663']
6151663,2141,1268,2536,1382
