https://surfdrive.surf.nl/files/index.php/s/B7PEqFZSZZBPcW8/download?path=%2FData%2FInput%2FDatasets%2FBerend%2FImages&files=B_792.jpg,4608,3072
B_792,daylight,wood,"[130, 130, 130]","['4181135', '6069259', '6003007', '4650630', '4504369', '4527943', '6062574', '4211166', '4211437', '4211614']"
4527943,1590,380,1750,538
6062574,2562,1063,2692,1212
4650630,2238,1368,2461,1585
4211614,2556,1376,2707,1561
4211166,2574,1518,2760,1694
6069259,2626,1671,2835,1822
6003007,2333,2067,2421,2185
4211437,2880,1705,3082,1983
None,2906,1704,3316,1906
4181135,2889,1229,3147,1755
