https://surfdrive.surf.nl/files/index.php/s/B7PEqFZSZZBPcW8/download?path=%2FData%2FInput%2FDatasets%2FBerend%2FImages&files=B_815.jpg,4608,3072
B_815,daylight,wood,"[130, 130, 130]","['614321', '4550348', '6104154', '4109995']"
614321,2137,1261,2379,1534
4550348,2221,1172,2464,1321
6104154,2781,1119,2951,1341
4109995,1780,1614,1981,1875
