https://surfdrive.surf.nl/files/index.php/s/B7PEqFZSZZBPcW8/download?path=%2FData%2FInput%2FDatasets%2FBerend%2FImages&files=B_811.jpg,4608,3072
B_811,daylight,wood,"[130, 130, 130]","['614321', '4550348', '6104154']"
4550348,527,1113,845,1317
614321,1445,1099,1765,1449
6104154,2181,1119,2474,1460
