https://surfdrive.surf.nl/files/index.php/s/B7PEqFZSZZBPcW8/download?path=%2FData%2FInput%2FDatasets%2FBerend%2FImages&files=B_829.jpg,4607,3072
B_829,daylight,parquet_dark_brown,"[120, 120, 120]","['6225539', '4181134', '4655172', '623224', '4143562', '6028324', '6244886', '4165967', '4655172', '4567338']"
4143562,779,1732,1020,1960
6028324,2480,1827,2669,2023
6244886,2461,1624,2789,1801
4181134,2499,1207,3036,1732
4165967,2846,1783,3352,2061
4567338,3358,1789,3434,1947
623224,3055,1523,3339,1745
6225539,2916,1150,3472,1593
4655172,2770,1112,3200,1441
4655172,2537,910,3011,1138
