https://surfdrive.surf.nl/files/index.php/s/B7PEqFZSZZBPcW8/download?path=%2FData%2FInput%2FDatasets%2FBerend%2FImages&files=B_826.jpg,4608,3072
B_826,daylight,parquet_dark_brown,"[120, 120, 120]","['6225539', '4181134', '4655172', '623224', '4143562', '6028324', '6244886', '4165967', '4655172', '4567338', '300401']"
6225539,2336,1204,2755,1626
4181134,1753,700,2327,943
4655172,2360,903,2644,1238
4655172,3040,1474,3272,1828
623224,1922,1335,2146,1556
4143562,2520,666,2691,795
6028324,1248,1765,1436,1970
6244886,1712,1279,1896,1499
4165967,2005,1511,2452,1828
4567338,2021,1713,2175,1859
300401,1603,1407,1722,1587
