https://surfdrive.surf.nl/files/index.php/s/B7PEqFZSZZBPcW8/download?path=%2FData%2FInput%2FDatasets%2FBerend%2FImages&files=B_834.jpg,4608,3072
B_834,daylight,parquet_dark_brown,"[120, 120, 120]","['6225539', '4181134', '4655172', '623224', '4143562', '6028324', '6244886', '4165967']"
623224,1688,1183,1886,1386
4143562,1914,1057,2097,1296
6225539,1914,1531,2092,2034
4165967,2172,1592,2389,1959
4655172,2144,1320,2544,1559
4181134,2426,1475,2638,1902
6244886,2619,1169,2821,1442
6028324,2610,1175,2765,1274
