https://surfdrive.surf.nl/files/index.php/s/B7PEqFZSZZBPcW8/download?path=%2FData%2FInput%2FDatasets%2FBerend%2FImages&files=B_866.jpg,4607,3072
B_866,daylight,parquet_dark_brown,"[120, 120, 120]","['4517992', '300121', '6022023', '300821', '300123', '6028324', '4143562', '6244886', '6022064', '4655172', '4118793', '306223']"
4118793,628,1637,747,1745
4143562,1576,1265,1700,1391
306223,2519,1254,2602,1328
300123,2433,1106,2696,1311
6022064,2320,1119,2449,1283
6244886,2429,1004,2537,1148
4655172,2773,802,2893,1018
300821,2154,695,2505,1004
6028324,3226,1184,3339,1297
300121,2165,980,2415,1201
4517992,2320,857,2442,989
6022023,3748,904,3923,1011
