https://surfdrive.surf.nl/files/index.php/s/B7PEqFZSZZBPcW8/download?path=%2FData%2FInput%2FDatasets%2FBerend%2FImages&files=B_879.jpg,4608,3072
B_879,daylight,parquet_dark_brown,"[120, 120, 120]","['4517992', '300121', '6022023', '300821', '300123', '6028324', '4143562']"
4517992,2357,945,2527,1159
300121,3558,1400,3860,1715
6022023,2805,2170,3063,2417
300821,2100,646,2611,905
300123,2258,1792,2548,2139
6028324,2573,1607,2731,1765
4143562,437,1021,610,1138
