https://surfdrive.surf.nl/files/index.php/s/B7PEqFZSZZBPcW8/download?path=%2FData%2FInput%2FDatasets%2FBerend%2FImages&files=B_874.jpg,4607,3072
B_874,daylight,parquet_dark_brown,"[120, 120, 120]","['4517992', '300121', '6022023', '300821', '300123', '6028324', '4143562', '6244886', '6022064']"
4517992,2681,1025,2899,1244
300123,2403,1649,2747,1892
300821,2222,1439,2854,1750
300121,2042,1447,2398,1710
6022064,2095,1676,2346,1878
6028324,1740,1526,1878,1678
6022023,1335,1279,1548,1425
6244886,2083,846,2243,1061
4143562,1255,827,1441,954
