https://surfdrive.surf.nl/files/index.php/s/B7PEqFZSZZBPcW8/download?path=%2FData%2FInput%2FDatasets%2FBerend%2FImages&files=B_872.jpg,4608,3072
B_872,daylight,parquet_dark_brown,"[120, 120, 120]","['4517992', '300121', '6022023', '300821', '300123', '6028324', '4143562', '6244886', '6022064', '4655172']"
4517992,2513,561,2651,670
300121,1621,1180,1890,1410
6022023,1206,1608,1378,1782
300821,2178,1472,2289,2040
300123,1944,1430,2088,1682
6028324,1620,1766,1726,1874
4143562,1574,1004,1736,1091
6244886,1420,1876,1570,2038
6022064,1981,2030,2080,2248
4655172,1492,1518,1804,1668
