https://surfdrive.surf.nl/files/index.php/s/B7PEqFZSZZBPcW8/download?path=%2FData%2FInput%2FDatasets%2FBerend%2FImages&files=B_9.jpg,4607,3072
B_9,daylight,wood,"[130, 130, 130]","['4650630', '6252809', '4211054', '4548180']"
6252809,1393,1643,2467,2598
4548180,2619,1789,2910,2023
4211054,2897,2497,3295,2769
4650630,1551,209,1797,392
