https://surfdrive.surf.nl/files/index.php/s/B7PEqFZSZZBPcW8/download?path=%2FData%2FInput%2FDatasets%2FBerend%2FImages&files=B_901.jpg,4608,3072
B_901,daylight,parquet_dark_brown,"[120, 120, 120]","['4165967', '623224', '6075075', '6225539', '4504369', '6252809', '4181135', '4211511']"
4165967,2126,1270,2354,1584
623224,1752,1326,1997,1547
6075075,1781,2068,1954,2240
6225539,2295,1930,2814,2173
4504369,1397,1130,1498,1220
6252809,1706,1202,2465,1350
4181135,1771,1754,2272,2180
4211511,2399,1440,2540,1555
