https://surfdrive.surf.nl/files/index.php/s/B7PEqFZSZZBPcW8/download?path=%2FData%2FInput%2FDatasets%2FBerend%2FImages&files=B_919.jpg,4608,3072
B_919,daylight,parquet_light,"[120, 120, 120]","['6138173', '4520632', '6229071', '6177697', '300321', '4529247', '4639693', '4181144', '4211166', '4109995']"
6138173,1215,1320,1372,1465
4520632,2391,1749,2685,2071
6229071,2355,2092,2497,2255
6177697,2447,1655,2768,1825
300321,2752,1228,2897,1369
4529247,2725,2310,2791,2436
4639693,2235,1127,2683,1606
4181144,1959,1378,2301,1792
4211166,1485,1439,1625,1586
4109995,2093,1920,2250,2026
