https://surfdrive.surf.nl/files/index.php/s/B7PEqFZSZZBPcW8/download?path=%2FData%2FInput%2FDatasets%2FBerend%2FImages&files=B_922.jpg,4608,3072
B_922,daylight,parquet_light,"[120, 120, 120]","['6138173', '4520632', '6229071', '6177697', '300321', '4529247', '4639693', '4181144', '4211166']"
6138173,1905,1308,2086,1462
4520632,2756,1552,3103,1794
6229071,808,1411,986,1584
6177697,2971,1821,3330,2016
300321,2092,1816,2238,2001
4529247,2470,2217,2560,2343
4639693,2574,810,2996,1342
4181144,1962,890,2321,1290
4211166,717,1496,862,1650
