https://surfdrive.surf.nl/files/index.php/s/B7PEqFZSZZBPcW8/download?path=%2FData%2FInput%2FDatasets%2FBerend%2FImages&files=B_933.jpg,4608,3072
B_933,daylight,parquet_light,"[120, 120, 120]","['654126', '4153827', '4160403', '4651236', '4655172', '4550325', '4517992', '4211201', '4550348', '4121739', '300124', '6075075']"
654126,1349,852,1441,933
4153827,2424,1692,2730,1834
4160403,2899,1082,3118,1350
4651236,1820,2085,1963,2243
4655172,2138,1872,2491,2094
4550325,1660,1056,1784,1175
4517992,2641,2105,2870,2323
4211201,2153,1582,2336,1832
4550348,1804,2056,1950,2220
4121739,2366,2129,2546,2301
300124,2607,1836,2928,1990
6075075,2420,2293,2597,2414
