https://surfdrive.surf.nl/files/index.php/s/B7PEqFZSZZBPcW8/download?path=%2FData%2FInput%2FDatasets%2FBerend%2FImages&files=B_93.jpg,4608,3072
B_93,daylight,wood,"[130, 130, 130]","['4651236', '6028324', '6225539']"
4651236,1876,1809,2203,1995
6028324,2114,1287,2366,1540
6225539,2252,1452,3054,2000
