https://surfdrive.surf.nl/files/index.php/s/B7PEqFZSZZBPcW8/download?path=%2FData%2FInput%2FDatasets%2FBerend%2FImages&files=B_946.jpg,4608,3072
B_946,daylight,parquet_light,"[120, 120, 120]","['654126', '4153827', '4160403', '4651236', '4655172', '4550325', '4517992', '4211201']"
4655172,1764,1042,2230,1202
4517992,1954,1425,2175,1588
4160403,2322,1250,2476,1711
4550325,3180,1342,3345,1465
4153827,1794,1499,2129,1858
4211201,1625,1904,1991,2263
4651236,1370,1793,1616,1913
654126,2240,2091,2405,2181
