https://surfdrive.surf.nl/files/index.php/s/B7PEqFZSZZBPcW8/download?path=%2FData%2FInput%2FDatasets%2FBerend%2FImages&files=B_958.jpg,4608,3072
B_958,daylight,parquet_light,"[120, 120, 120]","['6244886', '6022023', '300821', '4181134', '300121', '4143562', '300123', '4114319', '6075079', '4157124', '306223', '4181144']"
6244886,2730,1991,3042,2227
6022023,2519,2068,2793,2372
300821,1876,1443,2228,2161
4181134,1998,1006,2598,1313
300121,1756,1762,2077,2213
4143562,1532,668,1737,886
300123,1174,1791,1624,2040
4114319,2252,1442,2691,1724
6075079,1749,1663,1861,1813
4157124,2071,1459,2225,1661
306223,2614,1738,2734,1901
4181144,2318,1663,2641,2272
