https://surfdrive.surf.nl/files/index.php/s/B7PEqFZSZZBPcW8/download?path=%2FData%2FInput%2FDatasets%2FBerend%2FImages&files=B_959.jpg,4608,3072
B_959,daylight,parquet_light,"[120, 120, 120]","['6244886', '6022023', '300821', '4181134', '300121', '4143562', '300123', '4114319', '6075079', '4157124', '306223', '4181144']"
6244886,2822,1582,3049,1812
6022023,2770,1877,3004,2118
300821,2445,1700,2763,2291
4181134,2283,901,2598,1356
300121,1834,1226,2194,1464
4143562,1789,1549,1961,1717
300123,1412,1413,1755,1715
4114319,2621,989,2828,1357
6075079,1372,2376,1588,2513
4157124,2815,1117,2976,1243
306223,2980,1513,3066,1620
4181144,1882,1778,2450,2086
