https://surfdrive.surf.nl/files/index.php/s/B7PEqFZSZZBPcW8/download?path=%2FData%2FInput%2FDatasets%2FBerend%2FImages&files=B_965.jpg,4607,3072
B_965,daylight,parquet_light,"[120, 120, 120]","['6244886', '6022023', '300821', '4181134', '300121', '4143562', '300123', '4114319', '6075079', '4157124']"
6022023,757,1873,1003,2120
4143562,1261,2051,1462,2234
4157124,1846,2372,1943,2572
6075079,2528,2366,2614,2515
300121,2000,727,2316,876
300123,2671,1042,3009,1248
300821,2384,1329,3089,1432
4114319,2510,1632,2889,1896
None,2786,1592,3003,1781
4181134,3124,962,3508,1346
