https://surfdrive.surf.nl/files/index.php/s/B7PEqFZSZZBPcW8/download?path=%2FData%2FInput%2FDatasets%2FBerend%2FImages&files=B_978.jpg,4608,3072
B_978,daylight,parquet_light,"[120, 120, 120]","['4211511', '6028324', '614321', '4165967', '6225539', '6138173', '6229071', '623224', '4651236', '4211054', '4121967']"
4211511,2156,1673,2266,1762
6028324,1984,1453,2129,1585
614321,1997,1621,2160,1797
4165967,2279,1766,2614,2053
6225539,2579,1656,3034,1876
6138173,2438,968,2592,1104
6229071,2350,1484,2491,1656
623224,2548,1426,2698,1629
4651236,1004,1951,1189,2075
4211054,2394,1585,2579,1779
4121967,2244,1629,2398,1832
