https://surfdrive.surf.nl/files/index.php/s/B7PEqFZSZZBPcW8/download?path=%2FData%2FInput%2FDatasets%2FBerend%2FImages&files=B_974.jpg,4608,3072
B_974,daylight,parquet_light,"[120, 120, 120]","['4211511', '6028324', '614321', '4165967', '6225539', '6138173', '6229071', '623224', '4651236', '4211054', '4121967', '6252809', '6062574']"
4211511,2778,2050,2894,2183
6028324,2519,1786,2685,1954
614321,3018,1472,3153,1663
4165967,1682,836,1930,1136
6225539,2751,1156,3105,1602
6138173,3018,1318,3131,1472
6229071,2571,1338,2730,1500
623224,2813,1652,3080,1855
4651236,2604,1858,2797,2043
4211054,2246,1784,2397,1998
4121967,2477,1908,2623,2130
6252809,1601,1252,2422,1800
6062574,2821,1104,2941,1202
