https://surfdrive.surf.nl/files/index.php/s/B7PEqFZSZZBPcW8/download?path=%2FData%2FInput%2FDatasets%2FBerend%2FImages&files=B_975.jpg,4608,3072
B_975,daylight,parquet_light,"[120, 120, 120]","['4211511', '6028324', '614321', '4165967', '6225539', '6138173', '6229071', '623224', '4651236', '4211054', '4121967', '6252809']"
4165967,1612,1275,1936,1575
4211054,2074,1380,2266,1536
623224,2263,1341,2458,1560
4651236,2416,1428,2542,1575
6225539,2212,1203,2611,1416
6229071,2236,1146,2383,1302
6028324,2286,1056,2417,1192
6138173,2339,997,2495,1153
6252809,2125,690,2350,1242
614321,1922,1728,2092,1911
4211511,2716,2121,2848,2250
4121967,2134,2127,2296,2310
