https://surfdrive.surf.nl/files/index.php/s/B7PEqFZSZZBPcW8/download?path=%2FData%2FInput%2FDatasets%2FBerend%2FImages&files=B_99.jpg,4608,3072
B_99,daylight,wood,"[130, 130, 130]","['6022064', '4211221']"
6022064,1867,1571,2347,2205
4211221,2308,902,2932,1523
