https://surfdrive.surf.nl/files/index.php/s/B7PEqFZSZZBPcW8/download?path=%2FData%2FInput%2FDatasets%2FDavid%2FImages&files=C_1007.jpg,5472,3647
C_1007,daylight,couch,"[120, 120, 120]","['4109995', '6073026', '4165967', '300124', '6225539', '4211511', '4181144', '4520632', '300321', '4550325', '4211149', '4639693', '4649749']"
300321,3397,2418,3684,2760
4550325,3773,2398,4026,2596
4181144,3971,1387,4470,1995
4211149,2858,1612,3097,1865
6225539,2202,1537,2830,1851
4520632,1724,1503,2229,1940
4639693,1683,1312,2502,1585
4109995,1430,1578,1648,1722
6073026,1321,1728,1525,1844
4211511,1341,1865,1505,2077
4165967,1273,1230,1566,1551
300124,1389,1032,1833,1230
4649749,1293,943,1471,1079
