https://surfdrive.surf.nl/files/index.php/s/B7PEqFZSZZBPcW8/download?path=%2FData%2FInput%2FDatasets%2FDavid%2FImages&files=C_1021.jpg,5472,3648
C_1021,daylight,couch,"[120, 120, 120]","['4109995', '6073026', '4165967', '300124', '6225539', '4211511', '4181144', '4520632']"
4109995,2673,862,2917,1070
6073026,1618,1997,1828,2172
4165967,2979,2401,3558,2910
300124,1962,1796,2343,2312
6225539,2630,1423,3008,2075
4211511,3650,1513,3853,1707
4181144,1924,1134,2616,1592
4520632,2475,914,2940,1319
