https://surfdrive.surf.nl/files/index.php/s/B7PEqFZSZZBPcW8/download?path=%2FData%2FInput%2FDatasets%2FDavid%2FImages&files=C_1018.jpg,5472,3648
C_1018,daylight,couch,"[120, 120, 120]","['4109995', '6073026', '4165967', '300124', '6225539', '4211511', '4181144', '4520632', '300321']"
4109995,1800,936,2018,1128
6073026,3606,2279,3801,2474
4165967,2529,1671,2989,2039
300124,1973,1895,2279,2352
6225539,2577,2285,3292,2514
4211511,2670,2469,2870,2680
4181144,2666,1381,3191,1958
4520632,2491,1954,2991,2303
300321,3169,1792,3484,2115
