https://surfdrive.surf.nl/files/index.php/s/B7PEqFZSZZBPcW8/download?path=%2FData%2FInput%2FDatasets%2FDavid%2FImages&files=C_1018.jpg,5472,3648
C_1018,daylight,couch,"[120, 120, 120]","['4109995', '6073026', '4165967', '300124', '6225539', '4211511', '4181144', '4520632', '300321']"
300124,1999,1914,2239,2342
4109995,1804,923,2006,1111
6073026,3613,2304,3793,2455
4211511,2689,2492,2847,2642
6225539,2592,2297,3275,2492
4520632,2502,1967,2982,2222
4165967,2554,1666,2967,1929
300321,3185,1824,3463,2102
4181144,2682,1396,3170,1974
