https://surfdrive.surf.nl/files/index.php/s/B7PEqFZSZZBPcW8/download?path=%2FData%2FInput%2FDatasets%2FDavid%2FImages&files=C_1022.jpg,5472,3648
C_1022,daylight,couch,"[120, 120, 120]","['4109995', '6073026', '4165967', '300124', '6225539', '4211511', '4181144', '4520632']"
4520632,2189,1159,2618,1454
4109995,3288,1078,3494,1266
4211511,3592,1284,3735,1391
300124,2636,1811,3118,2160
6225539,2680,1677,3315,1936
4181144,2216,1311,2797,1820
4165967,2010,1829,2466,2187
6073026,2439,2205,2573,2365
