https://surfdrive.surf.nl/files/index.php/s/B7PEqFZSZZBPcW8/download?path=%2FData%2FInput%2FDatasets%2FDavid%2FImages&files=C_116.jpg,5472,3648
C_116,daylight,armchair,"[130, 130, 130]","['300124', '4181134', '4114319', '4529247']"
300124,1861,1734,2173,2297
4181134,3226,1510,3898,2209
4114319,2439,2464,3070,2917
4529247,2191,1136,2270,1280
