https://surfdrive.surf.nl/files/index.php/s/B7PEqFZSZZBPcW8/download?path=%2FData%2FInput%2FDatasets%2FDavid%2FImages&files=C_129.jpg,5472,3648
C_129,artificial,coffee_table,"[130, 130, 130]","['6238674', '4212454', '4504369', '4550348', '4527943']"
6238674,2163,2114,2316,2258
4212454,2415,1767,2562,1890
4504369,2351,1872,2476,1958
4550348,2392,1912,2623,2094
4527943,2819,1445,2998,1615
