https://surfdrive.surf.nl/files/index.php/s/B7PEqFZSZZBPcW8/download?path=%2FData%2FInput%2FDatasets%2FDavid%2FImages&files=C_146.jpg,5472,3647
C_146,daylight,coffee_table,"[130, 130, 130]",['4121739']
4121739,2646,1646,2941,1975
