https://surfdrive.surf.nl/files/index.php/s/B7PEqFZSZZBPcW8/download?path=%2FData%2FInput%2FDatasets%2FDavid%2FImages&files=C_149.jpg,5472,3648
C_149,daylight,coffee_table,"[130, 130, 130]","['4121739', '6025026']"
4121739,2462,1504,2752,1814
6025026,2655,1866,2940,2126
