https://surfdrive.surf.nl/files/index.php/s/B7PEqFZSZZBPcW8/download?path=%2FData%2FInput%2FDatasets%2FDavid%2FImages&files=C_148.jpg,5472,3648
C_148,daylight,coffee_table,"[130, 130, 130]","['4121739', '6025026']"
6025026,2789,1581,3078,1828
4121739,2409,1614,2666,1946
