https://surfdrive.surf.nl/files/index.php/s/B7PEqFZSZZBPcW8/download?path=%2FData%2FInput%2FDatasets%2FDavid%2FImages&files=C_167.jpg,5472,3648
C_167,daylight,coffee_table,"[130, 130, 130]","['4121739', '6025026', '6238674', '6104154', '4121739', '4529240', '4550325', '6225539']"
4121739,2373,1531,2804,1843
4121739,3032,2014,3318,2216
6025026,2592,2218,2898,2408
6238674,2258,1598,2463,1740
6104154,2013,1930,2315,2140
4529240,1320,1595,1552,1773
4550325,1452,1644,1741,1957
6225539,2616,1205,3394,1641
