https://surfdrive.surf.nl/files/index.php/s/B7PEqFZSZZBPcW8/download?path=%2FData%2FInput%2FDatasets%2FDavid%2FImages&files=C_185.jpg,5472,3648
C_185,daylight,coffee_table,"[130, 130, 130]",['300323']
300323,2515,1645,2897,2020
