https://surfdrive.surf.nl/files/index.php/s/B7PEqFZSZZBPcW8/download?path=%2FData%2FInput%2FDatasets%2FDavid%2FImages&files=C_181.jpg,5472,3648
C_181,daylight,coffee_table,"[130, 130, 130]","['6252809', '4160403', '300423']"
6252809,1844,1934,2417,3423
4160403,2481,1012,2650,1751
300423,3130,1252,3410,1411
