https://surfdrive.surf.nl/files/index.php/s/B7PEqFZSZZBPcW8/download?path=%2FData%2FInput%2FDatasets%2FDavid%2FImages&files=C_191.jpg,5472,3648
C_191,daylight,coffee_table,"[130, 130, 130]","['300323', '300401', '6238674']"
300401,2357,1831,2701,2201
300323,2860,1708,3247,2175
6238674,2666,1576,2833,1778
