https://surfdrive.surf.nl/files/index.php/s/B7PEqFZSZZBPcW8/download?path=%2FData%2FInput%2FDatasets%2FDavid%2FImages&files=C_207.jpg,5472,3648
C_207,daylight,coffee_table,"[130, 130, 130]","['4212454', '4649749', '4157124', '4211437', '306223']"
4212454,2712,1374,2881,1537
4649749,2577,2018,2883,2325
4157124,2572,1545,2766,1729
4211437,2479,1728,2796,1928
306223,2806,1486,2984,1646
