https://surfdrive.surf.nl/files/index.php/s/B7PEqFZSZZBPcW8/download?path=%2FData%2FInput%2FDatasets%2FDavid%2FImages&files=C_213.jpg,5472,3648
C_213,daylight,coffee_table,"[130, 130, 130]","['4212454', '4649749', '4157124', '4211437', '306223', '4212454', '4211149']"
4212454,3346,1298,3554,1429
4212454,2648,1614,2800,1837
4649749,2395,2388,2749,2655
4157124,3037,2156,3231,2467
4211437,2322,1155,2628,1383
306223,2677,2237,2852,2484
4211149,2009,1418,2321,1670
