https://surfdrive.surf.nl/files/index.php/s/B7PEqFZSZZBPcW8/download?path=%2FData%2FInput%2FDatasets%2FDavid%2FImages&files=C_210.jpg,5472,3648
C_210,daylight,coffee_table,"[130, 130, 130]","['4212454', '4649749', '4157124', '4211437', '306223', '4212454']"
4212454,1752,1266,1938,1500
4212454,2365,1233,2601,1418
4649749,2311,1536,2626,1727
4157124,3292,1264,3618,1531
4211437,2609,1654,2859,2019
306223,2848,1545,3022,1789
