https://surfdrive.surf.nl/files/index.php/s/B7PEqFZSZZBPcW8/download?path=%2FData%2FInput%2FDatasets%2FDavid%2FImages&files=C_222.jpg,5472,3648
C_222,daylight,coffee_table,"[130, 130, 130]","['4118793', '4567338']"
4567338,2972,1665,3092,1827
4118793,2402,1568,2606,1798
