https://surfdrive.surf.nl/files/index.php/s/B7PEqFZSZZBPcW8/download?path=%2FData%2FInput%2FDatasets%2FDavid%2FImages&files=C_234.jpg,5472,3648
C_234,daylight,coffee_table,"[130, 130, 130]","['4118793', '4567338', '6073026', '4211054', '4121739', '300124']"
4118793,3026,1562,3174,1706
4567338,1262,1332,1426,1441
6073026,2687,1395,2829,1593
4211054,2576,1817,2893,2161
4121739,2480,1584,2621,1841
300124,2743,1544,3279,2001
