https://surfdrive.surf.nl/files/index.php/s/B7PEqFZSZZBPcW8/download?path=%2FData%2FInput%2FDatasets%2FDavid%2FImages&files=C_258.jpg,5472,3648
C_258,daylight,coffee_table,"[130, 130, 130]","['6223631', '300424', '4153825', '654126']"
6223631,2798,2228,2968,2387
300424,2302,1968,2550,2293
4153825,2069,1561,2320,1850
654126,3110,1274,3238,1457
