https://surfdrive.surf.nl/files/index.php/s/B7PEqFZSZZBPcW8/download?path=%2FData%2FInput%2FDatasets%2FDavid%2FImages&files=C_269.jpg,5472,3648
C_269,daylight,coffee_table,"[130, 130, 130]",['6003007']
6003007,2738,1675,2891,1867
