https://surfdrive.surf.nl/files/index.php/s/B7PEqFZSZZBPcW8/download?path=%2FData%2FInput%2FDatasets%2FDavid%2FImages&files=C_264.jpg,5472,3647
C_264,daylight,coffee_table,"[130, 130, 130]",['4651236']
4651236,2489,1745,2798,1943
