https://surfdrive.surf.nl/files/index.php/s/B7PEqFZSZZBPcW8/download?path=%2FData%2FInput%2FDatasets%2FDavid%2FImages&files=C_271.jpg,5472,3647
C_271,daylight,coffee_table,"[130, 130, 130]","['6003007', '6022023']"
6022023,2482,1511,2821,1820
6003007,2733,1763,2957,1936
