https://surfdrive.surf.nl/files/index.php/s/B7PEqFZSZZBPcW8/download?path=%2FData%2FInput%2FDatasets%2FDavid%2FImages&files=C_281.jpg,5472,3648
C_281,daylight,coffee_table,"[130, 130, 130]","['6151663', '365901', '4211201']"
6151663,2649,1716,2905,2022
365901,2024,993,2240,1537
4211201,3638,1168,4020,1775
