https://surfdrive.surf.nl/files/index.php/s/B7PEqFZSZZBPcW8/download?path=%2FData%2FInput%2FDatasets%2FDavid%2FImages&files=C_297.jpg,5472,3648
C_297,daylight,coffee_table,"[130, 130, 130]","['6151663', '365901', '4211201', '300401', '6252809', '6249125', '4211054', '6022064', '300323']"
6249125,2187,1036,2289,1118
4211054,2681,1126,2896,1266
365901,3056,1972,3445,2210
300323,2562,1820,2817,2012
4211201,2324,1381,2539,1724
6252809,2632,1323,3445,1835
6022064,3410,1457,3514,1660
300401,3590,1527,3695,1718
6151663,2388,2542,2469,2833
