https://surfdrive.surf.nl/files/index.php/s/B7PEqFZSZZBPcW8/download?path=%2FData%2FInput%2FDatasets%2FDavid%2FImages&files=C_334.jpg,5472,3647
C_334,daylight,living_room_floor,"[130, 130, 130]","['4211614', '4153825', '6151663', '6004938', '306223']"
6151663,2553,1877,2778,2052
6004938,2715,1747,2818,1882
4211614,2497,1314,2753,1583
4153825,3054,1390,3211,1570
306223,2342,1152,2531,1246
