https://surfdrive.surf.nl/files/index.php/s/B7PEqFZSZZBPcW8/download?path=%2FData%2FInput%2FDatasets%2FDavid%2FImages&files=C_353.jpg,5472,3648
C_353,daylight,living_room_floor,"[130, 130, 130]","['4118793', '6035291', '4211614']"
4118793,3891,1229,4044,1405
6035291,2650,1742,2889,1908
4211614,1918,1809,2102,2074
