https://surfdrive.surf.nl/files/index.php/s/B7PEqFZSZZBPcW8/download?path=%2FData%2FInput%2FDatasets%2FDavid%2FImages&files=C_352.jpg,5472,3648
C_352,daylight,living_room_floor,"[130, 130, 130]","['4118793', '6035291', '4211614']"
4118793,2714,1708,2909,1936
6035291,2882,1780,3136,1960
4211614,1811,1578,2058,1808
