https://surfdrive.surf.nl/files/index.php/s/B7PEqFZSZZBPcW8/download?path=%2FData%2FInput%2FDatasets%2FDavid%2FImages&files=C_38.jpg,5472,3648
C_38,daylight,coffee_table,"[130, 130, 130]","['6104154', '4527943']"
6104154,1326,1381,1673,1667
4527943,2419,912,2745,1252
