https://surfdrive.surf.nl/files/index.php/s/B7PEqFZSZZBPcW8/download?path=%2FData%2FInput%2FDatasets%2FDavid%2FImages&files=C_393.jpg,5472,3648
C_393,daylight,living_room_floor,"[130, 130, 130]",['300421']
300421,2708,1707,2807,1916
