https://surfdrive.surf.nl/files/index.php/s/B7PEqFZSZZBPcW8/download?path=%2FData%2FInput%2FDatasets%2FDavid%2FImages&files=C_410.jpg,5472,3648
C_410,daylight,living_room_floor,"[130, 130, 130]","['300421', '300321', '300424', '614321', '4153827', '4165967']"
300421,1763,1636,1887,1827
300321,3361,1658,3606,1896
300424,3141,2066,3361,2278
614321,2635,1774,2805,1942
4153827,3399,1024,3632,1346
4165967,2473,1293,2826,1508
