https://surfdrive.surf.nl/files/index.php/s/B7PEqFZSZZBPcW8/download?path=%2FData%2FInput%2FDatasets%2FDavid%2FImages&files=C_461.jpg,5472,3648
C_461,daylight,dining_table,"[130, 130, 130]","['6075079', '306201', '4211614', '4181135', '6003007']"
4211614,1643,1334,1784,1619
6075079,2686,1668,2877,1921
4181135,3250,1320,3888,2042
6003007,2958,998,3086,1131
306201,3088,1308,3248,1461
