https://surfdrive.surf.nl/files/index.php/s/B7PEqFZSZZBPcW8/download?path=%2FData%2FInput%2FDatasets%2FDavid%2FImages&files=C_467.jpg,5472,3648
C_467,daylight,dining_table,"[130, 130, 130]","['6075079', '306201', '4211614', '4181135', '6003007', '6138173', '300421']"
6075079,2274,2342,2471,2533
306201,3195,1618,3337,1731
4211614,3696,1677,3876,1906
4181135,2650,1331,3174,1803
6003007,2375,1823,2523,1962
6138173,3820,2046,4030,2277
300421,2626,1785,2870,1986
