https://surfdrive.surf.nl/files/index.php/s/B7PEqFZSZZBPcW8/download?path=%2FData%2FInput%2FDatasets%2FDavid%2FImages&files=C_49.jpg,5472,3648
C_49,daylight,coffee_table,"[130, 130, 130]","['6104154', '4527943', '4157124', '4211201', '4211614', '4504381']"
4504381,1779,2344,1977,2456
4211614,2219,2236,2514,2393
4211201,2983,2294,3191,2553
4157124,3290,1578,3428,1868
4527943,3583,1164,3844,1481
6104154,1863,1082,2079,1261
