https://surfdrive.surf.nl/files/index.php/s/B7PEqFZSZZBPcW8/download?path=%2FData%2FInput%2FDatasets%2FDavid%2FImages&files=C_490.jpg,5472,3648
C_490,daylight,coffee_table,"[130, 130, 130]","['300424', '6004938', '306201']"
300424,2608,1769,2886,2052
306201,2689,1530,2824,1676
6004938,2504,1884,2678,2095
