https://surfdrive.surf.nl/files/index.php/s/B7PEqFZSZZBPcW8/download?path=%2FData%2FInput%2FDatasets%2FDavid%2FImages&files=C_496.jpg,5472,3648
C_496,daylight,coffee_table,"[130, 130, 130]","['300424', '6004938', '306201', '4211166', '4621545']"
4621545,1793,2341,2060,2557
6004938,2312,2316,2491,2519
300424,2591,1970,2779,2270
306201,2551,1363,2615,1490
4211166,2776,1007,2946,1125
