https://surfdrive.surf.nl/files/index.php/s/B7PEqFZSZZBPcW8/download?path=%2FData%2FInput%2FDatasets%2FDavid%2FImages&files=C_503.jpg,5472,3648
C_503,daylight,coffee_table,"[130, 130, 130]","['300424', '6004938', '306201', '4211166', '4621545', '300121', '4118793']"
300424,2035,1229,2360,1511
6004938,2430,1791,2661,2008
306201,2951,1537,3146,1754
4211166,3053,2144,3402,2547
4621545,2158,1376,2496,1676
300121,3242,1602,3603,2290
4118793,2660,1688,2908,1933
