https://surfdrive.surf.nl/files/index.php/s/B7PEqFZSZZBPcW8/download?path=%2FData%2FInput%2FDatasets%2FDavid%2FImages&files=C_513.jpg,5472,3648
C_513,daylight,couch,"[130, 130, 130]",['6069259']
6069259,2668,1704,2822,1885
