https://surfdrive.surf.nl/files/index.php/s/B7PEqFZSZZBPcW8/download?path=%2FData%2FInput%2FDatasets%2FDavid%2FImages&files=C_526.jpg,5472,3648
C_526,daylight,couch,"[130, 130, 130]","['6177697', '6223631', '6073026']"
6177697,2620,1609,2940,2001
6223631,3279,1836,3431,1963
6073026,1983,1738,2089,1905
