https://surfdrive.surf.nl/files/index.php/s/B7PEqFZSZZBPcW8/download?path=%2FData%2FInput%2FDatasets%2FDavid%2FImages&files=C_545.jpg,5472,3648
C_545,daylight,chair,"[130, 130, 130]",['4109995']
4109995,2566,1603,2870,1926
