https://surfdrive.surf.nl/files/index.php/s/B7PEqFZSZZBPcW8/download?path=%2FData%2FInput%2FDatasets%2FDavid%2FImages&files=C_562.jpg,5472,3648
C_562,daylight,window_sill,"[130, 130, 130]","['6003007', '365901', '4567338', '4211166', '4504381']"
6003007,3366,1768,3490,1961
365901,1876,1907,2411,2074
4567338,2374,2207,2495,2404
4211166,2669,1680,2913,1923
4504381,1977,1772,2103,1881
