https://surfdrive.surf.nl/files/index.php/s/B7PEqFZSZZBPcW8/download?path=%2FData%2FInput%2FDatasets%2FDavid%2FImages&files=C_574.jpg,5472,3647
C_574,daylight,window_sill,"[130, 130, 130]","['614321', '4211221']"
614321,2594,1732,2762,1941
4211221,3976,1686,4178,1816
