https://surfdrive.surf.nl/files/index.php/s/B7PEqFZSZZBPcW8/download?path=%2FData%2FInput%2FDatasets%2FDavid%2FImages&files=C_608.jpg,5472,3648
C_608,daylight,window_sill,"[130, 130, 130]","['300423', '6073026', '4558957']"
6073026,1790,1898,2015,2095
300423,1875,1370,2141,1582
4558957,2580,1565,3085,2021
