https://surfdrive.surf.nl/files/index.php/s/B7PEqFZSZZBPcW8/download?path=%2FData%2FInput%2FDatasets%2FDavid%2FImages&files=C_606.jpg,5472,3648
C_606,daylight,window_sill,"[130, 130, 130]","['300423', '6073026', '4558957']"
300423,2715,1261,3053,1461
6073026,1537,1123,1689,1234
4558957,2425,1622,3044,2067
