https://surfdrive.surf.nl/files/index.php/s/B7PEqFZSZZBPcW8/download?path=%2FData%2FInput%2FDatasets%2FDavid%2FImages&files=C_629.jpg,5472,3648
C_629,daylight,coffee_table,"[130, 130, 130]","['6074890', '6073026', '4211221']"
6074890,2388,1251,2534,1476
6073026,1826,1695,2042,1973
4211221,2576,1701,2916,1982
