https://surfdrive.surf.nl/files/index.php/s/B7PEqFZSZZBPcW8/download?path=%2FData%2FInput%2FDatasets%2FDavid%2FImages&files=C_633.jpg,5472,3648
C_633,daylight,coffee_table,"[130, 130, 130]","['6074890', '6073026', '4211221', '4211166', '4181144']"
4211166,1323,1181,1606,1451
4211221,2654,1051,3045,1410
6073026,3535,1073,3782,1325
4181144,2474,1372,2941,2208
6074890,3110,1881,3294,2110
