https://surfdrive.surf.nl/files/index.php/s/B7PEqFZSZZBPcW8/download?path=%2FData%2FInput%2FDatasets%2FDavid%2FImages&files=C_636.jpg,5472,3648
C_636,daylight,coffee_table,"[130, 130, 130]","['6074890', '6073026', '4211221', '4211166', '4181144', '4211149']"
4211149,3220,2287,3539,2606
4211166,2714,1735,2888,2007
6074890,2651,1635,2783,1750
4181144,2086,1479,2380,2174
4211221,1335,1637,1582,1902
6073026,1353,2017,1538,2194
