https://surfdrive.surf.nl/files/index.php/s/B7PEqFZSZZBPcW8/download?path=%2FData%2FInput%2FDatasets%2FDavid%2FImages&files=C_640.jpg,5471,3648
C_640,daylight,coffee_table,"[130, 130, 130]","['6074890', '6073026', '4211221', '4211166', '4181144', '4211149', '6062574']"
6074890,2080,1551,2273,1681
6073026,3043,2181,3243,2416
4211221,2276,1297,2599,1548
4211166,2397,2266,2686,2592
4181144,2532,1334,3083,2091
4211149,3568,1682,3848,1998
6062574,1748,2541,1984,2759
