https://surfdrive.surf.nl/files/index.php/s/B7PEqFZSZZBPcW8/download?path=%2FData%2FInput%2FDatasets%2FDavid%2FImages&files=C_685.jpg,5472,3648
C_685,daylight,coffee_table,"[130, 130, 130]","['4558957', '4539099', '300323', '6229071']"
4558957,3129,1545,3700,2121
4539099,2621,1177,2756,1383
6229071,2032,1316,2302,1640
300323,2553,1721,2976,2152
