https://surfdrive.surf.nl/files/index.php/s/B7PEqFZSZZBPcW8/download?path=%2FData%2FInput%2FDatasets%2FDavid%2FImages&files=C_690.jpg,5472,3648
C_690,daylight,coffee_table,"[130, 130, 130]","['4558957', '4539099', '300323', '6229071', '4157124', '4504369']"
4157124,3601,1832,3928,2111
6229071,3285,1866,3654,2258
4539099,2527,2122,2810,2318
4504369,2264,2106,2507,2365
300323,1940,1772,2313,2273
4558957,2112,1466,2757,2057
