https://surfdrive.surf.nl/files/index.php/s/B7PEqFZSZZBPcW8/download?path=%2FData%2FInput%2FDatasets%2FDavid%2FImages&files=C_698.jpg,5472,3648
C_698,daylight,coffee_table,"[130, 130, 130]","['4558957', '4539099', '300323', '6229071', '4157124', '4504369', '4649749', '6225539']"
4558957,2575,1470,2968,1875
4539099,2531,1153,2630,1272
300323,1856,2009,2145,2268
6229071,1125,1595,1382,1839
4157124,2702,2049,2922,2278
4504369,3106,1684,3239,1794
4649749,2823,2286,3102,2475
6225539,2970,1607,3497,2184
