https://surfdrive.surf.nl/files/index.php/s/B7PEqFZSZZBPcW8/download?path=%2FData%2FInput%2FDatasets%2FDavid%2FImages&files=C_697.jpg,5472,3648
C_697,daylight,coffee_table,"[130, 130, 130]","['4558957', '4539099', '300323', '6229071', '4157124', '4504369', '4649749', '6225539']"
4558957,1840,1171,2303,1508
4539099,3195,2048,3344,2229
300323,1656,1502,1925,1849
6229071,2770,1134,2929,1366
4157124,2655,2020,2855,2247
4504369,3038,1610,3199,1698
4649749,2147,2222,2236,2480
6225539,2720,1630,3522,1932
