https://surfdrive.surf.nl/files/index.php/s/B7PEqFZSZZBPcW8/download?path=%2FData%2FInput%2FDatasets%2FDavid%2FImages&files=C_7.jpg,5472,3648
C_7,daylight,coffee_table,"[130, 130, 130]","['300121', '4567338', '4211149']"
4211149,1920,933,2051,1083
300121,2034,1018,2510,1285
4567338,3609,1817,3804,1924
