https://surfdrive.surf.nl/files/index.php/s/B7PEqFZSZZBPcW8/download?path=%2FData%2FInput%2FDatasets%2FDavid%2FImages&files=C_70.jpg,5472,3647
C_70,daylight,coffee_table,"[130, 130, 130]","['4517992', '6074890', '4650630', '6004938']"
4517992,1890,2394,2201,2683
6074890,2043,2296,2271,2415
4650630,2822,1146,3083,1370
6004938,2430,1209,2615,1378
