https://surfdrive.surf.nl/files/index.php/s/B7PEqFZSZZBPcW8/download?path=%2FData%2FInput%2FDatasets%2FDavid%2FImages&files=C_711.jpg,5472,3648
C_711,daylight,coffee_table,"[130, 130, 130]","['4529240', '4211437', '4211437', '4539099', '4211149']"
4529240,2641,1678,2811,1898
4539099,2569,1408,2685,1602
4211437,1962,1337,2151,1620
4211437,2587,1265,2856,1480
4211149,2600,2209,2879,2555
