https://surfdrive.surf.nl/files/index.php/s/B7PEqFZSZZBPcW8/download?path=%2FData%2FInput%2FDatasets%2FDavid%2FImages&files=C_720.jpg,5472,3648
C_720,daylight,coffee_table,"[130, 130, 130]","['4529240', '4211437', '4211437', '4539099', '4211149', '300124', '6249125', '4160403']"
4529240,2354,1430,2518,1487
4211437,2892,1840,3154,2012
4211437,2604,1675,2848,1872
4539099,1905,1413,2043,1561
4211149,2348,1490,2494,1734
300124,3302,2016,3880,2504
6249125,1176,1263,1312,1394
4160403,2142,1113,2793,1440
