https://surfdrive.surf.nl/files/index.php/s/B7PEqFZSZZBPcW8/download?path=%2FData%2FInput%2FDatasets%2FDavid%2FImages&files=C_721.jpg,5472,3648
C_721,daylight,coffee_table,"[130, 130, 130]","['4529240', '4211437', '4211437', '4539099', '4211149', '300124', '6249125', '4160403']"
300124,2591,1373,2987,1753
4160403,2473,1437,2858,1962
4211437,2686,2015,2935,2140
4539099,2634,2088,2784,2219
4211149,2720,2179,2998,2396
4529240,2428,855,2537,967
6249125,1795,1201,1897,1280
4211437,2985,1624,3127,1790
