https://surfdrive.surf.nl/files/index.php/s/B7PEqFZSZZBPcW8/download?path=%2FData%2FInput%2FDatasets%2FDavid%2FImages&files=C_736.jpg,5472,3648
C_736,daylight,couch,"[130, 130, 130]","['6069259', '4211054']"
6069259,2745,1679,2889,1925
4211054,2355,2018,2530,2307
