https://surfdrive.surf.nl/files/index.php/s/B7PEqFZSZZBPcW8/download?path=%2FData%2FInput%2FDatasets%2FDavid%2FImages&files=C_74.jpg,5472,3648
C_74,daylight,coffee_table,"[130, 130, 130]","['4517992', '6074890', '4650630', '6004938', '4211437']"
4517992,2650,1383,2916,1599
6074890,2556,2065,2707,2161
4650630,2902,2216,3232,2470
6004938,1850,1829,2016,1982
4211437,3071,1861,3279,2006
