https://surfdrive.surf.nl/files/index.php/s/B7PEqFZSZZBPcW8/download?path=%2FData%2FInput%2FDatasets%2FDavid%2FImages&files=C_775.jpg,5472,3648
C_775,daylight,couch,"[130, 130, 130]","['4621545', '4210718']"
4621545,2416,1645,2636,1912
4210718,2765,1560,3149,2056
