https://surfdrive.surf.nl/files/index.php/s/B7PEqFZSZZBPcW8/download?path=%2FData%2FInput%2FDatasets%2FDavid%2FImages&files=C_779.jpg,5472,3648
C_779,daylight,couch,"[130, 130, 130]","['4621545', '4210718', '4650630']"
4210718,2413,1581,2625,2106
4650630,2705,1721,3038,2039
4621545,3209,1657,3441,1828
