https://surfdrive.surf.nl/files/index.php/s/B7PEqFZSZZBPcW8/download?path=%2FData%2FInput%2FDatasets%2FDavid%2FImages&files=C_789.jpg,5472,3648
C_789,daylight,couch,"[130, 130, 130]","['4621545', '4210718', '4650630', '4529247', '4529247', '6151663', '300821']"
4621545,3085,1198,3336,1452
4210718,3008,896,3459,1115
4650630,3594,2296,3919,2598
4529247,1386,1950,1565,2108
4529247,3557,1792,3717,1956
6151663,2927,1206,3159,1311
300821,2622,1428,3264,2243
