https://surfdrive.surf.nl/files/index.php/s/B7PEqFZSZZBPcW8/download?path=%2FData%2FInput%2FDatasets%2FDavid%2FImages&files=C_782.jpg,5472,3648
C_782,daylight,couch,"[130, 130, 130]","['4621545', '4210718', '4650630', '4529247']"
4621545,2665,1819,2979,2165
4210718,2353,1403,3142,1695
4650630,2002,1518,2367,1870
4529247,3468,1420,3648,1611
