https://surfdrive.surf.nl/files/index.php/s/B7PEqFZSZZBPcW8/download?path=%2FData%2FInput%2FDatasets%2FDavid%2FImages&files=C_795.jpg,5472,3647
C_795,daylight,couch,"[130, 130, 130]","['4504381', '4647553']"
4504381,2430,1719,2678,2011
4647553,3247,1267,3743,1690
