https://surfdrive.surf.nl/files/index.php/s/B7PEqFZSZZBPcW8/download?path=%2FData%2FInput%2FDatasets%2FDavid%2FImages&files=C_801.jpg,5472,3648
C_801,daylight,couch,"[130, 130, 130]","['4504381', '4647553', '4153827', '4520632']"
4504381,2643,1512,2752,1644
4647553,2802,1187,3031,1407
4153827,2740,1457,3056,1964
4520632,3165,976,3627,1403
