https://surfdrive.surf.nl/files/index.php/s/B7PEqFZSZZBPcW8/download?path=%2FData%2FInput%2FDatasets%2FDavid%2FImages&files=C_806.jpg,5472,3647
C_806,daylight,couch,"[130, 130, 130]","['4504381', '4647553', '4153827', '4520632', '4647553']"
4504381,2416,1256,2529,1370
4647553,2822,1242,3032,1437
4647553,2667,2180,2888,2339
4153827,2808,1812,3234,2178
4520632,2744,1577,3157,1936
