https://surfdrive.surf.nl/files/index.php/s/B7PEqFZSZZBPcW8/download?path=%2FData%2FInput%2FDatasets%2FDavid%2FImages&files=C_81.jpg,5472,3648
C_81,daylight,coffee_table,"[130, 130, 130]","['4121739', '306223', '4210718']"
4210718,2226,1296,2954,1584
306223,2909,1665,3053,1871
4210718,1947,2011,2284,2272
