https://surfdrive.surf.nl/files/index.php/s/B7PEqFZSZZBPcW8/download?path=%2FData%2FInput%2FDatasets%2FDavid%2FImages&files=C_826.jpg,5472,3647
C_826,daylight,coffee-table,"[120, 120, 120]","['365901', '300821', '4212454', '4567338', '300423', '6104154', '4143562', '6244886', '4210718', '6075075', '300321', '300323', '4550325']"
300821,1157,1072,2137,2232
4212454,1914,1984,2126,2196
6075075,2510,2417,2923,2726
4143562,2449,1861,2870,2259
4567338,2439,1635,2539,1800
6104154,2981,1599,3315,1983
300321,3342,1777,3744,2218
4550325,3016,522,3334,786
300323,3556,1447,4013,1939
6244886,3273,1296,3700,1652
300423,2677,1164,3026,1444
365901,2064,911,2492,1521
4210718,2721,846,3460,1388
