https://surfdrive.surf.nl/files/index.php/s/B7PEqFZSZZBPcW8/download?path=%2FData%2FInput%2FDatasets%2FDavid%2FImages&files=C_833.jpg,5472,3648
C_833,daylight,coffee-table,"[120, 120, 120]","['365901', '300821', '4212454', '4567338', '300423', '6104154', '4143562', '6244886', '4210718', '6075075', '300321']"
6075075,2967,2213,3370,2548
300321,3500,2159,3753,2412
6104154,2537,1694,2878,1974
4143562,2885,1558,3186,1831
6244886,3199,1400,3370,1619
4212454,2530,874,3097,1182
300821,2236,840,2496,1230
365901,1368,1032,2024,1967
4567338,1771,1722,2414,2077
300423,2140,1517,2475,1681
4210718,1676,2125,1874,2330
