https://surfdrive.surf.nl/files/index.php/s/B7PEqFZSZZBPcW8/download?path=%2FData%2FInput%2FDatasets%2FDavid%2FImages&files=C_843.jpg,5472,3648
C_843,daylight,coffee-table,"[120, 120, 120]","['6138173', '6069259', '6223631', '4211166', '6075079', '300424', '6177697', '4639693', '4504369', '4567338', '6229071', '4211149', '4212454']"
6138173,1079,1923,1354,2147
6069259,2576,2174,2852,2387
6223631,1953,2197,2096,2325
4211166,1686,1918,1932,2152
6075079,1611,2185,1889,2394
300424,2964,1928,3239,2196
6177697,1317,1632,1799,1878
4639693,2367,892,3207,1239
4504369,2851,2410,3011,2560
4567338,2636,1798,2805,1944
6229071,1321,1837,1588,2111
4211149,2276,1388,2529,1612
4212454,2464,2131,2652,2286
