https://surfdrive.surf.nl/files/index.php/s/B7PEqFZSZZBPcW8/download?path=%2FData%2FInput%2FDatasets%2FDavid%2FImages&files=C_860.jpg,5472,3647
C_860,daylight,coffee-table,"[120, 120, 120]","['6138173', '6069259', '6223631', '4211166', '6075079', '300424', '6177697']"
6138173,2161,1275,2405,1496
6069259,1927,983,2062,1195
6223631,1609,1189,1700,1329
4211166,2614,2426,2841,2661
6075079,2689,1783,2922,1943
300424,2255,1347,2437,1563
6177697,2525,1219,2949,1387
