https://surfdrive.surf.nl/files/index.php/s/B7PEqFZSZZBPcW8/download?path=%2FData%2FInput%2FDatasets%2FDavid%2FImages&files=C_862.jpg,5472,3648
C_862,daylight,coffee-table,"[120, 120, 120]","['6138173', '6069259', '6223631', '4211166', '6075079', '300424']"
6223631,2927,2361,3047,2501
300424,2566,2349,2862,2574
6069259,3089,1510,3436,1759
6075079,1986,1267,2205,1532
6138173,2153,1058,2437,1335
4211166,2421,998,2672,1244
