https://surfdrive.surf.nl/files/index.php/s/B7PEqFZSZZBPcW8/download?path=%2FData%2FInput%2FDatasets%2FDavid%2FImages&files=C_873.jpg,5472,3648
C_873,daylight,coffee-table,"[120, 120, 120]","['4539099', '4153825', '6022064', '4211511', '4517992', '6022023', '4621545', '4520632', '6229071', '6035291', '4527943']"
4539099,2888,2292,3076,2444
4153825,2160,1883,2474,2229
6022064,3543,2087,3920,2292
4211511,2275,1663,2505,1846
4517992,2369,1747,2673,2072
6022023,2400,2114,2741,2465
4621545,2505,1988,2772,2197
4520632,2458,1516,2872,1988
6229071,3275,1653,3532,1925
6035291,2432,2428,2710,2706
4527943,2558,1349,2746,1590
