https://surfdrive.surf.nl/files/index.php/s/B7PEqFZSZZBPcW8/download?path=%2FData%2FInput%2FDatasets%2FDavid%2FImages&files=C_879.jpg,5472,3647
C_879,daylight,coffee-table,"[120, 120, 120]","['4539099', '4153825', '6022064', '4211511', '4517992', '6022023', '4621545', '4520632', '6229071']"
4539099,1795,2349,1926,2539
4153825,2285,1349,2519,1557
6022064,2678,1357,2944,1674
4211511,2133,1628,2266,1761
4517992,2861,975,3064,1171
6022023,2898,1194,3038,1411
4621545,2317,2098,2488,2359
4520632,2353,1758,2865,1998
6229071,2592,2037,2822,2246
