https://surfdrive.surf.nl/files/index.php/s/B7PEqFZSZZBPcW8/download?path=%2FData%2FInput%2FDatasets%2FDavid%2FImages&files=C_894.jpg,5472,3648
C_894,daylight,coffee-table,"[120, 120, 120]","['300123', '6225539', '6062574', '4160403', '4558957', '4548180', '614321', '4647553', '4153827']"
300123,2513,1194,2992,1588
6225539,1930,1457,2374,2083
6062574,2509,1921,2683,2149
4160403,2937,1833,3594,2255
4558957,2523,1535,2953,2078
4548180,2422,2206,2715,2416
614321,2880,1986,3149,2299
4647553,3096,1606,3386,1881
4153827,2018,1945,2335,2558
