https://surfdrive.surf.nl/files/index.php/s/B7PEqFZSZZBPcW8/download?path=%2FData%2FInput%2FDatasets%2FDavid%2FImages&files=C_892.jpg,5472,3647
C_892,daylight,coffee-table,"[120, 120, 120]","['300123', '6225539', '6062574', '4160403', '4558957', '4548180', '614321', '4647553', '4153827']"
300123,3465,2000,3976,2243
6225539,2900,1267,3344,1764
6062574,846,1862,1006,1994
4160403,2800,1455,3024,1856
4558957,2334,1338,2723,1671
4548180,2404,2392,2641,2553
614321,2873,1909,3073,2130
4647553,3121,2001,3369,2132
4153827,2159,1793,2651,2067
