https://surfdrive.surf.nl/files/index.php/s/B7PEqFZSZZBPcW8/download?path=%2FData%2FInput%2FDatasets%2FDavid%2FImages&files=C_893.jpg,5472,3648
C_893,daylight,coffee-table,"[120, 120, 120]","['300123', '6225539', '6062574', '4160403', '4558957', '4548180', '614321', '4647553', '4153827']"
300123,3449,2076,3866,2594
6225539,3690,1482,4250,1909
6062574,1240,1721,1414,1898
4160403,2653,1495,2837,2010
4558957,2100,680,2321,1081
4548180,1818,2476,2085,2636
614321,3342,2438,3619,2747
4647553,3095,1040,3308,1263
4153827,1380,2015,1933,2525
