https://surfdrive.surf.nl/files/index.php/s/B7PEqFZSZZBPcW8/download?path=%2FData%2FInput%2FDatasets%2FDavid%2FImages&files=C_900.jpg,5472,3648
C_900,daylight,coffee-table,"[120, 120, 120]","['4529240', '6074890', '623224', '6025026', '4650630', '6028324', '4211412', '300121', '4181134', '4153827', '6028324', '4567338']"
4529240,2344,2513,2557,2701
6074890,3516,1717,3715,1883
623224,2211,1483,2500,1767
6025026,3437,1518,3612,1754
4650630,3257,1850,3600,2210
6028324,3072,1760,3254,1998
6028324,2084,1671,2325,1922
4211412,2034,1942,2210,2137
300121,2595,1609,2866,2110
4181134,1421,1234,2191,1646
4153827,2102,2069,2702,2482
4567338,2879,1975,3076,2139
