https://surfdrive.surf.nl/files/index.php/s/B7PEqFZSZZBPcW8/download?path=%2FData%2FInput%2FDatasets%2FDavid%2FImages&files=C_90.jpg,5472,3648
C_90,daylight,coffee_table,"[130, 130, 130]","['4121739', '306223', '4210718', '6151663', '4529240', '4211054']"
4210718,2295,1183,2542,1587
306223,2924,1599,3079,1733
4529240,2849,1534,2989,1652
4211054,2531,1649,2832,1871
6151663,2578,2195,2827,2385
4121739,2513,2026,2727,2207
