https://surfdrive.surf.nl/files/index.php/s/B7PEqFZSZZBPcW8/download?path=%2FData%2FInput%2FDatasets%2FDavid%2FImages&files=C_916.jpg,5472,3648
C_916,daylight,coffee-table,"[120, 120, 120]","['4529240', '6074890', '623224', '6025026', '4650630', '6028324']"
6025026,2765,2327,2885,2560
4650630,2397,2192,2569,2545
623224,2532,1839,2892,2192
6074890,1931,1726,2126,1892
6028324,2719,1103,2915,1254
4529240,3012,1231,3207,1381
