https://surfdrive.surf.nl/files/index.php/s/B7PEqFZSZZBPcW8/download?path=%2FData%2FInput%2FDatasets%2FDavid%2FImages&files=C_934.jpg,5472,3648
C_934,daylight,couch,"[120, 120, 120]","['365901', '306201', '4529247', '300423', '6003007', '6244886', '6104154', '300421']"
6003007,2831,2286,2981,2466
300423,2719,1777,2926,2003
306201,2424,1673,2583,1788
6244886,2622,1567,2934,1765
300421,2519,1269,2746,1499
6104154,2784,1387,3014,1547
4529247,3043,1443,3203,1570
365901,2793,1177,3262,1358
