https://surfdrive.surf.nl/files/index.php/s/B7PEqFZSZZBPcW8/download?path=%2FData%2FInput%2FDatasets%2FDavid%2FImages&files=C_937.jpg,5472,3648
C_937,daylight,couch,"[120, 120, 120]","['365901', '306201', '4529247', '300423', '6003007', '6244886', '6104154']"
365901,2497,1781,2985,2188
306201,2704,1279,2862,1424
4529247,3016,2256,3208,2376
300423,2537,1380,2790,1562
6003007,2783,1810,2969,1984
6244886,2597,2070,2785,2272
6104154,3336,1322,3497,1528
