https://surfdrive.surf.nl/files/index.php/s/B7PEqFZSZZBPcW8/download?path=%2FData%2FInput%2FDatasets%2FDavid%2FImages&files=C_95.jpg,5472,3648
C_95,daylight,coffee_table,"[130, 130, 130]","['4121739', '306223', '4210718', '6151663', '4529240', '4211054', '6075079']"
4121739,2323,2612,2570,2916
306223,2157,1814,2263,1890
4210718,3002,1048,3354,1382
6151663,2026,1439,2252,1628
4529240,1929,2100,2130,2219
4211054,2071,1969,2270,2140
6075079,1856,2152,2094,2307
