https://surfdrive.surf.nl/files/index.php/s/B7PEqFZSZZBPcW8/download?path=%2FData%2FInput%2FDatasets%2FDavid%2FImages&files=C_971.jpg,5472,3648
C_971,daylight,couch,"[120, 120, 120]","['654126', '6004938', '4210718', '6238674', '4539099', '4651236', '4153825', '4114319', '4211149']"
654126,2300,1803,2488,1982
4210718,2509,1714,2760,2334
4153825,2739,1915,3047,2239
4651236,3933,2093,4179,2284
6004938,2927,1258,3092,1411
4539099,3011,1371,3131,1523
4114319,2614,1359,3016,1816
6238674,2551,1418,2706,1569
4211149,2885,1531,3133,1782
