https://surfdrive.surf.nl/files/index.php/s/B7PEqFZSZZBPcW8/download?path=%2FData%2FInput%2FDatasets%2FDavid%2FImages&files=C_997.jpg,5472,3648
C_997,daylight,couch,"[120, 120, 120]","['4527943', '300401', '4550325', '4211201', '4121967', '306223', '4157124', '6022064']"
4527943,2842,2079,3127,2396
300401,2918,1358,3218,1569
4550325,2990,1202,3202,1420
4211201,3504,1620,3921,2149
4121967,3010,1616,3185,1903
306223,3809,1497,4005,1623
4157124,3087,2430,3401,2594
6022064,1466,1406,1680,1747
