https://surfdrive.surf.nl/files/index.php/s/B7PEqFZSZZBPcW8/download?path=%2FData%2FInput%2FDatasets%2FHiba%2FImages&files=H_101.jpg,5184,3456
H_101,daylight,wood,"[130, 130, 130]","['6074890', '6035291', '6022023']"
6074890,2453,1740,2604,1857
6035291,1809,1362,1987,1521
6022023,2853,2356,3194,2651
