https://surfdrive.surf.nl/files/index.php/s/B7PEqFZSZZBPcW8/download?path=%2FData%2FInput%2FDatasets%2FHiba%2FImages&files=H_104.jpg,5184,3456
H_104,daylight,wood,"[130, 130, 130]",['6022064']
6022064,2440,1638,2602,1951
