https://surfdrive.surf.nl/files/index.php/s/B7PEqFZSZZBPcW8/download?path=%2FData%2FInput%2FDatasets%2FHiba%2FImages&files=H_118.jpg,5184,3455
H_118,daylight,wood,"[130, 130, 130]","['6022064', '4558957', '306223', '4527943', '6003007', '4211614']"
6022064,2015,1820,2287,2088
4558957,2728,1912,3147,2316
306223,1913,1531,2010,1665
4527943,2617,1792,2817,2024
6003007,2323,1633,2443,1765
4211614,2669,873,2857,1037
