https://surfdrive.surf.nl/files/index.php/s/B7PEqFZSZZBPcW8/download?path=%2FData%2FInput%2FDatasets%2FHiba%2FImages&files=H_144.jpg,5184,3456
H_144,daylight,wood,"[130, 130, 130]","['4211054', '4211054', '306201', '6229071', '6074890', '4621545', '6062574']"
4211054,2494,1570,2801,1860
4211054,2251,1728,2596,1983
306201,2881,2162,3030,2358
6229071,2064,1106,2268,1332
6074890,2950,1293,3056,1468
4621545,3444,1694,3648,1949
6062574,3516,1983,3720,2213
