https://surfdrive.surf.nl/files/index.php/s/B7PEqFZSZZBPcW8/download?path=%2FData%2FInput%2FDatasets%2FHiba%2FImages&files=H_179.jpg,5184,3455
H_179,daylight,wood,"[130, 130, 130]","['4211412', '4153825', '4210718', '6104154', '4157124', '4121739']"
4211412,928,930,1094,1068
4153825,4047,1024,4310,1276
4157124,2327,1257,2572,1465
4210718,2311,1477,2861,1996
6104154,1371,1677,1661,1919
4121739,3892,1978,4250,2332
