https://surfdrive.surf.nl/files/index.php/s/B7PEqFZSZZBPcW8/download?path=%2FData%2FInput%2FDatasets%2FHiba%2FImages&files=H_174.jpg,5184,3456
H_174,daylight,wood,"[130, 130, 130]","['4211412', '4153825', '4210718', '6104154', '4157124']"
4210718,1552,2243,2269,2684
6104154,2360,1015,2587,1218
4211412,2710,998,2868,1125
4153825,2466,755,2707,966
4157124,3448,1100,3567,1250
