https://surfdrive.surf.nl/files/index.php/s/B7PEqFZSZZBPcW8/download?path=%2FData%2FInput%2FDatasets%2FHiba%2FImages&files=H_180.jpg,5184,3456
H_180,daylight,wood,"[130, 130, 130]","['4211412', '4153825', '4210718', '6104154', '4157124', '4121739', '306223']"
4211412,3092,1527,3243,1731
4153825,1867,1501,2281,1885
4210718,2263,1220,2564,1748
6104154,2456,1632,2758,1965
4157124,3162,1271,3427,1474
4121739,1214,1851,1507,2190
306223,2888,1697,3134,1880
