https://surfdrive.surf.nl/files/index.php/s/B7PEqFZSZZBPcW8/download?path=%2FData%2FInput%2FDatasets%2FHiba%2FImages&files=H_193.jpg,5184,3456
H_193,daylight,wood,"[130, 130, 130]","['4548180', '4504381', '4517992', '4647553']"
4548180,2447,1507,2793,1732
4504381,1892,1087,2100,1298
4517992,2282,1675,2812,2210
4647553,2815,1063,3100,1431
