https://surfdrive.surf.nl/files/index.php/s/B7PEqFZSZZBPcW8/download?path=%2FData%2FInput%2FDatasets%2FHiba%2FImages&files=H_195.jpg,5184,3456
H_195,daylight,wood,"[130, 130, 130]","['4548180', '4504381', '4517992', '4647553', '300821']"
300821,1787,1692,3131,2005
4504381,3167,1735,3323,1884
4517992,3223,1109,3607,1444
4548180,4162,1081,4354,1266
4647553,671,668,948,910
