https://surfdrive.surf.nl/files/index.php/s/B7PEqFZSZZBPcW8/download?path=%2FData%2FInput%2FDatasets%2FHiba%2FImages&files=H_195.jpg,5184,3456
H_195,daylight,wood,"[130, 130, 130]","['4548180', '4504381', '4517992', '4647553', '300821']"
4647553,655,655,988,914
4517992,3221,1077,3657,1472
4504381,3187,1725,3350,1915
300821,1785,1670,3146,1997
4548180,4160,1084,4371,1268
