https://surfdrive.surf.nl/files/index.php/s/B7PEqFZSZZBPcW8/download?path=%2FData%2FInput%2FDatasets%2FHiba%2FImages&files=H_205.jpg,5184,3456
H_205,daylight,wood,"[130, 130, 130]","['4548180', '4504381', '4517992', '4647553', '300821', '300124', '300401', '4211437']"
4548180,2738,2446,3029,2635
4504381,2348,2167,2496,2331
4517992,2656,1333,2907,1499
4647553,2991,896,3191,1018
300821,2221,1742,3130,1995
300124,2233,1113,2444,1355
300401,3032,1450,3290,1611
4211437,1516,1358,1726,1554
