https://surfdrive.surf.nl/files/index.php/s/B7PEqFZSZZBPcW8/download?path=%2FData%2FInput%2FDatasets%2FHiba%2FImages&files=H_212.jpg,5183,3456
H_212,daylight,wood,"[130, 130, 130]",['6069259']
6069259,2468,1732,2706,1935
