https://surfdrive.surf.nl/files/index.php/s/B7PEqFZSZZBPcW8/download?path=%2FData%2FInput%2FDatasets%2FHiba%2FImages&files=H_213.jpg,5184,3456
H_213,daylight,wood,"[130, 130, 130]","['6069259', '6073026']"
6073026,1674,1740,1879,1965
6069259,2427,1742,2788,2019
