https://surfdrive.surf.nl/files/index.php/s/B7PEqFZSZZBPcW8/download?path=%2FData%2FInput%2FDatasets%2FHiba%2FImages&files=H_239.jpg,5184,3456
H_239,daylight,wood,"[130, 130, 130]","['6035291', '4160403']"
4160403,2741,1002,2927,1309
6035291,3463,2277,3650,2381
