https://surfdrive.surf.nl/files/index.php/s/B7PEqFZSZZBPcW8/download?path=%2FData%2FInput%2FDatasets%2FHiba%2FImages&files=H_25.jpg,5184,3456
H_25,daylight,wood,"[130, 130, 130]","['4181135', '6238674']"
4181135,1795,1330,2470,1887
6238674,3534,1744,3722,1882
