https://surfdrive.surf.nl/files/index.php/s/B7PEqFZSZZBPcW8/download?path=%2FData%2FInput%2FDatasets%2FHiba%2FImages&files=H_253.jpg,5184,3456
H_253,daylight,wood,"[130, 130, 130]","['6035291', '4160403', '6104154', '300123', '6069259', '6075079', '4649749']"
6035291,2964,1455,3144,1555
6104154,1332,1978,1557,2212
6069259,1966,1704,2094,1928
6075079,2473,1690,2644,1845
4160403,3038,2178,3683,2527
4649749,3648,1657,3849,1849
300123,2554,943,2925,1178
