https://surfdrive.surf.nl/files/index.php/s/B7PEqFZSZZBPcW8/download?path=%2FData%2FInput%2FDatasets%2FHiba%2FImages&files=H_272.jpg,5184,3456
H_272,daylight,wood,"[130, 130, 130]","['4143562', '300123', '4109995']"
4109995,2572,2042,2790,2256
300123,2381,1536,2752,1821
4143562,3415,1310,3631,1482
