https://surfdrive.surf.nl/files/index.php/s/B7PEqFZSZZBPcW8/download?path=%2FData%2FInput%2FDatasets%2FHiba%2FImages&files=H_28.jpg,5184,3456
H_28,daylight,wood,"[130, 130, 130]","['4181135', '6238674', '300321']"
4181135,2925,1199,3614,1400
6238674,1523,1374,1613,1496
300321,3714,1300,4014,1522
