https://surfdrive.surf.nl/files/index.php/s/B7PEqFZSZZBPcW8/download?path=%2FData%2FInput%2FDatasets%2FHiba%2FImages&files=H_289.jpg,5184,3456
H_289,daylight,wood,"[130, 130, 130]",['4558957']
4558957,2465,1676,2757,1886
