https://surfdrive.surf.nl/files/index.php/s/B7PEqFZSZZBPcW8/download?path=%2FData%2FInput%2FDatasets%2FHiba%2FImages&files=H_295.jpg,5184,3456
H_295,daylight,wood,"[130, 130, 130]","['4558957', '6074890', '6075079']"
4558957,2508,1646,2836,2136
6074890,2681,1571,2818,1673
6075079,1835,1825,2017,2066
