https://surfdrive.surf.nl/files/index.php/s/B7PEqFZSZZBPcW8/download?path=%2FData%2FInput%2FDatasets%2FHiba%2FImages&files=H_305.jpg,5184,3456
H_305,daylight,wood,"[130, 130, 130]",['4550348']
4550348,2584,1663,2762,1831
