https://surfdrive.surf.nl/files/index.php/s/B7PEqFZSZZBPcW8/download?path=%2FData%2FInput%2FDatasets%2FHiba%2FImages&files=H_317.jpg,5184,3456
H_317,daylight,wood,"[130, 130, 130]","['4211437', '300821']"
300821,2043,1485,2258,2149
4211437,2924,1926,3182,2179
