https://surfdrive.surf.nl/files/index.php/s/B7PEqFZSZZBPcW8/download?path=%2FData%2FInput%2FDatasets%2FHiba%2FImages&files=H_313.jpg,5184,3455
H_313,daylight,wood,"[130, 130, 130]",['4211437']
4211437,2592,1695,2709,1947
