https://surfdrive.surf.nl/files/index.php/s/B7PEqFZSZZBPcW8/download?path=%2FData%2FInput%2FDatasets%2FHiba%2FImages&files=H_324.jpg,5184,3456
H_324,daylight,wood,"[130, 130, 130]","['4211437', '300821', '4647553', '4211166', '6073026']"
300821,1992,1907,2473,2642
4211437,2384,1152,2542,1311
6073026,3277,1475,3408,1616
4211166,3370,1600,3564,1812
4647553,3719,1767,3855,1984
