https://surfdrive.surf.nl/files/index.php/s/B7PEqFZSZZBPcW8/download?path=%2FData%2FInput%2FDatasets%2FHiba%2FImages&files=H_339.jpg,5184,3456
H_339,daylight,wood,"[130, 130, 130]","['6022064', '300421', '6249125', '4121967']"
6022064,1657,1254,2026,1451
4121967,2010,1836,2264,2024
300421,2978,1582,3158,1762
6249125,3224,1565,3388,1688
