https://surfdrive.surf.nl/files/index.php/s/B7PEqFZSZZBPcW8/download?path=%2FData%2FInput%2FDatasets%2FHiba%2FImages&files=H_349.jpg,5184,3456
H_349,daylight,wood,"[130, 130, 130]","['6035291', '6151663', '4181144']"
6035291,3850,1420,4000,1636
6151663,2986,1037,3240,1168
4181144,1419,1543,2424,2145
