https://surfdrive.surf.nl/files/index.php/s/B7PEqFZSZZBPcW8/download?path=%2FData%2FInput%2FDatasets%2FHiba%2FImages&files=H_348.jpg,5184,3456
H_348,daylight,wood,"[130, 130, 130]","['6035291', '6151663', '4181144']"
6035291,3025,1245,3188,1449
6151663,2658,1360,2943,1509
4181144,1932,1823,2947,2231
