https://surfdrive.surf.nl/files/index.php/s/B7PEqFZSZZBPcW8/download?path=%2FData%2FInput%2FDatasets%2FHiba%2FImages&files=H_368.jpg,5184,3456
H_368,daylight,wood,"[130, 130, 130]","['365901', '300424']"
365901,1775,1196,2342,1601
300424,3099,1967,3333,2370
