https://surfdrive.surf.nl/files/index.php/s/B7PEqFZSZZBPcW8/download?path=%2FData%2FInput%2FDatasets%2FHiba%2FImages&files=H_374.jpg,5184,3456
H_374,daylight,wood,"[130, 130, 130]","['365901', '300424', '4529247', '4211412']"
4529247,1929,1667,2130,1781
4211412,2351,1556,2531,1741
300424,2500,1547,2800,1742
365901,2660,1792,3229,2129
