https://surfdrive.surf.nl/files/index.php/s/B7PEqFZSZZBPcW8/download?path=%2FData%2FInput%2FDatasets%2FHiba%2FImages&files=H_38.jpg,5184,3456
H_38,daylight,wood,"[130, 130, 130]","['4210718', '6249125']"
6249125,3239,1720,3383,1830
4210718,1557,1142,2008,1647
