https://surfdrive.surf.nl/files/index.php/s/B7PEqFZSZZBPcW8/download?path=%2FData%2FInput%2FDatasets%2FHiba%2FImages&files=H_414.jpg,5184,3456
H_414,daylight,wood,"[130, 130, 130]","['4211166', '4647553', '4114319', '4550348', '4567338', '4211437', '4621545', '654126']"
4621545,885,1911,1324,2303
4114319,1937,1800,2704,2290
654126,3181,2192,3470,2529
4567338,2193,1379,2436,1541
4550348,1748,1298,1999,1583
4647553,2919,1319,3281,1660
4211437,3162,1477,3392,1800
4211166,4082,1443,4423,1800
