https://surfdrive.surf.nl/files/index.php/s/B7PEqFZSZZBPcW8/download?path=%2FData%2FInput%2FDatasets%2FHiba%2FImages&files=H_429.jpg,5184,3456
H_429,daylight,parquet_brown_medium,"[120, 120, 120]","['4157124', '4121967', '6075075', '4181144', '4655172', '4153825', '614321', '300821']"
4181144,1729,1800,1967,2255
300821,2384,1711,2749,2314
6075075,3047,1919,3248,2098
4655172,2284,1145,2604,1331
4157124,2827,1353,2954,1443
4121967,3364,1309,3587,1405
4153825,2097,892,2306,1011
614321,1688,1011,1792,1189
