https://surfdrive.surf.nl/files/index.php/s/B7PEqFZSZZBPcW8/download?path=%2FData%2FInput%2FDatasets%2FHiba%2FImages&files=H_431.jpg,5184,3455
H_431,daylight,parquet_brown_medium,"[120, 120, 120]","['4157124', '4121967', '6075075', '4181144', '4655172', '4153825', '614321']"
4153825,2480,1673,2616,1841
4121967,2919,2000,3087,2088
4157124,2712,2471,2815,2654
6075075,1651,1960,1842,2088
4655172,1731,1729,2074,1889
4181144,1675,1163,1930,1514
614321,2736,1458,2831,1594
