https://surfdrive.surf.nl/files/index.php/s/B7PEqFZSZZBPcW8/download?path=%2FData%2FInput%2FDatasets%2FHiba%2FImages&files=H_440.jpg,5184,3456
H_440,daylight,parquet_brown_medium,"[120, 120, 120]","['4160403', '4539099', '6225539', '6151663', '4550348', '6252809', '4548180', '365901', '6225539', '6229071', '6138173', '4121739']"
4160403,2453,1574,2983,1865
4539099,2583,2259,2763,2407
6225539,2077,1195,2545,1507
6225539,2670,1099,2806,1427
6151663,2467,1503,2667,1620
4550348,1242,1802,1470,1932
6252809,1398,1782,2120,2504
4548180,3792,1847,3929,2029
365901,1346,1366,1730,1574
6229071,2563,2036,2784,2290
6138173,2959,1834,3200,2049
4121739,1866,2020,2104,2260
