https://surfdrive.surf.nl/files/index.php/s/B7PEqFZSZZBPcW8/download?path=%2FData%2FInput%2FDatasets%2FHiba%2FImages&files=H_448.jpg,5184,3456
H_448,daylight,parquet_brown_medium,"[120, 120, 120]","['4160403', '4539099', '6225539', '6151663', '4550348', '6252809', '4548180', '365901', '6225539', '6229071']"
4160403,1882,1702,2152,2156
4539099,3056,1018,3175,1143
6225539,2158,1604,2590,2029
6225539,1120,2387,1682,2670
6151663,2689,1250,2820,1380
4550348,2587,1594,2722,1767
6252809,3170,1803,3451,2630
4548180,3322,1178,3505,1290
365901,1841,2180,2005,2533
6229071,1134,2176,1338,2394
