https://surfdrive.surf.nl/files/index.php/s/B7PEqFZSZZBPcW8/download?path=%2FData%2FInput%2FDatasets%2FHiba%2FImages&files=H_457.jpg,5184,3456
H_457,daylight,parquet_brown_medium,"[120, 120, 120]","['4160403', '4539099', '6225539', '6151663', '4550348', '6252809', '4548180']"
6252809,2785,1955,3971,2703
4160403,1137,1999,1840,2505
6151663,1468,1595,1640,1729
4550348,2043,1364,2205,1536
4539099,2436,1643,2559,1783
4548180,2305,1030,2530,1212
6225539,1904,784,2172,1096
