https://surfdrive.surf.nl/files/index.php/s/B7PEqFZSZZBPcW8/download?path=%2FData%2FInput%2FDatasets%2FHiba%2FImages&files=H_456.jpg,5184,3456
H_456,daylight,parquet_brown_medium,"[120, 120, 120]","['4160403', '4539099', '6225539', '6151663', '4550348', '6252809', '4548180']"
4160403,4344,1455,4677,1718
4539099,2350,1760,2495,1874
6225539,2013,1249,2500,1396
6151663,1967,1381,2101,1524
4550348,2350,1701,2550,1826
6252809,1601,2011,2577,2342
4548180,2583,1727,2689,1890
