https://surfdrive.surf.nl/files/index.php/s/B7PEqFZSZZBPcW8/download?path=%2FData%2FInput%2FDatasets%2FHiba%2FImages&files=H_463.jpg,5184,3456
H_463,daylight,parquet_brown_medium,"[120, 120, 120]","['6028324', '4114319', '6004938', '300121', '300421', '6249125', '306223', '6003007', '300424', '6252809', '6229071', '4160403', '4558957']"
6028324,2929,726,3093,892
4114319,1923,874,2306,1139
6004938,3622,1837,3777,2031
300121,2385,892,2772,1184
300421,3976,812,4190,965
6249125,4061,1954,4237,2082
306223,1396,2178,1540,2352
6003007,4021,925,4154,1054
300424,1992,1631,2243,1786
6252809,1151,1064,1440,1609
6229071,2314,1681,2552,1931
4160403,2921,1161,3513,1319
4558957,998,1888,1455,2287
