https://surfdrive.surf.nl/files/index.php/s/B7PEqFZSZZBPcW8/download?path=%2FData%2FInput%2FDatasets%2FHiba%2FImages&files=H_47.jpg,5184,3456
H_47,daylight,wood,"[130, 130, 130]","['4210718', '6249125', '4504381', '4558957', '4651236']"
4210718,2132,1968,2465,2369
6249125,2417,1142,2505,1213
4504381,2873,1696,2975,1814
4558957,2447,1550,2763,1835
4651236,2871,2346,3025,2536
