https://surfdrive.surf.nl/files/index.php/s/B7PEqFZSZZBPcW8/download?path=%2FData%2FInput%2FDatasets%2FHiba%2FImages&files=H_486.jpg,5184,3456
H_486,daylight,parquet_brown_medium,"[120, 120, 120]","['4639693', '4211437', '4649749', '6062574', '4517992', '300124', '4153827', '4211412', '4118793', '4558957', '4181144', '6151663', '6073026']"
4558957,3347,2425,3707,2695
4153827,3535,1940,3811,2283
4211437,3945,1636,4066,1829
6151663,3063,2023,3233,2131
4181144,2921,1693,3401,1834
4639693,3285,1435,3875,1680
4649749,2826,2043,3001,2198
4118793,2736,2092,2821,2208
300124,2347,1631,2677,1927
4517992,1897,2304,2089,2516
6073026,1699,1900,1784,2040
6062574,2212,1980,2320,2094
4211412,1349,1288,1427,1365
