https://surfdrive.surf.nl/files/index.php/s/B7PEqFZSZZBPcW8/download?path=%2FData%2FInput%2FDatasets%2FHiba%2FImages&files=H_489.jpg,5184,3456
H_489,daylight,parquet_brown_medium,"[120, 120, 120]","['4639693', '4211437', '4649749', '6062574', '4517992', '300124', '4153827', '4211412', '4118793', '4558957', '4181144', '6151663']"
4639693,2202,1187,2579,1601
4211437,2411,1004,2545,1090
4649749,3325,2182,3470,2297
6062574,1439,1924,1530,2039
4517992,3620,1648,3790,1789
300124,2321,1777,2668,2048
4153827,1876,1616,2066,1926
4211412,3390,1141,3493,1225
4118793,2638,1092,2751,1165
4558957,3008,1583,3275,1821
4181144,1524,910,1922,1104
6151663,1712,1449,1855,1508
