https://surfdrive.surf.nl/files/index.php/s/B7PEqFZSZZBPcW8/download?path=%2FData%2FInput%2FDatasets%2FHiba%2FImages&files=H_513.jpg,5184,3456
H_513,daylight,parquet_brown_medium,"[120, 120, 120]","['4520632', '4181134', '4211201', '4504369', '6025026', '6244886', '623224', '4529247', '654126', '4211511']"
4520632,1912,1461,2157,1674
4181134,2293,1893,2756,2030
4211201,2357,1513,2668,1693
4504369,3314,1563,3377,1624
6025026,3488,1775,3650,1904
6244886,3149,1299,3277,1378
623224,1250,1203,1398,1301
4529247,2807,1481,2907,1534
654126,3310,1219,3398,1294
4211511,2589,1186,2664,1263
