https://surfdrive.surf.nl/files/index.php/s/B7PEqFZSZZBPcW8/download?path=%2FData%2FInput%2FDatasets%2FHiba%2FImages&files=H_516.jpg,5183,3456
H_516,daylight,parquet_brown_medium,"[120, 120, 120]","['4520632', '4181134', '4211201', '4504369', '6025026', '6244886', '623224', '4529247', '654126']"
4211201,2371,2175,2687,2427
4520632,2568,1818,2737,2100
4181134,2299,1502,2687,1765
623224,1958,1403,2089,1566
654126,2925,1436,3022,1524
4529247,2979,1919,3031,2018
6025026,3048,1901,3181,1974
4504369,3388,1824,3466,1901
6244886,2595,977,2757,1097
