https://surfdrive.surf.nl/files/index.php/s/B7PEqFZSZZBPcW8/download?path=%2FData%2FInput%2FDatasets%2FHiba%2FImages&files=H_520.jpg,5184,3456
H_520,daylight,parquet_brown_medium,"[120, 120, 120]","['4520632', '4181134', '4211201', '4504369', '6025026', '6244886', '623224', '4529247']"
4520632,2882,2076,3195,2261
4181134,2015,1956,2171,2112
4211201,1687,1657,1972,2034
4504369,2043,1536,2349,1749
6025026,2455,1721,2562,1792
6244886,3110,1372,3295,1522
623224,2996,1230,3131,1316
4529247,3700,1223,3792,1280
