https://surfdrive.surf.nl/files/index.php/s/B7PEqFZSZZBPcW8/download?path=%2FData%2FInput%2FDatasets%2FHiba%2FImages&files=H_546.jpg,5184,3456
H_546,daylight,table_plastic_grey,"[120, 120, 120]","['4504381', '4165967', '4211221', '6177697', '4210718', '6035291', '6069259']"
4504381,2123,1195,2210,1296
4165967,2579,1969,2965,2372
4211221,2384,1640,2582,1850
6177697,1735,1206,2026,1466
4210718,2697,1278,3122,1569
6035291,1449,2074,1646,2222
6069259,2492,732,2608,879
