https://surfdrive.surf.nl/files/index.php/s/B7PEqFZSZZBPcW8/download?path=%2FData%2FInput%2FDatasets%2FHiba%2FImages&files=H_550.jpg,5184,3456
H_550,daylight,table_plastic_grey,"[120, 120, 120]","['4504381', '4165967', '4211221', '6177697', '4210718', '6035291']"
4504381,2876,1606,2992,1730
4165967,1740,1444,2072,1934
4211221,3362,834,3508,1036
6177697,3880,1156,4270,1519
4210718,2326,1601,2644,2068
6035291,3202,948,3406,1150
