https://surfdrive.surf.nl/files/index.php/s/B7PEqFZSZZBPcW8/download?path=%2FData%2FInput%2FDatasets%2FHiba%2FImages&files=H_567.jpg,5184,3456
H_567,daylight,table_plastic_grey,"[120, 120, 120]","['6138173', '6075079', '4650630', '300424', '300321', '4121967', '6223631', '614321', '4121739', '4527943', '365901', '6238674', '300423']"
6138173,2945,1269,3104,1377
6075079,3191,946,3339,1058
4650630,2544,1277,2692,1449
300424,1950,1493,2130,1614
300321,2172,1314,2336,1464
4121967,3081,1170,3247,1255
6223631,3410,1255,3505,1329
614321,2138,852,2276,960
4121739,3082,1736,3193,1876
4527943,2519,1468,2681,1593
365901,2147,2392,2386,2751
6238674,2507,2045,2627,2137
300423,3240,1575,3413,1744
