https://surfdrive.surf.nl/files/index.php/s/B7PEqFZSZZBPcW8/download?path=%2FData%2FInput%2FDatasets%2FHiba%2FImages&files=H_563.jpg,5184,3456
H_563,daylight,table_plastic_grey,"[120, 120, 120]","['6022023', '4143562', '300323', '6238674', '300401', '300423', '300123', '300821', '4649749']"
6022023,2945,1522,3103,1690
4143562,1963,1601,2140,1753
300323,2891,1443,3055,1598
6238674,2363,1173,2447,1279
300401,1901,1449,2059,1629
300423,2959,970,3120,1110
300123,2252,1831,2419,2153
300821,2112,1415,2717,1663
4649749,3631,1173,3795,1319
