https://surfdrive.surf.nl/files/index.php/s/B7PEqFZSZZBPcW8/download?path=%2FData%2FInput%2FDatasets%2FHiba%2FImages&files=H_578.jpg,5184,3456
H_578,daylight,table_plastic_grey,"[120, 120, 120]","['6138173', '6075079', '4650630', '300424', '300321', '4121967', '6223631', '614321', '4121739']"
6138173,1555,1724,1774,1913
6075079,3650,1640,3809,1804
4650630,1675,1382,1938,1600
300424,2608,1387,2806,1555
300321,2360,1119,2558,1317
4121967,2786,1675,2955,1898
6223631,1769,1129,1878,1238
614321,3193,2096,3446,2330
4121739,2161,1560,2379,1769
