https://surfdrive.surf.nl/files/index.php/s/B7PEqFZSZZBPcW8/download?path=%2FData%2FInput%2FDatasets%2FHiba%2FImages&files=H_577.jpg,5184,3456
H_577,daylight,table_plastic_grey,"[120, 120, 120]","['6138173', '6075079', '4650630', '300424', '300321', '4121967', '6223631', '614321', '4121739', '4527943']"
300321,3690,1718,3942,1977
614321,3031,1702,3212,1906
4527943,2199,2022,2380,2237
300424,1770,1627,1962,1785
4650630,1571,1245,1796,1428
6138173,2186,1039,2300,1195
6075079,2681,1095,2842,1188
4121739,2646,1296,2816,1502
4121967,1748,711,2050,985
6223631,1782,649,1897,854
