https://surfdrive.surf.nl/files/index.php/s/B7PEqFZSZZBPcW8/download?path=%2FData%2FInput%2FDatasets%2FHiba%2FImages&files=H_583.jpg,5184,3456
H_583,daylight,table_plastic_grey,"[120, 120, 120]","['4157124', '4211511', '6022064', '4211149', '4550348', '4651236', '4539099', '4550325', '4548180', '623224', '4121967', '300123', '6003007']"
4539099,2461,2434,2604,2554
4211511,3186,2378,3322,2546
623224,3362,1787,3561,1987
4157124,3075,1531,3186,1659
4651236,2413,1731,2596,1811
4550325,3402,1300,3617,1427
300123,3657,1228,4056,1475
4121967,2261,1236,2341,1372
4550348,1822,1204,1974,1348
6022064,2580,801,2796,897
6003007,3274,1017,3394,1088
4211149,3633,1017,3809,1104
4548180,2357,1572,2524,1668
