https://surfdrive.surf.nl/files/index.php/s/B7PEqFZSZZBPcW8/download?path=%2FData%2FInput%2FDatasets%2FHiba%2FImages&files=H_581.jpg,5184,3456
H_581,daylight,table_plastic_grey,"[120, 120, 120]","['4157124', '4211511', '6022064', '4211149', '4550348', '4651236', '4539099', '4550325', '4548180', '623224', '4121967', '300123', '6003007']"
4550325,3529,2213,3801,2511
6022064,3057,2142,3426,2259
4211511,3439,1980,3633,2200
4550348,2753,1857,2966,1974
4651236,2202,1838,2403,2071
4157124,1730,1437,1950,1573
4539099,1516,1527,1652,1676
4121967,3244,1411,3400,1657
6003007,2791,1385,2888,1547
4211149,3536,705,3756,874
623224,3840,777,4053,1023
300123,3892,1294,4325,1734
4548180,3471,1391,3672,1521
