https://surfdrive.surf.nl/files/index.php/s/B7PEqFZSZZBPcW8/download?path=%2FData%2FInput%2FDatasets%2FHiba%2FImages&files=H_594.jpg,5184,3456
H_594,daylight,table_plastic_grey,"[120, 120, 120]","['4157124', '4211511', '6022064', '4211149', '4550348', '4651236', '4539099', '4550325', '4548180']"
4651236,2590,2465,2821,2701
4211149,2293,2419,2499,2591
6022064,1794,2115,2061,2215
4550325,2660,1837,2837,2029
4548180,2842,1636,2978,1812
4157124,2781,1560,2852,1681
4539099,2524,1616,2665,1676
4211511,2091,1530,2227,1646
4550348,3174,1094,3310,1246
