https://surfdrive.surf.nl/files/index.php/s/B7PEqFZSZZBPcW8/download?path=%2FData%2FInput%2FDatasets%2FHiba%2FImages&files=H_608.jpg,5184,3456
H_608,daylight,table_plastic_grey,"[120, 120, 120]","['4639693', '4517992', '6074890', '4211437', '6062574', '4529240', '4655172', '6028324', '4649749', '4211149']"
4639693,3545,1972,3976,2916
4517992,2555,2054,2880,2396
6074890,3019,638,3109,774
4211437,2232,1177,2396,1409
6062574,2022,1230,2153,1391
4529240,3908,1392,4066,1492
4655172,1717,1615,2177,2032
6028324,2415,1515,2630,1721
4649749,2274,695,2366,861
4211149,2751,1095,2959,1320
