https://surfdrive.surf.nl/files/index.php/s/B7PEqFZSZZBPcW8/download?path=%2FData%2FInput%2FDatasets%2FHiba%2FImages&files=H_608.jpg,5184,3455
H_608,daylight,table_plastic_grey,"[120, 120, 120]","['4639693', '4517992', '6074890', '4211437', '6062574', '4529240', '4655172', '6028324', '4649749', '4211149']"
4639693,3567,1974,3965,2860
4517992,2554,2058,2881,2343
6074890,3023,653,3096,719
4211437,2240,1177,2379,1360
6062574,2030,1258,2136,1362
4529240,3909,1395,4060,1479
4655172,1757,1642,2163,1985
6028324,2415,1516,2608,1699
4649749,2277,700,2362,850
4211149,2758,1115,2921,1297
