https://surfdrive.surf.nl/files/index.php/s/B7PEqFZSZZBPcW8/download?path=%2FData%2FInput%2FDatasets%2FHiba%2FImages&files=H_609.jpg,5184,3456
H_609,daylight,table_plastic_grey,"[120, 120, 120]","['4639693', '4517992', '6074890', '4211437', '6062574', '4529240', '4655172', '6028324', '4649749', '4211149']"
4655172,1433,1843,1799,2217
4517992,1716,1195,1915,1394
4639693,3170,1834,3602,2740
4529240,2414,2466,2488,2599
4211437,2048,1652,2189,1801
6028324,2355,1236,2497,1378
4649749,2738,871,2854,995
4211149,2729,680,2879,804
6062574,4166,1668,4299,1743
6074890,2181,721,2272,788
