https://surfdrive.surf.nl/files/index.php/s/B7PEqFZSZZBPcW8/download?path=%2FData%2FInput%2FDatasets%2FHiba%2FImages&files=H_601.jpg,5184,3456
H_601,daylight,table_plastic_grey,"[120, 120, 120]","['4639693', '4517992', '6074890', '4211437', '6062574', '4529240', '4655172', '6028324', '4649749', '4211149', '4143562', '4210718', '4157124']"
4639693,2242,1488,3014,1678
4517992,1881,1214,2099,1373
6074890,3579,1567,3721,1671
4211437,1139,972,1280,1125
6062574,4053,1200,4168,1300
4529240,2371,1102,2502,1228
4655172,3140,766,3496,898
6028324,1253,1583,1398,1708
4649749,1876,1975,2078,2172
4211149,2312,2505,2473,2707
4143562,2814,1187,2994,1332
4210718,3165,2211,3621,2509
4157124,1052,1166,1233,1297
