https://surfdrive.surf.nl/files/index.php/s/B7PEqFZSZZBPcW8/download?path=%2FData%2FInput%2FDatasets%2FHiba%2FImages&files=H_613.jpg,5183,3456
H_613,daylight,table_plastic_grey,"[120, 120, 120]","['4639693', '4517992', '6074890', '4211437', '6062574', '4529240', '4655172', '6028324', '4649749']"
4639693,1135,1982,1775,2739
6062574,1149,1428,1274,1574
4529240,2462,1778,2615,1898
4649749,3057,1547,3203,1757
6028324,1851,1236,2044,1351
4655172,2228,902,2578,1250
4517992,2716,756,2843,1006
6074890,2776,1190,2906,1314
4211437,3056,1037,3253,1197
