https://surfdrive.surf.nl/files/index.php/s/B7PEqFZSZZBPcW8/download?path=%2FData%2FInput%2FDatasets%2FHiba%2FImages&files=H_637.jpg,5184,3456
H_637,daylight,parquet_brown_light,"[120, 120, 120]","['4211412', '300421', '300121', '4529247', '300401', '6075075', '6151663', '6022023', '6223631', '4121967', '4211166']"
4121967,1886,531,2081,688
6075075,2429,684,2605,815
6151663,1715,774,1906,848
4211412,1643,1159,1719,1301
300421,1895,1438,2020,1676
6223631,2148,2516,2280,2631
300121,2385,836,2642,1177
4529247,2488,1221,2554,1314
300401,2869,1041,3082,1252
4211166,3639,1067,3780,1289
6022023,3424,1314,3637,1509
