https://surfdrive.surf.nl/files/index.php/s/B7PEqFZSZZBPcW8/download?path=%2FData%2FInput%2FDatasets%2FHiba%2FImages&files=H_634.jpg,5184,3455
H_634,daylight,parquet_brown_light,"[120, 120, 120]","['4211412', '300421', '300121', '4529247', '300401', '6075075', '6151663', '6022023', '6223631', '4121967', '4211166', '6252809']"
4211412,2054,973,2139,1087
300421,1819,1968,2065,2193
300121,3361,1434,3772,1805
4529247,1502,1509,1664,1584
300401,3338,1271,3556,1413
6075075,1006,681,1127,799
6151663,2590,995,2689,1130
6022023,2390,1706,2567,1955
6223631,2441,2262,2528,2404
4121967,3204,1882,3451,2051
4211166,3033,1625,3221,1853
6252809,1901,1311,2981,1459
