https://surfdrive.surf.nl/files/index.php/s/B7PEqFZSZZBPcW8/download?path=%2FData%2FInput%2FDatasets%2FHiba%2FImages&files=H_648.jpg,5184,3456
H_648,daylight,parquet_brown_light,"[120, 120, 120]","['4109995', '6249125', '365901', '306201', '300423', '4212454', '4211201', '300821', '4529240', '4567338', '306223', '4649749']"
4109995,2388,1710,2658,1930
6249125,1755,1606,1906,1721
365901,1150,966,1479,1271
306201,1019,2297,1201,2479
300423,3225,1366,3456,1556
4212454,1310,1798,1436,1955
4211201,3044,855,3468,1093
300821,1948,1224,2800,1428
4529240,3251,1040,3404,1138
4567338,1839,859,1955,945
306223,2300,960,2446,1054
4649749,1451,1480,1618,1693
