https://surfdrive.surf.nl/files/index.php/s/B7PEqFZSZZBPcW8/download?path=%2FData%2FInput%2FDatasets%2FHiba%2FImages&files=H_651.jpg,5184,3456
H_651,daylight,parquet_brown_light,"[120, 120, 120]","['4109995', '6249125', '365901', '306201', '300423', '4212454', '4211201', '300821', '4529240', '4567338', '306223']"
4109995,2732,1389,2886,1561
6249125,1945,1310,2075,1391
365901,3209,1542,3627,1731
306201,1950,1186,2072,1279
300423,3233,1343,3426,1461
4212454,3149,1890,3303,2029
4211201,2797,976,3115,1131
300821,2088,1638,2678,2092
4529240,3278,1797,3425,1877
4567338,2572,1108,2675,1227
306223,3296,2491,3460,2612
