https://surfdrive.surf.nl/files/index.php/s/B7PEqFZSZZBPcW8/download?path=%2FData%2FInput%2FDatasets%2FHiba%2FImages&files=H_663.jpg,5184,3456
H_663,daylight,parquet_brown_light,"[120, 120, 120]","['6069259', '4165967', '6238674', '4181144', '4558957', '4181134', '6244886', '4504369', '4143562', '4210718', '4548180', '4649749', '4211437']"
6244886,2602,2472,2992,2882
4504369,2075,2382,2189,2532
4649749,972,2336,1274,2563
4548180,2354,1903,2622,2132
4181144,2120,1418,2859,1837
4558957,1802,1197,2228,1494
4165967,3226,1312,3637,1667
4210718,3479,980,3927,1284
4181134,2848,737,3229,1115
4143562,2477,568,2680,779
4211437,4075,1675,4361,1801
6238674,4014,1858,4197,2015
6069259,2843,1507,3004,1701
