https://surfdrive.surf.nl/files/index.php/s/B7PEqFZSZZBPcW8/download?path=%2FData%2FInput%2FDatasets%2FHiba%2FImages&files=H_667.jpg,5184,3456
H_667,daylight,parquet_brown_light,"[120, 120, 120]","['6069259', '4165967', '6238674', '4181144', '4558957', '4181134', '6244886', '4504369', '4143562', '4210718', '4548180', '4649749']"
6069259,2863,1934,3053,2168
4165967,3086,1344,3237,1834
6238674,854,1565,1040,1739
4181144,2337,2091,3036,2905
4558957,3332,1459,3737,1860
4181134,2268,1454,3057,1830
6244886,1552,1934,1934,2333
4504369,1531,1739,1688,1912
4143562,1215,1007,1515,1246
4210718,1752,1071,1956,1570
4548180,1281,2295,1584,2559
4649749,1277,2056,1505,2322
