https://surfdrive.surf.nl/files/index.php/s/B7PEqFZSZZBPcW8/download?path=%2FData%2FInput%2FDatasets%2FHiba%2FImages&files=H_660.jpg,5183,3456
H_660,daylight,parquet_brown_light,"[120, 120, 120]","['4109995', '6249125', '365901', '306201', '300423', '4212454', '4211201', '300821']"
300821,1808,2084,2911,2645
306201,2413,1692,2562,1877
4212454,2228,1408,2391,1550
6249125,1851,1436,2000,1536
300423,2797,1465,2996,1707
4109995,2996,1287,3231,1500
4211201,2612,1038,3067,1351
365901,3359,1280,3600,1678
