https://surfdrive.surf.nl/files/index.php/s/B7PEqFZSZZBPcW8/download?path=%2FData%2FInput%2FDatasets%2FHiba%2FImages&files=H_67.jpg,5184,3456
H_67,daylight,wood,"[130, 130, 130]","['4211511', '4529240', '614321', '300423', '4212454', '6062574', '4650630']"
4211511,1272,1502,1405,1647
4529240,1951,1789,2086,1921
4212454,2414,1684,2538,1813
4650630,2417,1776,2718,2090
6062574,3371,2608,3484,2797
300423,2232,946,2437,1158
614321,3371,1285,3521,1494
