https://surfdrive.surf.nl/files/index.php/s/B7PEqFZSZZBPcW8/download?path=%2FData%2FInput%2FDatasets%2FHiba%2FImages&files=H_680.jpg,5184,3456
H_680,daylight,parquet_brown_light,"[120, 120, 120]","['6138173', '6229071', '6075079', '4650630', '300424', '4527943', '300321', '4153825', '306201', '4558957', '4650630', '4529240']"
300321,1698,1819,1950,2026
6229071,1542,1566,1808,1812
4153825,1212,1469,1439,1579
306201,630,1372,759,1527
4558957,2325,1773,2494,1890
4529240,2468,1586,2727,1864
300424,2837,1489,3063,1754
4650630,2688,1249,2966,1482
4650630,3561,854,3827,1113
4527943,3529,1301,3730,1501
6075079,3432,1501,3820,1870
6138173,4008,1495,4248,1754
