https://surfdrive.surf.nl/files/index.php/s/B7PEqFZSZZBPcW8/download?path=%2FData%2FInput%2FDatasets%2FHiba%2FImages&files=H_686.jpg,5184,3456
H_686,daylight,parquet_brown_light,"[120, 120, 120]","['6138173', '6229071', '6075079', '4650630', '300424', '4527943', '300321', '4153825', '306201', '4558957']"
6138173,2038,1154,2272,1372
6229071,3133,1988,3421,2291
6075079,1413,1042,1587,1226
4650630,2480,625,2669,769
300424,1626,1142,1885,1350
4527943,2783,685,2976,874
300321,2703,804,2967,1047
4153825,3036,620,3210,819
306201,1969,764,2123,878
4558957,2301,764,2679,1047
