https://surfdrive.surf.nl/files/index.php/s/B7PEqFZSZZBPcW8/download?path=%2FData%2FInput%2FDatasets%2FHiba%2FImages&files=H_691.jpg,5184,3456
H_691,daylight,parquet_brown_light,"[120, 120, 120]","['6138173', '6229071', '6075079', '4650630', '300424', '4527943', '300321', '4153825', '306201']"
6138173,2456,1035,2614,1135
6229071,1756,2024,1924,2184
6075079,2228,1583,2395,1650
4650630,2480,1513,2644,1714
300424,3267,1494,3398,1624
4527943,3114,1445,3276,1609
300321,2905,1506,3150,1707
4153825,2012,1319,2209,1499
306201,2309,1901,2442,1971
