https://surfdrive.surf.nl/files/index.php/s/B7PEqFZSZZBPcW8/download?path=%2FData%2FInput%2FDatasets%2FHiba%2FImages&files=H_70.jpg,5184,3456
H_70,daylight,wood,"[130, 130, 130]","['4211511', '4529240', '614321', '300423', '4212454', '6062574', '4650630', '4529247']"
614321,747,1667,993,1935
4529247,1100,950,1268,1056
300423,1777,1140,2009,1458
4211511,2488,1620,2700,1860
4529240,3064,1360,3287,1545
4212454,3497,1143,3685,1313
6062574,3526,1641,3759,1917
4650630,4372,1121,4818,1410
