https://surfdrive.surf.nl/files/index.php/s/B7PEqFZSZZBPcW8/download?path=%2FData%2FInput%2FDatasets%2FHiba%2FImages&files=H_714.jpg,5184,3456
H_714,daylight,parquet_brown_light,"[120, 120, 120]","['4160403', '4211221', '614321', '6073026', '6035291', '6025026', '4520632']"
4160403,2654,1146,3297,1275
4211221,1502,1161,1594,1339
614321,2288,1562,2456,1755
6073026,2496,1686,2663,1828
6035291,2492,2156,2756,2374
6025026,2274,714,2369,866
4520632,1858,1897,2137,2379
