https://surfdrive.surf.nl/files/index.php/s/B7PEqFZSZZBPcW8/download?path=%2FData%2FInput%2FDatasets%2FHiba%2FImages&files=H_723.jpg,5184,3455
H_723,daylight,parquet_brown_light,"[120, 120, 120]","['6062574', '300123', '4655172', '6225539', '4517992', '6074890', '6022064', '4621545', '4211201', '4539099', '4550325', '4157124']"
4157124,1148,1398,1251,1540
6062574,1593,2165,1799,2346
4211201,1934,953,2586,1250
4550325,1973,760,2096,921
4539099,2186,695,2392,863
4621545,2869,843,3076,992
6074890,3140,1024,3321,1443
6022064,2721,1185,2895,1424
4655172,3430,1630,3662,1836
6225539,3566,1327,4088,1624
4517992,3314,1211,3437,1340
300123,2231,1702,2708,2199
