https://surfdrive.surf.nl/files/index.php/s/B7PEqFZSZZBPcW8/download?path=%2FData%2FInput%2FDatasets%2FHiba%2FImages&files=H_732.jpg,5184,3456
H_732,daylight,parquet_brown_light,"[120, 120, 120]","['6062574', '300123', '4655172', '6225539', '4517992', '6074890', '6022064', '4621545', '4211201']"
6062574,2356,2489,2505,2652
6022064,2015,2140,2171,2446
6225539,2178,1650,2683,2105
300123,2349,1273,2768,1536
6074890,2548,1465,2683,1564
4655172,3316,1330,3707,1557
4621545,3671,1244,3849,1387
4211201,3330,967,3529,1244
4517992,2441,832,2647,1052
