https://surfdrive.surf.nl/files/index.php/s/B7PEqFZSZZBPcW8/download?path=%2FData%2FInput%2FDatasets%2FHiba%2FImages&files=H_779.jpg,5184,3456
H_779,artificial_light,parquet_brown_medium,"[120, 120, 120]","['4550348', '4153827', '300421', '6003007', '4211437', '654126']"
4153827,2925,1641,3361,1891
4211437,2309,1587,2537,1768
4550348,1889,1795,2083,1978
300421,2034,1292,2224,1442
654126,2472,1797,2624,1942
6003007,2557,1915,2711,2004
