https://surfdrive.surf.nl/files/index.php/s/B7PEqFZSZZBPcW8/download?path=%2FData%2FInput%2FDatasets%2FHiba%2FImages&files=H_778.jpg,5184,3456
H_778,artificial_light,parquet_brown_medium,"[120, 120, 120]","['4550348', '4153827', '300421', '6003007', '4211437', '654126', '4181135']"
4550348,2100,1475,2234,1688
4153827,1430,1485,1862,1713
300421,2086,1902,2299,2155
6003007,2656,1624,2815,1753
4211437,2622,842,2810,1026
654126,3011,2430,3200,2599
4181135,2664,1403,3314,1755
