https://surfdrive.surf.nl/files/index.php/s/B7PEqFZSZZBPcW8/download?path=%2FData%2FInput%2FDatasets%2FHiba%2FImages&files=H_781.jpg,5184,3456
H_781,artificial_light,parquet_brown_medium,"[120, 120, 120]","['4550348', '4153827', '300421', '6003007', '4211437', '654126']"
4550348,2358,1572,2498,1696
4153827,2636,2036,2994,2274
300421,1850,1876,2008,2064
6003007,2687,1609,2755,1715
4211437,2870,1397,3016,1507
654126,3151,1628,3269,1748
