https://surfdrive.surf.nl/files/index.php/s/B7PEqFZSZZBPcW8/download?path=%2FData%2FInput%2FDatasets%2FHiba%2FImages&files=H_807.jpg,5184,3456
H_807,artificial_light,parquet_brown_medium,"[120, 120, 120]","['4109995', '4504381', '4211614', '4504369', '4165967', '4181144', '6238674', '6249125', '4118793', '4181135', '4211054', '300124', '4211201']"
4109995,3214,1327,3346,1497
4504381,2438,734,2522,823
4211614,2201,1379,2324,1500
4504369,2430,1502,2523,1563
4165967,2889,1063,3151,1346
4181144,3229,1756,3730,2186
6238674,1660,494,1705,597
6249125,3485,2676,3591,2759
4118793,1556,2047,1682,2162
4181135,2930,825,3266,1174
4211054,1969,1070,2177,1194
300124,2359,1254,2706,1449
4211201,1977,1633,2271,1950
