https://surfdrive.surf.nl/files/index.php/s/B7PEqFZSZZBPcW8/download?path=%2FData%2FInput%2FDatasets%2FHiba%2FImages&files=H_804.jpg,5184,3456
H_804,artificial_light,parquet_brown_medium,"[120, 120, 120]","['4114319', '300401', '6075075', '6151663', '306223', '4157124']"
4114319,2774,1886,3246,2204
300401,2586,1867,2710,2110
6075075,2921,1192,3100,1331
6151663,2393,2090,2572,2308
306223,1252,1474,1411,1599
4157124,2723,939,2835,1069
