https://surfdrive.surf.nl/files/index.php/s/B7PEqFZSZZBPcW8/download?path=%2FData%2FInput%2FDatasets%2FHiba%2FImages&files=H_812.jpg,5184,3456
H_812,artificial_light,parquet_brown_medium,"[120, 120, 120]","['4109995', '4504381', '4211614', '4504369', '4165967', '4181144', '6238674', '6249125', '4118793', '4181135', '4211054']"
4109995,3062,1830,3301,2079
4504381,1841,1835,1951,1959
4211614,2571,1319,2705,1518
4504369,1281,1736,1439,1855
4165967,3479,1503,3737,1915
4181144,2238,1771,2879,2183
6238674,1290,1850,1415,2014
6249125,2129,2049,2263,2178
4118793,2566,828,2720,987
4181135,2154,1538,2760,1959
4211054,2258,1458,2492,1706
