https://surfdrive.surf.nl/files/index.php/s/B7PEqFZSZZBPcW8/download?path=%2FData%2FInput%2FDatasets%2FHiba%2FImages&files=H_822.jpg,5184,3456
H_822,artificial_light,parquet_brown_medium,"[120, 120, 120]","['4109995', '4504381', '4211614', '4504369', '4165967', '4181144', '6238674', '6249125']"
4109995,2664,1516,2800,1676
4504381,1436,1754,1542,1847
4211614,2248,1867,2407,2032
4504369,2883,1597,2987,1692
4165967,2438,1830,2759,2032
4181144,2427,1326,2839,1630
6238674,2394,2136,2514,2258
6249125,2022,1829,2124,1912
