https://surfdrive.surf.nl/files/index.php/s/B7PEqFZSZZBPcW8/download?path=%2FData%2FInput%2FDatasets%2FHiba%2FImages&files=H_94.jpg,5184,3456
H_94,daylight,wood,"[130, 130, 130]",['6074890']
6074890,2451,1712,2676,1901
