https://surfdrive.surf.nl/files/index.php/s/B7PEqFZSZZBPcW8/download?path=%2FData%2FInput%2FDatasets%2FHiba%2FImages&files=H_95.jpg,5184,3456
H_95,daylight,wood,"[130, 130, 130]",['6074890']
6074890,2515,1812,2617,1973
