https://surfdrive.surf.nl/files/index.php/s/B7PEqFZSZZBPcW8/download?path=%2FData%2FInput%2FDatasets%2FBerend%2FImages&files=B_145.jpg,4608,3072
B_145,daylight,wood,"[130, 130, 130]","['300421', '6138173', '4114319']"
300421,1174,676,1463,932
6138173,1001,2291,1366,2624
4114319,2407,1130,3003,1587
