https://surfdrive.surf.nl/files/index.php/s/B7PEqFZSZZBPcW8/download?path=%2FData%2FInput%2FDatasets%2FBerend%2FImages&files=B_16.jpg,4608,3072
B_16,daylight,wood,"[130, 130, 130]","['4650630', '6252809', '4211054', '4548180', '4649749', '300401']"
4650630,2866,2047,3314,2359
6252809,3021,1571,3814,2433
4211054,2804,2117,3194,2477
4548180,1606,1059,1901,1373
4649749,2411,1956,2979,2539
300401,2220,1326,2449,1649
