https://surfdrive.surf.nl/files/index.php/s/B7PEqFZSZZBPcW8/download?path=%2FData%2FInput%2FDatasets%2FBerend%2FImages&files=B_217.jpg,4608,3072
B_217,daylight,wood,"[130, 130, 130]","['4109995', '4651236']"
4109995,2040,1131,2359,1370
4651236,2165,1260,2480,1471
