https://surfdrive.surf.nl/files/index.php/s/B7PEqFZSZZBPcW8/download?path=%2FData%2FInput%2FDatasets%2FBerend%2FImages&files=B_210.jpg,4608,3072
B_210,daylight,wood,"[130, 130, 130]","['4621545', '654126', '300124', '306201', '4212454', '614321']"
4621545,2086,1580,2244,1810
654126,2074,1513,2200,1666
300124,2350,1483,2489,1735
306201,1954,1352,2067,1460
4212454,1826,1349,1935,1429
614321,1983,1406,2108,1518
