https://surfdrive.surf.nl/files/index.php/s/B7PEqFZSZZBPcW8/download?path=%2FData%2FInput%2FDatasets%2FBerend%2FImages&files=B_328.jpg,4608,3072
B_328,daylight,wood,"[130, 130, 130]","['6003007', '4153827', '4621545', '6073026', '300401']"
6003007,1641,1551,2266,2076
4153827,2080,1164,2897,1819
4621545,2617,1206,3243,1744
6073026,2373,744,2907,1269
300401,1836,991,2552,1568
