https://surfdrive.surf.nl/files/index.php/s/B7PEqFZSZZBPcW8/download?path=%2FData%2FInput%2FDatasets%2FBerend%2FImages&files=B_321.jpg,4608,3072
B_321,daylight,wood,"[130, 130, 130]","['6003007', '4153827', '4621545']"
6003007,2380,1245,2658,1561
4153827,1378,1178,1735,1583
4621545,2452,1260,2649,1496
