https://surfdrive.surf.nl/files/index.php/s/B7PEqFZSZZBPcW8/download?path=%2FData%2FInput%2FDatasets%2FBerend%2FImages&files=B_420.jpg,4608,3072
B_420,daylight,wood,"[130, 130, 130]","['6003007', '4153827', '300124']"
6003007,755,1858,909,1946
4153827,2533,2101,2981,2452
300124,2517,1548,2774,1959
