https://surfdrive.surf.nl/files/index.php/s/B7PEqFZSZZBPcW8/download?path=%2FData%2FInput%2FDatasets%2FBerend%2FImages&files=B_482.jpg,4608,3072
B_482,daylight,wood,"[130, 130, 130]","['6075079', '4211201', '4165967', '4647553', '4121967', '4211437', '4143562']"
6075079,2441,1115,2682,1371
4211201,1708,1404,2264,1902
4165967,2180,1370,2646,1872
4647553,1585,1775,1905,2062
4121967,2701,829,3009,1061
4211437,1169,2071,1568,2410
4143562,1614,1965,2029,2392
