https://surfdrive.surf.nl/files/index.php/s/B7PEqFZSZZBPcW8/download?path=%2FData%2FInput%2FDatasets%2FBerend%2FImages&files=B_725.jpg,4608,3072
B_725,daylight,wood,"[130, 130, 130]","['306201', '4527943', '6004938', '4121967']"
306201,1675,1462,1905,1668
4527943,2380,1711,2653,1984
6004938,1601,1275,1857,1500
4121967,2171,1720,2494,1972
