https://surfdrive.surf.nl/files/index.php/s/B7PEqFZSZZBPcW8/download?path=%2FData%2FInput%2FDatasets%2FBerend%2FImages&files=B_722.jpg,4608,3072
B_722,daylight,wood,"[130, 130, 130]","['306201', '4527943', '6004938']"
306201,2176,1413,2375,1600
4527943,363,1259,621,1562
6004938,2789,2034,2943,2244
