https://surfdrive.surf.nl/files/index.php/s/B7PEqFZSZZBPcW8/download?path=%2FData%2FInput%2FDatasets%2FBerend%2FImages&files=B_789.jpg,4607,3072
B_789,daylight,wood,"[130, 130, 130]","['4181135', '6069259', '6003007', '4650630', '4504369', '4527943', '6062574', '4211166', '4211437']"
4181135,1356,1011,1864,1822
6069259,1858,1620,2153,1942
6003007,3378,510,3604,675
4650630,1773,1222,2162,1625
4504369,1978,2125,2197,2334
4527943,1032,853,1324,1124
6062574,1622,1988,1893,2281
4211166,1112,1263,1387,1591
4211437,1427,751,1691,969
