https://surfdrive.surf.nl/files/index.php/s/B7PEqFZSZZBPcW8/download?path=%2FData%2FInput%2FDatasets%2FBerend%2FImages&files=B_85.jpg,4608,3072
B_85,daylight,wood,"[130, 130, 130]",['300124']
300124,2013,1130,2474,1755
