https://surfdrive.surf.nl/files/index.php/s/B7PEqFZSZZBPcW8/download?path=%2FData%2FInput%2FDatasets%2FDavid%2FImages&files=C_135.jpg,5472,3648
C_135,artificial,coffee_table,"[130, 130, 130]","['6238674', '4212454', '4504369', '4550348', '4527943', '6074890', '6244886']"
6238674,2304,1732,2570,1977
4212454,2562,2220,2759,2373
4504369,2101,2285,2351,2549
4550348,2041,2015,2317,2269
4527943,3065,1921,3352,2217
6074890,2587,2014,2792,2143
6244886,2706,1224,3010,1517
