https://surfdrive.surf.nl/files/index.php/s/B7PEqFZSZZBPcW8/download?path=%2FData%2FInput%2FDatasets%2FDavid%2FImages&files=C_138.jpg,5472,3648
C_138,artificial,coffee_table,"[130, 130, 130]","['6238674', '4212454', '4504369', '4550348', '4527943', '6074890', '6244886', '4651236']"
6238674,2681,1654,2949,1867
4212454,2924,1624,3188,1848
4504369,3131,1799,3363,1954
4550348,2565,1852,2956,2003
4527943,2783,1391,3092,1725
6074890,2550,1715,2827,1932
6244886,2289,1482,2663,1861
4651236,2038,1959,2295,2326
