https://surfdrive.surf.nl/files/index.php/s/B7PEqFZSZZBPcW8/download?path=%2FData%2FInput%2FDatasets%2FDavid%2FImages&files=C_177.jpg,5472,3648
C_177,daylight,coffee_table,"[130, 130, 130]","['6252809', '4160403']"
6252809,2212,1741,3472,2599
4160403,2235,1096,2906,1585
