https://surfdrive.surf.nl/files/index.php/s/B7PEqFZSZZBPcW8/download?path=%2FData%2FInput%2FDatasets%2FDavid%2FImages&files=C_230.jpg,5472,3648
C_230,daylight,coffee_table,"[130, 130, 130]","['4118793', '4567338', '6073026', '4211054']"
4118793,2277,1599,2440,1798
4567338,2670,1768,2905,1950
6073026,2592,1675,2762,1859
4211054,2753,1657,3010,1881
