https://surfdrive.surf.nl/files/index.php/s/B7PEqFZSZZBPcW8/download?path=%2FData%2FInput%2FDatasets%2FDavid%2FImages&files=C_236.jpg,5472,3648
C_236,daylight,coffee_table,"[130, 130, 130]","['4118793', '4567338', '6073026', '4211054', '4121739', '300124']"
4118793,1781,1566,1955,1730
4567338,3403,2130,3522,2269
6073026,1850,2013,2020,2217
4211054,2881,2097,3257,2403
4121739,2162,1055,2423,1327
300124,2500,1676,3089,2104
