https://surfdrive.surf.nl/files/index.php/s/B7PEqFZSZZBPcW8/download?path=%2FData%2FInput%2FDatasets%2FDavid%2FImages&files=C_248.jpg,5472,3648
C_248,daylight,coffee_table,"[130, 130, 130]","['4118793', '4567338', '6073026', '4211054', '4121739', '300124', '6244886', '4211166', '300401', '4504369']"
4118793,1872,2154,2061,2353
4567338,2684,1706,2862,1837
6073026,3351,1904,3540,2111
4211054,1070,1507,1394,1762
4121739,2064,1944,2343,2198
300124,3259,1105,3745,1479
6244886,2787,1194,3104,1468
4211166,2924,1402,3140,1630
300401,2280,1526,2545,1769
4504369,2726,1230,2857,1334
