https://surfdrive.surf.nl/files/index.php/s/B7PEqFZSZZBPcW8/download?path=%2FData%2FInput%2FDatasets%2FDavid%2FImages&files=C_31.jpg,5472,3647
C_31,daylight,coffee_table,"[130, 130, 130]","['4650630', '6238674']"
4650630,3358,1481,3587,1710
6238674,2747,1772,2854,1908
