https://surfdrive.surf.nl/files/index.php/s/B7PEqFZSZZBPcW8/download?path=%2FData%2FInput%2FDatasets%2FDavid%2FImages&files=C_379.jpg,5472,3648
C_379,daylight,living_room_floor,"[130, 130, 130]","['300401', '300423', '4529240']"
300401,2638,1745,2842,1953
300423,2593,1933,2711,2063
4529240,2622,1834,2780,2020
