https://surfdrive.surf.nl/files/index.php/s/B7PEqFZSZZBPcW8/download?path=%2FData%2FInput%2FDatasets%2FDavid%2FImages&files=C_378.jpg,5472,3648
C_378,daylight,living_room_floor,"[130, 130, 130]","['300401', '300423', '4529240']"
300401,2496,2183,2668,2308
300423,3055,1413,3192,1600
4529240,2279,1836,2402,1937
