https://surfdrive.surf.nl/files/index.php/s/B7PEqFZSZZBPcW8/download?path=%2FData%2FInput%2FDatasets%2FDavid%2FImages&files=C_388.jpg,5472,3648
C_388,daylight,living_room_floor,"[130, 130, 130]","['300401', '300423', '4529240', '6004938', '4550348', '6229071']"
300401,2587,1847,2806,2064
300423,1992,1500,2195,1667
4529240,2050,977,2183,1060
6004938,2404,1176,2526,1309
4550348,2732,1759,2952,1917
6229071,1740,2053,1927,2249
