https://surfdrive.surf.nl/files/index.php/s/B7PEqFZSZZBPcW8/download?path=%2FData%2FInput%2FDatasets%2FDavid%2FImages&files=C_482.jpg,5472,3647
C_482,daylight,dining_table,"[130, 130, 130]","['4153825', '4621545', '306201', '4211412']"
4153825,1784,1733,2081,2021
4621545,3403,1526,3645,1728
306201,3465,1687,3626,1828
4211412,2070,1899,2233,2064
