https://surfdrive.surf.nl/files/index.php/s/B7PEqFZSZZBPcW8/download?path=%2FData%2FInput%2FDatasets%2FDavid%2FImages&files=C_514.jpg,5472,3648
C_514,daylight,couch,"[130, 130, 130]",['6069259']
6069259,2621,1712,2836,1884
