https://surfdrive.surf.nl/files/index.php/s/B7PEqFZSZZBPcW8/download?path=%2FData%2FInput%2FDatasets%2FDavid%2FImages&files=C_557.jpg,5472,3647
C_557,daylight,window_sill,"[130, 130, 130]","['6003007', '365901', '4567338']"
6003007,2585,1809,2794,1985
365901,2493,1550,2832,2106
4567338,2887,1673,3078,1850
