https://surfdrive.surf.nl/files/index.php/s/B7PEqFZSZZBPcW8/download?path=%2FData%2FInput%2FDatasets%2FDavid%2FImages&files=C_611.jpg,5472,3648
C_611,daylight,window_sill,"[130, 130, 130]","['300423', '6073026', '4558957', '4527943']"
300423,3150,1181,3583,1630
6073026,2701,1354,2952,1644
4558957,2776,1512,3214,1927
4527943,2189,1155,2478,1439
