https://surfdrive.surf.nl/files/index.php/s/B7PEqFZSZZBPcW8/download?path=%2FData%2FInput%2FDatasets%2FDavid%2FImages&files=C_69.jpg,5472,3648
C_69,daylight,coffee_table,"[130, 130, 130]","['4517992', '6074890', '4650630', '6004938']"
4517992,2079,1361,2368,1634
6074890,2272,2119,2439,2249
4650630,2770,1648,3069,1904
6004938,3002,1332,3175,1506
