https://surfdrive.surf.nl/files/index.php/s/B7PEqFZSZZBPcW8/download?path=%2FData%2FInput%2FDatasets%2FDavid%2FImages&files=C_731.jpg,5472,3648
C_731,daylight,armchair,"[130, 130, 130]","['6062574', '306201']"
6062574,3407,1807,3551,1975
306201,2001,1501,2107,1651
