https://surfdrive.surf.nl/files/index.php/s/B7PEqFZSZZBPcW8/download?path=%2FData%2FInput%2FDatasets%2FHiba%2FImages&files=H_145.jpg,5184,2912
H_145,daylight,wood,"[130, 130, 130]","['4211054', '4211054', '306201', '6229071', '6074890', '4621545', '6062574']"
4211054,2843,558,3036,750
4211054,3155,571,3386,783
306201,2342,793,2485,902
6229071,3660,1133,3874,1331
6074890,2781,1131,2882,1275
4621545,2653,384,2815,544
6062574,2011,2031,2183,2223
