https://surfdrive.surf.nl/files/index.php/s/B7PEqFZSZZBPcW8/download?path=%2FData%2FInput%2FDatasets%2FHiba%2FImages&files=H_197.jpg,5184,3456
H_197,daylight,wood,"[130, 130, 130]","['4548180', '4504381', '4517992', '4647553', '300821']"
4548180,1696,1504,2031,1883
4504381,2264,1802,2443,2026
4517992,2629,1353,2892,1616
4647553,3042,1433,3252,1718
300821,2019,1025,2490,1494
