https://surfdrive.surf.nl/files/index.php/s/B7PEqFZSZZBPcW8/download?path=%2FData%2FInput%2FDatasets%2FHiba%2FImages&files=H_218.jpg,5184,3456
H_218,daylight,wood,"[130, 130, 130]",['300124']
300124,2368,1684,2826,1954
