https://surfdrive.surf.nl/files/index.php/s/B7PEqFZSZZBPcW8/download?path=%2FData%2FInput%2FDatasets%2FHiba%2FImages&files=H_231.jpg,5184,3456
H_231,daylight,wood,"[130, 130, 130]","['300124', '300401', '6249125', '4121739', '6249125', '6028324']"
300124,2316,1562,2789,1818
300401,3883,2209,4202,2488
6249125,2274,2259,2382,2410
6249125,2650,1975,2769,2093
4121739,1889,1349,2109,1579
6028324,2082,1294,2243,1463
