https://surfdrive.surf.nl/files/index.php/s/B7PEqFZSZZBPcW8/download?path=%2FData%2FInput%2FDatasets%2FHiba%2FImages&files=H_373.jpg,5184,3456
H_373,daylight,wood,"[130, 130, 130]","['365901', '300424', '4529247', '4211412']"
365901,3432,881,3939,1270
300424,2725,870,2966,1119
4529247,2165,803,2339,938
4211412,2452,1722,2647,1940
