https://surfdrive.surf.nl/files/index.php/s/B7PEqFZSZZBPcW8/download?path=%2FData%2FInput%2FDatasets%2FHiba%2FImages&files=H_42.jpg,5184,3456
H_42,daylight,wood,"[130, 130, 130]","['4210718', '6249125', '4504381', '4558957']"
4210718,3754,1239,4323,1715
6249125,3147,979,3247,1096
4504381,3634,764,3772,848
4558957,2435,1317,2900,1732
