https://surfdrive.surf.nl/files/index.php/s/B7PEqFZSZZBPcW8/download?path=%2FData%2FInput%2FDatasets%2FHiba%2FImages&files=H_69.jpg,5184,3456
H_69,daylight,wood,"[130, 130, 130]","['4211511', '4529240', '614321', '300423', '4212454', '6062574', '4650630', '4529247']"
4211511,4119,1546,4349,1763
4529240,2181,1305,2347,1455
614321,3228,1559,3456,1826
300423,2612,722,2842,963
4212454,2385,1886,2580,2081
6062574,2537,1772,2704,1973
4650630,2599,1105,2857,1388
4529247,1233,1290,1396,1441
