https://surfdrive.surf.nl/files/index.php/s/B7PEqFZSZZBPcW8/download?path=%2FData%2FInput%2FDatasets%2FHiba%2FImages&files=H_74.jpg,5183,3456
H_74,daylight,wood,"[130, 130, 130]","['4211511', '4529240', '614321', '300423', '4212454', '6062574', '4650630', '4529247', '6004938']"
4211511,2093,1380,2246,1557
4529240,2272,1711,2473,1839
614321,3087,1633,3278,1853
300423,1696,1382,1977,1610
4212454,1665,1047,1796,1205
6062574,2988,1697,3155,1860
4650630,2184,1592,2477,1869
4529247,2291,1505,2405,1669
6004938,3102,1730,3319,1956
