https://surfdrive.surf.nl/files/index.php/s/B7PEqFZSZZBPcW8/download?path=%2FData%2FInput%2FDatasets%2FBerend%2FImages&files=B_112.jpg,4608,3072
B_112,daylight,wood,"[130, 130, 130]","['6022064', '4211221', '4211511', '6073026', '4550348', '6022023']"
6022064,1933,1327,2145,1521
4211221,1506,1396,1642,1630
4211511,3024,1784,3186,1926
6073026,1511,1296,1646,1431
4550348,2085,1548,2277,1676
6022023,2939,1325,3169,1519
