https://surfdrive.surf.nl/files/index.php/s/B7PEqFZSZZBPcW8/download?path=%2FData%2FInput%2FDatasets%2FBerend%2FImages&files=B_207.jpg,4608,3072
B_207,daylight,wood,"[130, 130, 130]","['4621545', '654126', '300124', '306201', '4212454']"
4621545,2624,1447,2865,1628
654126,1227,1217,1372,1397
300124,2600,1648,3109,1997
306201,2459,1219,2632,1355
4212454,1594,1827,1760,1941
