https://surfdrive.surf.nl/files/index.php/s/B7PEqFZSZZBPcW8/download?path=%2FData%2FInput%2FDatasets%2FBerend%2FImages&files=B_233.jpg,4608,3072
B_233,daylight,wood,"[130, 130, 130]","['6138173', '4210718', '4210718', '4121739']"
6138173,1386,1541,1701,1818
4210718,2378,1681,2675,2381
4210718,2103,623,2735,1104
4121739,1882,727,2132,924
