https://surfdrive.surf.nl/files/index.php/s/B7PEqFZSZZBPcW8/download?path=%2FData%2FInput%2FDatasets%2FBerend%2FImages&files=B_316.jpg,4608,3072
B_316,daylight,wood,"[130, 130, 130]",['6003007']
6003007,2084,1675,2359,1849
