https://surfdrive.surf.nl/files/index.php/s/B7PEqFZSZZBPcW8/download?path=%2FData%2FInput%2FDatasets%2FBerend%2FImages&files=B_315.jpg,4608,3072
B_315,daylight,wood,"[130, 130, 130]",['6003007']
6003007,2167,1396,2376,1653
