https://surfdrive.surf.nl/files/index.php/s/B7PEqFZSZZBPcW8/download?path=%2FData%2FInput%2FDatasets%2FBerend%2FImages&files=B_465.jpg,4608,3072
B_465,daylight,wood,"[130, 130, 130]","['6075079', '4211201']"
6075079,1713,1387,1957,1574
4211201,2062,1247,2579,1668
