https://surfdrive.surf.nl/files/index.php/s/B7PEqFZSZZBPcW8/download?path=%2FData%2FInput%2FDatasets%2FBerend%2FImages&files=B_484.jpg,4608,3072
B_484,daylight,wood,"[130, 130, 130]","['6075079', '4211201', '4165967', '4647553', '4121967', '4211437', '4143562', '4550348']"
4211201,1558,865,2308,1438
4165967,2510,1276,3036,1929
4647553,1370,1224,1776,1599
4121967,2102,932,2476,1253
4211437,1899,833,2280,1014
4143562,1211,797,1583,1237
4550348,3212,1352,3475,1656
6075079,2514,1096,2859,1323
