https://surfdrive.surf.nl/files/index.php/s/B7PEqFZSZZBPcW8/download?path=%2FData%2FInput%2FDatasets%2FBerend%2FImages&files=B_505.jpg,4608,3072
B_505,daylight,wood,"[130, 130, 130]","['6075075', '4649749', '300323', '4211149', '4621545', '300424', '6244886']"
6075075,2491,1513,2810,1677
4649749,3053,1840,3299,2154
300323,2128,709,2422,1032
4211149,2837,1267,3159,1610
4621545,2617,1198,2842,1492
300424,2426,790,2752,1081
6244886,2518,901,2916,1255
