https://surfdrive.surf.nl/files/index.php/s/B7PEqFZSZZBPcW8/download?path=%2FData%2FInput%2FDatasets%2FBerend%2FImages&files=B_673.jpg,4608,3072
B_673,daylight,wood,"[130, 130, 130]","['6223631', '4160403', '4527943', '4650630', '300424', '300321', '4650630']"
6223631,2581,2380,2780,2571
4160403,1701,2064,2747,2430
4527943,2353,1647,2690,2042
4650630,1127,1103,1557,1421
4650630,1190,2204,1587,2635
300424,2511,196,2844,540
300321,2953,1376,3326,1756
