https://surfdrive.surf.nl/files/index.php/s/B7PEqFZSZZBPcW8/download?path=%2FData%2FInput%2FDatasets%2FDavid%2FImages&files=C_113.jpg,5471,3648
C_113,daylight,armchair,"[130, 130, 130]","['300124', '4181134', '4114319']"
300124,2253,1460,2926,1952
4181134,3235,1780,3688,2704
4114319,2156,1007,2742,1478
