https://surfdrive.surf.nl/files/index.php/s/B7PEqFZSZZBPcW8/download?path=%2FData%2FInput%2FDatasets%2FDavid%2FImages&files=C_20.jpg,5472,3648
C_20,daylight,coffee_table,"[130, 130, 130]","['300121', '4567338', '4211149', '6022023', '6075075', '4118793', '4647553']"
300121,1792,1482,2220,1951
4567338,2644,1378,2827,1492
4211149,2272,1888,2568,2126
6022023,1485,2155,1832,2380
6075075,3609,1166,3850,1289
4118793,3564,1723,3782,1931
4647553,1828,2175,2157,2512
