https://surfdrive.surf.nl/files/index.php/s/B7PEqFZSZZBPcW8/download?path=%2FData%2FInput%2FDatasets%2FDavid%2FImages&files=C_249.jpg,5472,3648
C_249,daylight,coffee_table,"[130, 130, 130]",['6223631']
6223631,2685,1728,2848,1900
