https://surfdrive.surf.nl/files/index.php/s/B7PEqFZSZZBPcW8/download?path=%2FData%2FInput%2FDatasets%2FDavid%2FImages&files=C_331.jpg,5472,3648
C_331,daylight,living_room_floor,"[130, 130, 130]","['4211614', '4153825', '6151663', '6004938']"
4211614,2637,1733,2846,1916
4153825,2110,1096,2356,1338
6151663,3308,1781,3519,1953
6004938,2266,1773,2418,1929
