https://surfdrive.surf.nl/files/index.php/s/B7PEqFZSZZBPcW8/download?path=%2FData%2FInput%2FDatasets%2FDavid%2FImages&files=C_380.jpg,5472,3648
C_380,daylight,living_room_floor,"[130, 130, 130]","['300401', '300423', '4529240']"
300401,3410,2199,3728,2570
300423,1795,2119,2139,2485
4529240,2637,1657,2775,1830
