https://surfdrive.surf.nl/files/index.php/s/B7PEqFZSZZBPcW8/download?path=%2FData%2FInput%2FDatasets%2FDavid%2FImages&files=C_480.jpg,5472,3648
C_480,daylight,dining_table,"[130, 130, 130]","['4153825', '4621545', '306201', '4211412']"
4153825,2051,1688,2452,2140
4621545,3144,1337,3487,1742
306201,2971,1480,3156,1738
4211412,2499,1748,2782,1944
