https://surfdrive.surf.nl/files/index.php/s/B7PEqFZSZZBPcW8/download?path=%2FData%2FInput%2FDatasets%2FDavid%2FImages&files=C_49.jpg,5472,3648
C_49,daylight,coffee_table,"[130, 130, 130]","['6104154', '4527943', '4157124', '4211201', '4211614', '4504381']"
6104154,2195,2223,2528,2490
4527943,1832,1033,2082,1300
4157124,2956,2268,3204,2551
4211201,3524,1167,3853,1679
4211614,3211,1559,3459,1878
4504381,1774,2332,1999,2513
