https://surfdrive.surf.nl/files/index.php/s/B7PEqFZSZZBPcW8/download?path=%2FData%2FInput%2FDatasets%2FDavid%2FImages&files=C_71.jpg,5472,3648
C_71,daylight,coffee_table,"[130, 130, 130]","['4517992', '6074890', '4650630', '6004938']"
4517992,3501,1663,3866,2048
6074890,3374,1657,3552,1859
4650630,1733,1364,2113,1729
6004938,1801,2014,2032,2222
