https://surfdrive.surf.nl/files/index.php/s/B7PEqFZSZZBPcW8/download?path=%2FData%2FInput%2FDatasets%2FDavid%2FImages&files=C_722.jpg,5472,3648
C_722,daylight,coffee_table,"[130, 130, 130]","['4529240', '4211437', '4211437', '4539099', '4211149', '300124', '6249125', '4160403']"
4529240,2219,1998,2335,2155
4211437,2979,1595,3178,1830
