https://surfdrive.surf.nl/files/index.php/s/B7PEqFZSZZBPcW8/download?path=%2FData%2FInput%2FDatasets%2FDavid%2FImages&files=C_749.jpg,5471,3648
C_749,daylight,couch,"[130, 130, 130]","['6069259', '4211054', '6177697', '6062574', '6223631', '4109995']"
6069259,2327,1942,2550,2144
4211054,2361,1672,2642,1962
6177697,2730,1191,2993,1562
6062574,2925,2376,3109,2560
6223631,3400,2205,3542,2333
4109995,3188,1699,3385,1955
