https://surfdrive.surf.nl/files/index.php/s/B7PEqFZSZZBPcW8/download?path=%2FData%2FInput%2FDatasets%2FHiba%2FImages&files=H_191.jpg,5184,3456
H_191,daylight,wood,"[130, 130, 130]","['4548180', '4504381', '4517992']"
4548180,1708,2312,2011,2544
4504381,3455,2087,3626,2239
4517992,2976,980,3229,1225
