https://surfdrive.surf.nl/files/index.php/s/B7PEqFZSZZBPcW8/download?path=%2FData%2FInput%2FDatasets%2FHiba%2FImages&files=H_329.jpg,5184,3456
H_329,daylight,wood,"[130, 130, 130]","['4211437', '300821', '4647553', '4211166', '6073026', '6252809']"
4211437,1923,1067,2144,1249
300821,2070,1326,2267,2014
4647553,1306,1915,1565,2178
4211166,2669,1460,2877,1691
6073026,3150,918,3288,1051
6252809,3592,1477,3961,2271
