https://surfdrive.surf.nl/files/index.php/s/B7PEqFZSZZBPcW8/download?path=%2FData%2FInput%2FDatasets%2FBerend%2FImages&files=B_1069.jpg,4608,3072
B_1069,daylight,dirty_rug,"[120, 120, 120]","['4109995', '300123', '623224', '4520632', '6025026', '4504369', '4157124', '4211511']"
4109995,1487,1610,1686,1798
300123,1474,1370,1807,1698
623224,2725,1670,2990,1918
4520632,1626,1276,1949,1489
6025026,2807,1483,2976,1637
4504369,2115,1882,2216,1954
4157124,2761,1605,2931,1722
4211511,2020,1985,2160,2125
