https://surfdrive.surf.nl/files/index.php/s/B7PEqFZSZZBPcW8/download?path=%2FData%2FInput%2FDatasets%2FBerend%2FImages&files=B_1065.jpg,4608,3072
B_1065,daylight,dirty_rug,"[120, 120, 120]","['4109995', '300123', '623224', '4520632', '6025026', '4504369', '4157124', '4211511', '4621545']"
4109995,1734,1246,1923,1344
300123,2601,1801,2783,2102
623224,2255,1183,2475,1363
4520632,1985,1588,2373,1807
6025026,2140,1226,2290,1306
4504369,2015,2053,2140,2172
4157124,1402,1206,1566,1331
4211511,2801,1670,2947,1803
4621545,2032,1370,2212,1515
