https://surfdrive.surf.nl/files/index.php/s/B7PEqFZSZZBPcW8/download?path=%2FData%2FInput%2FDatasets%2FBerend%2FImages&files=B_1032.jpg,4608,3072
B_1032,daylight,dirty_rug,"[120, 120, 120]","['654126', '4504381', '4517992', '4211221', '6177697', '6022023', '4550325', '4114319', '4143562', '4655172', '4181134', '6223631']"
654126,2752,764,2865,862
4504381,2856,1911,2972,1974
4517992,3259,1573,3344,1841
4211221,3418,1482,3624,1608
6177697,1197,601,1551,858
6022023,2422,993,2654,1117
4550325,589,790,825,969
4114319,2622,440,3007,734
4143562,1184,2368,1484,2660
4655172,1908,1378,2273,1776
4181134,2513,823,3074,1290
6223631,2257,837,2365,932
