https://surfdrive.surf.nl/files/index.php/s/B7PEqFZSZZBPcW8/download?path=%2FData%2FInput%2FDatasets%2FBerend%2FImages&files=B_1058.jpg,4608,3072
B_1058,daylight,dirty_rug,"[120, 120, 120]","['4109995', '300123', '623224', '4520632', '6025026', '4504369', '4157124', '4211511', '4621545', '365901', '4639693', '4143562']"
4109995,2279,390,2471,586
300123,1600,844,1989,1058
623224,1788,1343,2028,1602
4520632,1784,1684,2249,2085
6025026,2402,2130,2632,2337
4504369,2149,1730,2273,1854
4157124,1332,668,1471,784
4211511,925,1290,1025,1432
4621545,2477,2303,2735,2568
365901,2465,1934,2848,2346
4639693,1966,1027,2398,1778
4143562,1952,2156,2215,2392
