https://surfdrive.surf.nl/files/index.php/s/B7PEqFZSZZBPcW8/download?path=%2FData%2FInput%2FDatasets%2FBerend%2FImages&files=B_1082.jpg,4608,3072
B_1082,artificial_light,parquet_dark_brown,"[120, 120, 120]","['4529247', '6062574', '614321', '6022064', '6028324', '4211149', '4211412', '6138173', '4211511', '4210718', '4143562']"
4529247,3058,1619,3139,1739
6062574,2941,1788,3058,1908
614321,2410,1487,2578,1683
6022064,2406,1732,2616,2015
6028324,1368,1067,1524,1217
4211149,3132,1356,3284,1546
4211412,1581,1595,1682,1687
6138173,2643,1732,2824,1868
4211511,1283,1238,1375,1380
4210718,2810,1348,3008,1658
4143562,2584,1988,2837,2218
