https://surfdrive.surf.nl/files/index.php/s/B7PEqFZSZZBPcW8/download?path=%2FData%2FInput%2FDatasets%2FBerend%2FImages&files=B_1063.jpg,4608,3072
B_1063,daylight,dirty_rug,"[120, 120, 120]","['4109995', '300123', '623224', '4520632', '6025026', '4504369', '4157124', '4211511', '4621545', '365901']"
4109995,3428,1536,3640,1748
300123,2475,1349,2625,1752
623224,2670,1748,2919,2037
4520632,2084,1312,2462,1540
6025026,2760,1223,2947,1381
4504369,2291,1487,2389,1565
4157124,2467,1064,2634,1194
4211511,576,1504,735,1658
4621545,2291,1919,2511,2143
365901,2185,954,2479,1267
