https://surfdrive.surf.nl/files/index.php/s/B7PEqFZSZZBPcW8/download?path=%2FData%2FInput%2FDatasets%2FBerend%2FImages&files=B_1059.jpg,4608,3072
B_1059,daylight,dirty_rug,"[120, 120, 120]","['4109995', '300123', '623224', '4520632', '6025026', '4504369', '4157124', '4211511', '4621545', '365901', '4639693']"
4109995,1880,1009,2079,1163
300123,2094,659,2362,1062
623224,1974,1070,2278,1316
4520632,1937,1472,2423,1807
6025026,1956,1278,2134,1451
4504369,1864,1497,2004,1625
4157124,1703,1345,1875,1535
4211511,1718,972,1843,1132
4621545,2389,1653,2622,1869
365901,2110,1169,2432,1558
4639693,2396,650,2614,1358
