https://surfdrive.surf.nl/files/index.php/s/B7PEqFZSZZBPcW8/download?path=%2FData%2FInput%2FDatasets%2FBerend%2FImages&files=B_1028.jpg,4608,3072
B_1028,daylight,dirty_rug,"[120, 120, 120]","['4211201', '4211412', '4639693', '4153827', '4160403', '4539099', '300821', '300121', '4121967']"
4211201,1799,1363,2100,1637
4211412,1526,2083,1672,2184
4639693,2501,1728,2956,2302
4153827,2045,2047,2273,2348
4160403,1799,1910,1954,2439
4539099,2309,461,2391,561
300821,2264,1983,2410,2612
300121,2127,1719,2537,1928
4121967,2182,1958,2324,2099
