https://surfdrive.surf.nl/files/index.php/s/B7PEqFZSZZBPcW8/download?path=%2FData%2FInput%2FDatasets%2FBerend%2FImages&files=B_103.jpg,4608,3072
B_103,daylight,wood,"[130, 130, 130]","['6022064', '4211221', '4211511']"
6022064,860,1270,1315,1673
4211221,2938,790,3307,1121
4211511,2713,1634,2969,1920
