https://surfdrive.surf.nl/files/index.php/s/B7PEqFZSZZBPcW8/download?path=%2FData%2FInput%2FDatasets%2FBerend%2FImages&files=B_1172.jpg,4608,3072
B_1172,artificial_light,parquet_light,"[120, 120, 120]","['4210718', '6022023', '4211221', '654126', '4550325', '4109995', '6177697', '4529247', '654126']"
4210718,2270,1684,2657,2210
6022023,3189,1752,3408,2119
4211221,2642,1116,2959,1422
654126,2958,1807,3151,2036
654126,1652,2027,1855,2265
4550325,1411,1897,1724,2167
4109995,1972,1882,2268,2188
6177697,2459,1447,2899,1905
4529247,3295,403,3454,541
