https://surfdrive.surf.nl/files/index.php/s/B7PEqFZSZZBPcW8/download?path=%2FData%2FInput%2FDatasets%2FBerend%2FImages&files=B_1132.jpg,4608,3072
B_1132,artificial_light,desk_black_wood,"[120, 120, 120]","['4181135', '4649749', '300424', '6249125', '6003007', '4650630', '4181134', '306223', '4114319', '4651236']"
4181135,1886,1246,2789,1787
4649749,1668,1604,1944,1856
300424,2795,1366,3071,1692
6249125,2740,1119,2893,1256
6003007,934,746,1130,929
4650630,2011,1103,2323,1273
4181134,1478,651,2324,1184
306223,737,764,943,919
4114319,2909,858,3462,1348
4651236,1399,1652,1684,1873
