https://surfdrive.surf.nl/files/index.php/s/B7PEqFZSZZBPcW8/download?path=%2FData%2FInput%2FDatasets%2FBerend%2FImages&files=B_117.jpg,4608,3072
B_117,daylight,wood,"[130, 130, 130]","['6022064', '4211221', '4211511', '6073026', '4550348', '6022023', '4621545', '4529240']"
6022064,1171,1566,1779,2019
4211221,1693,1819,2119,2117
4211511,1612,1315,1841,1475
6073026,1124,1485,1322,1622
4550348,1991,1296,2115,1623
6022023,2632,1466,2923,1774
4621545,2111,1217,2438,1519
4529240,3256,1091,3411,1324
