https://surfdrive.surf.nl/files/index.php/s/B7PEqFZSZZBPcW8/download?path=%2FData%2FInput%2FDatasets%2FBerend%2FImages&files=B_1151.jpg,4608,3072
B_1151,artificial_light,desk_black_wood,"[120, 120, 120]","['300121', '365901', '300421', '4211149', '300124', '6062574', '4639693', '300123', '6025026', '4651236', '6104154']"
300121,2343,1424,2772,1569
365901,2387,1099,2669,1295
300421,1858,721,2054,843
4211149,2602,1620,2820,1765
300124,2058,1184,2443,1387
6062574,2443,1643,2535,1728
4639693,1233,976,1995,1361
300123,2621,1065,2946,1380
6025026,2125,1513,2291,1654
4651236,1692,895,1828,962
6104154,1817,1217,1951,1291
