https://surfdrive.surf.nl/files/index.php/s/B7PEqFZSZZBPcW8/download?path=%2FData%2FInput%2FDatasets%2FBerend%2FImages&files=B_1139.jpg,4608,3072
B_1139,artificial_light,desk_black_wood,"[120, 120, 120]","['4181135', '4649749', '300424', '6249125', '6003007', '4650630', '4181134', '306223']"
4181135,1536,1442,2462,2026
4649749,2873,1526,3178,1726
300424,2476,1567,2818,1835
6249125,1103,1456,1203,1635
6003007,1755,828,1906,986
4650630,1933,726,2265,1042
4181134,1692,1174,2617,1536
306223,934,1185,1082,1317
