https://surfdrive.surf.nl/files/index.php/s/B7PEqFZSZZBPcW8/download?path=%2FData%2FInput%2FDatasets%2FBerend%2FImages&files=B_1183.jpg,4608,3072
B_1183,artificial_light,parquet_light,"[120, 120, 120]","['4517992', '4504369', '4504381', '4165967', '6138173', '300321', '4212454', '4520632', '4211614', '300123', '4212454', '6022064']"
4517992,2388,310,2734,688
4504369,1141,1031,1303,1204
4504381,1734,773,1852,874
4165967,2243,502,2741,1139
6138173,2101,296,2421,604
300321,2192,2269,2530,2771
4212454,1584,835,1779,1053
4212454,1004,1741,1176,1996
4520632,2587,558,3226,945
4211614,2978,1539,3340,1808
300123,1730,752,2392,1336
6022064,1261,953,1722,1242
