https://surfdrive.surf.nl/files/index.php/s/B7PEqFZSZZBPcW8/download?path=%2FData%2FInput%2FDatasets%2FBerend%2FImages&files=B_1135.jpg,4608,3072
B_1135,artificial_light,desk_black_wood,"[120, 120, 120]","['4181135', '4649749', '300424', '6249125', '6003007', '4650630', '4181134', '306223', '4114319']"
4181135,2144,1518,3053,1820
4649749,2840,1362,3102,1477
300424,2423,1755,2758,1951
6249125,1547,1763,1629,1878
6003007,1162,716,1359,839
4650630,2897,1820,3110,2262
4181134,1882,1133,2758,1510
306223,2889,904,3012,1035
4114319,1948,765,2480,1158
