https://surfdrive.surf.nl/files/index.php/s/B7PEqFZSZZBPcW8/download?path=%2FData%2FInput%2FDatasets%2FBerend%2FImages&files=B_1147.jpg,4607,3072
B_1147,artificial_light,desk_black_wood,"[120, 120, 120]","['300121', '365901', '300421', '4211149', '300124', '6062574', '4639693', '300123', '6025026', '4651236', '6104154', '4181135']"
300121,2600,1322,3043,1559
365901,2105,1417,2431,1823
300421,1767,1403,1981,1652
4211149,2329,1410,2580,1645
300124,2716,1494,3238,1873
6062574,1940,1496,2104,1685
4639693,1702,1007,2524,1262
300123,2678,809,2984,1096
6025026,2790,1759,3055,1921
4651236,1605,1271,1764,1421
6104154,3151,1762,3433,2004
4181135,2595,1078,3262,1464
