https://surfdrive.surf.nl/files/index.php/s/B7PEqFZSZZBPcW8/download?path=%2FData%2FInput%2FDatasets%2FBerend%2FImages&files=B_1170.jpg,4608,3072
B_1170,artificial_light,parquet_light,"[120, 120, 120]","['4210718', '6022023', '4211221', '654126', '4550325', '4109995', '6177697', '4529247', '654126']"
4210718,3235,1087,3709,1724
6022023,2539,2065,3042,2524
4211221,3157,1798,3590,2198
654126,3705,1106,3905,1321
654126,2465,706,2606,962
4550325,320,1310,655,1674
4109995,3537,1624,3912,2008
6177697,2587,1432,3205,1954
4529247,3224,1043,3368,1193
