https://surfdrive.surf.nl/files/index.php/s/B7PEqFZSZZBPcW8/download?path=%2FData%2FInput%2FDatasets%2FBerend%2FImages&files=B_1128.jpg,4608,3072
B_1128,artificial_light,desk_black_wood,"[120, 120, 120]","['4181135', '4649749', '300424', '6249125', '6003007', '4650630', '4181134', '306223', '4114319', '4651236', '4548180']"
4181135,2337,1011,2518,1662
4649749,2593,2390,2733,2646
300424,2151,1016,2235,1156
6249125,3184,932,3283,996
6003007,1176,2160,1374,2267
4650630,2052,670,2294,868
4181134,2998,388,3384,778
306223,638,1366,833,1467
4114319,2712,475,2957,755
4651236,2765,923,2968,1031
4548180,1927,1188,2104,1313
