https://surfdrive.surf.nl/files/index.php/s/B7PEqFZSZZBPcW8/download?path=%2FData%2FInput%2FDatasets%2FBerend%2FImages&files=B_1171.jpg,4607,3072
B_1171,artificial_light,parquet_light,"[120, 120, 120]","['4210718', '6022023', '4211221', '654126', '4550325', '4109995', '6177697', '4529247', '654126']"
4210718,3194,939,3501,1307
6022023,2275,1525,2574,1820
4211221,2331,416,2522,579
654126,2116,1158,2281,1259
654126,1013,418,1172,525
4550325,2444,2479,2708,2719
4109995,2413,1202,2671,1319
6177697,2760,578,3251,813
4529247,1919,1292,2060,1477
