https://surfdrive.surf.nl/files/index.php/s/B7PEqFZSZZBPcW8/download?path=%2FData%2FInput%2FDatasets%2FBerend%2FImages&files=B_1154.jpg,4608,3072
B_1154,artificial_light,desk_black_wood,"[120, 120, 120]","['300121', '365901', '300421', '4211149', '300124', '6062574', '4639693', '300123', '6025026', '4651236']"
300121,2035,1059,2290,1333
365901,2281,1117,2481,1386
300421,2120,1404,2324,1526
4211149,2403,1200,2529,1301
300124,1888,1458,2182,1781
6062574,917,1458,1125,1616
4639693,2351,846,2852,1347
300123,1552,1430,1892,1738
6025026,2211,1480,2440,1652
4651236,2354,1401,2541,1484
