https://surfdrive.surf.nl/files/index.php/s/B7PEqFZSZZBPcW8/download?path=%2FData%2FInput%2FDatasets%2FBerend%2FImages&files=B_1179.jpg,4608,3072
B_1179,artificial_light,parquet_light,"[120, 120, 120]","['4517992', '4504369', '4504381', '4165967', '6138173', '300321', '4212454', '4520632', '4211614', '300123', '4212454', '6022064', '6229071']"
4517992,1912,1001,2160,1182
4504369,2236,1332,2371,1441
4504381,1031,529,1177,660
4165967,1943,1469,2187,1806
6138173,2828,1219,3066,1428
300321,3522,1636,3792,1822
4212454,3340,1576,3507,1715
4212454,2754,1676,2841,1808
4520632,3115,1900,3592,2272
4211614,2746,1976,2904,2224
300123,2015,2006,2456,2402
6022064,2123,751,2339,947
6229071,2576,2370,2765,2524
