https://surfdrive.surf.nl/files/index.php/s/B7PEqFZSZZBPcW8/download?path=%2FData%2FInput%2FDatasets%2FBerend%2FImages&files=B_1193.jpg,4608,3072
B_1193,artificial_light,parquet_light,"[120, 120, 120]","['4517992', '4504369', '4504381', '4165967', '6138173', '300321', '4212454', '4520632', '4211614']"
4517992,1088,440,1458,832
4504369,711,1102,866,1284
4504381,1895,1691,2080,1846
4165967,1529,806,2095,1124
6138173,2720,1709,3028,2065
300321,3401,965,3712,1324
4212454,2707,2488,2844,2670
4520632,2328,1013,2724,1617
4211614,1880,1439,2147,1680
