https://surfdrive.surf.nl/files/index.php/s/B7PEqFZSZZBPcW8/download?path=%2FData%2FInput%2FDatasets%2FBerend%2FImages&files=B_1135.jpg,4608,3072
B_1135,artificial_light,desk_black_wood,"[120, 120, 120]","['4181135', '4649749', '300424', '6249125', '6003007', '4650630', '4181134', '306223', '4114319']"
4181135,2135,1417,3056,1829
4649749,2889,1354,3133,1511
300424,2442,1710,2742,1954
6249125,1538,1731,1677,1923
6003007,1150,705,1360,834
4650630,2889,1766,3081,2223
4181134,1814,1096,2732,1452
306223,2871,851,3039,1022
4114319,1918,739,2505,1176
