https://surfdrive.surf.nl/files/index.php/s/B7PEqFZSZZBPcW8/download?path=%2FData%2FInput%2FDatasets%2FBerend%2FImages&files=B_1217.jpg,4608,3072
B_1217,artificial_light,parquet_light,"[120, 120, 120]","['4157124', '4121967', '6075075', '4181144', '4655172', '4153825', '614321', '300821', '4181135', '4550325', '4153825']"
4157124,1243,597,1387,723
4121967,1987,714,2186,872
6075075,1681,1386,1865,1562
4181144,2533,890,2758,1408
4655172,2781,1039,2966,1395
4153825,1635,1160,1865,1418
4153825,2912,1828,3182,2108
614321,2506,2207,2754,2459
300821,1252,1025,1613,1639
4181135,1834,1201,2077,1769
4550325,3345,570,3552,727
