https://surfdrive.surf.nl/files/index.php/s/B7PEqFZSZZBPcW8/download?path=%2FData%2FInput%2FDatasets%2FBerend%2FImages&files=B_1214.jpg,4608,3072
B_1214,artificial_light,parquet_light,"[120, 120, 120]","['4157124', '4121967', '6075075', '4181144', '4655172', '4153825', '614321', '300821', '4181135', '4550325', '4153825', '6223631']"
4157124,2732,478,2771,535
4121967,1889,1254,1986,1289
6075075,2561,1294,2662,1338
4181144,2328,1259,2521,1360
4655172,2398,1461,2574,1548
4153825,2104,1386,2223,1439
4153825,2649,912,2710,965
614321,2530,688,2631,767
300821,2412,1114,2846,1140
4181135,1345,2325,1648,2439
4550325,2758,1285,2872,1338
6223631,1916,1698,1973,1746
