https://surfdrive.surf.nl/files/index.php/s/B7PEqFZSZZBPcW8/download?path=%2FData%2FInput%2FDatasets%2FBerend%2FImages&files=B_1200.jpg,4607,3072
B_1200,artificial_light,parquet_light,"[120, 120, 120]","['4211412', '623224', '6244886', '4153827', '4211201', '300323', '6069259', '6229071', '4211149', '4143562', '4650630']"
4211412,885,2433,1002,2628
623224,3153,1175,3498,1401
6244886,2992,1413,3215,1770
4153827,1862,1187,2542,1615
4211201,3054,1703,3550,2188
300323,2402,1972,2747,2181
6069259,1447,484,1734,614
6229071,1793,2295,2091,2543
4211149,2901,788,3099,1018
4143562,2744,1855,2994,2250
4650630,2121,1789,2461,1989
