https://surfdrive.surf.nl/files/index.php/s/B7PEqFZSZZBPcW8/download?path=%2FData%2FInput%2FDatasets%2FBerend%2FImages&files=B_134.jpg,4608,3072
B_134,daylight,wood,"[130, 130, 130]",['6062574']
6062574,2088,1405,2334,1687
