https://surfdrive.surf.nl/files/index.php/s/B7PEqFZSZZBPcW8/download?path=%2FData%2FInput%2FDatasets%2FBerend%2FImages&files=B_137.jpg,4607,3072
B_137,daylight,wood,"[130, 130, 130]","['6062574', '6022023']"
6062574,1531,1469,1815,1818
6022023,2708,1510,3176,1824
