https://surfdrive.surf.nl/files/index.php/s/B7PEqFZSZZBPcW8/download?path=%2FData%2FInput%2FDatasets%2FBerend%2FImages&files=B_157.jpg,4608,3072
B_157,daylight,wood,"[130, 130, 130]","['300421', '6138173', '4114319', '4211221', '6004938', '4211166', '6069259']"
300421,2157,980,2765,1480
6138173,1101,994,1394,1211
4114319,1509,1268,1732,1581
4211221,2050,1367,2388,1706
6004938,2299,1610,2580,1916
4211166,2835,1785,3051,2066
6069259,3593,1878,3804,2178
