https://surfdrive.surf.nl/files/index.php/s/B7PEqFZSZZBPcW8/download?path=%2FData%2FInput%2FDatasets%2FBerend%2FImages&files=B_160.jpg,4608,3072
B_160,daylight,wood,"[130, 130, 130]","['300421', '6138173', '4114319', '4211221', '6004938', '4211166', '6069259', '4212454']"
300421,2628,1807,2804,2034
6138173,2218,1678,2432,1878
4114319,2448,1595,2834,1840
4211221,2723,1224,2935,1466
6004938,3006,1807,3137,1963
4211166,1426,1064,1590,1262
6069259,2248,1458,2428,1601
4212454,2250,1612,2388,1692
