https://surfdrive.surf.nl/files/index.php/s/B7PEqFZSZZBPcW8/download?path=%2FData%2FInput%2FDatasets%2FBerend%2FImages&files=B_165.jpg,4608,3072
B_165,daylight,wood,"[130, 130, 130]","['300421', '6138173', '4114319', '4211221', '6004938', '4211166', '6069259', '4212454', '4157124', '4211437']"
300421,1992,1359,2229,1591
6138173,2370,1959,2547,2208
4114319,1476,1655,1776,2137
4211221,2832,1779,3129,1991
6004938,2178,945,2357,1107
4211166,2154,1842,2401,2096
6069259,1748,1746,1891,1977
4212454,1385,1459,1544,1605
4157124,2225,1613,2386,1832
4211437,1990,1799,2173,2060
