https://surfdrive.surf.nl/files/index.php/s/B7PEqFZSZZBPcW8/download?path=%2FData%2FInput%2FDatasets%2FBerend%2FImages&files=B_163.jpg,4608,3072
B_163,daylight,wood,"[130, 130, 130]","['300421', '6138173', '4114319', '4211221', '6004938', '4211166', '6069259', '4212454', '4157124']"
300421,2458,1465,2624,1576
6138173,2502,1665,2669,1802
4114319,2062,1539,2332,1783
4211221,2073,1124,2202,1239
6004938,2669,1817,2794,1909
4211166,2487,2165,2617,2276
6069259,2513,1987,2591,2057
4212454,2217,1824,2324,1891
4157124,2373,1136,2524,1243
