https://surfdrive.surf.nl/files/index.php/s/B7PEqFZSZZBPcW8/download?path=%2FData%2FInput%2FDatasets%2FBerend%2FImages&files=B_16.jpg,4608,3072
B_16,daylight,wood,"[130, 130, 130]","['4650630', '6252809', '4211054', '4548180', '4649749', '300401']"
4650630,3286,1877,3768,2229
6252809,3157,1153,4134,2319
4211054,2731,2297,3191,2720
4548180,768,629,984,924
4649749,2051,2361,2417,2632
300401,2947,1659,3209,2011
