https://surfdrive.surf.nl/files/index.php/s/B7PEqFZSZZBPcW8/download?path=%2FData%2FInput%2FDatasets%2FBerend%2FImages&files=B_20.jpg,4607,3072
B_20,daylight,wood,"[130, 130, 130]","['4650630', '6252809', '4211054', '4548180', '4649749', '300401', '6075075']"
4650630,1283,1169,1690,1429
6252809,942,1223,2319,1874
4211054,2379,1619,2769,1994
4548180,2660,769,2891,970
4649749,1461,1659,1792,1863
300401,2834,1586,3048,1920
6075075,2850,1903,3203,2110
