https://surfdrive.surf.nl/files/index.php/s/B7PEqFZSZZBPcW8/download?path=%2FData%2FInput%2FDatasets%2FBerend%2FImages&files=B_211.jpg,4607,3072
B_211,daylight,wood,"[130, 130, 130]","['4621545', '654126', '300124', '306201', '4212454', '614321']"
4621545,1851,2215,2129,2477
654126,2550,1230,2698,1426
300124,2106,993,2550,1445
306201,2742,1741,2901,1900
4212454,1954,1545,2098,1693
614321,2557,1456,2783,1648
