https://surfdrive.surf.nl/files/index.php/s/B7PEqFZSZZBPcW8/download?path=%2FData%2FInput%2FDatasets%2FBerend%2FImages&files=B_22.jpg,4608,3072
B_22,daylight,wood,"[130, 130, 130]","['4650630', '6252809', '4211054', '4548180', '4649749', '300401', '6075075', '4548180']"
4650630,3105,1396,3529,1774
6252809,1626,951,2990,1664
4211054,2094,1350,2529,1667
4548180,1054,1594,1370,1816
4548180,3303,1328,3581,1606
4649749,1266,1373,1464,1647
300401,2728,1380,3072,1702
6075075,2557,1673,2856,1908
