https://surfdrive.surf.nl/files/index.php/s/B7PEqFZSZZBPcW8/download?path=%2FData%2FInput%2FDatasets%2FBerend%2FImages&files=B_228.jpg,4608,3072
B_228,daylight,wood,"[130, 130, 130]","['6138173', '4210718', '4210718']"
6138173,1307,914,1484,1217
4210718,2408,1031,3159,1312
4210718,2632,1988,3205,2554
