https://surfdrive.surf.nl/files/index.php/s/B7PEqFZSZZBPcW8/download?path=%2FData%2FInput%2FDatasets%2FBerend%2FImages&files=B_259.jpg,4608,3072
B_259,daylight,wood,"[130, 130, 130]","['6025026', '6223631', '4211166', '4567338', '4211054']"
6025026,3176,1867,3331,2102
6223631,2135,1588,2257,1704
4211166,1709,1255,1951,1518
4567338,2224,1798,2386,1935
4211054,2158,1917,2447,2224
