https://surfdrive.surf.nl/files/index.php/s/B7PEqFZSZZBPcW8/download?path=%2FData%2FInput%2FDatasets%2FBerend%2FImages&files=B_254.jpg,4607,3072
B_254,daylight,wood,"[130, 130, 130]","['6025026', '6223631', '4211166']"
6025026,2479,2066,2707,2281
6223631,1992,735,2155,866
4211166,1783,1972,2034,2208
