https://surfdrive.surf.nl/files/index.php/s/B7PEqFZSZZBPcW8/download?path=%2FData%2FInput%2FDatasets%2FBerend%2FImages&files=B_267.jpg,4608,3072
B_267,daylight,wood,"[130, 130, 130]","['6025026', '6223631', '4211166', '4567338', '4211054', '6249125', '6225539', '4153825']"
6025026,2142,1229,2283,1376
6223631,2065,1392,2156,1471
4211166,1878,1473,2026,1648
4567338,2262,1911,2382,1984
4211054,2061,1813,2276,2027
6249125,1868,1787,1951,1858
6225539,1674,1294,1963,1709
4153825,1986,1593,2171,1803
