https://surfdrive.surf.nl/files/index.php/s/B7PEqFZSZZBPcW8/download?path=%2FData%2FInput%2FDatasets%2FBerend%2FImages&files=B_26.jpg,4608,3072
B_26,daylight,wood,"[130, 130, 130]","['4650630', '6252809', '4211054', '4548180', '4649749', '300401', '6075075', '4548180', '6151663']"
4650630,1590,1925,1734,2108
6252809,1716,1793,2773,2114
4211054,1986,2051,2175,2190
4548180,2704,2643,2893,2712
4548180,2175,994,2345,1126
4649749,2339,849,2452,1019
300401,1810,1333,2037,1472
6075075,2723,1604,2849,1768
6151663,2282,1359,2452,1485
