https://surfdrive.surf.nl/files/index.php/s/B7PEqFZSZZBPcW8/download?path=%2FData%2FInput%2FDatasets%2FBerend%2FImages&files=B_26.jpg,4607,3072
B_26,daylight,wood,"[130, 130, 130]","['4650630', '6252809', '4211054', '4548180', '4649749', '300401', '6075075', '4548180', '6151663']"
4650630,1588,1904,1759,2122
6252809,1707,1767,2780,2122
4211054,1966,1963,2181,2222
4548180,2718,2628,2929,2740
4548180,2187,975,2335,1160
4649749,2391,849,2472,1012
300401,1806,1319,2031,1493
6075075,2713,1585,2842,1782
6151663,2254,1337,2472,1508
