https://surfdrive.surf.nl/files/index.php/s/B7PEqFZSZZBPcW8/download?path=%2FData%2FInput%2FDatasets%2FBerend%2FImages&files=B_285.jpg,4608,3072
B_285,daylight,wood,"[130, 130, 130]","['4211614', '4121739', '300423', '300323', '6104154', '4211437']"
4211614,1127,1962,1246,2106
4121739,2270,1550,2401,1656
300423,2663,1481,2726,1569
300323,2819,1556,2950,1662
6104154,2170,1288,2295,1400
4211437,1901,1238,2008,1325
