https://surfdrive.surf.nl/files/index.php/s/B7PEqFZSZZBPcW8/download?path=%2FData%2FInput%2FDatasets%2FBerend%2FImages&files=B_299.jpg,4608,3072
B_299,daylight,wood,"[130, 130, 130]","['4211614', '4121739', '300423', '300323', '6104154', '4211437', '6069259', '4211614', '306223', '300421']"
4211614,1725,1930,1840,2054
4211614,2308,1608,2358,1736
4121739,2535,1782,2670,1869
300423,2428,1534,2558,1608
300323,1995,1115,2144,1216
6104154,2212,1479,2347,1572
4211437,2532,958,2634,1024
6069259,2310,991,2439,1069
306223,1730,1625,1825,1673
300421,2651,1087,2719,1168
