https://surfdrive.surf.nl/files/index.php/s/B7PEqFZSZZBPcW8/download?path=%2FData%2FInput%2FDatasets%2FBerend%2FImages&files=B_294.jpg,4607,3072
B_294,daylight,wood,"[130, 130, 130]","['4211614', '4121739', '300423', '300323', '6104154', '4211437', '6069259', '4211614', '306223']"
4211614,2505,1437,2676,1519
4211614,2161,1582,2316,1737
4121739,2124,1400,2265,1471
300423,1976,1626,2131,1759
300323,2283,1622,2472,1767
6104154,1821,1267,1957,1397
4211437,2577,1679,2707,1820
6069259,1889,1590,2048,1675
306223,2696,1603,2795,1678
