https://surfdrive.surf.nl/files/index.php/s/B7PEqFZSZZBPcW8/download?path=%2FData%2FInput%2FDatasets%2FBerend%2FImages&files=B_310.jpg,4607,3072
B_310,daylight,wood,"[130, 130, 130]","['4211412', '300123', '6249125']"
4211412,2082,2021,2164,2149
300123,2288,2412,2640,2760
6249125,2287,2089,2390,2176
