https://surfdrive.surf.nl/files/index.php/s/B7PEqFZSZZBPcW8/download?path=%2FData%2FInput%2FDatasets%2FBerend%2FImages&files=B_328.jpg,4608,3072
B_328,daylight,wood,"[130, 130, 130]","['6003007', '4153827', '4621545', '6073026', '300401']"
6003007,1615,1941,1813,2097
4153827,2254,1381,2797,1711
4621545,3033,1385,3262,1564
6073026,2701,697,2839,858
300401,1961,1150,2180,1320
