https://surfdrive.surf.nl/files/index.php/s/B7PEqFZSZZBPcW8/download?path=%2FData%2FInput%2FDatasets%2FBerend%2FImages&files=B_323.jpg,4607,3072
B_323,daylight,wood,"[130, 130, 130]","['6003007', '4153827', '4621545']"
6003007,3533,907,3715,1034
4153827,1873,1152,2315,1724
4621545,571,1343,920,1604
