https://surfdrive.surf.nl/files/index.php/s/B7PEqFZSZZBPcW8/download?path=%2FData%2FInput%2FDatasets%2FBerend%2FImages&files=B_321.jpg,4608,3072
B_321,daylight,wood,"[130, 130, 130]","['6003007', '4153827', '4621545']"
6003007,991,1140,1446,1687
4153827,2108,1243,2353,1545
4621545,3069,1297,3260,1503
