https://surfdrive.surf.nl/files/index.php/s/B7PEqFZSZZBPcW8/download?path=%2FData%2FInput%2FDatasets%2FBerend%2FImages&files=B_34.jpg,4608,3072
B_34,daylight,wood,"[130, 130, 130]","['306201', '4649749']"
306201,1991,1364,2091,1522
4649749,2387,1370,2520,1602
