https://surfdrive.surf.nl/files/index.php/s/B7PEqFZSZZBPcW8/download?path=%2FData%2FInput%2FDatasets%2FBerend%2FImages&files=B_341.jpg,4608,3072
B_341,daylight,wood,"[130, 130, 130]","['6003007', '4153827', '4621545', '6073026', '300401', '6074890', '4550325', '4118793', '4504369']"
6003007,2007,997,2147,1097
4153827,1766,1406,1970,1787
4621545,1993,1388,2197,1613
6073026,1904,1231,2049,1399
300401,1986,1752,2223,1877
6074890,2388,959,2527,1049
4550325,1808,1840,2062,2047
4118793,1759,1326,1908,1407
4504369,1822,1776,1967,1864
