https://surfdrive.surf.nl/files/index.php/s/B7PEqFZSZZBPcW8/download?path=%2FData%2FInput%2FDatasets%2FBerend%2FImages&files=B_356.jpg,4608,3072
B_356,daylight,wood,"[130, 130, 130]","['4639693', '4121967', '4157124', '4567338']"
4639693,1548,1108,2184,2053
4121967,1173,1114,1478,1332
4157124,1728,778,1881,1013
4567338,2542,1304,2701,1474
