https://surfdrive.surf.nl/files/index.php/s/B7PEqFZSZZBPcW8/download?path=%2FData%2FInput%2FDatasets%2FBerend%2FImages&files=B_35.jpg,4607,3072
B_35,daylight,wood,"[130, 130, 130]","['306201', '4649749']"
306201,2036,815,2175,994
4649749,2368,1991,2737,2084
