https://surfdrive.surf.nl/files/index.php/s/B7PEqFZSZZBPcW8/download?path=%2FData%2FInput%2FDatasets%2FBerend%2FImages&files=B_361.jpg,4608,3072
B_361,daylight,wood,"[130, 130, 130]",['4655172']
4655172,2112,1253,2422,1612
