https://surfdrive.surf.nl/files/index.php/s/B7PEqFZSZZBPcW8/download?path=%2FData%2FInput%2FDatasets%2FBerend%2FImages&files=B_374.jpg,4608,3072
B_374,daylight,wood,"[130, 130, 130]","['4655172', '300321', '4517992', '300821', '4558957']"
4655172,2262,1050,2668,1398
300321,1751,2575,2025,2730
4517992,1367,1250,1633,1449
300821,2247,1205,2846,1694
4558957,1929,857,2247,1065
