https://surfdrive.surf.nl/files/index.php/s/B7PEqFZSZZBPcW8/download?path=%2FData%2FInput%2FDatasets%2FBerend%2FImages&files=B_389.jpg,4608,3072
B_389,daylight,wood,"[130, 130, 130]","['4181144', '6238674', '6025026', '6074890', '4647553']"
4181144,1063,1262,1694,1931
6238674,1198,1086,1399,1267
6025026,2485,2329,2760,2595
6074890,1637,1488,1838,1669
4647553,2067,1919,2395,2214
