https://surfdrive.surf.nl/files/index.php/s/B7PEqFZSZZBPcW8/download?path=%2FData%2FInput%2FDatasets%2FBerend%2FImages&files=B_402.jpg,4608,3072
B_402,daylight,wood,"[130, 130, 130]","['4548180', '4651236', '4529240']"
4548180,1685,753,1894,1050
4651236,1437,2052,1813,2439
4529240,2806,1911,3077,2167
