https://surfdrive.surf.nl/files/index.php/s/B7PEqFZSZZBPcW8/download?path=%2FData%2FInput%2FDatasets%2FBerend%2FImages&files=B_407.jpg,4607,3072
B_407,daylight,wood,"[130, 130, 130]","['4548180', '4651236', '4529240', '4121739']"
4548180,2128,236,2440,446
4651236,3336,1025,3660,1362
4529240,736,2252,984,2532
4121739,3520,2074,3825,2507
