https://surfdrive.surf.nl/files/index.php/s/B7PEqFZSZZBPcW8/download?path=%2FData%2FInput%2FDatasets%2FBerend%2FImages&files=B_411.jpg,4607,3072
B_411,daylight,wood,"[130, 130, 130]","['4548180', '4651236', '4529240', '4121739', '4527943', '300401']"
4548180,1736,1754,2101,2029
4651236,2119,2203,2490,2444
4529240,2125,1858,2252,2044
4121739,1917,699,2220,1086
4527943,1522,1003,1835,1232
300401,2122,983,2493,1270
