https://surfdrive.surf.nl/files/index.php/s/B7PEqFZSZZBPcW8/download?path=%2FData%2FInput%2FDatasets%2FBerend%2FImages&files=B_423.jpg,4607,3072
B_423,daylight,wood,"[130, 130, 130]",['306201']
306201,2180,1476,2275,1581
