https://surfdrive.surf.nl/files/index.php/s/B7PEqFZSZZBPcW8/download?path=%2FData%2FInput%2FDatasets%2FBerend%2FImages&files=B_420.jpg,4608,3072
B_420,daylight,wood,"[130, 130, 130]","['6003007', '4153827', '300124']"
6003007,752,1861,910,1949
4153827,2538,2105,2987,2416
300124,2529,1555,2772,1963
