https://surfdrive.surf.nl/files/index.php/s/B7PEqFZSZZBPcW8/download?path=%2FData%2FInput%2FDatasets%2FBerend%2FImages&files=B_431.jpg,4608,3072
B_431,daylight,wood,"[130, 130, 130]","['306201', '4153825', '4647553']"
306201,2650,1609,2746,1713
4153825,1773,1361,1969,1517
4647553,2054,1139,2154,1280
