https://surfdrive.surf.nl/files/index.php/s/B7PEqFZSZZBPcW8/download?path=%2FData%2FInput%2FDatasets%2FBerend%2FImages&files=B_438.jpg,4608,3072
B_438,daylight,wood,"[130, 130, 130]","['306201', '4153825', '4647553', '306223', '6151663', '6004938']"
306201,969,1661,1102,1785
4153825,2800,1167,2989,1451
4647553,2662,1123,2787,1324
306223,2226,1249,2357,1335
6151663,2359,1592,2458,1801
6004938,3012,1246,3142,1408
