https://surfdrive.surf.nl/files/index.php/s/B7PEqFZSZZBPcW8/download?path=%2FData%2FInput%2FDatasets%2FBerend%2FImages&files=B_479.jpg,4607,3072
B_479,daylight,wood,"[130, 130, 130]","['6075079', '4211201', '4165967', '4647553', '4121967', '4211437']"
6075079,860,801,1155,996
4211201,2818,1138,3531,1424
4165967,2618,1381,3241,1823
4647553,3483,1190,3787,1395
4121967,3569,1471,3735,1837
4211437,2381,1238,2533,1561
