https://surfdrive.surf.nl/files/index.php/s/B7PEqFZSZZBPcW8/download?path=%2FData%2FInput%2FDatasets%2FBerend%2FImages&files=B_470.jpg,4608,3072
B_470,daylight,wood,"[130, 130, 130]","['6075079', '4211201', '4165967']"
6075079,2546,880,2774,962
4211201,2328,944,3047,1327
4165967,1417,1846,2073,2384
