https://surfdrive.surf.nl/files/index.php/s/B7PEqFZSZZBPcW8/download?path=%2FData%2FInput%2FDatasets%2FBerend%2FImages&files=B_480.jpg,4607,3072
B_480,daylight,wood,"[130, 130, 130]","['6075079', '4211201', '4165967', '4647553', '4121967', '4211437', '4143562']"
6075079,1736,1719,2032,1848
4211201,2347,1565,3012,2177
4165967,1516,1880,2188,2554
4647553,3174,1756,3529,2022
4121967,1727,1051,2029,1295
4211437,2172,1869,2431,2228
4143562,2349,1253,2737,1527
