https://surfdrive.surf.nl/files/index.php/s/B7PEqFZSZZBPcW8/download?path=%2FData%2FInput%2FDatasets%2FBerend%2FImages&files=B_482.jpg,4607,3072
B_482,daylight,wood,"[130, 130, 130]","['6075079', '4211201', '4165967', '4647553', '4121967', '4211437', '4143562']"
6075079,2439,1119,2676,1374
4211201,1228,1452,1876,1881
4165967,2662,1337,3028,1759
4647553,1585,1778,1899,1992
4121967,2713,823,3009,1093
4211437,1174,2011,1607,2411
4143562,1607,1967,2029,2389
