https://surfdrive.surf.nl/files/index.php/s/B7PEqFZSZZBPcW8/download?path=%2FData%2FInput%2FDatasets%2FBerend%2FImages&files=B_482.jpg,4608,3072
B_482,daylight,wood,"[130, 130, 130]","['6075079', '4211201', '4165967', '4647553', '4121967', '4211437', '4143562']"
6075079,2445,1116,2687,1364
4211201,1244,1429,1882,1890
4165967,2643,1347,3026,1762
4647553,1586,1777,1905,2027
4121967,2700,844,3012,981
4211437,1157,2127,1490,2414
4143562,1604,1961,2032,2378
