https://surfdrive.surf.nl/files/index.php/s/B7PEqFZSZZBPcW8/download?path=%2FData%2FInput%2FDatasets%2FBerend%2FImages&files=B_507.jpg,4608,3072
B_507,daylight,wood,"[130, 130, 130]","['6075075', '4649749', '300323', '4211149', '4621545', '300424', '6244886', '300124']"
6075075,756,1241,1016,1441
4649749,694,1184,943,1287
300323,1762,1355,2113,1615
4211149,2156,1446,2427,1721
4621545,3368,1122,3614,1374
300424,1791,1641,2078,1932
6244886,1764,1161,2108,1416
300124,2486,1669,2870,2200
