https://surfdrive.surf.nl/files/index.php/s/B7PEqFZSZZBPcW8/download?path=%2FData%2FInput%2FDatasets%2FBerend%2FImages&files=B_508.jpg,4608,3072
B_508,daylight,wood,"[130, 130, 130]","['6075075', '4649749', '300323', '4211149', '4621545', '300424', '6244886', '300124']"
6075075,2160,1658,2352,1865
4649749,2783,1365,3028,1543
300323,1832,1387,2002,1561
4211149,1218,1180,1484,1380
4621545,2247,1406,2498,1535
300424,1773,1743,1984,1979
6244886,1595,1195,1754,1395
300124,2609,1543,3157,1939
