https://surfdrive.surf.nl/files/index.php/s/B7PEqFZSZZBPcW8/download?path=%2FData%2FInput%2FDatasets%2FBerend%2FImages&files=B_517.jpg,4608,3072
B_517,daylight,wood,"[130, 130, 130]","['300421', '4157124']"
300421,1971,1203,2216,1437
4157124,2387,1481,2600,1683
