https://surfdrive.surf.nl/files/index.php/s/B7PEqFZSZZBPcW8/download?path=%2FData%2FInput%2FDatasets%2FBerend%2FImages&files=B_511.jpg,4607,3072
B_511,daylight,wood,"[130, 130, 130]","['6075075', '4649749', '300323', '4211149', '4621545', '300424', '6244886', '300124', '300424']"
6075075,525,1976,819,2186
4649749,1805,1282,2045,1408
300323,2383,1342,2711,1549
4211149,2655,1664,2902,1859
4621545,2538,1230,2721,1375
300424,2293,1585,2545,1799
300424,1794,1428,2061,1561
6244886,2895,1772,3281,2069
300124,2163,1060,2505,1380
