https://surfdrive.surf.nl/files/index.php/s/B7PEqFZSZZBPcW8/download?path=%2FData%2FInput%2FDatasets%2FBerend%2FImages&files=B_510.jpg,4608,3072
B_510,daylight,wood,"[130, 130, 130]","['6075075', '4649749', '300323', '4211149', '4621545', '300424', '6244886', '300124', '300424']"
6075075,1661,1685,1871,1947
4649749,2883,1816,3051,2083
300323,1834,1148,2092,1312
4211149,2129,1279,2412,1545
4621545,1210,1267,1465,1500
300424,2465,1324,2723,1599
300424,2695,1558,2850,1804
6244886,2223,1541,2567,1849
300124,1854,1320,2137,1812
