https://surfdrive.surf.nl/files/index.php/s/B7PEqFZSZZBPcW8/download?path=%2FData%2FInput%2FDatasets%2FBerend%2FImages&files=B_511.jpg,4608,3072
B_511,daylight,wood,"[130, 130, 130]","['6075075', '4649749', '300323', '4211149', '4621545', '300424', '6244886', '300124', '300424']"
6075075,533,1993,828,2173
4649749,1778,1274,2027,1398
300323,2381,1345,2710,1603
4211149,2542,1218,2720,1456
4621545,1797,1431,2046,1555
300424,2286,1578,2539,1827
300424,2636,1670,2895,1836
6244886,2941,1758,3240,2127
300124,2156,1057,2470,1481
