https://surfdrive.surf.nl/files/index.php/s/B7PEqFZSZZBPcW8/download?path=%2FData%2FInput%2FDatasets%2FBerend%2FImages&files=B_510.jpg,4608,3072
B_510,daylight,wood,"[130, 130, 130]","['6075075', '4649749', '300323', '4211149', '4621545', '300424', '6244886', '300124', '300424']"
6075075,1647,1689,1804,1977
4649749,2886,1818,3041,2071
300323,1842,1153,2081,1303
4211149,2146,1298,2404,1523
4621545,1225,1277,1478,1455
300424,2472,1335,2718,1607
300424,2708,1546,2847,1827
6244886,2277,1497,2502,1844
300124,1863,1324,2116,1762
