https://surfdrive.surf.nl/files/index.php/s/B7PEqFZSZZBPcW8/download?path=%2FData%2FInput%2FDatasets%2FBerend%2FImages&files=B_520.jpg,4608,3072
B_520,daylight,wood,"[130, 130, 130]",['6035291']
6035291,2124,1260,2365,1509
