https://surfdrive.surf.nl/files/index.php/s/B7PEqFZSZZBPcW8/download?path=%2FData%2FInput%2FDatasets%2FBerend%2FImages&files=B_524.jpg,4608,3072
B_524,daylight,wood,"[130, 130, 130]","['6035291', '4567338']"
6035291,1576,1890,1771,2157
4567338,2638,954,2811,1096
