https://surfdrive.surf.nl/files/index.php/s/B7PEqFZSZZBPcW8/download?path=%2FData%2FInput%2FDatasets%2FBerend%2FImages&files=B_526.jpg,4608,3072
B_526,daylight,wood,"[130, 130, 130]","['6035291', '4567338', '6177697']"
6035291,1664,1261,1941,1415
4567338,2192,1732,2383,1930
6177697,2287,1205,2619,1735
