https://surfdrive.surf.nl/files/index.php/s/B7PEqFZSZZBPcW8/download?path=%2FData%2FInput%2FDatasets%2FBerend%2FImages&files=B_549.jpg,4607,3072
B_549,daylight,wood,"[130, 130, 130]","['4504369', '4211149', '4118793']"
4504369,1422,1482,1605,1706
4211149,1957,922,2260,1349
4118793,2347,1295,2583,1595
