https://surfdrive.surf.nl/files/index.php/s/B7PEqFZSZZBPcW8/download?path=%2FData%2FInput%2FDatasets%2FBerend%2FImages&files=B_551.jpg,4608,3072
B_551,daylight,wood,"[130, 130, 130]","['4504369', '4211149', '4118793']"
4504369,1548,486,1754,726
4211149,2018,1260,2369,1583
4118793,2491,2375,2737,2569
