https://surfdrive.surf.nl/files/index.php/s/B7PEqFZSZZBPcW8/download?path=%2FData%2FInput%2FDatasets%2FBerend%2FImages&files=B_578.jpg,4608,3072
B_578,daylight,wood,"[130, 130, 130]","['300401', '654126']"
300401,939,1503,1309,1852
654126,3372,1123,3618,1413
