https://surfdrive.surf.nl/files/index.php/s/B7PEqFZSZZBPcW8/download?path=%2FData%2FInput%2FDatasets%2FBerend%2FImages&files=B_58.jpg,4607,3072
B_58,daylight,wood,"[130, 130, 130]","['6075079', '4520632', '300421', '6073026', '365901']"
6075079,1814,600,1980,818
4520632,2637,1420,3250,2035
300421,2319,1174,2666,1478
6073026,1817,1180,2006,1403
365901,2142,2204,2834,2606
