https://surfdrive.surf.nl/files/index.php/s/B7PEqFZSZZBPcW8/download?path=%2FData%2FInput%2FDatasets%2FBerend%2FImages&files=B_5.jpg,4608,3072
B_5,daylight,wood,"[130, 130, 130]","['4650630', '6252809']"
4650630,2483,1331,2824,1775
6252809,1502,1128,2586,2187
