https://surfdrive.surf.nl/files/index.php/s/B7PEqFZSZZBPcW8/download?path=%2FData%2FInput%2FDatasets%2FBerend%2FImages&files=B_605.jpg,4608,3072
B_605,daylight,wood,"[130, 130, 130]","['6238674', '300323', '4153825', '4211054']"
6238674,3155,1241,3318,1425
300323,2653,1243,3018,1534
4153825,2419,883,2759,1162
4211054,2035,1629,2389,1913
