https://surfdrive.surf.nl/files/index.php/s/B7PEqFZSZZBPcW8/download?path=%2FData%2FInput%2FDatasets%2FBerend%2FImages&files=B_60.jpg,4607,3072
B_60,daylight,wood,"[130, 130, 130]","['6075079', '4520632', '300421', '6073026', '365901', '6062574']"
6075079,2432,1679,2677,1791
4520632,1363,1537,1875,1838
300421,1683,1376,1942,1634
6073026,2205,1352,2387,1575
365901,2357,1732,2807,2159
6062574,3096,1765,3219,1964
