https://surfdrive.surf.nl/files/index.php/s/B7PEqFZSZZBPcW8/download?path=%2FData%2FInput%2FDatasets%2FBerend%2FImages&files=B_604.jpg,4608,3072
B_604,daylight,wood,"[130, 130, 130]","['6238674', '300323', '4153825', '4211054']"
6238674,2497,1871,2673,2090
300323,1614,714,1880,1027
4153825,1983,1234,2253,1576
4211054,2458,1062,2796,1321
