https://surfdrive.surf.nl/files/index.php/s/B7PEqFZSZZBPcW8/download?path=%2FData%2FInput%2FDatasets%2FBerend%2FImages&files=B_600.jpg,4608,3072
B_600,daylight,wood,"[130, 130, 130]","['6238674', '300323', '4153825']"
6238674,1066,1008,1218,1204
300323,2954,1498,3372,1887
4153825,3105,1850,3450,2224
