https://surfdrive.surf.nl/files/index.php/s/B7PEqFZSZZBPcW8/download?path=%2FData%2FInput%2FDatasets%2FBerend%2FImages&files=B_618.jpg,4608,3072
B_618,daylight,wood,"[130, 130, 130]","['6238674', '300323', '4153825', '4211054', '6062574', '623224', '6249125', '6223631', '4647553']"
6238674,1846,914,2044,1114
300323,1964,1607,2261,1953
4153825,1662,1736,2006,2127
4211054,1723,1247,2046,1606
6062574,2148,757,2360,999
623224,2057,2199,2450,2662
6249125,2517,1692,2663,1819
6223631,2489,1529,2646,1660
4647553,2552,1867,2777,2196
