https://surfdrive.surf.nl/files/index.php/s/B7PEqFZSZZBPcW8/download?path=%2FData%2FInput%2FDatasets%2FBerend%2FImages&files=B_618.jpg,4608,3072
B_618,daylight,wood,"[130, 130, 130]","['6238674', '300323', '4153825', '4211054', '6062574', '623224', '6249125', '6223631', '4647553']"
6238674,1851,916,2039,1108
300323,1964,1599,2274,1837
4153825,1677,1739,2014,1950
4211054,1725,1302,2047,1591
6062574,2158,762,2358,914
623224,2062,2253,2421,2561
6249125,2519,1699,2665,1815
6223631,2495,1527,2644,1656
4647553,2570,1877,2744,2117
