https://surfdrive.surf.nl/files/index.php/s/B7PEqFZSZZBPcW8/download?path=%2FData%2FInput%2FDatasets%2FBerend%2FImages&files=B_638.jpg,4608,3072
B_638,daylight,wood,"[130, 130, 130]","['4118793', '4114319', '4558957', '4539099', '6104154']"
4118793,2493,2172,2635,2404
4114319,1609,2361,2294,2857
4558957,2281,944,2669,1270
4539099,2123,556,2299,707
6104154,1542,1117,1846,1399
