https://surfdrive.surf.nl/files/index.php/s/B7PEqFZSZZBPcW8/download?path=%2FData%2FInput%2FDatasets%2FBerend%2FImages&files=B_644.jpg,4608,3072
B_644,daylight,wood,"[130, 130, 130]","['4118793', '4114319', '4558957', '4539099', '6104154', '4109995', '4558957']"
4118793,1828,881,1994,1032
4114319,1913,1317,2157,1826
4558957,2086,1684,2566,2157
4558957,2171,1213,2626,1656
4539099,2216,1120,2376,1251
6104154,2573,1590,2742,1842
4109995,1923,1166,2164,1392
