https://surfdrive.surf.nl/files/index.php/s/B7PEqFZSZZBPcW8/download?path=%2FData%2FInput%2FDatasets%2FBerend%2FImages&files=B_649.jpg,4608,3072
B_649,daylight,wood,"[130, 130, 130]","['4118793', '4114319', '4558957', '4539099', '6104154', '4109995', '4558957', '4529240', '4157124']"
4118793,913,1197,1055,1351
4114319,1599,1141,2056,1401
4558957,1160,1123,1521,1506
4558957,1736,807,2073,1058
4539099,1438,2335,1575,2467
6104154,1493,1508,1741,1670
4109995,1266,616,1429,760
4529240,3544,1834,3712,1996
4157124,2134,584,2287,744
