https://surfdrive.surf.nl/files/index.php/s/B7PEqFZSZZBPcW8/download?path=%2FData%2FInput%2FDatasets%2FBerend%2FImages&files=B_64.jpg,4608,3072
B_64,daylight,wood,"[130, 130, 130]","['6075079', '4520632', '300421', '6073026', '365901', '6062574', '6238674']"
6075079,1185,834,1385,1137
4520632,1605,1375,1899,1964
300421,3079,1038,3388,1379
6073026,1166,1707,1395,1977
365901,2177,1711,2778,2154
6062574,1428,1472,1596,1679
6238674,2392,2038,2600,2254
