https://surfdrive.surf.nl/files/index.php/s/B7PEqFZSZZBPcW8/download?path=%2FData%2FInput%2FDatasets%2FBerend%2FImages&files=B_665.jpg,4608,3072
B_665,daylight,wood,"[130, 130, 130]","['6223631', '4160403', '4527943', '4650630']"
6223631,2321,709,2439,872
4160403,3312,1309,3475,2049
4527943,1537,583,1788,820
4650630,3120,1968,3438,2197
