https://surfdrive.surf.nl/files/index.php/s/B7PEqFZSZZBPcW8/download?path=%2FData%2FInput%2FDatasets%2FBerend%2FImages&files=B_671.jpg,4608,3072
B_671,daylight,wood,"[130, 130, 130]","['6223631', '4160403', '4527943', '4650630', '300424', '300321']"
6223631,2512,1432,2627,1576
4160403,1853,1644,2220,2551
4527943,3256,1260,3522,1590
4650630,943,903,1123,1245
300424,1909,1320,2254,1633
300321,1551,1752,1904,2108
