https://surfdrive.surf.nl/files/index.php/s/B7PEqFZSZZBPcW8/download?path=%2FData%2FInput%2FDatasets%2FBerend%2FImages&files=B_682.jpg,4608,3072
B_682,daylight,wood,"[130, 130, 130]","['365901', '4567338', '4121967']"
365901,1722,1242,2321,1561
4567338,2328,1524,2439,1694
4121967,2343,1102,2654,1287
