https://surfdrive.surf.nl/files/index.php/s/B7PEqFZSZZBPcW8/download?path=%2FData%2FInput%2FDatasets%2FBerend%2FImages&files=B_686.jpg,4608,3072
B_686,daylight,wood,"[130, 130, 130]","['365901', '4567338', '4121967', '6223631']"
365901,2352,1417,2951,1821
4567338,2428,1034,2561,1190
4121967,1749,2070,2099,2331
6223631,1414,1472,1552,1589
