https://surfdrive.surf.nl/files/index.php/s/B7PEqFZSZZBPcW8/download?path=%2FData%2FInput%2FDatasets%2FBerend%2FImages&files=B_688.jpg,4608,3072
B_688,daylight,wood,"[130, 130, 130]","['365901', '4567338', '4121967', '6223631', '4212454']"
365901,1857,853,2470,1116
4567338,2199,1671,2447,1860
4121967,2144,1970,2281,2171
6223631,2183,1057,2494,1270
4212454,2034,1580,2175,1813
