https://surfdrive.surf.nl/files/index.php/s/B7PEqFZSZZBPcW8/download?path=%2FData%2FInput%2FDatasets%2FBerend%2FImages&files=B_687.jpg,4607,3072
B_687,daylight,wood,"[130, 130, 130]","['365901', '4567338', '4121967', '6223631', '4212454']"
365901,2272,1648,2816,2085
4567338,1686,748,1836,926
4121967,3138,1356,3390,1663
6223631,1440,601,1592,756
4212454,3179,1796,3323,1948
