https://surfdrive.surf.nl/files/index.php/s/B7PEqFZSZZBPcW8/download?path=%2FData%2FInput%2FDatasets%2FBerend%2FImages&files=B_694.jpg,4607,3072
B_694,daylight,wood,"[130, 130, 130]","['365901', '4567338', '4121967', '6223631', '4212454', '4153825', '4504381']"
365901,2058,1371,2482,1746
4567338,2453,2522,2639,2705
4121967,3289,2218,3449,2454
6223631,711,813,847,970
4212454,2846,2116,2991,2286
4153825,2676,1162,3004,1419
4504381,2569,1122,2689,1248
