https://surfdrive.surf.nl/files/index.php/s/B7PEqFZSZZBPcW8/download?path=%2FData%2FInput%2FDatasets%2FBerend%2FImages&files=B_690.jpg,4607,3072
B_690,daylight,wood,"[130, 130, 130]","['365901', '4567338', '4121967', '6223631', '4212454', '4153825']"
365901,1049,1422,1269,1594
4567338,1566,1153,1946,1544
4121967,2442,1419,2568,1590
6223631,2857,1115,3058,1415
4212454,2344,1687,2697,2272
4153825,3423,1744,3598,1930
