https://surfdrive.surf.nl/files/index.php/s/B7PEqFZSZZBPcW8/download?path=%2FData%2FInput%2FDatasets%2FBerend%2FImages&files=B_714.jpg,4608,3072
B_714,daylight,wood,"[130, 130, 130]",['306201']
306201,2187,1518,2318,1648
