https://surfdrive.surf.nl/files/index.php/s/B7PEqFZSZZBPcW8/download?path=%2FData%2FInput%2FDatasets%2FBerend%2FImages&files=B_725.jpg,4608,3072
B_725,daylight,wood,"[130, 130, 130]","['306201', '4527943', '6004938', '4121967']"
306201,1792,1669,2032,1904
4527943,2671,1760,2968,2033
6004938,1438,1034,1664,1305
4121967,1914,1732,2258,1987
