https://surfdrive.surf.nl/files/index.php/s/B7PEqFZSZZBPcW8/download?path=%2FData%2FInput%2FDatasets%2FBerend%2FImages&files=B_758.jpg,4608,3072
B_758,daylight,wood,"[130, 130, 130]","['6035291', '4118793', '4109995', '6022064']"
6035291,1736,1929,2147,2100
4118793,2960,685,3236,1007
4109995,1687,1260,2143,1696
6022064,2442,1516,3105,1762
