https://surfdrive.surf.nl/files/index.php/s/B7PEqFZSZZBPcW8/download?path=%2FData%2FInput%2FDatasets%2FBerend%2FImages&files=B_758.jpg,4608,3072
B_758,daylight,wood,"[130, 130, 130]","['6035291', '4118793', '4109995', '6022064']"
6035291,1745,1926,2159,2118
4118793,2924,679,3234,989
4109995,1684,1259,2156,1690
6022064,2446,1494,3099,1791
