https://surfdrive.surf.nl/files/index.php/s/B7PEqFZSZZBPcW8/download?path=%2FData%2FInput%2FDatasets%2FBerend%2FImages&files=B_755.jpg,4608,3072
B_755,daylight,wood,"[130, 130, 130]","['6035291', '4118793', '4109995']"
6035291,2370,1630,2609,2024
4118793,2221,962,2512,1225
4109995,1725,1402,2147,1841
