https://surfdrive.surf.nl/files/index.php/s/B7PEqFZSZZBPcW8/download?path=%2FData%2FInput%2FDatasets%2FBerend%2FImages&files=B_764.jpg,4608,3072
B_764,daylight,wood,"[130, 130, 130]","['6035291', '4118793', '4109995', '6022064', '6249125', '4539099']"
6035291,2278,618,2411,771
4118793,1971,962,2084,1101
4109995,1822,821,1988,1032
6022064,1418,1080,1753,1182
6249125,2086,1004,2214,1108
4539099,1808,1225,1960,1292
