https://surfdrive.surf.nl/files/index.php/s/B7PEqFZSZZBPcW8/download?path=%2FData%2FInput%2FDatasets%2FBerend%2FImages&files=B_760.jpg,4607,3072
B_760,daylight,wood,"[130, 130, 130]","['6035291', '4118793', '4109995', '6022064', '6249125']"
6035291,1361,1219,1745,1438
4118793,2913,603,3104,925
4109995,1693,1939,2104,2359
6022064,1017,1519,1655,1823
6249125,2507,1620,2745,1728
