https://surfdrive.surf.nl/files/index.php/s/B7PEqFZSZZBPcW8/download?path=%2FData%2FInput%2FDatasets%2FBerend%2FImages&files=B_761.jpg,4608,3072
B_761,daylight,wood,"[130, 130, 130]","['6035291', '4118793', '4109995', '6022064', '6249125']"
6035291,1698,1224,1844,1396
4118793,2088,1195,2217,1353
4109995,1472,1221,1681,1416
6022064,1738,1479,2062,1645
6249125,2454,1479,2549,1568
