https://surfdrive.surf.nl/files/index.php/s/B7PEqFZSZZBPcW8/download?path=%2FData%2FInput%2FDatasets%2FBerend%2FImages&files=B_807.jpg,4608,3072
B_807,daylight,wood,"[130, 130, 130]","['614321', '4550348']"
614321,2077,1309,2306,1605
4550348,1773,1324,1973,1657
