https://surfdrive.surf.nl/files/index.php/s/B7PEqFZSZZBPcW8/download?path=%2FData%2FInput%2FDatasets%2FBerend%2FImages&files=B_809.jpg,4608,3072
B_809,daylight,wood,"[130, 130, 130]","['614321', '4550348']"
614321,2047,966,2358,1139
4550348,2107,1379,2410,1751
