https://surfdrive.surf.nl/files/index.php/s/B7PEqFZSZZBPcW8/download?path=%2FData%2FInput%2FDatasets%2FBerend%2FImages&files=B_812.jpg,4608,3072
B_812,daylight,wood,"[130, 130, 130]","['614321', '4550348', '6104154']"
614321,2075,1380,2285,1583
4550348,2289,926,2498,1022
6104154,1623,1094,1846,1241
