https://surfdrive.surf.nl/files/index.php/s/B7PEqFZSZZBPcW8/download?path=%2FData%2FInput%2FDatasets%2FBerend%2FImages&files=B_813.jpg,4607,3072
B_813,daylight,wood,"[130, 130, 130]","['614321', '4550348', '6104154', '4109995']"
614321,2360,1273,2628,1510
4550348,2042,958,2218,1092
6104154,1959,1118,2104,1304
4109995,1733,1046,1934,1257
