https://surfdrive.surf.nl/files/index.php/s/B7PEqFZSZZBPcW8/download?path=%2FData%2FInput%2FDatasets%2FBerend%2FImages&files=B_825.jpg,4608,3072
B_825,daylight,parquet_dark_brown,"[120, 120, 120]","['6225539', '4181134', '4655172', '623224', '4143562', '6028324', '6244886', '4165967', '4655172', '4567338', '300401']"
6225539,2173,1717,2724,2002
4181134,2550,1054,2754,1454
4655172,2069,1332,2469,1517
4655172,2154,1528,2513,1768
623224,1643,1321,1825,1483
4143562,2780,1539,3009,1717
6028324,1791,1868,1965,2039
6244886,2802,1350,3028,1580
4165967,1865,1487,2136,1794
4567338,2080,1820,2191,1983
300401,1440,1273,1584,1424
