https://surfdrive.surf.nl/files/index.php/s/B7PEqFZSZZBPcW8/download?path=%2FData%2FInput%2FDatasets%2FBerend%2FImages&files=B_837.jpg,4608,3072
B_837,daylight,parquet_dark_brown,"[120, 120, 120]","['6225539', '4181134', '4655172', '623224', '4143562', '6028324', '6244886']"
6225539,1973,1176,2373,1479
4181134,2742,1190,2853,1642
4655172,1840,1553,2188,1768
623224,2454,1057,2639,1183
4143562,2417,1620,2535,1820
6028324,1515,1975,1662,2071
6244886,2188,1346,2461,1509
