https://surfdrive.surf.nl/files/index.php/s/B7PEqFZSZZBPcW8/download?path=%2FData%2FInput%2FDatasets%2FBerend%2FImages&files=B_845.jpg,4608,3072
B_845,daylight,parquet_dark_brown,"[120, 120, 120]","['6225539', '4181134', '4520632', '4639693', '300321', '6177697', '654126', '4153827', '4121739', '4550325', '6223631', '4153825']"
6225539,1917,1365,2321,1783
4181134,1573,1661,2195,1976
4520632,3350,721,3690,1025
4639693,1843,732,2524,1054
300321,1225,2116,1506,2401
6177697,2495,1461,2887,1639
654126,2417,623,2537,768
4153827,1221,969,1547,1302
4121739,1629,1372,1736,1572
4550325,2806,1350,3017,1502
6223631,1788,1469,1880,1565
4153825,3068,1650,3287,1883
