https://surfdrive.surf.nl/files/index.php/s/B7PEqFZSZZBPcW8/download?path=%2FData%2FInput%2FDatasets%2FBerend%2FImages&files=B_843.jpg,4608,3072
B_843,daylight,parquet_dark_brown,"[120, 120, 120]","['6225539', '4181134', '4520632', '4639693', '300321', '6177697', '654126', '4153827', '4121739', '4550325', '6223631', '4153825']"
6225539,2052,1637,2672,1869
4181134,2582,1671,3059,2224
4520632,2026,1137,2293,1501
4639693,2578,947,3289,1454
300321,1336,1376,1604,1641
6177697,2218,1407,2582,1654
654126,2905,1026,3028,1114
4153827,2350,1503,2786,1797
4121739,2189,1846,2384,2085
4550325,3013,1570,3243,1757
6223631,860,1407,992,1518
4153825,1779,1093,2015,1339
