https://surfdrive.surf.nl/files/index.php/s/B7PEqFZSZZBPcW8/download?path=%2FData%2FInput%2FDatasets%2FBerend%2FImages&files=B_855.jpg,4608,3072
B_855,daylight,parquet_dark_brown,"[120, 120, 120]","['6225539', '4181134', '4520632', '4639693', '300321', '6177697', '654126', '4153827']"
6225539,1391,1554,1987,1734
4181134,1735,961,2191,1400
4520632,2397,1174,2722,1541
4639693,2004,925,2512,1544
300321,2332,820,2525,1016
6177697,2364,1023,2607,1200
654126,1597,1029,1709,1141
4153827,1938,810,2312,1075
