https://surfdrive.surf.nl/files/index.php/s/B7PEqFZSZZBPcW8/download?path=%2FData%2FInput%2FDatasets%2FBerend%2FImages&files=B_863.jpg,4608,3072
B_863,daylight,parquet_dark_brown,"[120, 120, 120]","['4517992', '300121', '6022023', '300821', '300123', '6028324', '4143562', '6244886', '6022064', '4655172', '4118793', '306223', '4527943']"
4517992,2070,1586,2308,1833
300121,1740,1495,2105,1720
6022023,2936,967,3157,1134
300821,2567,1332,3151,1665
300123,2113,1425,2434,1744
6028324,2454,1248,2615,1388
4143562,1284,1592,1484,1764
6244886,716,1025,937,1195
6022064,2253,1747,2528,1886
4655172,2396,1608,2777,1882
4118793,3321,1380,3438,1526
306223,2570,1821,2698,1951
4527943,2412,1476,2578,1629
