https://surfdrive.surf.nl/files/index.php/s/B7PEqFZSZZBPcW8/download?path=%2FData%2FInput%2FDatasets%2FBerend%2FImages&files=B_86.jpg,4608,3072
B_86,daylight,wood,"[130, 130, 130]",['300124']
300124,2030,982,2543,1419
