https://surfdrive.surf.nl/files/index.php/s/B7PEqFZSZZBPcW8/download?path=%2FData%2FInput%2FDatasets%2FBerend%2FImages&files=B_865.jpg,4608,3072
B_865,daylight,parquet_dark_brown,"[120, 120, 120]","['4517992', '300121', '6022023', '300821', '300123', '6028324', '4143562', '6244886', '6022064', '4655172', '4118793', '306223']"
4517992,2025,956,2191,1075
300121,1625,1480,1980,1657
6022023,2976,754,3105,910
300821,1758,906,2365,969
300123,2173,1054,2498,1291
6028324,1603,1017,1695,1113
4143562,1184,2150,1307,2261
6244886,2210,1343,2321,1465
6022064,1914,1643,2139,1761
4655172,2069,1491,2410,1654
4118793,1394,1282,1456,1360
306223,2163,1715,2239,1771
