https://surfdrive.surf.nl/files/index.php/s/B7PEqFZSZZBPcW8/download?path=%2FData%2FInput%2FDatasets%2FBerend%2FImages&files=B_860.jpg,4608,3072
B_860,daylight,parquet_dark_brown,"[120, 120, 120]","['6225539', '4181134', '4520632', '4639693', '300321', '6177697', '654126']"
6225539,2518,1734,2874,2040
4181134,2369,1418,3040,1794
4520632,1563,1633,1698,1899
4639693,2035,1204,2270,1605
300321,2940,1111,3118,1233
6177697,1478,958,1988,1262
654126,1294,641,1404,700
