https://surfdrive.surf.nl/files/index.php/s/B7PEqFZSZZBPcW8/download?path=%2FData%2FInput%2FDatasets%2FBerend%2FImages&files=B_899.jpg,4608,3072
B_899,daylight,parquet_dark_brown,"[120, 120, 120]","['4165967', '623224', '6075075', '6225539', '4504369', '6252809', '4181135', '4211511', '4181134']"
4165967,1642,959,1720,1050
623224,1905,918,2608,1165
6075075,1570,1225,1727,1333
6225539,1577,1291,1912,1514
4504369,1901,1211,2093,1615
6252809,2176,1089,2528,1482
4181135,2960,1124,3137,1333
4211511,2427,1639,2559,1771
4181134,1957,1681,2155,2154
