https://surfdrive.surf.nl/files/index.php/s/B7PEqFZSZZBPcW8/download?path=%2FData%2FInput%2FDatasets%2FBerend%2FImages&files=B_897.jpg,4608,3072
B_897,daylight,parquet_dark_brown,"[120, 120, 120]","['4165967', '623224', '6075075', '6225539', '4504369', '6252809', '4181135', '4211511', '4181134']"
4165967,1512,1467,1740,1797
623224,1767,1441,1996,1657
6075075,1410,1664,1509,1769
6225539,1827,1754,2325,1986
4504369,2100,720,2220,845
6252809,1595,1339,2371,1531
4181135,1706,1646,2224,1943
4211511,1452,1328,1589,1440
4181134,1971,1784,2502,2080
