https://surfdrive.surf.nl/files/index.php/s/B7PEqFZSZZBPcW8/download?path=%2FData%2FInput%2FDatasets%2FBerend%2FImages&files=B_890.jpg,4608,3072
B_890,daylight,parquet_dark_brown,"[120, 120, 120]","['4165967', '623224', '6075075', '6225539', '4504369', '6252809', '4181135', '4211511', '4181134', '4529240', '4550348', '306223']"
4165967,2328,807,2674,1062
623224,2237,1135,2410,1299
6075075,2036,1673,2200,1783
6225539,2792,1272,3147,1546
4504369,1718,1415,1804,1475
6252809,1882,1333,2442,1776
4181135,2283,1415,2625,1753
4211511,3275,1436,3393,1546
4181134,2428,1090,2628,1309
4529240,1617,1646,1763,1764
4550348,1745,1283,1900,1338
306223,1777,1338,1863,1429
