https://surfdrive.surf.nl/files/index.php/s/B7PEqFZSZZBPcW8/download?path=%2FData%2FInput%2FDatasets%2FBerend%2FImages&files=B_899.jpg,4608,3072
B_899,daylight,parquet_dark_brown,"[120, 120, 120]","['4165967', '623224', '6075075', '6225539', '4504369', '6252809', '4181135', '4211511', '4181134']"
4165967,1595,1306,1873,1450
623224,2991,1154,3124,1250
6075075,1654,973,1695,1028
6225539,1932,1232,2110,1572
4504369,1595,1247,1692,1306
6252809,1932,936,2554,1102
4181135,1973,1683,2143,2065
4211511,2472,1676,2558,1746
4181134,2195,1132,2472,1409
