https://surfdrive.surf.nl/files/index.php/s/B7PEqFZSZZBPcW8/download?path=%2FData%2FInput%2FDatasets%2FBerend%2FImages&files=B_896.jpg,4608,3072
B_896,daylight,parquet_dark_brown,"[120, 120, 120]","['4165967', '623224', '6075075', '6225539', '4504369', '6252809', '4181135', '4211511', '4181134', '4529240']"
4165967,1560,775,1875,961
623224,2112,911,2297,1073
6075075,1931,541,2051,628
6225539,1755,1568,2227,1725
4504369,1579,746,1670,808
6252809,1711,1184,2379,1525
4181135,1734,1664,2220,1912
4211511,3099,1357,3209,1490
4181134,2258,1236,2680,1565
4529240,2171,2304,2310,2434
