https://surfdrive.surf.nl/files/index.php/s/B7PEqFZSZZBPcW8/download?path=%2FData%2FInput%2FDatasets%2FBerend%2FImages&files=B_901.jpg,4608,3072
B_901,daylight,parquet_dark_brown,"[120, 120, 120]","['4165967', '623224', '6075075', '6225539', '4504369', '6252809', '4181135', '4211511']"
4165967,1773,1768,2239,2108
623224,1751,1316,1907,1449
6075075,1788,2086,1929,2219
6225539,2343,1945,2802,2101
4504369,1423,1154,1492,1214
6252809,1716,1212,2447,1289
4181135,2132,1273,2310,1547
4211511,2428,1451,2524,1570
