https://surfdrive.surf.nl/files/index.php/s/B7PEqFZSZZBPcW8/download?path=%2FData%2FInput%2FDatasets%2FBerend%2FImages&files=B_901.jpg,4608,3072
B_901,daylight,parquet_dark_brown,"[120, 120, 120]","['4165967', '623224', '6075075', '6225539', '4504369', '6252809', '4181135', '4211511']"
4165967,2135,1282,2341,1578
623224,1755,1335,1921,1537
6075075,1779,2072,1957,2221
6225539,2301,1942,2807,2157
4504369,1407,1133,1492,1213
6252809,1718,1209,2459,1339
4181135,1775,1768,2265,2165
4211511,2430,1452,2507,1549
