https://surfdrive.surf.nl/files/index.php/s/B7PEqFZSZZBPcW8/download?path=%2FData%2FInput%2FDatasets%2FBerend%2FImages&files=B_919.jpg,4608,3072
B_919,daylight,parquet_light,"[120, 120, 120]","['6138173', '4520632', '6229071', '6177697', '300321', '4529247', '4639693', '4181144', '4211166', '4109995']"
6138173,1208,1308,1396,1480
4520632,2385,1730,2704,2095
6229071,2346,2113,2508,2279
6177697,2440,1644,2782,1839
300321,2747,1211,2915,1393
4529247,2720,2302,2800,2433
4639693,2228,1115,2689,1632
4181144,1949,1373,2326,1816
4211166,1483,1430,1645,1604
4109995,2090,1914,2263,2031
