https://surfdrive.surf.nl/files/index.php/s/B7PEqFZSZZBPcW8/download?path=%2FData%2FInput%2FDatasets%2FBerend%2FImages&files=B_914.jpg,4608,3072
B_914,daylight,parquet_light,"[120, 120, 120]","['6138173', '4520632', '6229071', '6177697', '300321', '4529247', '4639693', '4181144', '4211166', '4109995', '6177697', '4639693']"
6138173,1653,1171,1828,1255
4520632,2489,1191,2712,1452
6229071,2848,1615,3037,1767
6177697,2802,1285,3160,1410
6177697,1985,997,2281,1192
300321,1511,1356,1720,1510
4529247,2717,1051,2844,1132
4639693,1735,1037,2356,1409
4639693,2672,1402,3383,1616
4181144,2176,1322,2697,1801
4211166,1842,1463,2020,1599
4109995,2370,820,2540,904
