https://surfdrive.surf.nl/files/index.php/s/B7PEqFZSZZBPcW8/download?path=%2FData%2FInput%2FDatasets%2FBerend%2FImages&files=B_919.jpg,4608,3072
B_919,daylight,parquet_light,"[120, 120, 120]","['6138173', '4520632', '6229071', '6177697', '300321', '4529247', '4639693', '4181144', '4211166', '4109995']"
6138173,1218,1335,1325,1439
4520632,2398,1783,2654,2020
6229071,2380,2094,2469,2209
6177697,2465,1672,2746,1794
300321,2769,1254,2861,1324
4529247,2735,2320,2776,2435
4639693,2254,1143,2680,1546
4181144,1977,1384,2250,1735
4211166,1488,1446,1592,1539
4109995,2099,1935,2224,2005
