https://surfdrive.surf.nl/files/index.php/s/B7PEqFZSZZBPcW8/download?path=%2FData%2FInput%2FDatasets%2FBerend%2FImages&files=B_912.jpg,4608,3072
B_912,daylight,parquet_light,"[120, 120, 120]","['6138173', '4520632', '6229071', '6177697', '300321', '4529247', '4639693', '4181144', '4211166', '4109995', '6177697', '4639693']"
6138173,1866,2131,2044,2342
4520632,2091,1192,2408,1487
6229071,2062,2215,2240,2424
6177697,2742,1676,3071,1941
6177697,1685,1477,2017,1651
300321,1664,1517,1888,1744
4529247,2441,2200,2571,2327
4639693,1044,984,1524,1443
4639693,2203,2017,2445,2684
4181144,2327,1867,2846,2108
4211166,2132,1420,2283,1606
4109995,2243,586,2401,733
