https://surfdrive.surf.nl/files/index.php/s/B7PEqFZSZZBPcW8/download?path=%2FData%2FInput%2FDatasets%2FBerend%2FImages&files=B_934.jpg,4608,3072
B_934,daylight,parquet_light,"[120, 120, 120]","['654126', '4153827', '4160403', '4651236', '4655172', '4550325', '4517992', '4211201', '4550348', '4121739', '300124', '6075075']"
654126,1347,1467,1467,1598
4153827,2410,1160,2730,1380
4160403,2067,1420,2489,1688
4651236,1751,1483,1906,1562
4655172,2472,1634,2824,1935
4550325,1930,1332,2049,1475
4517992,2863,1582,3063,1808
4211201,1743,1542,2069,1746
4550348,1614,1493,1729,1652
4121739,2766,1661,2936,1850
300124,2578,1395,2863,1713
6075075,2728,1861,2866,1986
