https://surfdrive.surf.nl/files/index.php/s/B7PEqFZSZZBPcW8/download?path=%2FData%2FInput%2FDatasets%2FBerend%2FImages&files=B_940.jpg,4608,3072
B_940,daylight,parquet_light,"[120, 120, 120]","['654126', '4153827', '4160403', '4651236', '4655172', '4550325', '4517992', '4211201', '4550348', '4121739']"
654126,1666,695,1738,744
4153827,2424,2002,2783,2183
4160403,1488,1558,1951,1802
4651236,1762,1746,1891,1839
4655172,2509,1532,2772,1731
4550325,2424,1310,2535,1372
4517992,1414,1302,1558,1402
4211201,2787,1439,2928,1635
4550348,2317,1435,2432,1539
4121739,2150,1828,2269,1931
