https://surfdrive.surf.nl/files/index.php/s/B7PEqFZSZZBPcW8/download?path=%2FData%2FInput%2FDatasets%2FBerend%2FImages&files=B_950.jpg,4608,3072
B_950,daylight,parquet_light,"[120, 120, 120]","['654126', '4153827', '4160403', '4651236', '4655172', '4550325', '4517992']"
654126,1690,1828,1890,2065
4153827,1712,1354,2256,1687
4160403,1747,2065,2591,2364
4651236,1605,2072,1880,2350
4655172,1910,1509,2491,2031
4550325,1307,1720,1421,2035
4517992,2347,1036,2658,1350
