https://surfdrive.surf.nl/files/index.php/s/B7PEqFZSZZBPcW8/download?path=%2FData%2FInput%2FDatasets%2FBerend%2FImages&files=B_955.jpg,4608,3072
B_955,daylight,parquet_light,"[120, 120, 120]","['6244886', '6022023', '300821', '4181134', '300121', '4143562', '300123', '4114319', '6075079', '4157124', '306223', '4181144', '4143562']"
6244886,1927,1690,2031,1890
6022023,1725,1893,1863,2040
300821,1782,1523,2288,1664
4181134,1924,1381,2303,1534
300121,1994,1132,2242,1283
4143562,2682,1670,2800,1844
4143562,2060,1714,2231,1873
300123,1505,1560,1800,1803
4114319,2208,1563,2349,1823
6075079,2335,1523,2436,1661
4157124,2260,1242,2381,1349
306223,2300,1387,2352,1494
4181144,1808,1572,2205,1771
