https://surfdrive.surf.nl/files/index.php/s/B7PEqFZSZZBPcW8/download?path=%2FData%2FInput%2FDatasets%2FBerend%2FImages&files=B_985.jpg,4608,3072
B_985,daylight,parquet_light,"[120, 120, 120]","['4211511', '6028324', '614321', '4165967', '6225539', '6138173', '6229071', '623224', '4651236']"
4211511,2258,1359,2344,1469
6028324,2938,1582,3075,1689
614321,1466,1048,1592,1166
4165967,2905,1436,3185,1593
6225539,2385,1768,2841,2041
6138173,2768,1016,2863,1134
6229071,2807,1519,2937,1685
623224,2467,969,2631,1151
4651236,1975,1607,2125,1757
