https://surfdrive.surf.nl/files/index.php/s/B7PEqFZSZZBPcW8/download?path=%2FData%2FInput%2FDatasets%2FBerend%2FImages&files=B_995.jpg,4608,3072
B_995,daylight,parquet_light,"[120, 120, 120]","['4211511', '6028324', '614321', '4165967', '6225539', '6138173']"
4211511,2127,1931,2273,2056
6028324,1300,1046,1446,1193
614321,2129,2326,2298,2527
4165967,2529,1883,2892,2140
6225539,2174,1293,2437,1657
6138173,2451,1430,2597,1520
