https://surfdrive.surf.nl/files/index.php/s/B7PEqFZSZZBPcW8/download?path=%2FData%2FInput%2FDatasets%2FBerend%2FImages&files=B_995.jpg,4608,3072
B_995,daylight,parquet_light,"[120, 120, 120]","['4211511', '6028324', '614321', '4165967', '6225539', '6138173']"
4211511,2125,1927,2275,1997
6028324,1298,1044,1445,1190
614321,2131,2326,2292,2480
4165967,2521,1885,2837,2140
6225539,2171,1292,2436,1686
6138173,2448,1426,2599,1518
