https://surfdrive.surf.nl/files/index.php/s/B7PEqFZSZZBPcW8/download?path=%2FData%2FInput%2FDatasets%2FDavid%2FImages&files=C_1005.jpg,5472,3647
C_1005,daylight,couch,"[120, 120, 120]","['4527943', '300401', '4550325', '4211201', '4121967', '306223']"
4527943,1988,2040,2209,2255
300401,1990,2386,2279,2543
4550325,2741,1528,3012,1711
4211201,2617,1952,3091,2447
4121967,2785,991,3022,1088
306223,3400,2541,3571,2757
