https://surfdrive.surf.nl/files/index.php/s/B7PEqFZSZZBPcW8/download?path=%2FData%2FInput%2FDatasets%2FDavid%2FImages&files=C_1008.jpg,5472,3648
C_1008,daylight,couch,"[120, 120, 120]","['4109995', '6073026', '4165967', '300124', '6225539', '4211511', '4181144', '4520632', '300321', '4550325', '4211149', '4639693', '4649749']"
4109995,2732,1930,2976,2087
6073026,2478,2087,2624,2249
4165967,2251,1448,2711,1773
300124,1736,1805,2077,2255
6225539,3106,2087,3815,2309
4211511,2429,1897,2559,2000
4181144,1693,980,2277,1500
4520632,2256,2333,2753,2517
300321,2742,2138,2959,2409
4550325,2976,1957,3133,2125
4211149,1996,2352,2218,2520
4639693,2494,1670,3441,1946
4649749,3726,1641,3964,1814
