https://surfdrive.surf.nl/files/index.php/s/B7PEqFZSZZBPcW8/download?path=%2FData%2FInput%2FDatasets%2FDavid%2FImages&files=C_1006.jpg,5472,3648
C_1006,daylight,couch,"[120, 120, 120]","['4109995', '6073026', '4165967', '300124', '6225539', '4211511', '4181144', '4520632', '300321', '4550325', '4211149', '4639693', '4649749']"
4109995,1692,1757,2003,2103
6073026,2431,1564,2641,1775
4165967,2493,1176,3034,1494
300124,3302,1109,3864,1407
6225539,2907,1479,3751,1763
4211511,2561,1809,2778,2042
4181144,2902,994,3648,1299
4520632,3318,1593,3901,1918
300321,3628,1856,4032,2230
4550325,3945,1487,4162,1806
4211149,3756,1494,4032,1798
4639693,2604,1252,3722,1645
4649749,2258,1429,2549,1645
