https://surfdrive.surf.nl/files/index.php/s/B7PEqFZSZZBPcW8/download?path=%2FData%2FInput%2FDatasets%2FDavid%2FImages&files=C_1012.jpg,5472,3648
C_1012,daylight,couch,"[120, 120, 120]","['4109995', '6073026', '4165967', '300124', '6225539', '4211511', '4181144', '4520632', '300321', '4550325', '4211149']"
4109995,3101,2272,3368,2477
6073026,3039,2836,3237,3057
4165967,2056,987,2502,1298
300124,2121,1970,2465,2497
6225539,2948,1302,3259,1848
4211511,2361,1192,2526,1382
4181144,2472,1312,2787,1931
4520632,2757,1734,3282,2127
300321,2720,2680,3076,3003
4550325,2009,1596,2269,1851
4211149,2635,2854,2944,3160
