https://surfdrive.surf.nl/files/index.php/s/B7PEqFZSZZBPcW8/download?path=%2FData%2FInput%2FDatasets%2FDavid%2FImages&files=C_1024.jpg,5472,3648
C_1024,daylight,couch,"[120, 120, 120]","['4109995', '6073026', '4165967', '300124', '6225539', '4211511', '4181144']"
4109995,3110,1521,3261,1716
6073026,2915,1835,3045,1998
4165967,2396,1716,2861,2063
300124,1866,1868,2277,2279
6225539,2764,1370,3153,1835
4211511,3294,1402,3434,1597
4181144,1996,1229,2623,1456
