https://surfdrive.surf.nl/files/index.php/s/B7PEqFZSZZBPcW8/download?path=%2FData%2FInput%2FDatasets%2FDavid%2FImages&files=C_115.jpg,5472,3648
C_115,daylight,armchair,"[130, 130, 130]","['300124', '4181134', '4114319', '4529247']"
300124,3164,1214,3769,1609
4181134,1973,1269,2773,2009
4114319,1908,1642,2536,2205
4529247,2548,2639,2773,2781
