https://surfdrive.surf.nl/files/index.php/s/B7PEqFZSZZBPcW8/download?path=%2FData%2FInput%2FDatasets%2FDavid%2FImages&files=C_132.jpg,5472,3648
C_132,artificial,coffee_table,"[130, 130, 130]","['6238674', '4212454', '4504369', '4550348', '4527943', '6074890']"
6238674,2348,2293,2620,2595
4212454,3088,1567,3356,1811
4504369,2270,1923,2499,2089
4550348,2362,1791,2679,1972
4527943,2664,1640,3039,2030
6074890,1958,1037,2192,1241
