https://surfdrive.surf.nl/files/index.php/s/B7PEqFZSZZBPcW8/download?path=%2FData%2FInput%2FDatasets%2FDavid%2FImages&files=C_137.jpg,5472,3648
C_137,artificial,coffee_table,"[130, 130, 130]","['6238674', '4212454', '4504369', '4550348', '4527943', '6074890', '6244886']"
6238674,2798,1314,3001,1494
4212454,3155,1551,3308,1716
4504369,3051,2469,3243,2672
4550348,2415,1568,2575,1837
4527943,2851,1125,3064,1391
6074890,2337,1762,2556,1926
6244886,1502,1308,1876,1669
