https://surfdrive.surf.nl/files/index.php/s/B7PEqFZSZZBPcW8/download?path=%2FData%2FInput%2FDatasets%2FDavid%2FImages&files=C_132.jpg,5472,3648
C_132,artificial,coffee_table,"[130, 130, 130]","['6238674', '4212454', '4504369', '4550348', '4527943', '6074890']"
6238674,2377,2304,2602,2558
4212454,3099,1550,3372,1813
4504369,2269,1930,2505,2096
4550348,2406,1790,2695,1969
4527943,2711,1718,3038,2050
6074890,1948,1036,2168,1234
