https://surfdrive.surf.nl/files/index.php/s/B7PEqFZSZZBPcW8/download?path=%2FData%2FInput%2FDatasets%2FDavid%2FImages&files=C_141.jpg,5472,3648
C_141,artificial,coffee_table,"[130, 130, 130]","['6238674', '4212454', '4504369', '4550348', '4527943', '6074890', '6244886', '4651236', '4114319']"
6238674,1887,2030,2078,2272
4212454,3013,2044,3213,2295
4504369,1947,1863,2147,2058
4550348,2140,1589,2506,1724
4527943,2124,1728,2445,2051
6074890,2462,1679,2676,1837
6244886,2401,1842,2727,2195
4651236,2355,1428,2704,1637
4114319,2690,1214,3043,1646
