https://surfdrive.surf.nl/files/index.php/s/B7PEqFZSZZBPcW8/download?path=%2FData%2FInput%2FDatasets%2FDavid%2FImages&files=C_141.jpg,5472,3648
C_141,artificial,coffee_table,"[130, 130, 130]","['6238674', '4212454', '4504369', '4550348', '4527943', '6074890', '6244886', '4651236', '4114319']"
6238674,1881,1998,2092,2286
4212454,3025,2031,3217,2326
4504369,1935,1858,2150,2080
4550348,2138,1584,2513,1725
4527943,2106,1650,2475,2076
6074890,2430,1662,2698,1846
6244886,2390,1835,2878,2193
4651236,2351,1422,2703,1653
4114319,2682,1211,3063,1804
