https://surfdrive.surf.nl/files/index.php/s/B7PEqFZSZZBPcW8/download?path=%2FData%2FInput%2FDatasets%2FDavid%2FImages&files=C_147.jpg,5472,3648
C_147,daylight,coffee_table,"[130, 130, 130]","['4121739', '6025026']"
4121739,1823,1488,2191,1848
6025026,3160,1709,3502,1921
