https://surfdrive.surf.nl/files/index.php/s/B7PEqFZSZZBPcW8/download?path=%2FData%2FInput%2FDatasets%2FDavid%2FImages&files=C_157.jpg,5472,3648
C_157,daylight,coffee_table,"[130, 130, 130]","['4121739', '6025026', '6238674', '6104154', '4121739']"
4121739,2206,1349,2487,1628
4121739,3031,1978,3332,2245
6025026,1999,1549,2247,1653
6238674,2003,1640,2186,1759
6104154,2552,2072,2815,2289
