https://surfdrive.surf.nl/files/index.php/s/B7PEqFZSZZBPcW8/download?path=%2FData%2FInput%2FDatasets%2FDavid%2FImages&files=C_15.jpg,5472,3648
C_15,daylight,coffee_table,"[130, 130, 130]","['300121', '4567338', '4211149', '6022023', '6075075', '4118793']"
300121,3673,1596,4152,1962
4567338,2510,2640,2676,2825
4211149,1239,1506,1408,1741
6022023,1502,1285,1762,1465
6075075,2635,1574,2781,1789
4118793,1570,1017,1703,1147
