https://surfdrive.surf.nl/files/index.php/s/B7PEqFZSZZBPcW8/download?path=%2FData%2FInput%2FDatasets%2FDavid%2FImages&files=C_167.jpg,5472,3648
C_167,daylight,coffee_table,"[130, 130, 130]","['4121739', '6025026', '6238674', '6104154', '4121739', '4529240', '4550325', '6225539']"
4121739,1469,1373,1707,1685
4121739,3028,2013,3320,2222
6025026,2583,2215,2903,2413
6238674,2257,1589,2464,1743
6104154,2001,1930,2324,2142
4529240,1253,1563,1456,1690
4550325,1440,1645,1754,1959
6225539,2611,1204,3397,1643
