https://surfdrive.surf.nl/files/index.php/s/B7PEqFZSZZBPcW8/download?path=%2FData%2FInput%2FDatasets%2FDavid%2FImages&files=C_178.jpg,5472,3648
C_178,daylight,coffee_table,"[130, 130, 130]","['6252809', '4160403']"
6252809,1658,1274,2387,1871
4160403,3076,1340,3359,2526
