https://surfdrive.surf.nl/files/index.php/s/B7PEqFZSZZBPcW8/download?path=%2FData%2FInput%2FDatasets%2FDavid%2FImages&files=C_170.jpg,5472,3648
C_170,daylight,coffee_table,"[130, 130, 130]","['4121739', '6025026', '6238674', '6104154', '4121739', '4529240', '4550325', '6225539', '623224']"
4121739,2879,2026,2989,2089
4121739,2572,1823,2645,1969
6025026,2780,1828,2905,1906
6238674,1853,1489,1884,1594
6104154,2025,1703,2165,1860
4529240,3036,1333,3103,1474
4550325,2379,1641,2468,1760
6225539,3046,1698,3281,1766
623224,3711,1673,3851,1772
