https://surfdrive.surf.nl/files/index.php/s/B7PEqFZSZZBPcW8/download?path=%2FData%2FInput%2FDatasets%2FDavid%2FImages&files=C_170.jpg,5472,3648
C_170,daylight,coffee_table,"[130, 130, 130]","['4121739', '6025026', '6238674', '6104154', '4121739', '4529240', '4550325', '6225539', '623224']"
4121739,2798,1958,3085,2142
4121739,2483,1755,2767,2015
6025026,2751,1780,3002,1973
6238674,1822,1437,1982,1628
6104154,2006,1657,2259,1909
4529240,2973,1334,3136,1490
4550325,2277,1626,2540,1753
6225539,2815,1588,3628,1929
623224,3650,1602,3949,1830
