https://surfdrive.surf.nl/files/index.php/s/B7PEqFZSZZBPcW8/download?path=%2FData%2FInput%2FDatasets%2FDavid%2FImages&files=C_181.jpg,5472,3648
C_181,daylight,coffee_table,"[130, 130, 130]","['6252809', '4160403', '300423']"
6252809,1842,1950,2413,3409
4160403,2475,1000,2650,1704
300423,3134,1255,3423,1396
