https://surfdrive.surf.nl/files/index.php/s/B7PEqFZSZZBPcW8/download?path=%2FData%2FInput%2FDatasets%2FDavid%2FImages&files=C_187.jpg,5472,3648
C_187,daylight,coffee_table,"[130, 130, 130]","['300323', '300401']"
300323,3037,1832,3463,2320
300401,1855,1494,2248,1857
