https://surfdrive.surf.nl/files/index.php/s/B7PEqFZSZZBPcW8/download?path=%2FData%2FInput%2FDatasets%2FDavid%2FImages&files=C_18.jpg,5472,3648
C_18,daylight,coffee_table,"[130, 130, 130]","['300121', '4567338', '4211149', '6022023', '6075075', '4118793', '4647553']"
300121,2012,1149,2430,1384
4567338,2021,1348,2168,1439
4211149,1932,2412,2194,2669
6022023,846,1835,1135,2127
6075075,3734,1983,3908,2186
4118793,1563,695,1683,810
4647553,2679,1618,2848,1857
