https://surfdrive.surf.nl/files/index.php/s/B7PEqFZSZZBPcW8/download?path=%2FData%2FInput%2FDatasets%2FDavid%2FImages&files=C_196.jpg,5472,3648
C_196,daylight,coffee_table,"[130, 130, 130]",['4212454']
4212454,2580,1742,2850,1926
