https://surfdrive.surf.nl/files/index.php/s/B7PEqFZSZZBPcW8/download?path=%2FData%2FInput%2FDatasets%2FDavid%2FImages&files=C_207.jpg,5472,3648
C_207,daylight,coffee_table,"[130, 130, 130]","['4212454', '4649749', '4157124', '4211437', '306223']"
4212454,2696,1371,2885,1551
4649749,2574,2024,2884,2274
4157124,2572,1549,2768,1735
4211437,2472,1730,2798,1897
306223,2783,1484,2987,1662
