https://surfdrive.surf.nl/files/index.php/s/B7PEqFZSZZBPcW8/download?path=%2FData%2FInput%2FDatasets%2FDavid%2FImages&files=C_200.jpg,5472,3648
C_200,daylight,coffee_table,"[130, 130, 130]","['4212454', '4649749']"
4212454,2650,1689,2907,1859
4649749,2429,1769,2806,2100
