https://surfdrive.surf.nl/files/index.php/s/B7PEqFZSZZBPcW8/download?path=%2FData%2FInput%2FDatasets%2FDavid%2FImages&files=C_220.jpg,5472,3648
C_220,daylight,coffee_table,"[130, 130, 130]",['4118793']
4118793,2561,1762,2789,1974
