https://surfdrive.surf.nl/files/index.php/s/B7PEqFZSZZBPcW8/download?path=%2FData%2FInput%2FDatasets%2FDavid%2FImages&files=C_234.jpg,5472,3648
C_234,daylight,coffee_table,"[130, 130, 130]","['4118793', '4567338', '6073026', '4211054', '4121739', '300124']"
4118793,3054,1566,3179,1698
4567338,1262,1330,1429,1433
6073026,2686,1395,2824,1590
4211054,2576,1816,2890,2165
4121739,2480,1586,2615,1863
300124,2747,1546,3276,2030
