https://surfdrive.surf.nl/files/index.php/s/B7PEqFZSZZBPcW8/download?path=%2FData%2FInput%2FDatasets%2FDavid%2FImages&files=C_23.jpg,5472,3648
C_23,daylight,coffee_table,"[130, 130, 130]","['300121', '4567338', '4211149', '6022023', '6075075', '4118793', '4647553', '4655172']"
300121,1683,1050,2244,1438
4567338,2848,2588,3027,2830
4211149,3566,1175,3817,1348
6022023,3216,1279,3498,1605
6075075,3462,1956,3660,2210
4118793,883,2122,1132,2332
4647553,3359,1098,3586,1348
4655172,2180,1528,2745,1894
