https://surfdrive.surf.nl/files/index.php/s/B7PEqFZSZZBPcW8/download?path=%2FData%2FInput%2FDatasets%2FDavid%2FImages&files=C_248.jpg,5472,3648
C_248,daylight,coffee_table,"[130, 130, 130]","['4118793', '4567338', '6073026', '4211054', '4121739', '300124', '6244886', '4211166', '300401', '4504369']"
4118793,1873,2152,2056,2353
4567338,2677,1685,2873,1839
6073026,3354,1891,3554,2110
4211054,1070,1498,1397,1769
4121739,1836,2358,2154,2624
300124,3260,1092,3760,1475
6244886,2789,1181,3106,1461
4211166,2919,1391,3143,1606
300401,2490,1097,2742,1326
4504369,2728,1223,2859,1349
