https://surfdrive.surf.nl/files/index.php/s/B7PEqFZSZZBPcW8/download?path=%2FData%2FInput%2FDatasets%2FDavid%2FImages&files=C_243.jpg,5472,3648
C_243,daylight,coffee_table,"[130, 130, 130]","['4118793', '4567338', '6073026', '4211054', '4121739', '300124', '6244886', '4211166', '300401']"
4118793,1575,1904,1676,2000
4567338,1891,1642,2121,1880
6073026,2891,1382,3005,1564
4211054,3280,1940,3440,2090
4121739,2553,1280,2752,1493
300124,2203,1931,2532,2113
6244886,3029,1460,3150,1584
4211166,2801,2593,2999,2740
300401,3192,2010,3300,2139
