https://surfdrive.surf.nl/files/index.php/s/B7PEqFZSZZBPcW8/download?path=%2FData%2FInput%2FDatasets%2FDavid%2FImages&files=C_25.jpg,5472,3647
C_25,daylight,coffee_table,"[130, 130, 130]","['300121', '4567338', '4211149', '6022023', '6075075', '4118793', '4647553', '4655172', '4550325']"
300121,2261,1684,2599,1926
4567338,2950,1051,3051,1128
4211149,2256,1471,2359,1627
6022023,3269,1231,3423,1407
6075075,1575,1161,1737,1279
4118793,3308,1400,3407,1523
4647553,2103,1108,2248,1253
4655172,2180,1119,2459,1378
4550325,2415,1596,2584,1706
