https://surfdrive.surf.nl/files/index.php/s/B7PEqFZSZZBPcW8/download?path=%2FData%2FInput%2FDatasets%2FDavid%2FImages&files=C_268.jpg,5472,3648
C_268,daylight,coffee_table,"[130, 130, 130]",['6003007']
6003007,2715,1637,2890,1848
