https://surfdrive.surf.nl/files/index.php/s/B7PEqFZSZZBPcW8/download?path=%2FData%2FInput%2FDatasets%2FDavid%2FImages&files=C_270.jpg,5472,3648
C_270,daylight,coffee_table,"[130, 130, 130]","['6003007', '6022023']"
6003007,1626,1541,1764,1739
6022023,2857,1841,3279,2206
