https://surfdrive.surf.nl/files/index.php/s/B7PEqFZSZZBPcW8/download?path=%2FData%2FInput%2FDatasets%2FDavid%2FImages&files=C_275.jpg,5472,3648
C_275,daylight,coffee_table,"[130, 130, 130]",['6151663']
6151663,2589,1691,2900,2024
