https://surfdrive.surf.nl/files/index.php/s/B7PEqFZSZZBPcW8/download?path=%2FData%2FInput%2FDatasets%2FDavid%2FImages&files=C_273.jpg,5472,3648
C_273,daylight,coffee_table,"[130, 130, 130]",['6151663']
6151663,2740,1449,3035,1718
