https://surfdrive.surf.nl/files/index.php/s/B7PEqFZSZZBPcW8/download?path=%2FData%2FInput%2FDatasets%2FDavid%2FImages&files=C_286.jpg,5472,3648
C_286,daylight,coffee_table,"[130, 130, 130]","['6151663', '365901', '4211201', '300401', '6252809']"
6151663,2767,1632,3031,1939
365901,2734,1857,3250,2439
4211201,2228,1852,2833,2362
300401,2668,1198,2888,1527
6252809,2305,918,3668,1324
