https://surfdrive.surf.nl/files/index.php/s/B7PEqFZSZZBPcW8/download?path=%2FData%2FInput%2FDatasets%2FDavid%2FImages&files=C_28.jpg,5472,3648
C_28,daylight,coffee_table,"[130, 130, 130]",['4650630']
4650630,3684,1386,3964,1713
