https://surfdrive.surf.nl/files/index.php/s/B7PEqFZSZZBPcW8/download?path=%2FData%2FInput%2FDatasets%2FDavid%2FImages&files=C_295.jpg,5472,3648
C_295,daylight,coffee_table,"[130, 130, 130]","['6151663', '365901', '4211201', '300401', '6252809', '6249125', '4211054', '6022064']"
6151663,1684,904,1842,1027
365901,1895,895,2150,1273
4211201,3476,473,3625,825
300401,2457,1361,2686,1537
6252809,2036,1176,3055,1475
6249125,2194,1203,2282,1264
4211054,2510,2433,2765,2741
6022064,3098,2574,3415,2811
