https://surfdrive.surf.nl/files/index.php/s/B7PEqFZSZZBPcW8/download?path=%2FData%2FInput%2FDatasets%2FDavid%2FImages&files=C_305.jpg,5472,3648
C_305,daylight,living_room_floor,"[130, 130, 130]",['4650630']
4650630,2663,1768,2826,1861
