https://surfdrive.surf.nl/files/index.php/s/B7PEqFZSZZBPcW8/download?path=%2FData%2FInput%2FDatasets%2FDavid%2FImages&files=C_310.jpg,5472,3648
C_310,daylight,living_room_floor,"[130, 130, 130]","['4650630', '6223631', '4181144']"
4650630,2461,1736,2610,1932
6223631,3010,1781,3123,1882
4181144,2769,1492,2991,1964
