https://surfdrive.surf.nl/files/index.php/s/B7PEqFZSZZBPcW8/download?path=%2FData%2FInput%2FDatasets%2FDavid%2FImages&files=C_337.jpg,5472,3647
C_337,daylight,living_room_floor,"[130, 130, 130]","['4211614', '4153825', '6151663', '6004938', '306223', '6022064']"
4211614,2663,1724,2758,1775
4153825,3084,1286,3306,1477
6151663,2474,1193,2591,1363
6004938,2142,1734,2254,1845
306223,3472,1248,3607,1364
6022064,2244,2035,2526,2227
