https://surfdrive.surf.nl/files/index.php/s/B7PEqFZSZZBPcW8/download?path=%2FData%2FInput%2FDatasets%2FDavid%2FImages&files=C_339.jpg,5472,3648
C_339,daylight,living_room_floor,"[130, 130, 130]","['4211614', '4153825', '6151663', '6004938', '306223', '6022064', '4639693']"
4211614,2713,1736,2806,1863
4153825,2364,1338,2502,1459
6151663,2582,1521,2710,1660
6004938,2122,1660,2226,1732
306223,3062,1936,3152,2026
6022064,2012,951,2195,1024
4639693,1635,1197,2122,1642
