https://surfdrive.surf.nl/files/index.php/s/B7PEqFZSZZBPcW8/download?path=%2FData%2FInput%2FDatasets%2FDavid%2FImages&files=C_369.jpg,5472,3647
C_369,daylight,living_room_floor,"[130, 130, 130]","['4118793', '6035291', '4211614', '4567338', '4211412', '6025026', '4548180', '4655172', '4647553']"
4118793,2436,1807,2532,1914
6035291,2681,1757,2800,1877
4211614,2065,1574,2186,1702
4567338,2840,1283,2919,1365
4211412,3193,1570,3276,1659
6025026,2863,1870,3005,1987
4548180,2841,1802,2971,1876
4655172,1662,2013,1970,2230
4647553,3256,1525,3380,1657
