https://surfdrive.surf.nl/files/index.php/s/B7PEqFZSZZBPcW8/download?path=%2FData%2FInput%2FDatasets%2FDavid%2FImages&files=C_362.jpg,5472,3648
C_362,daylight,living_room_floor,"[130, 130, 130]","['4118793', '6035291', '4211614', '4567338', '4211412', '6025026']"
4118793,2738,1257,2905,1374
6035291,3378,1556,3498,1697
4211614,2480,1657,2716,1734
4567338,2632,1777,2807,1828
4211412,2469,1932,2705,2044
6025026,2832,1986,2985,2074
