https://surfdrive.surf.nl/files/index.php/s/B7PEqFZSZZBPcW8/download?path=%2FData%2FInput%2FDatasets%2FDavid%2FImages&files=C_363.jpg,5472,3648
C_363,daylight,living_room_floor,"[130, 130, 130]","['4118793', '6035291', '4211614', '4567338', '4211412', '6025026', '4548180']"
4118793,2455,1167,2569,1327
6035291,3411,1452,3534,1652
4211614,2591,1721,2824,1870
4567338,2112,1101,2237,1173
4211412,2356,1180,2453,1325
6025026,2743,1888,2903,2127
4548180,3101,1068,3310,1200
