https://surfdrive.surf.nl/files/index.php/s/B7PEqFZSZZBPcW8/download?path=%2FData%2FInput%2FDatasets%2FDavid%2FImages&files=C_371.jpg,5472,3648
C_371,daylight,living_room_floor,"[130, 130, 130]","['4118793', '6035291', '4211614', '4567338', '4211412', '6025026', '4548180', '4655172', '4647553']"
4118793,2510,2829,2607,2943
6035291,2565,2142,2646,2307
4211614,2338,1546,2514,1639
4567338,2691,1586,2773,1644
4211412,2493,1823,2594,1924
6025026,3461,1762,3606,1843
4548180,3033,1874,3079,1984
4655172,2584,1612,2896,1902
4647553,2220,1470,2365,1555
