https://surfdrive.surf.nl/files/index.php/s/B7PEqFZSZZBPcW8/download?path=%2FData%2FInput%2FDatasets%2FDavid%2FImages&files=C_384.jpg,5472,3648
C_384,daylight,living_room_floor,"[130, 130, 130]","['300401', '300423', '4529240', '6004938', '4550348']"
300401,3069,2164,3245,2433
300423,2758,2074,3045,2306
4529240,1967,1487,2143,1584
6004938,2710,1798,2824,1936
4550348,3338,2140,3504,2413
