https://surfdrive.surf.nl/files/index.php/s/B7PEqFZSZZBPcW8/download?path=%2FData%2FInput%2FDatasets%2FDavid%2FImages&files=C_384.jpg,5472,3648
C_384,daylight,living_room_floor,"[130, 130, 130]","['300401', '300423', '4529240', '6004938', '4550348']"
300401,3051,2130,3285,2482
300423,2745,2040,3082,2392
4529240,1953,1467,2159,1603
6004938,2673,1761,2837,1988
4550348,3311,2114,3514,2437
