https://surfdrive.surf.nl/files/index.php/s/B7PEqFZSZZBPcW8/download?path=%2FData%2FInput%2FDatasets%2FDavid%2FImages&files=C_406.jpg,5472,3648
C_406,daylight,living_room_floor,"[130, 130, 130]","['300421', '300321', '300424', '614321', '4153827']"
300421,2707,675,2871,865
300321,2808,902,2972,1104
300424,2314,1786,2477,1949
614321,2655,1815,2818,2009
4153827,3679,1845,3872,2172
