https://surfdrive.surf.nl/files/index.php/s/B7PEqFZSZZBPcW8/download?path=%2FData%2FInput%2FDatasets%2FDavid%2FImages&files=C_407.jpg,5472,3648
C_407,daylight,living_room_floor,"[130, 130, 130]","['300421', '300321', '300424', '614321', '4153827']"
300421,2528,1682,2703,1827
300321,2642,1736,2885,1992
300424,2954,2504,3178,2710
614321,3309,1097,3460,1279
4153827,3636,1878,3908,2275
