https://surfdrive.surf.nl/files/index.php/s/B7PEqFZSZZBPcW8/download?path=%2FData%2FInput%2FDatasets%2FDavid%2FImages&files=C_416.jpg,5472,3648
C_416,daylight,living_room_floor,"[130, 130, 130]",['4517992']
4517992,2602,1738,2861,1922
