https://surfdrive.surf.nl/files/index.php/s/B7PEqFZSZZBPcW8/download?path=%2FData%2FInput%2FDatasets%2FDavid%2FImages&files=C_417.jpg,5472,3648
C_417,daylight,living_room_floor,"[130, 130, 130]","['4517992', '300821']"
4517992,3110,1490,3285,1584
300821,2454,1572,2832,2141
