https://surfdrive.surf.nl/files/index.php/s/B7PEqFZSZZBPcW8/download?path=%2FData%2FInput%2FDatasets%2FDavid%2FImages&files=C_410.jpg,5472,3647
C_410,daylight,living_room_floor,"[130, 130, 130]","['300421', '300321', '300424', '614321', '4153827', '4165967']"
300421,1771,1638,1881,1818
300321,3370,1656,3603,1858
300424,3142,2064,3366,2231
614321,2641,1744,2803,1911
4153827,3396,1018,3627,1332
4165967,2480,1291,2810,1489
