https://surfdrive.surf.nl/files/index.php/s/B7PEqFZSZZBPcW8/download?path=%2FData%2FInput%2FDatasets%2FDavid%2FImages&files=C_433.jpg,5472,3648
C_433,daylight,living_room_floor,"[130, 130, 130]","['6028324', '4558957', '6104154', '4651236', '4539099']"
6028324,2382,2209,2574,2404
4558957,2540,1706,2892,2050
6104154,2481,1471,2616,1665
4651236,2875,2292,3048,2471
4539099,1810,1964,1897,2102
