https://surfdrive.surf.nl/files/index.php/s/B7PEqFZSZZBPcW8/download?path=%2FData%2FInput%2FDatasets%2FDavid%2FImages&files=C_434.jpg,5472,3648
C_434,daylight,living_room_floor,"[130, 130, 130]","['6028324', '4558957', '6104154', '4651236', '4539099']"
6028324,2088,1774,2220,1950
4558957,2492,1616,2861,1959
6104154,2519,1106,2650,1273
4651236,2756,2099,2914,2293
4539099,2308,1704,2387,1862
