https://surfdrive.surf.nl/files/index.php/s/B7PEqFZSZZBPcW8/download?path=%2FData%2FInput%2FDatasets%2FDavid%2FImages&files=C_457.jpg,5472,3648
C_457,daylight,dining_table,"[130, 130, 130]","['6075079', '306201', '4211614', '4181135']"
6075079,3248,2082,3371,2433
306201,3406,1809,3529,1959
4211614,2598,1695,2914,1932
4181135,2431,895,3028,1458
