https://surfdrive.surf.nl/files/index.php/s/B7PEqFZSZZBPcW8/download?path=%2FData%2FInput%2FDatasets%2FDavid%2FImages&files=C_454.jpg,5472,3648
C_454,daylight,dining_table,"[130, 130, 130]","['6075079', '306201', '4211614']"
6075079,3687,1273,3968,1484
306201,2580,1911,2703,1977
4211614,2018,1053,2308,1176
