https://surfdrive.surf.nl/files/index.php/s/B7PEqFZSZZBPcW8/download?path=%2FData%2FInput%2FDatasets%2FDavid%2FImages&files=C_469.jpg,5472,3648
C_469,daylight,dining_table,"[130, 130, 130]","['6075079', '306201', '4211614', '4181135', '6003007', '6138173', '300421', '6028324']"
6075079,2723,1993,3011,2206
306201,1592,1895,1798,2118
4211614,3473,1383,3634,1669
4181135,2653,1279,3371,1977
6003007,1839,1723,2067,1888
6138173,3135,1590,3454,1911
300421,2245,1661,2459,1990
6028324,2427,1555,2700,1842
