https://surfdrive.surf.nl/files/index.php/s/B7PEqFZSZZBPcW8/download?path=%2FData%2FInput%2FDatasets%2FDavid%2FImages&files=C_460.jpg,5472,3648
C_460,daylight,dining_table,"[130, 130, 130]","['6075079', '306201', '4211614', '4181135', '6003007']"
6075079,2641,1746,2874,2026
306201,2434,1383,2621,1570
4211614,2137,1529,2386,1715
4181135,3104,1888,3933,2199
6003007,2563,1058,2694,1201
