https://surfdrive.surf.nl/files/index.php/s/B7PEqFZSZZBPcW8/download?path=%2FData%2FInput%2FDatasets%2FDavid%2FImages&files=C_471.jpg,5472,3648
C_471,daylight,dining_table,"[130, 130, 130]",['4153825']
4153825,2586,1717,2900,2038
