https://surfdrive.surf.nl/files/index.php/s/B7PEqFZSZZBPcW8/download?path=%2FData%2FInput%2FDatasets%2FDavid%2FImages&files=C_489.jpg,5472,3647
C_489,daylight,coffee_table,"[130, 130, 130]","['300424', '6004938', '306201']"
300424,1680,1499,1829,1601
6004938,2137,1295,2283,1393
306201,2671,1732,2774,1831
