https://surfdrive.surf.nl/files/index.php/s/B7PEqFZSZZBPcW8/download?path=%2FData%2FInput%2FDatasets%2FDavid%2FImages&files=C_480.jpg,5472,3648
C_480,daylight,dining_table,"[130, 130, 130]","['4153825', '4621545', '306201', '4211412']"
4153825,2066,1701,2429,2118
4621545,3166,1342,3480,1638
306201,2973,1532,3150,1716
4211412,2531,1741,2743,1903
