https://surfdrive.surf.nl/files/index.php/s/B7PEqFZSZZBPcW8/download?path=%2FData%2FInput%2FDatasets%2FDavid%2FImages&files=C_492.jpg,5472,3648
C_492,daylight,coffee_table,"[130, 130, 130]","['300424', '6004938', '306201', '4211166']"
300424,1767,2112,2035,2479
6004938,3327,1649,3552,1856
306201,2113,1394,2346,1565
4211166,2537,1565,2828,1913
