https://surfdrive.surf.nl/files/index.php/s/B7PEqFZSZZBPcW8/download?path=%2FData%2FInput%2FDatasets%2FDavid%2FImages&files=C_495.jpg,5472,3648
C_495,daylight,coffee_table,"[130, 130, 130]","['300424', '6004938', '306201', '4211166', '4621545']"
300424,1619,1372,1807,1610
6004938,2340,2163,2532,2307
306201,2508,1350,2682,1604
4211166,2758,1672,2852,1914
4621545,3188,2401,3296,2489
