https://surfdrive.surf.nl/files/index.php/s/B7PEqFZSZZBPcW8/download?path=%2FData%2FInput%2FDatasets%2FDavid%2FImages&files=C_495.jpg,5472,3648
C_495,daylight,coffee_table,"[130, 130, 130]","['300424', '6004938', '306201', '4211166', '4621545']"
300424,2645,1611,2840,1908
6004938,2343,2147,2562,2395
306201,3190,2288,3385,2478
4211166,1618,1382,1807,1601
4621545,2504,1334,2693,1621
