https://surfdrive.surf.nl/files/index.php/s/B7PEqFZSZZBPcW8/download?path=%2FData%2FInput%2FDatasets%2FDavid%2FImages&files=C_4.jpg,5472,3648
C_4,daylight,coffee_table,"[130, 130, 130]","['300121', '4567338']"
300121,2526,993,3281,1542
4567338,1961,951,2108,1174
