https://surfdrive.surf.nl/files/index.php/s/B7PEqFZSZZBPcW8/download?path=%2FData%2FInput%2FDatasets%2FDavid%2FImages&files=C_508.jpg,5472,3647
C_508,daylight,coffee_table,"[130, 130, 130]","['300424', '6004938', '306201', '4211166', '4621545', '300121', '4118793', '4548180', '4539099']"
300424,1817,1497,2079,1632
6004938,1300,1363,1450,1485
306201,1817,1395,1990,1495
4211166,1923,1738,2174,1902
4621545,2216,1623,2499,1812
300121,1547,1148,2012,1300
4118793,2267,1472,2431,1593
4548180,2055,1306,2285,1433
4539099,3792,1685,3930,1851
