https://surfdrive.surf.nl/files/index.php/s/B7PEqFZSZZBPcW8/download?path=%2FData%2FInput%2FDatasets%2FDavid%2FImages&files=C_510.jpg,5472,3648
C_510,daylight,coffee_table,"[130, 130, 130]","['300424', '6004938', '306201', '4211166', '4621545', '300121', '4118793', '4548180', '4539099', '654126']"
300424,2499,1615,2896,2017
6004938,1887,1681,2149,1961
306201,590,1667,818,1825
4211166,2831,1442,3139,1718
4621545,3475,1181,3844,1531
300121,2373,793,2775,1452
4118793,3022,1167,3279,1447
4548180,3834,1027,4161,1260
4539099,2037,1882,2200,2115
654126,2149,1653,2340,1886
