https://surfdrive.surf.nl/files/index.php/s/B7PEqFZSZZBPcW8/download?path=%2FData%2FInput%2FDatasets%2FDavid%2FImages&files=C_51.jpg,5472,3648
C_51,daylight,coffee_table,"[130, 130, 130]","['6104154', '4527943', '4157124', '4211201', '4211614', '4504381', '300421']"
6104154,3718,2410,3937,2719
4527943,2123,1334,2253,1443
4157124,2422,1463,2562,1533
4211201,1774,1443,2193,1742
4211614,2940,1812,3150,1872
4504381,2143,1045,2253,1174
300421,1445,1503,1635,1703
