https://surfdrive.surf.nl/files/index.php/s/B7PEqFZSZZBPcW8/download?path=%2FData%2FInput%2FDatasets%2FDavid%2FImages&files=C_535.jpg,5472,3648
C_535,daylight,couch,"[130, 130, 130]","['6177697', '6223631', '6073026', '300124', '4647553', '6035291']"
6177697,2794,1707,3197,1933
6223631,2884,1860,2997,1987
6073026,3002,1792,3151,1967
300124,2462,1518,2792,1866
4647553,2661,1498,2843,1677
6035291,2496,1823,2658,1979
