https://surfdrive.surf.nl/files/index.php/s/B7PEqFZSZZBPcW8/download?path=%2FData%2FInput%2FDatasets%2FDavid%2FImages&files=C_537.jpg,5472,3648
C_537,daylight,couch,"[130, 130, 130]","['6177697', '6223631', '6073026', '300124', '4647553', '6035291', '4109995']"
6177697,3054,1310,3432,1531
6223631,2260,1745,2370,1827
6073026,2638,1597,2778,1739
300124,2457,2358,2709,2876
4647553,1731,1362,1940,1482
6035291,3117,2074,3303,2306
4109995,2958,2202,3188,2413
