https://surfdrive.surf.nl/files/index.php/s/B7PEqFZSZZBPcW8/download?path=%2FData%2FInput%2FDatasets%2FDavid%2FImages&files=C_562.jpg,5472,3648
C_562,daylight,window_sill,"[130, 130, 130]","['6003007', '365901', '4567338', '4211166', '4504381']"
6003007,3369,1776,3501,1960
365901,1874,1910,2409,2055
4567338,2384,2203,2499,2397
4211166,2674,1682,2915,1896
4504381,1989,1766,2108,1891
