https://surfdrive.surf.nl/files/index.php/s/B7PEqFZSZZBPcW8/download?path=%2FData%2FInput%2FDatasets%2FDavid%2FImages&files=C_569.jpg,5472,3648
C_569,daylight,window_sill,"[130, 130, 130]","['6003007', '365901', '4567338', '4211166', '4504381', '6025026', '4121967']"
6003007,1384,1229,1573,1384
365901,2892,2318,3037,2944
4567338,1052,1886,1245,2018
4211166,1837,2536,2037,2823
4504381,2573,1727,2763,1891
6025026,2116,2672,2422,2995
4121967,1842,2171,2151,2325
