https://surfdrive.surf.nl/files/index.php/s/B7PEqFZSZZBPcW8/download?path=%2FData%2FInput%2FDatasets%2FDavid%2FImages&files=C_56.jpg,5472,3648
C_56,daylight,coffee_table,"[130, 130, 130]","['6104154', '4527943', '4157124', '4211201', '4211614', '4504381', '300421', '4649749']"
6104154,2653,2630,2905,2828
4527943,2277,1701,2400,1831
4157124,2468,1810,2653,1954
4211201,1628,1640,1894,1961
4211614,2755,1380,2905,1510
4504381,2694,1558,2803,1640
300421,3151,984,3370,1175
4649749,2509,1585,2687,1749
