https://surfdrive.surf.nl/files/index.php/s/B7PEqFZSZZBPcW8/download?path=%2FData%2FInput%2FDatasets%2FDavid%2FImages&files=C_566.jpg,5472,3648
C_566,daylight,window_sill,"[130, 130, 130]","['6003007', '365901', '4567338', '4211166', '4504381', '6025026']"
6003007,2703,1733,2839,1942
365901,2683,841,3055,1318
4567338,2338,1575,2477,1782
4211166,2118,276,2289,498
4504381,3468,1782,3622,1962
6025026,2384,2252,2688,2476
