https://surfdrive.surf.nl/files/index.php/s/B7PEqFZSZZBPcW8/download?path=%2FData%2FInput%2FDatasets%2FDavid%2FImages&files=C_575.jpg,5472,3648
C_575,daylight,window_sill,"[130, 130, 130]","['614321', '4211221']"
614321,2702,1632,2929,1803
4211221,1876,1565,2149,1770
