https://surfdrive.surf.nl/files/index.php/s/B7PEqFZSZZBPcW8/download?path=%2FData%2FInput%2FDatasets%2FDavid%2FImages&files=C_597.jpg,5472,3647
C_597,daylight,window_sill,"[130, 130, 130]",['4548180']
4548180,2566,1596,2901,1984
