https://surfdrive.surf.nl/files/index.php/s/B7PEqFZSZZBPcW8/download?path=%2FData%2FInput%2FDatasets%2FDavid%2FImages&files=C_591.jpg,5472,3648
C_591,daylight,window_sill,"[130, 130, 130]","['614321', '4211221', '4651236', '4621545', '6249125', '4143562', '6075075', '4109995']"
614321,1872,1485,2140,1726
4211221,2931,1461,3321,1745
4651236,2810,1396,3063,1620
4621545,3240,1666,3407,1988
6249125,3385,1341,3535,1494
4143562,1658,1292,1983,1577
6075075,2702,1730,2885,1945
4109995,2311,1808,2622,2123
