https://surfdrive.surf.nl/files/index.php/s/B7PEqFZSZZBPcW8/download?path=%2FData%2FInput%2FDatasets%2FDavid%2FImages&files=C_594.jpg,5472,3648
C_594,daylight,window_sill,"[130, 130, 130]","['614321', '4211221', '4651236', '4621545', '6249125', '4143562', '6075075', '4109995', '4647553']"
614321,2586,1707,2789,1890
4211221,3068,1867,3272,2129
4651236,1979,1828,2230,1980
4621545,2306,1808,2555,1970
6249125,2752,1637,2864,1727
4143562,3284,2014,3581,2280
6075075,1869,1661,2107,1742
4109995,2130,1617,2388,1785
4647553,2653,2206,2933,2452
