https://surfdrive.surf.nl/files/index.php/s/B7PEqFZSZZBPcW8/download?path=%2FData%2FInput%2FDatasets%2FDavid%2FImages&files=C_594.jpg,5472,3648
C_594,daylight,window_sill,"[130, 130, 130]","['614321', '4211221', '4651236', '4621545', '6249125', '4143562', '6075075', '4109995', '4647553']"
614321,2584,1689,2776,1949
4211221,3036,1837,3192,2129
4651236,1976,1805,2232,1957
4621545,2296,1801,2572,2025
6249125,2748,1637,2868,1729
4143562,3282,2001,3590,2301
6075075,1860,1645,2116,1749
4109995,2096,1617,2380,1801
4647553,2640,2197,2924,2481
