https://surfdrive.surf.nl/files/index.php/s/B7PEqFZSZZBPcW8/download?path=%2FData%2FInput%2FDatasets%2FDavid%2FImages&files=C_605.jpg,5472,3648
C_605,daylight,window_sill,"[130, 130, 130]","['300423', '6073026']"
300423,2684,1610,2858,1875
6073026,2435,2256,2625,2447
