https://surfdrive.surf.nl/files/index.php/s/B7PEqFZSZZBPcW8/download?path=%2FData%2FInput%2FDatasets%2FDavid%2FImages&files=C_614.jpg,5472,3648
C_614,daylight,window_sill,"[130, 130, 130]","['300423', '6073026', '4558957', '4527943', '4121967']"
300423,1826,1391,2130,1703
6073026,3024,1975,3224,2203
4558957,2910,1229,3326,1601
4527943,1306,1007,1574,1287
4121967,2648,1733,2920,1909
