https://surfdrive.surf.nl/files/index.php/s/B7PEqFZSZZBPcW8/download?path=%2FData%2FInput%2FDatasets%2FDavid%2FImages&files=C_619.jpg,5472,3648
C_619,daylight,window_sill,"[130, 130, 130]","['300423', '6073026', '4558957', '4527943', '4121967', '6249125', '6069259']"
300423,2822,2032,2964,2167
6073026,2665,1808,2740,1883
4558957,2306,1673,2561,1897
4527943,3256,1897,3390,2017
4121967,2037,2099,2157,2167
6249125,3480,1770,3570,1815
6069259,2830,1628,2987,1726
