https://surfdrive.surf.nl/files/index.php/s/B7PEqFZSZZBPcW8/download?path=%2FData%2FInput%2FDatasets%2FDavid%2FImages&files=C_644.jpg,5472,3647
C_644,daylight,coffee_table,"[130, 130, 130]","['6074890', '6073026', '4211221', '4211166', '4181144', '4211149', '6062574', '4548180']"
6074890,3496,705,3575,803
6073026,1577,1639,1765,1848
4211221,1347,1109,1651,1380
4211166,2082,1961,2311,2128
4181144,2382,747,2813,1252
4211149,3138,1434,3402,1675
6062574,1215,1852,1416,2063
4548180,2212,1381,2451,1577
