https://surfdrive.surf.nl/files/index.php/s/B7PEqFZSZZBPcW8/download?path=%2FData%2FInput%2FDatasets%2FDavid%2FImages&files=C_644.jpg,5472,3648
C_644,daylight,coffee_table,"[130, 130, 130]","['6074890', '6073026', '4211221', '4211166', '4181144', '4211149', '6062574', '4548180']"
6074890,3499,682,3584,811
6073026,1577,1632,1764,1843
4211221,3156,1430,3397,1660
4211166,2060,1936,2301,2155
4181144,2390,754,2821,1252
4211149,1349,1110,1651,1378
6062574,1217,1834,1410,2054
4548180,2220,1375,2438,1573
