https://surfdrive.surf.nl/files/index.php/s/B7PEqFZSZZBPcW8/download?path=%2FData%2FInput%2FDatasets%2FDavid%2FImages&files=C_662.jpg,5472,3647
C_662,daylight,coffee_table,"[130, 130, 130]","['6075079', '300423', '4121967', '300424']"
6075079,2435,1731,2818,1923
300423,2754,2008,3031,2349
4121967,3137,1624,3520,1837
300424,2669,1027,2882,1325
