https://surfdrive.surf.nl/files/index.php/s/B7PEqFZSZZBPcW8/download?path=%2FData%2FInput%2FDatasets%2FDavid%2FImages&files=C_660.jpg,5472,3647
C_660,daylight,coffee_table,"[130, 130, 130]","['6075079', '300423', '4121967', '300424']"
6075079,2511,1215,2685,1526
300423,1796,2449,2159,2724
4121967,2641,1677,2891,1927
300424,3513,1759,3838,2026
