https://surfdrive.surf.nl/files/index.php/s/B7PEqFZSZZBPcW8/download?path=%2FData%2FInput%2FDatasets%2FDavid%2FImages&files=C_709.jpg,5472,3648
C_709,daylight,coffee_table,"[130, 130, 130]","['4529240', '4211437', '4211437', '4539099']"
4529240,2659,1368,2815,1543
4211437,2810,1489,2990,1777
4211437,2543,1714,2728,2020
4539099,2720,1817,2915,1992
