https://surfdrive.surf.nl/files/index.php/s/B7PEqFZSZZBPcW8/download?path=%2FData%2FInput%2FDatasets%2FDavid%2FImages&files=C_703.jpg,5472,3648
C_703,daylight,coffee_table,"[130, 130, 130]","['4529240', '4211437']"
4529240,2809,1712,2949,1844
4211437,2615,1633,2800,1792
