https://surfdrive.surf.nl/files/index.php/s/B7PEqFZSZZBPcW8/download?path=%2FData%2FInput%2FDatasets%2FDavid%2FImages&files=C_716.jpg,5472,3648
C_716,daylight,coffee_table,"[130, 130, 130]","['4529240', '4211437', '4211437', '4539099', '4211149', '300124']"
4529240,2317,2107,2487,2225
4211437,2731,1729,2909,1964
4211437,2866,1546,3040,1768
4539099,2478,1833,2670,1959
4211149,2200,1872,2369,2094
300124,2665,1245,2844,1724
