https://surfdrive.surf.nl/files/index.php/s/B7PEqFZSZZBPcW8/download?path=%2FData%2FInput%2FDatasets%2FDavid%2FImages&files=C_715.jpg,5472,3648
C_715,daylight,coffee_table,"[130, 130, 130]","['4529240', '4211437', '4211437', '4539099', '4211149', '300124']"
4529240,2067,2119,2176,2288
4211437,2679,1848,2895,2023
4211437,3029,1857,3212,2063
4539099,2148,2082,2327,2199
4211149,1849,1787,2087,1961
300124,2334,937,2643,1344
