https://surfdrive.surf.nl/files/index.php/s/B7PEqFZSZZBPcW8/download?path=%2FData%2FInput%2FDatasets%2FDavid%2FImages&files=C_720.jpg,5472,3648
C_720,daylight,coffee_table,"[130, 130, 130]","['4529240', '4211437', '4211437', '4539099', '4211149', '300124', '6249125', '4160403']"
4529240,2354,1436,2521,1501
4211437,2895,1842,3152,1983
4211437,2606,1679,2847,1869
4539099,1905,1412,2051,1565
4211149,2347,1489,2491,1746
300124,3312,2022,3878,2502
6249125,1183,1266,1309,1386
4160403,2143,1103,2779,1433
