https://surfdrive.surf.nl/files/index.php/s/B7PEqFZSZZBPcW8/download?path=%2FData%2FInput%2FDatasets%2FDavid%2FImages&files=C_738.jpg,5472,3648
C_738,daylight,couch,"[130, 130, 130]","['6069259', '4211054', '6177697']"
6069259,2787,1513,3012,1731
4211054,2641,1664,2938,1934
6177697,2482,1863,2672,2398
