https://surfdrive.surf.nl/files/index.php/s/B7PEqFZSZZBPcW8/download?path=%2FData%2FInput%2FDatasets%2FDavid%2FImages&files=C_758.jpg,5472,3648
C_758,daylight,couch,"[130, 130, 130]","['6074890', '4211511']"
6074890,3415,1633,3582,1739
4211511,2352,1502,2519,1660
