https://surfdrive.surf.nl/files/index.php/s/B7PEqFZSZZBPcW8/download?path=%2FData%2FInput%2FDatasets%2FDavid%2FImages&files=C_753.jpg,5472,3648
C_753,daylight,couch,"[130, 130, 130]",['6074890']
6074890,2793,1491,2932,1673
