https://surfdrive.surf.nl/files/index.php/s/B7PEqFZSZZBPcW8/download?path=%2FData%2FInput%2FDatasets%2FDavid%2FImages&files=C_777.jpg,5472,3648
C_777,daylight,couch,"[130, 130, 130]","['4621545', '4210718', '4650630']"
4621545,3240,1218,3434,1305
4210718,3207,1283,3672,1489
4650630,2007,1760,2256,2030
