https://surfdrive.surf.nl/files/index.php/s/B7PEqFZSZZBPcW8/download?path=%2FData%2FInput%2FDatasets%2FDavid%2FImages&files=C_784.jpg,5472,3648
C_784,daylight,couch,"[130, 130, 130]","['4621545', '4210718', '4650630', '4529247', '4529247']"
4621545,2299,1942,2497,2199
4210718,2410,1618,2830,2014
4650630,2598,1151,2746,1450
4529247,3476,1588,3625,1725
4529247,3105,1875,3196,2017
