https://surfdrive.surf.nl/files/index.php/s/B7PEqFZSZZBPcW8/download?path=%2FData%2FInput%2FDatasets%2FDavid%2FImages&files=C_790.jpg,5472,3648
C_790,daylight,couch,"[130, 130, 130]","['4621545', '4210718', '4650630', '4529247', '4529247', '6151663', '300821']"
4621545,2705,1377,2849,1620
4210718,1897,1288,2373,1709
4650630,3811,2330,4157,2657
4529247,3335,1755,3484,1910
4529247,2714,1676,2901,1825
6151663,2354,1456,2583,1611
300821,2406,1606,2803,2470
