https://surfdrive.surf.nl/files/index.php/s/B7PEqFZSZZBPcW8/download?path=%2FData%2FInput%2FDatasets%2FDavid%2FImages&files=C_799.jpg,5472,3648
C_799,daylight,couch,"[130, 130, 130]","['4504381', '4647553', '4153827']"
4504381,2946,1719,3082,1853
4647553,2639,1703,2903,1857
4153827,2329,1826,2856,2137
