https://surfdrive.surf.nl/files/index.php/s/B7PEqFZSZZBPcW8/download?path=%2FData%2FInput%2FDatasets%2FDavid%2FImages&files=C_798.jpg,5472,3648
C_798,daylight,couch,"[130, 130, 130]","['4504381', '4647553', '4153827']"
4504381,2838,1457,2992,1550
4647553,2236,2063,2557,2338
4153827,2787,1803,3311,2359
