https://surfdrive.surf.nl/files/index.php/s/B7PEqFZSZZBPcW8/download?path=%2FData%2FInput%2FDatasets%2FDavid%2FImages&files=C_801.jpg,5472,3648
C_801,daylight,couch,"[130, 130, 130]","['4504381', '4647553', '4153827', '4520632']"
4504381,2643,1500,2760,1657
4647553,2792,1187,3041,1387
4153827,2725,1449,3076,1920
4520632,3157,971,3642,1368
