https://surfdrive.surf.nl/files/index.php/s/B7PEqFZSZZBPcW8/download?path=%2FData%2FInput%2FDatasets%2FDavid%2FImages&files=C_808.jpg,5472,3648
C_808,daylight,couch,"[130, 130, 130]","['4504381', '4647553', '4153827', '4520632', '4647553', '4550325']"
4504381,2334,2321,2483,2478
4647553,2565,1802,2776,2017
4647553,2575,2037,2812,2218
4153827,2167,1625,2458,1960
4520632,3541,1252,3786,1578
4550325,2698,1696,2904,1876
