https://surfdrive.surf.nl/files/index.php/s/B7PEqFZSZZBPcW8/download?path=%2FData%2FInput%2FDatasets%2FDavid%2FImages&files=C_804.jpg,5472,3648
C_804,daylight,couch,"[130, 130, 130]","['4504381', '4647553', '4153827', '4520632', '4647553']"
4504381,3010,2031,3114,2147
4647553,2530,2159,2691,2349
4647553,2804,775,2907,916
4153827,3211,778,3457,1072
4520632,3165,2377,3376,2764
