https://surfdrive.surf.nl/files/index.php/s/B7PEqFZSZZBPcW8/download?path=%2FData%2FInput%2FDatasets%2FDavid%2FImages&files=C_811.jpg,5472,3648
C_811,daylight,couch,"[130, 130, 130]","['4504381', '4647553', '4153827', '4520632', '4647553', '4550325', '6244886']"
4504381,3119,1458,3253,1558
4647553,1583,1823,1827,2056
4647553,1360,2080,1535,2307
4153827,1968,2029,2249,2424
4520632,2411,1459,2651,1751
4550325,3506,1492,3722,1653
6244886,1937,1752,2129,1931
