https://surfdrive.surf.nl/files/index.php/s/B7PEqFZSZZBPcW8/download?path=%2FData%2FInput%2FDatasets%2FDavid%2FImages&files=C_819.jpg,5472,3647
C_819,daylight,coffee-table,"[120, 120, 120]","['4109995', '4504381', '4211614', '4504369', '4165967', '4181144', '6238674', '6249125']"
4109995,3046,1306,3245,1647
4504381,3193,1250,3375,1351
4211614,1949,1323,2228,1579
4504369,1767,1429,1948,1595
4165967,2321,1316,2945,1802
4181144,2151,1907,3098,2281
6238674,3226,1999,3430,2193
6249125,3184,1847,3347,1989
