https://surfdrive.surf.nl/files/index.php/s/B7PEqFZSZZBPcW8/download?path=%2FData%2FInput%2FDatasets%2FDavid%2FImages&files=C_820.jpg,5472,3648
C_820,daylight,coffee-table,"[120, 120, 120]","['4109995', '4504381', '4211614', '4504369', '4165967', '4181144', '6238674']"
4109995,2821,1356,3042,1447
4504381,3306,1884,3446,1992
4211614,1959,1992,2185,2175
4504369,1792,2143,1916,2240
4165967,2202,1916,2735,2078
4181144,2918,887,3397,1437
6238674,2530,1582,2616,1706
