https://surfdrive.surf.nl/files/index.php/s/B7PEqFZSZZBPcW8/download?path=%2FData%2FInput%2FDatasets%2FDavid%2FImages&files=C_824.jpg,5472,3648
C_824,daylight,coffee-table,"[120, 120, 120]","['4109995', '4504381', '4211614', '4504369', '4165967', '4181144']"
4109995,2066,1635,2348,1892
4504381,3090,2078,3217,2187
4211614,2196,1875,2327,2166
4504369,2719,2293,2871,2436
4165967,1688,1615,2192,2116
4181144,2631,1061,3297,1305
