https://surfdrive.surf.nl/files/index.php/s/B7PEqFZSZZBPcW8/download?path=%2FData%2FInput%2FDatasets%2FDavid%2FImages&files=C_835.jpg,5472,3647
C_835,daylight,coffee-table,"[120, 120, 120]","['365901', '300821', '4212454', '4567338', '300423', '6104154', '4143562', '6244886', '4210718', '6075075']"
365901,2407,2202,2818,2606
300821,2020,1860,2933,2124
4212454,3553,1370,3626,1426
4567338,2727,1285,2887,1414
300423,2614,1499,2784,1685
6104154,2298,1416,2533,1591
4143562,2963,1215,3078,1375
6244886,2076,1230,2257,1455
4210718,2880,1557,3356,1878
6075075,3270,1592,3491,1737
