https://surfdrive.surf.nl/files/index.php/s/B7PEqFZSZZBPcW8/download?path=%2FData%2FInput%2FDatasets%2FDavid%2FImages&files=C_849.jpg,5472,3648
C_849,daylight,coffee-table,"[120, 120, 120]","['6138173', '6069259', '6223631', '4211166', '6075079', '300424', '6177697', '4639693', '4504369', '4567338', '6229071']"
6138173,3222,1964,3377,2207
6069259,2599,1496,2796,1647
6223631,2846,2393,2990,2551
4211166,2835,1410,3029,1635
6075079,2859,1668,2967,1830
300424,3108,1423,3276,1642
6177697,2748,1179,3132,1398
4639693,2238,1210,2676,1913
4504369,3036,1441,3129,1550
4567338,3214,1571,3362,1690
6229071,2592,1651,2798,1884
