https://surfdrive.surf.nl/files/index.php/s/B7PEqFZSZZBPcW8/download?path=%2FData%2FInput%2FDatasets%2FDavid%2FImages&files=C_84.jpg,5472,3648
C_84,daylight,coffee_table,"[130, 130, 130]","['4121739', '306223', '4210718', '6151663']"
4121739,2940,1186,3121,1454
306223,2510,1683,2716,1902
4210718,2259,1252,2470,1880
6151663,2861,1854,3169,2109
