https://surfdrive.surf.nl/files/index.php/s/B7PEqFZSZZBPcW8/download?path=%2FData%2FInput%2FDatasets%2FDavid%2FImages&files=C_84.jpg,5472,3648
C_84,daylight,coffee_table,"[130, 130, 130]","['4121739', '306223', '4210718', '6151663']"
4121739,2852,1852,3166,2098
306223,2935,1178,3115,1460
4210718,2512,1686,2709,1886
6151663,2165,1273,2552,1817
