https://surfdrive.surf.nl/files/index.php/s/B7PEqFZSZZBPcW8/download?path=%2FData%2FInput%2FDatasets%2FDavid%2FImages&files=C_84.jpg,5472,3648
C_84,daylight,coffee_table,"[130, 130, 130]","['4121739', '306223', '4210718', '6151663']"
4121739,2949,1185,3098,1370
306223,2519,1677,2703,1862
4210718,2194,1282,2519,1695
6151663,2835,1827,3177,2082
