https://surfdrive.surf.nl/files/index.php/s/B7PEqFZSZZBPcW8/download?path=%2FData%2FInput%2FDatasets%2FDavid%2FImages&files=C_857.jpg,5472,3648
C_857,daylight,coffee-table,"[120, 120, 120]","['6138173', '6069259', '6223631', '4211166', '6075079', '300424', '6177697', '4639693']"
6138173,2439,2408,2822,2815
6069259,2594,1895,2946,2164
6223631,845,1362,1035,1550
4211166,1570,1486,1869,1833
6075079,3411,2436,3766,2614
300424,2062,1591,2412,1880
6177697,3208,1668,3836,1928
4639693,2031,997,3146,1347
