https://surfdrive.surf.nl/files/index.php/s/B7PEqFZSZZBPcW8/download?path=%2FData%2FInput%2FDatasets%2FDavid%2FImages&files=C_866.jpg,5472,3648
C_866,daylight,coffee-table,"[120, 120, 120]","['4539099', '4153825', '6022064', '4211511', '4517992', '6022023', '4621545', '4520632', '6229071', '6035291', '4527943', '4651236', '4655172']"
4539099,1981,1716,2290,1975
4153825,2321,1692,2547,1907
6022064,2659,1659,2961,1894
4211511,2372,1962,2587,2170
4517992,2598,1861,2752,2012
6022023,2754,1903,2980,2093
4621545,3100,1890,3199,2021
4520632,3067,2184,3280,2362
6229071,2657,2363,2824,2497
6035291,3390,2260,3736,2499
4527943,1896,1259,2349,1562
4651236,2538,1310,2630,1520
4655172,2109,827,2500,1091
