https://surfdrive.surf.nl/files/index.php/s/B7PEqFZSZZBPcW8/download?path=%2FData%2FInput%2FDatasets%2FDavid%2FImages&files=C_870.jpg,5472,3648
C_870,daylight,coffee-table,"[120, 120, 120]","['4539099', '4153825', '6022064', '4211511', '4517992', '6022023', '4621545', '4520632', '6229071', '6035291', '4527943', '4651236']"
4539099,2694,2447,2844,2592
4153825,1781,1141,2053,1375
6022064,2317,2214,2484,2556
4211511,2844,2152,3019,2284
4517992,1667,1721,1974,1941
6022023,1904,2671,2176,2963
4621545,2646,1626,2778,1873
4520632,2066,1205,2523,1486
6229071,1750,2145,1943,2339
6035291,1373,1477,1504,1653
4527943,2110,1934,2286,2207
4651236,1987,1943,2110,2110
