https://surfdrive.surf.nl/files/index.php/s/B7PEqFZSZZBPcW8/download?path=%2FData%2FInput%2FDatasets%2FDavid%2FImages&files=C_88.jpg,5472,3648
C_88,daylight,coffee_table,"[130, 130, 130]","['4121739', '306223', '4210718', '6151663', '4529240']"
4121739,2163,2138,2443,2549
306223,3199,1643,3344,1882
4210718,1873,1087,2205,1779
6151663,2971,2036,3335,2283
4529240,2938,1092,3092,1302
