https://surfdrive.surf.nl/files/index.php/s/B7PEqFZSZZBPcW8/download?path=%2FData%2FInput%2FDatasets%2FDavid%2FImages&files=C_88.jpg,5472,3648
C_88,daylight,coffee_table,"[130, 130, 130]","['4121739', '306223', '4210718', '6151663', '4529240']"
4121739,2167,2147,2428,2554
306223,3198,1639,3354,1888
4210718,1883,1100,2120,1771
6151663,2962,2043,3336,2281
4529240,2970,1096,3075,1307
