https://surfdrive.surf.nl/files/index.php/s/B7PEqFZSZZBPcW8/download?path=%2FData%2FInput%2FDatasets%2FDavid%2FImages&files=C_929.jpg,5472,3648
C_929,daylight,couch,"[120, 120, 120]","['365901', '306201', '4529247', '300423', '6003007', '6244886', '6104154', '300421', '6062574', '6075075']"
365901,2581,1599,3065,1823
306201,2863,1441,3041,1560
4529247,2861,1545,3011,1612
300423,3203,1758,3471,1911
6003007,2360,2072,2477,2254
6244886,2485,1777,2752,2035
6104154,3161,1592,3383,1781
300421,2911,1752,3183,1926
6062574,2654,1603,2810,1695
6075075,2515,2058,2737,2313
