https://surfdrive.surf.nl/files/index.php/s/B7PEqFZSZZBPcW8/download?path=%2FData%2FInput%2FDatasets%2FDavid%2FImages&files=C_935.jpg,5472,3647
C_935,daylight,couch,"[120, 120, 120]","['365901', '306201', '4529247', '300423', '6003007', '6244886', '6104154', '300421']"
365901,2692,1520,3210,2017
306201,1802,1533,2008,1723
4529247,3261,2061,3362,2281
300423,1964,1716,2286,2004
6003007,2218,1707,2387,1867
6244886,1788,1616,2118,1959
6104154,3017,1701,3205,2027
300421,1708,1354,1917,1574
