https://surfdrive.surf.nl/files/index.php/s/B7PEqFZSZZBPcW8/download?path=%2FData%2FInput%2FDatasets%2FDavid%2FImages&files=C_939.jpg,5472,3648
C_939,daylight,couch,"[120, 120, 120]","['365901', '306201', '4529247', '300423', '6003007', '6244886', '6104154']"
365901,2450,1641,2809,2035
306201,2955,1330,3099,1401
4529247,3213,1833,3308,1979
300423,2726,1762,2969,1949
6003007,2872,1629,3018,1786
6244886,2248,1590,2470,1812
6104154,2581,1472,2761,1655
