https://surfdrive.surf.nl/files/index.php/s/B7PEqFZSZZBPcW8/download?path=%2FData%2FInput%2FDatasets%2FDavid%2FImages&files=C_946.jpg,5472,3648
C_946,daylight,couch,"[120, 120, 120]","['300821', '4143562', '4211149', '4655172', '300321', '6249125', '4550348', '4211221', '300323', '4550348', '4504381', '300321']"
300821,2053,1406,2914,1924
4143562,2831,2078,3002,2214
4211149,2971,1652,3064,1823
4655172,2677,984,3068,1116
300321,3099,1850,3358,2065
300321,2655,1652,2866,1902
6249125,3551,1692,3630,1769
4550348,2435,1865,2628,2085
4550348,3679,1687,3863,1762
4211221,3279,1625,3420,1784
300323,2184,1915,2378,2096
4504381,3538,1392,3635,1472
