https://surfdrive.surf.nl/files/index.php/s/B7PEqFZSZZBPcW8/download?path=%2FData%2FInput%2FDatasets%2FDavid%2FImages&files=C_949.jpg,5472,3648
C_949,daylight,couch,"[120, 120, 120]","['300821', '4143562', '4211149', '4655172', '300321', '6249125', '4550348', '4211221', '300323', '4550348', '4504381']"
300821,2250,1480,2993,2276
4143562,2198,1735,2338,2043
4211149,3077,1907,3283,2135
4655172,2576,1537,3068,1762
300321,2321,1977,2602,2206
6249125,3237,1619,3349,1755
4550348,2633,2540,2725,2781
4550348,3323,1959,3450,2184
4211221,1868,1602,2110,1659
300323,1848,1799,2108,2045
4504381,3449,2143,3533,2244
