https://surfdrive.surf.nl/files/index.php/s/B7PEqFZSZZBPcW8/download?path=%2FData%2FInput%2FDatasets%2FDavid%2FImages&files=C_953.jpg,5472,3648
C_953,daylight,couch,"[120, 120, 120]","['300821', '4143562', '4211149', '4655172', '300321', '6249125', '4550348', '4211221', '300323', '4550348']"
300821,2269,1314,3046,1703
4143562,2822,2937,3069,3153
4211149,2381,574,2538,686
4655172,2583,1965,3046,2129
300321,1798,1501,2000,1673
6249125,3256,1838,3338,1927
4550348,3076,1606,3188,1748
4550348,2934,1838,3069,1897
4211221,1768,2077,1948,2286
300323,2291,1270,2493,1359
