https://surfdrive.surf.nl/files/index.php/s/B7PEqFZSZZBPcW8/download?path=%2FData%2FInput%2FDatasets%2FDavid%2FImages&files=C_967.jpg,5472,3647
C_967,daylight,couch,"[120, 120, 120]","['654126', '6004938', '4210718', '6238674', '4539099', '4651236', '4153825', '4114319', '4211149', '4647553']"
654126,1778,1880,1923,2003
6004938,3554,1622,3660,1749
4210718,2253,1225,2708,1578
6238674,3408,1516,3580,1590
4539099,3179,1309,3352,1410
4651236,3775,1800,3954,1968
4153825,2367,1655,2663,1886
4114319,3253,1103,3693,1312
4211149,2607,1850,2866,2020
4647553,2135,1809,2357,2041
