https://surfdrive.surf.nl/files/index.php/s/B7PEqFZSZZBPcW8/download?path=%2FData%2FInput%2FDatasets%2FDavid%2FImages&files=C_967.jpg,5472,3648
C_967,daylight,couch,"[120, 120, 120]","['654126', '6004938', '4210718', '6238674', '4539099', '4651236', '4153825', '4114319', '4211149', '4647553']"
654126,1858,1894,1950,2040
6004938,3554,1748,3655,1812
4210718,2269,1244,2685,1563
6238674,3407,1526,3425,1585
4539099,3330,1362,3369,1406
4651236,3772,1805,3942,1966
4153825,2375,1656,2644,1877
4114319,3278,1116,3683,1300
4211149,2617,1853,2874,2018
4647553,2137,1807,2347,2020
