https://surfdrive.surf.nl/files/index.php/s/B7PEqFZSZZBPcW8/download?path=%2FData%2FInput%2FDatasets%2FDavid%2FImages&files=C_970.jpg,5472,3648
C_970,daylight,couch,"[120, 120, 120]","['654126', '6004938', '4210718', '6238674', '4539099', '4651236', '4153825', '4114319', '4211149']"
654126,3111,1025,3238,1127
6004938,2159,1379,2698,1632
4210718,2007,1876,2454,2389
6238674,1948,2019,2083,2179
4539099,2580,1691,2884,1876
4651236,2462,1884,2757,2120
4153825,3094,1632,3263,1792
4114319,4595,1699,4874,1808
4211149,3069,1278,3170,1446
