https://surfdrive.surf.nl/files/index.php/s/B7PEqFZSZZBPcW8/download?path=%2FData%2FInput%2FDatasets%2FDavid%2FImages&files=C_987.jpg,5472,3648
C_987,daylight,couch,"[120, 120, 120]","['4527943', '300401', '4550325', '4211201', '4121967', '306223', '4157124', '6022064', '614321', '6069259', '6138173', '6075079']"
4527943,2510,1173,2729,1331
300401,3767,1036,3872,1195
4550325,2694,1054,2853,1168
4211201,3064,1085,3362,1414
4121967,3006,1731,3165,1911
306223,2949,1395,3013,1490
4157124,2492,1591,2571,1729
6022064,2664,1465,2925,1641
614321,2859,1131,3022,1268
6069259,3422,1191,3584,1329
6138173,3699,1518,3907,1707
6075079,2540,1002,2646,1108
