https://surfdrive.surf.nl/files/index.php/s/B7PEqFZSZZBPcW8/download?path=%2FData%2FInput%2FDatasets%2FDavid%2FImages&files=C_993.jpg,5472,3648
C_993,daylight,couch,"[120, 120, 120]","['4527943', '300401', '4550325', '4211201', '4121967', '306223', '4157124', '6022064', '614321', '6069259']"
4527943,1993,1209,2230,1460
300401,2208,974,2453,1140
4550325,3148,1327,3317,1586
4211201,2312,1465,2574,1699
4121967,1893,2094,2187,2321
306223,2587,1550,2753,1667
4157124,2853,2045,3069,2297
6022064,3296,1753,3578,2108
614321,2381,1648,2631,1907
6069259,2631,1778,2823,2071
