https://surfdrive.surf.nl/files/index.php/s/B7PEqFZSZZBPcW8/download?path=%2FData%2FInput%2FDatasets%2FDavid%2FImages&files=C_992.jpg,5472,3648
C_992,daylight,couch,"[120, 120, 120]","['4527943', '300401', '4550325', '4211201', '4121967', '306223', '4157124', '6022064', '614321', '6069259']"
4527943,2511,1598,2718,1785
300401,2863,1813,2999,2038
4550325,2821,1485,2999,1617
4211201,2408,1270,2657,1631
4121967,3200,1617,3388,1813
306223,2844,1640,2938,1771
4157124,2619,2193,2713,2395
6022064,2732,1982,3050,2207
614321,2427,1767,2619,1982
6069259,2563,1996,2718,2165
