https://surfdrive.surf.nl/files/index.php/s/B7PEqFZSZZBPcW8/download?path=%2FData%2FInput%2FDatasets%2FHiba%2FImages&files=H_113.jpg,5184,3456
H_113,daylight,wood,"[130, 130, 130]","['6022064', '4558957', '306223', '4527943']"
6022064,2444,1639,2736,1889
4558957,3335,1248,3651,1506
306223,1895,1364,1970,1489
4527943,1637,840,1795,956
