https://surfdrive.surf.nl/files/index.php/s/B7PEqFZSZZBPcW8/download?path=%2FData%2FInput%2FDatasets%2FHiba%2FImages&files=H_112.jpg,5184,3456
H_112,daylight,wood,"[130, 130, 130]","['6022064', '4558957', '306223', '4527943']"
6022064,1113,1381,1646,1656
4558957,1937,1397,2137,1497
306223,3410,1173,3584,1298
4527943,2336,1589,2719,1847
