https://surfdrive.surf.nl/files/index.php/s/B7PEqFZSZZBPcW8/download?path=%2FData%2FInput%2FDatasets%2FHiba%2FImages&files=H_117.jpg,5184,3456
H_117,daylight,wood,"[130, 130, 130]","['6022064', '4558957', '306223', '4527943', '6003007', '4211614']"
6022064,2959,1508,3209,1664
4558957,2165,1608,2509,1920
306223,3059,1764,3147,1927
4527943,2197,1308,2340,1458
6003007,2865,1327,2978,1420
4211614,2415,1852,2615,2014
