https://surfdrive.surf.nl/files/index.php/s/B7PEqFZSZZBPcW8/download?path=%2FData%2FInput%2FDatasets%2FHiba%2FImages&files=H_128.jpg,5184,3456
H_128,daylight,wood,"[130, 130, 130]",['4211054']
4211054,2422,1617,2748,1964
