https://surfdrive.surf.nl/files/index.php/s/B7PEqFZSZZBPcW8/download?path=%2FData%2FInput%2FDatasets%2FHiba%2FImages&files=H_122.jpg,5184,3456
H_122,daylight,wood,"[130, 130, 130]","['6022064', '4558957', '306223', '4527943', '6003007', '4211614', '6151663']"
6022064,1849,1780,2039,2008
4558957,2319,1617,2679,1864
306223,3816,1130,3934,1218
4527943,1370,1856,1559,2030
6003007,3007,1758,3102,1867
4211614,2192,2246,2351,2470
6151663,3983,2228,4195,2345
