https://surfdrive.surf.nl/files/index.php/s/B7PEqFZSZZBPcW8/download?path=%2FData%2FInput%2FDatasets%2FHiba%2FImages&files=H_136.jpg,5184,3456
H_136,daylight,wood,"[130, 130, 130]","['4211054', '4211054', '306201', '6229071']"
4211054,3825,1730,4109,1920
4211054,1631,1338,1870,1542
306201,2569,1701,2703,1846
6229071,1539,1181,1721,1365
