https://surfdrive.surf.nl/files/index.php/s/B7PEqFZSZZBPcW8/download?path=%2FData%2FInput%2FDatasets%2FHiba%2FImages&files=H_137.jpg,5183,3456
H_137,daylight,wood,"[130, 130, 130]","['4211054', '4211054', '306201', '6229071']"
4211054,3410,1459,3639,1671
4211054,1841,1588,2070,1804
306201,3525,2068,3646,2222
6229071,2535,1059,2698,1176
