https://surfdrive.surf.nl/files/index.php/s/B7PEqFZSZZBPcW8/download?path=%2FData%2FInput%2FDatasets%2FHiba%2FImages&files=H_140.jpg,5184,3456
H_140,daylight,wood,"[130, 130, 130]","['4211054', '4211054', '306201', '6229071', '6074890']"
4211054,1054,1672,1369,1930
4211054,1190,1801,1502,2156
306201,921,1905,1134,2054
6229071,2900,1002,3130,1240
6074890,2572,1859,2721,2064
