https://surfdrive.surf.nl/files/index.php/s/B7PEqFZSZZBPcW8/download?path=%2FData%2FInput%2FDatasets%2FHiba%2FImages&files=H_150.jpg,5184,3456
H_150,daylight,wood,"[130, 130, 130]","['4211054', '4211054', '306201', '6229071', '6074890', '4621545', '6062574', '300401', '6151663']"
4211054,999,2271,1273,2525
4211054,2483,1545,2739,1650
306201,3001,1489,3104,1588
6229071,2307,1085,2480,1192
6074890,1142,1975,1264,2098
4621545,1619,1379,1761,1576
6062574,2438,2318,2616,2528
300401,2621,1923,2824,2182
6151663,2688,2277,2860,2513
