https://surfdrive.surf.nl/files/index.php/s/B7PEqFZSZZBPcW8/download?path=%2FData%2FInput%2FDatasets%2FHiba%2FImages&files=H_15.jpg,5184,3456
H_15,daylight,wood,"[130, 130, 130]","['623224', '6022023', '4121739', '4118793', '4529240']"
623224,2449,1559,2724,1866
6022023,1045,1374,1372,1538
4121739,3614,1463,3885,1718
4118793,3347,1723,3552,1940
4529240,2240,816,2400,957
