https://surfdrive.surf.nl/files/index.php/s/B7PEqFZSZZBPcW8/download?path=%2FData%2FInput%2FDatasets%2FHiba%2FImages&files=H_162.jpg,5184,3456
H_162,daylight,wood,"[130, 130, 130]",['4211412']
4211412,2466,1723,2656,2009
