https://surfdrive.surf.nl/files/index.php/s/B7PEqFZSZZBPcW8/download?path=%2FData%2FInput%2FDatasets%2FHiba%2FImages&files=H_205.jpg,5184,3456
H_205,daylight,wood,"[130, 130, 130]","['4548180', '4504381', '4517992', '4647553', '300821', '300124', '300401', '4211437']"
4548180,2741,2446,3018,2600
4504381,2342,2159,2485,2323
4517992,2680,1329,2916,1503
4647553,2987,898,3202,990
300821,2209,1759,3131,1975
300124,2270,1113,2414,1339
300401,1533,1359,1737,1534
4211437,3028,1441,3295,1605
