https://surfdrive.surf.nl/files/index.php/s/B7PEqFZSZZBPcW8/download?path=%2FData%2FInput%2FDatasets%2FHiba%2FImages&files=H_210.jpg,5184,3456
H_210,daylight,wood,"[130, 130, 130]",['6069259']
6069259,2500,1755,2662,1961
