https://surfdrive.surf.nl/files/index.php/s/B7PEqFZSZZBPcW8/download?path=%2FData%2FInput%2FDatasets%2FHiba%2FImages&files=H_219.jpg,5183,3456
H_219,daylight,wood,"[130, 130, 130]","['300124', '300401']"
300124,2294,1711,2920,2234
300401,2513,1532,2739,1750
