https://surfdrive.surf.nl/files/index.php/s/B7PEqFZSZZBPcW8/download?path=%2FData%2FInput%2FDatasets%2FHiba%2FImages&files=H_215.jpg,5184,3456
H_215,daylight,wood,"[130, 130, 130]","['6069259', '6073026']"
6069259,1752,2038,2017,2216
6073026,4129,1212,4301,1387
