https://surfdrive.surf.nl/files/index.php/s/B7PEqFZSZZBPcW8/download?path=%2FData%2FInput%2FDatasets%2FHiba%2FImages&files=H_214.jpg,5184,3456
H_214,daylight,wood,"[130, 130, 130]","['6069259', '6073026']"
6069259,2453,1677,2719,1806
6073026,2436,1819,2594,1998
