https://surfdrive.surf.nl/files/index.php/s/B7PEqFZSZZBPcW8/download?path=%2FData%2FInput%2FDatasets%2FHiba%2FImages&files=H_229.jpg,5184,3456
H_229,daylight,wood,"[130, 130, 130]","['300124', '300401', '6249125', '4121739', '6249125']"
300124,2070,1344,2361,1631
300401,1341,1486,1512,1627
6249125,4149,2444,4297,2544
6249125,2232,1800,2294,1919
4121739,4551,1290,4684,1419
