https://surfdrive.surf.nl/files/index.php/s/B7PEqFZSZZBPcW8/download?path=%2FData%2FInput%2FDatasets%2FHiba%2FImages&files=H_222.jpg,5184,3456
H_222,daylight,wood,"[130, 130, 130]","['300124', '300401', '6249125']"
300124,2161,1091,2690,1442
300401,3210,2273,3556,2593
6249125,2469,1760,2586,1904
