https://surfdrive.surf.nl/files/index.php/s/B7PEqFZSZZBPcW8/download?path=%2FData%2FInput%2FDatasets%2FHiba%2FImages&files=H_227.jpg,5184,3456
H_227,daylight,wood,"[130, 130, 130]","['300124', '300401', '6249125', '4121739']"
300124,1213,1323,1671,1622
300401,2594,1273,2736,1456
6249125,2490,1590,2636,1681
4121739,3612,2394,3822,2621
