https://surfdrive.surf.nl/files/index.php/s/B7PEqFZSZZBPcW8/download?path=%2FData%2FInput%2FDatasets%2FHiba%2FImages&files=H_237.jpg,5184,3455
H_237,daylight,wood,"[130, 130, 130]","['6035291', '4160403']"
6035291,2767,1294,2839,1408
4160403,2379,1811,2851,2183
