https://surfdrive.surf.nl/files/index.php/s/B7PEqFZSZZBPcW8/download?path=%2FData%2FInput%2FDatasets%2FHiba%2FImages&files=H_245.jpg,5183,3456
H_245,daylight,wood,"[130, 130, 130]","['6035291', '4160403', '6104154', '300123']"
6035291,3918,1560,4063,1625
4160403,3614,1433,4049,1524
6104154,2182,1588,2345,1721
300123,2340,1748,2672,2050
