https://surfdrive.surf.nl/files/index.php/s/B7PEqFZSZZBPcW8/download?path=%2FData%2FInput%2FDatasets%2FHiba%2FImages&files=H_259.jpg,5184,3456
H_259,daylight,wood,"[130, 130, 130]","['6035291', '4160403', '6104154', '300123', '6069259', '6075079', '4649749', '4647553', '300421']"
6035291,3561,1308,3762,1503
4160403,1829,768,2285,1056
6104154,2448,1777,2682,1935
300123,2229,2148,2672,2412
6069259,4361,1165,4556,1246
6075079,1066,1499,1258,1615
4649749,2822,1105,3010,1278
4647553,3089,2418,3335,2654
300421,2016,1677,2248,1848
