https://surfdrive.surf.nl/files/index.php/s/B7PEqFZSZZBPcW8/download?path=%2FData%2FInput%2FDatasets%2FHiba%2FImages&files=H_268.jpg,5184,3456
H_268,daylight,wood,"[130, 130, 130]","['4143562', '300123']"
4143562,2097,1908,2226,2058
300123,2454,1772,2762,1947
