https://surfdrive.surf.nl/files/index.php/s/B7PEqFZSZZBPcW8/download?path=%2FData%2FInput%2FDatasets%2FHiba%2FImages&files=H_270.jpg,5184,3456
H_270,daylight,wood,"[130, 130, 130]","['4143562', '300123', '4109995']"
4143562,2532,1897,2769,2091
300123,2419,1577,2740,1896
4109995,1683,1494,1832,1673
