https://surfdrive.surf.nl/files/index.php/s/B7PEqFZSZZBPcW8/download?path=%2FData%2FInput%2FDatasets%2FHiba%2FImages&files=H_29.jpg,5184,3456
H_29,daylight,wood,"[130, 130, 130]","['4181135', '6238674', '300321']"
4181135,2472,1432,2944,1945
6238674,1896,2033,2080,2071
300321,3175,1223,3398,1352
