https://surfdrive.surf.nl/files/index.php/s/B7PEqFZSZZBPcW8/download?path=%2FData%2FInput%2FDatasets%2FHiba%2FImages&files=H_308.jpg,5184,3456
H_308,daylight,wood,"[130, 130, 130]","['4550348', '4121967']"
4550348,1652,2129,1883,2306
4121967,2611,1581,2739,1738
