https://surfdrive.surf.nl/files/index.php/s/B7PEqFZSZZBPcW8/download?path=%2FData%2FInput%2FDatasets%2FHiba%2FImages&files=H_30.jpg,5184,3456
H_30,daylight,wood,"[130, 130, 130]","['4181135', '6238674', '300321', '4651236']"
4181135,2355,1460,2778,1905
6238674,2173,1102,2344,1225
300321,3994,1504,4214,1659
4651236,1824,1922,1974,2013
