https://surfdrive.surf.nl/files/index.php/s/B7PEqFZSZZBPcW8/download?path=%2FData%2FInput%2FDatasets%2FHiba%2FImages&files=H_31.jpg,5184,3456
H_31,daylight,wood,"[130, 130, 130]","['4181135', '6238674', '300321', '4651236']"
4181135,1579,1514,2336,1881
6238674,3784,1014,3934,1073
300321,2062,1497,2444,1647
4651236,2103,989,2245,1156
