https://surfdrive.surf.nl/files/index.php/s/B7PEqFZSZZBPcW8/download?path=%2FData%2FInput%2FDatasets%2FHiba%2FImages&files=H_32.jpg,5184,3456
H_32,daylight,wood,"[130, 130, 130]","['4181135', '6238674', '300321', '4651236']"
4181135,1681,1217,1904,1644
6238674,2502,1699,2632,1858
300321,3540,1491,3791,1673
4651236,2930,1310,3134,1376
