https://surfdrive.surf.nl/files/index.php/s/B7PEqFZSZZBPcW8/download?path=%2FData%2FInput%2FDatasets%2FHiba%2FImages&files=H_327.jpg,5184,3456
H_327,daylight,wood,"[130, 130, 130]","['4211437', '300821', '4647553', '4211166', '6073026', '6252809']"
4211437,2465,1821,2660,2036
300821,2373,2046,3121,2293
4647553,1994,1041,2157,1154
4211166,2885,1154,3018,1277
6073026,2844,816,2967,918
6252809,1502,990,1666,1431
