https://surfdrive.surf.nl/files/index.php/s/B7PEqFZSZZBPcW8/download?path=%2FData%2FInput%2FDatasets%2FHiba%2FImages&files=H_320.jpg,5184,3456
H_320,daylight,wood,"[130, 130, 130]","['4211437', '300821', '4647553']"
4211437,2827,1998,3081,2194
300821,1243,1186,1634,1723
4647553,2573,1686,2796,1942
