https://surfdrive.surf.nl/files/index.php/s/B7PEqFZSZZBPcW8/download?path=%2FData%2FInput%2FDatasets%2FHiba%2FImages&files=H_33.jpg,5184,3455
H_33,daylight,wood,"[130, 130, 130]",['4210718']
4210718,2368,1432,3022,1620
