https://surfdrive.surf.nl/files/index.php/s/B7PEqFZSZZBPcW8/download?path=%2FData%2FInput%2FDatasets%2FHiba%2FImages&files=H_337.jpg,5184,3456
H_337,daylight,wood,"[130, 130, 130]","['6022064', '300421', '6249125']"
6022064,2211,1651,2412,2108
300421,2833,1849,3245,2197
6249125,2468,1668,2637,1852
