https://surfdrive.surf.nl/files/index.php/s/B7PEqFZSZZBPcW8/download?path=%2FData%2FInput%2FDatasets%2FHiba%2FImages&files=H_336.jpg,5184,3456
H_336,daylight,wood,"[130, 130, 130]","['6022064', '300421', '6249125']"
6022064,2721,1496,3002,1738
300421,2411,1899,2680,2108
6249125,2224,1437,2334,1597
