https://surfdrive.surf.nl/files/index.php/s/B7PEqFZSZZBPcW8/download?path=%2FData%2FInput%2FDatasets%2FHiba%2FImages&files=H_345.jpg,5184,3456
H_345,daylight,wood,"[130, 130, 130]","['6035291', '6151663']"
6035291,1882,1753,2194,2007
6151663,2819,1360,2936,1607
