https://surfdrive.surf.nl/files/index.php/s/B7PEqFZSZZBPcW8/download?path=%2FData%2FInput%2FDatasets%2FHiba%2FImages&files=H_350.jpg,5184,3456
H_350,daylight,wood,"[130, 130, 130]","['6035291', '6151663', '4181144']"
6035291,1319,2171,1589,2338
6151663,2406,1359,2613,1476
4181144,2566,1445,2708,2091
