https://surfdrive.surf.nl/files/index.php/s/B7PEqFZSZZBPcW8/download?path=%2FData%2FInput%2FDatasets%2FHiba%2FImages&files=H_378.jpg,5184,3456
H_378,daylight,wood,"[130, 130, 130]","['365901', '300424', '4529247', '4211412', '6238674', '4539099']"
365901,2568,1373,3187,1628
300424,1030,1048,1173,1288
4529247,3029,1115,3162,1240
4211412,1295,960,1461,1093
6238674,2365,1749,2582,1948
4539099,2656,886,2774,1030
