https://surfdrive.surf.nl/files/index.php/s/B7PEqFZSZZBPcW8/download?path=%2FData%2FInput%2FDatasets%2FHiba%2FImages&files=H_388.jpg,5184,3456
H_388,daylight,wood,"[130, 130, 130]",['4181134']
4181134,2124,1375,3047,2180
