https://surfdrive.surf.nl/files/index.php/s/B7PEqFZSZZBPcW8/download?path=%2FData%2FInput%2FDatasets%2FHiba%2FImages&files=H_381.jpg,5184,3456
H_381,daylight,wood,"[130, 130, 130]","['365901', '300424', '4529247', '4211412', '6238674', '4539099', '4211054']"
365901,2515,1522,2921,1826
300424,1971,1573,2215,1729
4529247,1851,1609,1980,1776
4211412,3732,1849,3926,1979
6238674,2077,1868,2275,2002
4539099,3908,1766,4088,1882
4211054,2496,1817,2833,2135
