https://surfdrive.surf.nl/files/index.php/s/B7PEqFZSZZBPcW8/download?path=%2FData%2FInput%2FDatasets%2FHiba%2FImages&files=H_407.jpg,5184,3456
H_407,daylight,wood,"[130, 130, 130]","['4211166', '4647553', '4114319', '4550348', '4567338']"
4211166,3369,1551,3752,1961
4647553,2379,1586,2653,2039
4114319,1603,899,2024,1544
4550348,3354,997,3594,1207
4567338,2521,1276,2709,1477
