https://surfdrive.surf.nl/files/index.php/s/B7PEqFZSZZBPcW8/download?path=%2FData%2FInput%2FDatasets%2FHiba%2FImages&files=H_412.jpg,5184,3456
H_412,daylight,wood,"[130, 130, 130]","['4211166', '4647553', '4114319', '4550348', '4567338', '4211437', '4621545']"
4211166,3453,1174,3663,1301
4647553,2368,889,2521,1115
4114319,1206,1946,1744,2671
4550348,927,1103,1163,1285
4567338,1232,1450,1450,1590
4211437,1828,1158,2049,1437
4621545,2496,1557,2739,1889
