https://surfdrive.surf.nl/files/index.php/s/B7PEqFZSZZBPcW8/download?path=%2FData%2FInput%2FDatasets%2FHiba%2FImages&files=H_413.jpg,5184,3456
H_413,daylight,wood,"[130, 130, 130]","['4211166', '4647553', '4114319', '4550348', '4567338', '4211437', '4621545']"
4211166,2469,1530,2745,1658
4647553,1345,1070,1483,1254
4114319,1695,1183,1876,1262
4550348,2513,1303,2809,1548
4567338,2393,1696,2623,1998
4211437,2019,1655,2316,2008
4621545,854,2038,1416,2825
