https://surfdrive.surf.nl/files/index.php/s/B7PEqFZSZZBPcW8/download?path=%2FData%2FInput%2FDatasets%2FHiba%2FImages&files=H_411.jpg,5184,3456
H_411,daylight,wood,"[130, 130, 130]","['4211166', '4647553', '4114319', '4550348', '4567338', '4211437', '4621545']"
4211166,2552,784,2799,972
4647553,2284,1546,2581,1774
4114319,1142,1858,1411,2435
4550348,1547,872,1694,1019
4567338,1543,1257,1757,1435
4211437,3227,1850,3445,2095
4621545,2711,1760,2928,2013
