https://surfdrive.surf.nl/files/index.php/s/B7PEqFZSZZBPcW8/download?path=%2FData%2FInput%2FDatasets%2FHiba%2FImages&files=H_424.jpg,5184,3456
H_424,daylight,parquet_brown_medium,"[120, 120, 120]","['4157124', '4121967', '6075075', '4181144', '4655172', '4153825', '614321', '300821', '4181135', '4550325']"
4157124,4068,1567,4210,1788
4121967,3135,1355,3302,1496
6075075,3914,1342,4091,1480
4181144,1196,1522,1687,1872
4655172,2494,939,2611,1231
4153825,1612,939,1820,1098
614321,2852,737,2969,826
300821,2112,1706,2927,1839
4181135,1363,1964,1862,2372
4550325,2979,2136,3227,2269
