https://surfdrive.surf.nl/files/index.php/s/B7PEqFZSZZBPcW8/download?path=%2FData%2FInput%2FDatasets%2FHiba%2FImages&files=H_438.jpg,5183,3456
H_438,daylight,parquet_brown_medium,"[120, 120, 120]","['4160403', '4539099', '6225539', '6151663', '4550348', '6252809', '4548180', '365901', '6225539', '6229071', '6138173', '4121739', '4211054']"
4160403,645,1064,906,1391
4539099,3444,2253,3555,2371
6225539,3737,1461,4190,1654
6225539,2087,1119,2488,1272
6151663,2481,1670,2571,1806
4550348,1106,1951,1241,2072
6252809,1686,1283,1822,1812
4548180,3021,1772,3170,1903
365901,1833,1034,2103,1192
6229071,1877,1589,2011,1667
6138173,2685,1247,2801,1357
4121739,2089,2032,2208,2175
4211054,2832,1658,2986,1789
