https://surfdrive.surf.nl/files/index.php/s/B7PEqFZSZZBPcW8/download?path=%2FData%2FInput%2FDatasets%2FHiba%2FImages&files=H_446.jpg,5184,3456
H_446,daylight,parquet_brown_medium,"[120, 120, 120]","['4160403', '4539099', '6225539', '6151663', '4550348', '6252809', '4548180', '365901', '6225539', '6229071']"
4160403,2421,1494,2752,1861
4539099,2416,1057,2509,1150
6225539,1630,1713,2092,2000
6225539,1559,1367,1974,1488
6151663,3154,1280,3289,1392
4550348,1120,2594,1291,2729
6252809,2775,1694,3618,1919
4548180,3640,1850,3818,1940
365901,1705,2242,2024,2477
6229071,1536,2737,1734,2966
