https://surfdrive.surf.nl/files/index.php/s/B7PEqFZSZZBPcW8/download?path=%2FData%2FInput%2FDatasets%2FHiba%2FImages&files=H_459.jpg,5184,3456
H_459,daylight,parquet_brown_medium,"[120, 120, 120]","['4160403', '4539099', '6225539', '6151663', '4550348', '6252809']"
4160403,1656,1244,1755,1315
4539099,1430,1403,2470,1738
6225539,2506,1523,2580,1593
6151663,2525,1814,2638,1962
4550348,1390,2309,2060,2567
6252809,3359,1024,3606,1334
