https://surfdrive.surf.nl/files/index.php/s/B7PEqFZSZZBPcW8/download?path=%2FData%2FInput%2FDatasets%2FHiba%2FImages&files=H_450.jpg,5183,3456
H_450,daylight,parquet_brown_medium,"[120, 120, 120]","['4160403', '4539099', '6225539', '6151663', '4550348', '6252809', '4548180', '365901', '6225539']"
4160403,2250,1871,2705,2186
4539099,3721,1173,3823,1250
6225539,3357,1535,3731,1898
6225539,2261,1729,2772,1876
6151663,3205,1023,3352,1087
4550348,2844,1740,3020,1873
6252809,1223,1009,1929,1210
4548180,2306,1507,2464,1614
365901,2435,1488,2761,1726
