https://surfdrive.surf.nl/files/index.php/s/B7PEqFZSZZBPcW8/download?path=%2FData%2FInput%2FDatasets%2FHiba%2FImages&files=H_45.jpg,5184,3456
H_45,daylight,wood,"[130, 130, 130]","['4210718', '6249125', '4504381', '4558957', '4651236']"
4210718,1566,2019,1699,2606
6249125,2634,1617,2742,1753
4504381,2558,1332,2697,1444
4558957,2446,1565,2798,1886
4651236,2430,2186,2619,2425
