https://surfdrive.surf.nl/files/index.php/s/B7PEqFZSZZBPcW8/download?path=%2FData%2FInput%2FDatasets%2FHiba%2FImages&files=H_461.jpg,5184,3456
H_461,daylight,parquet_brown_medium,"[120, 120, 120]","['6028324', '4114319', '6004938', '300121', '300421', '6249125', '306223', '6003007', '300424', '6252809', '6229071', '4160403', '4558957']"
6028324,3364,1019,3460,1094
4114319,2931,2006,3294,2119
6004938,3119,1107,3210,1198
300121,3190,1261,3473,1511
300421,2411,1352,2528,1415
6249125,2840,1732,2911,1792
306223,1890,1670,1951,1727
6003007,2482,1822,2521,1910
300424,2332,1049,2448,1132
6252809,1720,915,2540,1228
6229071,2061,1769,2215,1852
4160403,1695,1265,1907,1681
4558957,1570,1869,1820,2110
