https://surfdrive.surf.nl/files/index.php/s/B7PEqFZSZZBPcW8/download?path=%2FData%2FInput%2FDatasets%2FHiba%2FImages&files=H_47.jpg,5184,3456
H_47,daylight,wood,"[130, 130, 130]","['4210718', '6249125', '4504381', '4558957', '4651236']"
4210718,2130,1961,2469,2388
6249125,2413,1142,2506,1215
4504381,2870,1696,2978,1816
4558957,2440,1535,2777,1874
4651236,2872,2344,3029,2532
