https://surfdrive.surf.nl/files/index.php/s/B7PEqFZSZZBPcW8/download?path=%2FData%2FInput%2FDatasets%2FHiba%2FImages&files=H_489.jpg,5184,3456
H_489,daylight,parquet_brown_medium,"[120, 120, 120]","['4639693', '4211437', '4649749', '6062574', '4517992', '300124', '4153827', '4211412', '4118793', '4558957', '4181144', '6151663']"
4639693,2203,1189,2561,1597
4211437,2403,989,2561,1106
4649749,3318,2172,3468,2297
6062574,1438,1922,1537,2055
4517992,3618,1656,3792,1831
300124,2320,1756,2669,2055
4153827,1870,1606,2078,1980
4211412,3376,1114,3493,1239
4118793,2627,1089,2769,1181
4558957,3002,1539,3301,1831
4181144,1546,914,1904,1114
6151663,1712,1447,1854,1506
