https://surfdrive.surf.nl/files/index.php/s/B7PEqFZSZZBPcW8/download?path=%2FData%2FInput%2FDatasets%2FHiba%2FImages&files=H_487.jpg,5184,3456
H_487,daylight,parquet_brown_medium,"[120, 120, 120]","['4639693', '4211437', '4649749', '6062574', '4517992', '300124', '4153827', '4211412', '4118793', '4558957', '4181144', '6151663', '6073026']"
4639693,3099,978,3772,1275
4211437,3245,1206,3404,1364
4649749,3572,2266,3732,2484
6062574,2463,1397,2572,1536
4517992,2327,2142,2567,2415
300124,1481,1213,1824,1444
4153827,3105,1406,3482,1649
4211412,967,1332,1031,1435
4118793,2677,1032,2764,1154
4558957,3112,1673,3495,2026
4181144,2211,1647,2784,1930
6151663,2934,2262,3149,2453
6073026,1819,1851,1908,1998
