https://surfdrive.surf.nl/files/index.php/s/B7PEqFZSZZBPcW8/download?path=%2FData%2FInput%2FDatasets%2FHiba%2FImages&files=H_485.jpg,5183,3456
H_485,daylight,parquet_brown_medium,"[120, 120, 120]","['4639693', '4211437', '4649749', '6062574', '4517992', '300124', '4153827', '4211412', '4118793', '4558957', '4181144', '6151663', '6073026']"
4639693,1909,890,2555,1066
4211437,1898,1104,2096,1264
4649749,2344,1349,2518,1483
6062574,1373,1475,1482,1617
4517992,1755,1534,2004,1694
300124,2295,1700,2737,1955
4153827,2798,1488,3213,1678
4211412,1819,1761,1921,1871
4118793,1881,1970,2009,2120
4558957,3074,1960,3475,2276
4181144,2780,1671,3405,1944
6151663,3793,1809,3914,1980
6073026,1279,1617,1383,1679
