https://surfdrive.surf.nl/files/index.php/s/B7PEqFZSZZBPcW8/download?path=%2FData%2FInput%2FDatasets%2FHiba%2FImages&files=H_491.jpg,5184,3456
H_491,daylight,parquet_brown_medium,"[120, 120, 120]","['4639693', '4211437', '4649749', '6062574', '4517992', '300124', '4153827', '4211412', '4118793', '4558957', '4181144']"
4639693,2096,1206,2355,1660
4211437,2640,1064,2747,1161
4649749,3221,1838,3312,1984
6062574,2471,1469,2587,1601
4517992,3193,1507,3355,1674
300124,2614,2258,3015,2574
4153827,2417,1174,2707,1435
4211412,3506,1198,3616,1251
4118793,3067,1250,3166,1358
4558957,1554,1896,1882,2194
4181144,2177,1851,2705,2176
