https://surfdrive.surf.nl/files/index.php/s/B7PEqFZSZZBPcW8/download?path=%2FData%2FInput%2FDatasets%2FHiba%2FImages&files=H_504.jpg,5184,3455
H_504,daylight,parquet_brown_medium,"[120, 120, 120]","['4520632', '4181134', '4211201', '4504369', '6025026', '6244886', '623224', '4529247', '654126', '4211511', '6075075', '300321', '6074890']"
4520632,2430,1463,2792,1732
4181134,3055,1262,3396,1634
4211201,2068,1148,2368,1375
4504369,2706,2006,2805,2089
6025026,2639,1923,2810,2001
6244886,3237,1944,3441,2066
623224,1573,1646,1796,1859
4529247,2346,2441,2470,2570
654126,1566,2327,1709,2432
4211511,2134,1335,2249,1452
6075075,2194,1936,2358,2069
300321,1357,1695,1558,1937
6074890,3679,1559,3757,1653
