https://surfdrive.surf.nl/files/index.php/s/B7PEqFZSZZBPcW8/download?path=%2FData%2FInput%2FDatasets%2FHiba%2FImages&files=H_503.jpg,5184,3456
H_503,daylight,parquet_brown_medium,"[120, 120, 120]","['4520632', '4181134', '4211201', '4504369', '6025026', '6244886', '623224', '4529247', '654126', '4211511', '6075075', '300321', '6074890']"
4520632,2421,1300,2708,1551
4181134,3372,1522,3598,1915
4211201,2919,1506,3186,1737
4504369,2328,2218,2425,2319
6025026,2571,1755,2692,1872
6244886,2874,2001,3048,2216
623224,2081,1597,2190,1795
4529247,1700,1662,1720,1776
654126,2412,1824,2481,1962
4211511,2732,2193,2827,2304
6075075,1815,1985,1957,2088
300321,1382,1716,1471,1944
6074890,3155,1827,3240,1888
