https://surfdrive.surf.nl/files/index.php/s/B7PEqFZSZZBPcW8/download?path=%2FData%2FInput%2FDatasets%2FHiba%2FImages&files=H_503.jpg,5184,3456
H_503,daylight,parquet_brown_medium,"[120, 120, 120]","['4520632', '4181134', '4211201', '4504369', '6025026', '6244886', '623224', '4529247', '654126', '4211511', '6075075', '300321', '6074890']"
4520632,2404,1296,2732,1532
4181134,3366,1518,3573,1920
4211201,2913,1521,3200,1772
4504369,2308,2229,2407,2314
6025026,2536,1739,2699,1846
6244886,2854,2027,3031,2207
623224,2009,1591,2215,1772
4529247,1695,1676,1743,1757
654126,2381,1839,2492,1945
4211511,2728,2182,2850,2289
6075075,1828,1960,1954,2078
300321,1378,1713,1537,1923
6074890,3156,1805,3248,1875
