https://surfdrive.surf.nl/files/index.php/s/B7PEqFZSZZBPcW8/download?path=%2FData%2FInput%2FDatasets%2FHiba%2FImages&files=H_519.jpg,5184,3456
H_519,daylight,parquet_brown_medium,"[120, 120, 120]","['4520632', '4181134', '4211201', '4504369', '6025026', '6244886', '623224', '4529247']"
4520632,2515,1581,2698,1786
4181134,1724,1511,2045,1781
4211201,1412,1494,1686,1636
4504369,2553,1923,2619,2010
6025026,2532,1865,2661,1919
6244886,2961,1536,3106,1648
623224,1636,1881,1778,1981
4529247,1903,1427,1928,1494
