https://surfdrive.surf.nl/files/index.php/s/B7PEqFZSZZBPcW8/download?path=%2FData%2FInput%2FDatasets%2FHiba%2FImages&files=H_523.jpg,5184,3456
H_523,daylight,parquet_brown_medium,"[120, 120, 120]","['4520632', '4181134', '4211201', '4504369', '6025026', '6244886', '623224']"
4520632,2317,1761,2669,1992
4181134,2565,1540,3029,1736
4211201,1847,1715,2196,1977
4504369,3664,1567,3748,1653
6025026,3015,1605,3150,1746
6244886,1743,1459,1955,1599
623224,2296,1389,2502,1594
