https://surfdrive.surf.nl/files/index.php/s/B7PEqFZSZZBPcW8/download?path=%2FData%2FInput%2FDatasets%2FHiba%2FImages&files=H_530.jpg,5184,3456
H_530,daylight,table_plastic_grey,"[120, 120, 120]","['4504381', '4165967', '4211221', '6177697', '4210718', '6035291', '6069259', '4109995', '4504381', '4527943', '4212454', '4647553']"
4504381,3393,1385,3490,1469
4504381,3600,1450,3672,1560
4165967,1588,1560,1879,1734
4211221,3011,1385,3141,1553
6177697,1452,887,1536,1087
4210718,2312,1676,2649,1786
6035291,1581,1210,1717,1294
6069259,2811,1294,2985,1482
4109995,2371,1023,2468,1113
4527943,1147,1560,1290,1663
4212454,2209,1327,2267,1437
4647553,1827,984,1963,1107
