https://surfdrive.surf.nl/files/index.php/s/B7PEqFZSZZBPcW8/download?path=%2FData%2FInput%2FDatasets%2FHiba%2FImages&files=H_530.jpg,5184,3456
H_530,daylight,table_plastic_grey,"[120, 120, 120]","['4504381', '4165967', '4211221', '6177697', '4210718', '6035291', '6069259', '4109995', '4504381', '4527943', '4212454', '4647553']"
4504381,3597,1481,3649,1525
4504381,3429,1402,3463,1449
4165967,1647,1554,1829,1594
4211221,2994,1406,3073,1490
6177697,1434,888,1489,1061
4210718,2382,1668,2624,1702
6035291,1582,1243,1656,1273
6069259,2856,1332,2911,1436
4109995,2377,1021,2432,1115
4527943,1168,1579,1247,1673
4212454,2200,1332,2279,1416
4647553,1834,1021,1928,1110
