https://surfdrive.surf.nl/files/index.php/s/B7PEqFZSZZBPcW8/download?path=%2FData%2FInput%2FDatasets%2FHiba%2FImages&files=H_557.jpg,5184,3456
H_557,daylight,table_plastic_grey,"[120, 120, 120]","['6022023', '4143562', '300323', '6238674', '300401', '300423', '300123', '300821', '4649749', '4118793', '306223']"
6022023,2478,1156,2611,1264
4143562,2286,1314,2378,1431
300323,2702,1431,2869,1589
6238674,2045,1756,2120,1831
300401,2869,2239,3077,2347
300423,2228,1198,2361,1248
300123,3002,1081,3135,1289
300821,1579,998,1737,1331
4649749,1471,2014,1546,2130
4118793,3127,1572,3227,1647
306223,2969,2180,3085,2255
