https://surfdrive.surf.nl/files/index.php/s/B7PEqFZSZZBPcW8/download?path=%2FData%2FInput%2FDatasets%2FHiba%2FImages&files=H_567.jpg,5184,3456
H_567,daylight,table_plastic_grey,"[120, 120, 120]","['6138173', '6075079', '4650630', '300424', '300321', '4121967', '6223631', '614321', '4121739', '4527943', '365901', '6238674', '300423']"
6138173,2941,1273,3110,1344
6075079,3188,947,3339,1056
4650630,2538,1276,2700,1457
300424,1950,1492,2128,1616
300321,2175,1312,2341,1448
4121967,3076,1175,3252,1233
6223631,3407,1270,3505,1334
614321,2132,848,2280,951
4121739,3079,1732,3196,1874
4527943,2510,1450,2672,1580
365901,2154,2388,2387,2751
6238674,2497,2041,2637,2142
300423,3243,1577,3417,1731
