https://surfdrive.surf.nl/files/index.php/s/B7PEqFZSZZBPcW8/download?path=%2FData%2FInput%2FDatasets%2FHiba%2FImages&files=H_569.jpg,5184,3456
H_569,daylight,table_plastic_grey,"[120, 120, 120]","['6138173', '6075079', '4650630', '300424', '300321', '4121967', '6223631', '614321', '4121739', '4527943', '365901', '6238674']"
6138173,2422,1786,2554,1982
6075079,2805,1063,2914,1203
4650630,1925,1803,2124,2007
300424,1627,1150,1756,1316
300321,2826,874,3015,1067
4121967,2324,1321,2490,1450
6223631,2859,1205,2955,1302
614321,2532,1407,2697,1589
4121739,2228,1246,2356,1400
4527943,2566,2297,2746,2511
365901,2748,1592,2899,1904
6238674,2733,1228,2846,1329
