https://surfdrive.surf.nl/files/index.php/s/B7PEqFZSZZBPcW8/download?path=%2FData%2FInput%2FDatasets%2FHiba%2FImages&files=H_56.jpg,5184,3456
H_56,daylight,wood,"[130, 130, 130]","['4211511', '4529240', '614321']"
4211511,3265,1448,3373,1578
4529240,3557,1732,3662,1848
614321,2237,1574,2453,1783
