https://surfdrive.surf.nl/files/index.php/s/B7PEqFZSZZBPcW8/download?path=%2FData%2FInput%2FDatasets%2FHiba%2FImages&files=H_578.jpg,5184,3456
H_578,daylight,table_plastic_grey,"[120, 120, 120]","['6138173', '6075079', '4650630', '300424', '300321', '4121967', '6223631', '614321', '4121739']"
6138173,1571,1739,1770,1914
6075079,3651,1647,3767,1797
4650630,1721,1397,1870,1597
300424,2203,1539,2386,1656
300321,3168,2105,3376,2230
4121967,2794,1706,2960,1806
6223631,1770,1148,1870,1231
614321,2644,1381,2769,1506
4121739,2378,1123,2503,1239
