https://surfdrive.surf.nl/files/index.php/s/B7PEqFZSZZBPcW8/download?path=%2FData%2FInput%2FDatasets%2FHiba%2FImages&files=H_57.jpg,5184,3456
H_57,daylight,wood,"[130, 130, 130]","['4211511', '4529240', '614321', '300423']"
4211511,2444,1500,2572,1606
4529240,1470,2155,1583,2315
614321,2943,2075,3160,2241
300423,2575,1644,2784,1785
