https://surfdrive.surf.nl/files/index.php/s/B7PEqFZSZZBPcW8/download?path=%2FData%2FInput%2FDatasets%2FHiba%2FImages&files=H_589.jpg,5184,3455
H_589,daylight,table_plastic_grey,"[120, 120, 120]","['4157124', '4211511', '6022064', '4211149', '4550348', '4651236', '4539099', '4550325', '4548180', '623224', '4121967']"
4157124,2788,1862,2922,2043
4211511,3046,596,3180,715
6022064,3385,1753,3596,2099
4211149,2315,835,2444,1026
4550348,2123,1804,2325,1913
4651236,2009,2638,2258,2855
4539099,3093,1460,3190,1567
4550325,1653,2238,1821,2461
4548180,2417,1520,2614,1601
623224,2939,878,3175,1114
4121967,2732,713,2910,881
