https://surfdrive.surf.nl/files/index.php/s/B7PEqFZSZZBPcW8/download?path=%2FData%2FInput%2FDatasets%2FHiba%2FImages&files=H_584.jpg,5184,3455
H_584,daylight,table_plastic_grey,"[120, 120, 120]","['4157124', '4211511', '6022064', '4211149', '4550348', '4651236', '4539099', '4550325', '4548180', '623224', '4121967', '300123']"
4157124,3144,1550,3350,1694
4211511,2782,2475,2913,2577
6022064,3425,1328,3595,1612
4211149,2640,774,2810,853
4550348,2803,466,2885,590
4651236,2316,993,2450,1163
4539099,2018,1984,2165,2096
4550325,2351,1624,2549,1720
4548180,1907,1502,2081,1568
623224,2835,1435,3098,1663
4121967,3050,1079,3210,1139
300123,3040,621,3409,829
