https://surfdrive.surf.nl/files/index.php/s/B7PEqFZSZZBPcW8/download?path=%2FData%2FInput%2FDatasets%2FHiba%2FImages&files=H_585.jpg,5184,3456
H_585,daylight,table_plastic_grey,"[120, 120, 120]","['4157124', '4211511', '6022064', '4211149', '4550348', '4651236', '4539099', '4550325', '4548180', '623224', '4121967', '300123']"
4157124,3284,1287,3479,1449
4211511,1618,1812,1787,1958
6022064,3213,992,3414,1226
4211149,2324,1851,2500,2066
4550348,2764,767,2910,927
4651236,2070,780,2246,927
4539099,2266,1776,2432,1864
4550325,2549,1757,2744,1923
4548180,2578,953,2715,1112
623224,3014,1151,3213,1402
4121967,1520,1119,1739,1278
300123,2389,2040,2881,2408
