https://surfdrive.surf.nl/files/index.php/s/B7PEqFZSZZBPcW8/download?path=%2FData%2FInput%2FDatasets%2FHiba%2FImages&files=H_586.jpg,5184,3456
H_586,daylight,table_plastic_grey,"[120, 120, 120]","['4157124', '4211511', '6022064', '4211149', '4550348', '4651236', '4539099', '4550325', '4548180', '623224', '4121967', '300123']"
4157124,3241,1295,3474,1463
4211511,2385,1792,2592,1985
6022064,2771,1473,3028,1820
4211149,2761,1874,2999,2162
4550348,2041,1860,2298,2070
4651236,2175,1983,2433,2212
4539099,2595,1337,2759,1510
4550325,2155,1703,2422,1926
4548180,2499,1636,2676,1865
623224,3043,1737,3390,2110
4121967,1642,1764,1897,1999
300123,2734,970,3239,1332
