https://surfdrive.surf.nl/files/index.php/s/B7PEqFZSZZBPcW8/download?path=%2FData%2FInput%2FDatasets%2FHiba%2FImages&files=H_588.jpg,5183,3456
H_588,daylight,table_plastic_grey,"[120, 120, 120]","['4157124', '4211511', '6022064', '4211149', '4550348', '4651236', '4539099', '4550325', '4548180', '623224', '4121967']"
4157124,2470,1590,2706,1787
4211511,1759,1333,1866,1453
6022064,2440,1894,2556,2110
4211149,1796,1591,1924,1729
4550348,1727,1827,1907,1896
4651236,4350,1707,4470,1857
4539099,2964,1023,3169,1196
4550325,1675,1111,1803,1256
4548180,1713,851,1778,937
623224,1533,856,1610,894
4121967,2427,693,2502,824
