https://surfdrive.surf.nl/files/index.php/s/B7PEqFZSZZBPcW8/download?path=%2FData%2FInput%2FDatasets%2FHiba%2FImages&files=H_590.jpg,5184,3456
H_590,daylight,table_plastic_grey,"[120, 120, 120]","['4157124', '4211511', '6022064', '4211149', '4550348', '4651236', '4539099', '4550325', '4548180', '623224']"
4157124,2888,1131,3058,1223
4211511,2009,2479,2105,2629
6022064,2761,1365,3081,1494
4211149,2517,1825,2759,2034
4550348,1395,2056,1591,2273
4651236,3269,676,3439,762
4539099,1986,1524,2101,1648
4550325,2729,1636,2881,1821
4548180,1629,1505,1830,1719
623224,2081,725,2291,895
