https://surfdrive.surf.nl/files/index.php/s/B7PEqFZSZZBPcW8/download?path=%2FData%2FInput%2FDatasets%2FHiba%2FImages&files=H_615.jpg,5184,3456
H_615,daylight,table_plastic_grey,"[120, 120, 120]","['300124', '4181135', '6004938', '4114319', '300323', '6104154', '6003007', '4153827', '4211511', '4649749', '4211054', '4160403', '4520632']"
300124,1455,1111,1987,1459
4181135,2815,1087,3001,1289
6004938,3404,848,3736,1156
4114319,2281,820,2465,1101
300323,3422,1467,3523,1670
6104154,3193,1139,3515,1483
6003007,3021,1591,3072,1690
4153827,1854,2598,2119,2787
4211511,3048,1971,3153,2131
4649749,2287,1372,2376,1548
4211054,2172,1771,2390,2175
4160403,2159,1550,2685,1674
4520632,3760,1382,3884,1532
