https://surfdrive.surf.nl/files/index.php/s/B7PEqFZSZZBPcW8/download?path=%2FData%2FInput%2FDatasets%2FHiba%2FImages&files=H_638.jpg,5184,3455
H_638,daylight,parquet_brown_light,"[120, 120, 120]","['4211412', '300421', '300121', '4529247', '300401', '6075075', '6151663', '6022023', '6223631', '4121967']"
4211412,2435,1719,2577,1935
300421,3426,1695,3765,2000
300121,2778,724,3050,1063
4529247,3006,1417,3157,1580
300401,3184,984,3383,1220
6075075,922,1629,1227,1870
6151663,1954,1102,2108,1296
6022023,1935,1788,2226,2080
6223631,3112,1504,3273,1669
4121967,1475,1202,1733,1474
