https://surfdrive.surf.nl/files/index.php/s/B7PEqFZSZZBPcW8/download?path=%2FData%2FInput%2FDatasets%2FHiba%2FImages&files=H_634.jpg,5184,3456
H_634,daylight,parquet_brown_light,"[120, 120, 120]","['4211412', '300421', '300121', '4529247', '300401', '6075075', '6151663', '6022023', '6223631', '4121967', '4211166', '6252809']"
4211412,2049,972,2143,1088
300421,1801,1944,2059,2236
300121,3331,1436,3768,1868
4529247,1514,1503,1661,1591
300401,3325,1263,3569,1468
6075075,994,674,1146,812
6151663,2587,988,2687,1146
6022023,2378,1699,2622,1960
6223631,2433,2251,2539,2423
4121967,3203,1871,3464,2061
4211166,3033,1611,3238,1862
6252809,1879,1265,2971,1497
