https://surfdrive.surf.nl/files/index.php/s/B7PEqFZSZZBPcW8/download?path=%2FData%2FInput%2FDatasets%2FHiba%2FImages&files=H_655.jpg,5184,3456
H_655,daylight,parquet_brown_light,"[120, 120, 120]","['4109995', '6249125', '365901', '306201', '300423', '4212454', '4211201', '300821', '4529240', '4567338']"
4109995,2267,1780,2458,1949
6249125,1128,1886,1270,1949
365901,3561,1801,3929,2140
306201,1991,2310,2083,2451
300423,2656,1547,2868,1674
4212454,2288,670,2394,741
4211201,1185,1900,1524,2289
300821,3009,1695,3292,2388
4529240,2555,2635,2654,2826
4567338,2364,2539,2527,2631
