https://surfdrive.surf.nl/files/index.php/s/B7PEqFZSZZBPcW8/download?path=%2FData%2FInput%2FDatasets%2FHiba%2FImages&files=H_652.jpg,5184,3456
H_652,daylight,parquet_brown_light,"[120, 120, 120]","['4109995', '6249125', '365901', '306201', '300423', '4212454', '4211201', '300821', '4529240', '4567338', '306223']"
4109995,1833,2012,2097,2308
6249125,1542,1830,1683,1957
365901,2438,1629,2702,2085
306201,2252,1142,2420,1260
300423,2011,1429,2143,1647
4212454,1587,1916,1742,2089
4211201,2921,1370,3431,1752
300821,2393,846,3121,1288
4529240,2507,2422,2689,2595
4567338,2288,1693,2420,1839
306223,1373,1720,1524,1834
