https://surfdrive.surf.nl/files/index.php/s/B7PEqFZSZZBPcW8/download?path=%2FData%2FInput%2FDatasets%2FHiba%2FImages&files=H_673.jpg,5184,3456
H_673,daylight,parquet_brown_light,"[120, 120, 120]","['6069259', '4165967', '6238674', '4181144', '4558957', '4181134', '6244886', '4504369', '4143562', '4210718']"
6069259,1292,2434,1584,2687
4165967,3649,1495,4147,1832
6238674,1597,1433,1753,1531
4181144,3504,1098,4163,1319
4558957,2815,725,3197,1023
4181134,3142,1557,3892,1939
6244886,1675,1667,1810,1804
4504369,3080,2343,3477,2758
4143562,2092,1163,2366,1350
4210718,2354,1476,3002,1829
