https://surfdrive.surf.nl/files/index.php/s/B7PEqFZSZZBPcW8/download?path=%2FData%2FInput%2FDatasets%2FHiba%2FImages&files=H_675.jpg,5184,3456
H_675,daylight,parquet_brown_light,"[120, 120, 120]","['6069259', '4165967', '6238674', '4181144', '4558957', '4181134', '6244886', '4504369', '4143562']"
6069259,564,1797,830,1980
4165967,2536,1930,3002,2413
6238674,2386,1772,2553,1881
4181144,1945,1256,2578,1506
4558957,1255,1264,1596,1622
4181134,3202,1231,3842,1547
6244886,2153,2289,2428,2555
4504369,2503,1714,2603,1797
4143562,3360,973,3551,1181
