https://surfdrive.surf.nl/files/index.php/s/B7PEqFZSZZBPcW8/download?path=%2FData%2FInput%2FDatasets%2FHiba%2FImages&files=H_675.jpg,5184,3456
H_675,daylight,parquet_brown_light,"[120, 120, 120]","['6069259', '4165967', '6238674', '4181144', '4558957', '4181134', '6244886', '4504369', '4143562']"
6069259,565,1812,785,1929
4165967,2545,2039,2785,2420
6238674,2410,1790,2531,1893
4181144,1953,1376,2580,1510
4558957,1223,1322,1625,1541
4181134,3237,1236,3815,1468
6244886,2124,2289,2422,2477
4504369,2483,1729,2580,1802
4143562,3347,999,3505,1169
