https://surfdrive.surf.nl/files/index.php/s/B7PEqFZSZZBPcW8/download?path=%2FData%2FInput%2FDatasets%2FHiba%2FImages&files=H_683.jpg,5184,3456
H_683,daylight,parquet_brown_light,"[120, 120, 120]","['6138173', '6229071', '6075079', '4650630', '300424', '4527943', '300321', '4153825', '306201', '4558957', '4650630']"
6138173,2251,1741,2498,1907
6229071,3276,2130,3524,2328
6075079,2122,1603,2263,1771
4650630,3081,1340,3279,1459
4650630,3413,1080,3616,1270
300424,1999,1352,2221,1513
4527943,2520,1787,2738,1935
300321,3495,1330,3720,1503
4153825,3115,1006,3303,1152
306201,2727,2415,2857,2555
4558957,3033,1641,3487,1989
