https://surfdrive.surf.nl/files/index.php/s/B7PEqFZSZZBPcW8/download?path=%2FData%2FInput%2FDatasets%2FHiba%2FImages&files=H_688.jpg,5184,3456
H_688,daylight,parquet_brown_light,"[120, 120, 120]","['6138173', '6229071', '6075079', '4650630', '300424', '4527943', '300321', '4153825', '306201', '4558957']"
6138173,1854,1465,2017,1569
6229071,2417,1693,2540,1772
6075079,2165,1110,2200,1204
4650630,2254,1944,2328,2043
300424,3019,616,3133,710
4527943,3597,1742,3735,1841
300321,2609,1910,2733,1999
4153825,3335,1115,3473,1223
306201,1656,987,1686,1075
4558957,3167,1579,3325,1638
