https://surfdrive.surf.nl/files/index.php/s/B7PEqFZSZZBPcW8/download?path=%2FData%2FInput%2FDatasets%2FHiba%2FImages&files=H_688.jpg,5184,3456
H_688,daylight,parquet_brown_light,"[120, 120, 120]","['6138173', '6229071', '6075079', '4650630', '300424', '4527943', '300321', '4153825', '306201', '4558957']"
6138173,1621,937,1738,1098
6229071,2095,1064,2282,1268
6075079,1835,1400,2100,1667
4650630,2332,1615,2590,1920
300424,2114,1785,2481,2161
4527943,2537,1786,2893,2151
300321,3003,1379,3509,1846
4153825,3528,1690,3800,1972
306201,3236,1080,3548,1381
4558957,2968,550,3189,736
