https://surfdrive.surf.nl/files/index.php/s/B7PEqFZSZZBPcW8/download?path=%2FData%2FInput%2FDatasets%2FHiba%2FImages&files=H_702.jpg,5183,3456
H_702,daylight,parquet_brown_light,"[120, 120, 120]","['4160403', '4211221', '614321', '6073026', '6035291', '6025026', '4520632', '6177697', '4639693', '6022023', '4211614']"
4160403,3334,811,4013,1111
4211221,1576,814,1817,932
614321,1565,2071,1844,2331
6073026,2029,731,2199,848
6035291,1505,1282,1787,1371
6025026,1466,1147,1726,1294
4520632,2154,1447,2729,1868
6177697,1906,983,2400,1117
4639693,2750,938,3711,1169
6022023,2721,1963,2876,2217
4211614,1022,1790,1191,2047
