https://surfdrive.surf.nl/files/index.php/s/B7PEqFZSZZBPcW8/download?path=%2FData%2FInput%2FDatasets%2FHiba%2FImages&files=H_715.jpg,5184,3456
H_715,daylight,parquet_brown_light,"[120, 120, 120]","['4160403', '4211221', '614321', '6073026', '6035291', '6025026', '4520632']"
4160403,1904,1239,2568,1699
4211221,3260,1985,3506,2390
614321,2400,1672,2656,1975
6073026,2782,1589,2942,1799
6035291,2032,887,2256,1044
6025026,1972,706,2143,884
4520632,2893,1116,3408,1598
