https://surfdrive.surf.nl/files/index.php/s/B7PEqFZSZZBPcW8/download?path=%2FData%2FInput%2FDatasets%2FHiba%2FImages&files=H_719.jpg,5183,3456
H_719,daylight,parquet_brown_light,"[120, 120, 120]","['6062574', '300123', '4655172', '6225539', '4517992', '6074890', '6022064', '4621545', '4211201', '4539099', '4550325', '4157124', '6069259']"
6062574,2173,1370,2357,1587
300123,1680,1733,2118,2308
4655172,1552,1087,2071,1488
6225539,2181,1536,2838,2139
4517992,2507,1221,2725,1491
6074890,2208,856,2298,999
6022064,3001,1332,3148,1677
4621545,3626,1719,3937,2025
4211201,2565,2118,3159,2769
4539099,3255,1992,3420,2161
4550325,1671,1499,1857,1747
4157124,2635,997,2823,1180
6069259,3323,1323,3532,1592
