https://surfdrive.surf.nl/files/index.php/s/B7PEqFZSZZBPcW8/download?path=%2FData%2FInput%2FDatasets%2FHiba%2FImages&files=H_722.jpg,5183,3456
H_722,daylight,parquet_brown_light,"[120, 120, 120]","['6062574', '300123', '4655172', '6225539', '4517992', '6074890', '6022064', '4621545', '4211201', '4539099', '4550325', '4157124']"
6062574,2424,1593,2576,1702
300123,2518,1901,3058,2302
4655172,3224,2295,3834,2750
6225539,3044,931,3526,1327
4517992,1889,1937,2172,2178
6074890,2359,1725,2535,1827
6022064,3327,1739,3696,2022
4621545,2830,2434,3135,2638
4211201,3691,1474,4210,1677
4539099,1679,1330,1784,1477
4550325,1201,1249,1348,1410
4157124,2456,1407,2573,1573
