https://surfdrive.surf.nl/files/index.php/s/B7PEqFZSZZBPcW8/download?path=%2FData%2FInput%2FDatasets%2FHiba%2FImages&files=H_736.jpg,5184,3456
H_736,daylight,parquet_brown_light,"[120, 120, 120]","['6062574', '300123', '4655172', '6225539', '4517992', '6074890', '6022064', '4621545']"
6062574,2720,1311,2833,1407
300123,3621,1379,3961,1426
4655172,3735,992,3848,1209
6225539,2281,1200,2696,1388
4517992,3584,1945,3791,2163
6074890,1978,2267,2035,2436
6022064,2233,1804,2602,1917
4621545,1856,1218,2054,1379
