https://surfdrive.surf.nl/files/index.php/s/B7PEqFZSZZBPcW8/download?path=%2FData%2FInput%2FDatasets%2FHiba%2FImages&files=H_738.jpg,5184,3456
H_738,artificial_light,parquet_brown_medium,"[120, 120, 120]","['300323', '6028324', '4651236', '300124', '6004938', '4211412', '300121', '623224', '4550325', '4121967', '6104154', '4527943', '300321']"
300323,2654,867,2701,1009
6028324,2465,1575,2559,1660
4651236,1596,2113,1700,2189
300124,1530,1405,1662,1556
6004938,1804,1471,1889,1547
4211412,1284,1906,1341,2000
300121,2531,1405,2767,1462
623224,3126,1906,3248,2038
4550325,2502,1660,2578,1811
4121967,3626,1745,3749,1868
6104154,1964,2085,2106,2208
4527943,2710,2151,2795,2312
300321,2314,1301,2446,1415
