https://surfdrive.surf.nl/files/index.php/s/B7PEqFZSZZBPcW8/download?path=%2FData%2FInput%2FDatasets%2FHiba%2FImages&files=H_759.jpg,5184,3456
H_759,artificial_light,parquet_brown_medium,"[120, 120, 120]","['4550348', '4153827', '300421', '6003007', '4211437', '654126', '4181135', '6252809', '4211437', '4548180', '4211149', '4655172', '4529247']"
4550348,2915,1495,3004,1604
4153827,2254,1584,2318,1772
300421,3325,1885,3360,2087
6003007,2234,1204,2293,1258
4211437,2530,1125,2599,1184
4211437,3251,1169,3325,1243
654126,2076,1174,2140,1223
4181135,3444,1421,3621,1633
6252809,2175,1342,2422,1515
4548180,2718,1865,2841,1890
4211149,4239,1421,4377,1500
4655172,1192,1584,1454,1638
4529247,2165,1865,2224,2033
