https://surfdrive.surf.nl/files/index.php/s/B7PEqFZSZZBPcW8/download?path=%2FData%2FInput%2FDatasets%2FHiba%2FImages&files=H_752.jpg,5184,3456
H_752,artificial_light,parquet_brown_medium,"[120, 120, 120]","['300323', '6028324', '4651236', '300124', '6004938', '4211412', '300121', '623224']"
300323,3280,1614,3520,1746
6028324,3484,1923,3693,2136
4651236,1831,1883,2020,1981
300124,2059,1137,2405,1389
6004938,3104,2380,3271,2555
4211412,2438,1796,2516,1916
300121,2283,1434,2636,1615
623224,3127,1404,3369,1621
