https://surfdrive.surf.nl/files/index.php/s/B7PEqFZSZZBPcW8/download?path=%2FData%2FInput%2FDatasets%2FHiba%2FImages&files=H_751.jpg,5184,3456
H_751,artificial_light,parquet_brown_medium,"[120, 120, 120]","['300323', '6028324', '4651236', '300124', '6004938', '4211412', '300121', '623224', '4550325']"
300323,2236,1323,2461,1497
6028324,3526,1947,3684,2089
4651236,2361,1506,2519,1656
300124,2186,1689,2594,1989
6004938,3385,1881,3493,2005
4211412,2336,2139,2436,2355
300121,2636,1256,2977,1556
623224,2037,1306,2162,1564
4550325,2919,1672,3143,1864
