https://surfdrive.surf.nl/files/index.php/s/B7PEqFZSZZBPcW8/download?path=%2FData%2FInput%2FDatasets%2FHiba%2FImages&files=H_754.jpg,5183,3456
H_754,artificial_light,parquet_brown_medium,"[120, 120, 120]","['300323', '6028324', '4651236', '300124', '6004938', '4211412', '300121', '623224']"
300323,2327,1508,2509,1649
6028324,2216,1815,2349,1908
4651236,2514,1380,2651,1491
300124,2338,1185,2607,1309
6004938,2525,2462,2617,2542
4211412,2327,1145,2412,1198
300121,2863,1239,3046,1454
623224,2633,1649,2792,1785
