https://surfdrive.surf.nl/files/index.php/s/B7PEqFZSZZBPcW8/download?path=%2FData%2FInput%2FDatasets%2FHiba%2FImages&files=H_765.jpg,5184,3456
H_765,artificial_light,parquet_brown_medium,"[120, 120, 120]","['4550348', '4153827', '300421', '6003007', '4211437', '654126', '4181135', '6252809', '4211437', '4548180', '4211149']"
4550348,1955,2025,2105,2131
4153827,2404,1544,2686,1806
300421,2309,822,2394,919
6003007,1868,2456,1936,2543
4211437,2684,1663,2828,1757
4211437,2075,1690,2147,1828
654126,2154,1658,2251,1762
4181135,2422,1801,2839,1979
6252809,1918,1999,2248,2628
4548180,2320,2522,2468,2662
4211149,2858,1709,3000,1859
