https://surfdrive.surf.nl/files/index.php/s/B7PEqFZSZZBPcW8/download?path=%2FData%2FInput%2FDatasets%2FHiba%2FImages&files=H_774.jpg,5184,3455
H_774,artificial_light,parquet_brown_medium,"[120, 120, 120]","['4550348', '4153827', '300421', '6003007', '4211437', '654126', '4181135', '6252809']"
4550348,2324,1738,2481,1858
4153827,2896,1320,3240,1508
300421,3882,1232,4052,1376
6003007,1478,1733,1607,1785
4211437,1017,2314,1200,2468
654126,1966,1948,2088,2019
4181135,3476,1641,3706,2029
6252809,2446,1450,2719,2049
