https://surfdrive.surf.nl/files/index.php/s/B7PEqFZSZZBPcW8/download?path=%2FData%2FInput%2FDatasets%2FHiba%2FImages&files=H_780.jpg,5184,3456
H_780,artificial_light,parquet_brown_medium,"[120, 120, 120]","['4550348', '4153827', '300421', '6003007', '4211437', '654126']"
4550348,1897,1513,2060,1669
4153827,2167,1179,2296,1365
300421,2562,977,2718,1141
6003007,2783,1053,3106,1361
4211437,2479,1757,2559,1893
654126,2661,2099,2806,2255
