https://surfdrive.surf.nl/files/index.php/s/B7PEqFZSZZBPcW8/download?path=%2FData%2FInput%2FDatasets%2FHiba%2FImages&files=H_795.jpg,5183,3456
H_795,artificial_light,parquet_brown_medium,"[120, 120, 120]","['4114319', '300401', '6075075', '6151663', '306223', '4157124', '4181134', '4529247', '6252809']"
4114319,2755,1729,3048,1921
300401,2389,1679,2543,1777
6075075,2476,648,2568,716
6151663,2573,2319,2648,2438
306223,2907,1474,2953,1552
4157124,2634,2464,2788,2591
4181134,2817,1900,3079,2243
4529247,2697,2292,2799,2385
6252809,2081,1701,2375,2270
