https://surfdrive.surf.nl/files/index.php/s/B7PEqFZSZZBPcW8/download?path=%2FData%2FInput%2FDatasets%2FHiba%2FImages&files=H_803.jpg,5184,3456
H_803,artificial_light,parquet_brown_medium,"[120, 120, 120]","['4114319', '300401', '6075075', '6151663', '306223', '4157124']"
4114319,2666,1787,3030,2115
300401,2542,1613,2748,1767
6075075,1912,1141,2081,1264
6151663,3650,1623,3773,1705
306223,2296,1582,2455,1736
4157124,2159,1495,2303,1597
