https://surfdrive.surf.nl/files/index.php/s/B7PEqFZSZZBPcW8/download?path=%2FData%2FInput%2FDatasets%2FHiba%2FImages&files=H_817.jpg,5184,3456
H_817,artificial_light,parquet_brown_medium,"[120, 120, 120]","['4109995', '4504381', '4211614', '4504369', '4165967', '4181144', '6238674', '6249125', '4118793', '4181135']"
4109995,2553,1702,2699,1787
4504381,2196,1847,2250,1908
4211614,2295,1201,2373,1293
4504369,2116,1894,2202,1979
4165967,3103,1835,3319,2094
4181144,2832,1400,3235,1574
6238674,2382,1435,2478,1525
6249125,2402,1990,2471,2014
4118793,1744,1383,1836,1463
4181135,3350,1512,3620,1828
