https://surfdrive.surf.nl/files/index.php/s/B7PEqFZSZZBPcW8/download?path=%2FData%2FInput%2FDatasets%2FHiba%2FImages&files=H_821.jpg,5184,3456
H_821,artificial_light,parquet_brown_medium,"[120, 120, 120]","['4109995', '4504381', '4211614', '4504369', '4165967', '4181144', '6238674', '6249125']"
4109995,2193,1515,2288,1598
4504381,2454,1555,2549,1662
4211614,2547,1593,2673,1710
4504369,2599,1786,2701,1869
4165967,2307,1845,2452,2045
4181144,3326,1611,3593,2074
6238674,3251,2157,3435,2365
6249125,2972,2440,3381,2678
