https://surfdrive.surf.nl/files/index.php/s/B7PEqFZSZZBPcW8/download?path=%2FData%2FInput%2FDatasets%2FHiba%2FImages&files=H_822.jpg,5184,3456
H_822,artificial_light,parquet_brown_medium,"[120, 120, 120]","['4109995', '4504381', '4211614', '4504369', '4165967', '4181144', '6238674', '6249125']"
4109995,2677,1561,2762,1624
4504381,1447,1773,1510,1836
4211614,2253,1900,2380,2013
4504369,2889,1610,2974,1667
4165967,2437,1900,2691,1985
4181144,2415,1349,2804,1561
6238674,2380,2154,2486,2267
6249125,2034,1843,2083,1900
