https://surfdrive.surf.nl/files/index.php/s/B7PEqFZSZZBPcW8/download?path=%2FData%2FInput%2FDatasets%2FHiba%2FImages&files=H_96.jpg,5184,3455
H_96,daylight,wood,"[130, 130, 130]","['6074890', '6035291']"
6074890,2414,1620,2699,1887
6035291,3175,1604,3291,1838
