https://surfdrive.surf.nl/files/index.php/s/B7PEqFZSZZBPcW8/download?path=%2FData%2FInput%2FDatasets%2FHiba%2FImages&files=H_98.jpg,5184,3456
H_98,daylight,wood,"[130, 130, 130]","['6074890', '6035291']"
6074890,1926,1817,2067,1937
6035291,2904,1792,3017,1959
