https://surfdrive.surf.nl/files/index.php/s/B7PEqFZSZZBPcW8/download?path=%2FData%2FInput%2FDatasets%2FBerend%2FImages&files=B_1070.jpg,4608,3072
B_1070,daylight,dirty_rug,"[120, 120, 120]","['4109995', '300123', '623224', '4520632', '6025026', '4504369', '4157124', '4211511']"
4109995,2245,892,2386,1054
300123,2591,1628,2944,1914
623224,2197,1884,2383,2069
4520632,2485,1055,2819,1359
6025026,3272,1991,3461,2181
4504369,3022,1957,3106,2047
4157124,3118,2183,3302,2328
4211511,1034,2167,1190,2322
