https://surfdrive.surf.nl/files/index.php/s/B7PEqFZSZZBPcW8/download?path=%2FData%2FInput%2FDatasets%2FBerend%2FImages&files=B_1076.jpg,4608,3072
B_1076,artificial_light,parquet_dark_brown,"[120, 120, 120]","['4529247', '6062574', '614321', '6022064', '6028324', '4211149', '4211412', '6138173', '4211511', '4210718', '4143562', '4181135', '6249125']"
4529247,1323,2079,1421,2147
6062574,2779,1824,2872,1898
614321,2635,1810,2725,1933
6022064,1708,2314,1940,2405
6028324,2199,1394,2315,1473
4211149,2523,1627,2602,1732
4211412,3184,1263,3276,1326
6138173,1966,1746,2070,1871
4211511,1762,938,1829,1018
4210718,2318,1420,2576,1526
4143562,1811,1719,1946,1888
4181135,2259,1656,2671,1885
6249125,2236,2066,2332,2139
