https://surfdrive.surf.nl/files/index.php/s/B7PEqFZSZZBPcW8/download?path=%2FData%2FInput%2FDatasets%2FBerend%2FImages&files=B_1004.jpg,4608,3072
B_1004,daylight,dirty_rug,"[120, 120, 120]","['4504369', '4181135', '4520632', '4529247', '300321', '6075075', '6252809', '4181144', '6244886', '6004938', '4157124']"
4504369,1577,684,1717,816
4181135,2028,751,2569,1154
4520632,1732,573,2088,910
4529247,1408,1950,1562,2085
300321,2720,1420,2979,1672
6075075,2785,2119,2913,2213
6252809,975,1257,1803,1916
4181144,1862,954,2284,1435
6244886,2520,1213,2779,1457
6004938,2417,1531,2594,1723
4157124,2898,1753,3009,1938
