https://surfdrive.surf.nl/files/index.php/s/B7PEqFZSZZBPcW8/download?path=%2FData%2FInput%2FDatasets%2FBerend%2FImages&files=B_1069.jpg,4608,3072
B_1069,daylight,dirty_rug,"[120, 120, 120]","['4109995', '300123', '623224', '4520632', '6025026', '4504369', '4157124', '4211511']"
4109995,1488,1611,1677,1795
300123,1480,1372,1804,1682
623224,2722,1673,2982,1904
4520632,1632,1279,1957,1486
6025026,2809,1483,2974,1622
4504369,2116,1872,2214,1956
4157124,2762,1598,2929,1719
4211511,2021,1983,2149,2123
