https://surfdrive.surf.nl/files/index.php/s/B7PEqFZSZZBPcW8/download?path=%2FData%2FInput%2FDatasets%2FBerend%2FImages&files=B_1188.jpg,4608,3072
B_1188,artificial_light,parquet_light,"[120, 120, 120]","['4517992', '4504369', '4504381', '4165967', '6138173', '300321', '4212454', '4520632', '4211614', '300123']"
4517992,3200,1053,3551,1312
4504369,836,1197,1049,1392
4504381,1486,1789,1710,1967
4165967,2671,1933,3235,2508
6138173,2631,2336,2936,2629
300321,1917,1726,2234,2060
4212454,1423,1524,1601,1726
4520632,1290,731,1877,1105
4211614,1800,1655,2048,1932
300123,1917,1289,2257,1881
