https://surfdrive.surf.nl/files/index.php/s/B7PEqFZSZZBPcW8/download?path=%2FData%2FInput%2FDatasets%2FBerend%2FImages&files=B_1170.jpg,4608,3072
B_1170,artificial_light,parquet_light,"[120, 120, 120]","['4210718', '6022023', '4211221', '654126', '4550325', '4109995', '6177697', '4529247', '654126']"
4210718,3241,1085,3704,1668
6022023,2538,2066,3023,2525
4211221,3225,1769,3587,2191
654126,3704,1104,3906,1277
654126,2459,709,2616,895
4550325,311,1311,650,1640
4109995,3540,1628,3910,1962
6177697,2592,1429,3200,1912
4529247,3228,1046,3362,1194
