https://surfdrive.surf.nl/files/index.php/s/B7PEqFZSZZBPcW8/download?path=%2FData%2FInput%2FDatasets%2FBerend%2FImages&files=B_1117.jpg,4608,3072
B_1117,artificial_light,parquet_dark_brown,"[120, 120, 120]","['6075075', '4160403', '6252809', '4651236', '300821', '4181144', '4655172', '4539099', '6022064']"
6075075,2132,1686,2227,1818
4160403,2870,1358,3017,1747
6252809,2766,1526,2980,2226
4651236,2557,1463,2719,1538
300821,2229,1667,2823,2122
4181144,2300,1383,2706,1787
4655172,2471,705,2747,939
4539099,1362,2013,1433,2111
6022064,3018,1223,3243,1380
