https://surfdrive.surf.nl/files/index.php/s/B7PEqFZSZZBPcW8/download?path=%2FData%2FInput%2FDatasets%2FBerend%2FImages&files=B_117.jpg,4608,3072
B_117,daylight,wood,"[130, 130, 130]","['6022064', '4211221', '4211511', '6073026', '4550348', '6022023', '4621545', '4529240']"
6022064,1168,1565,1788,2016
4211221,1669,1810,2122,2125
4211511,1605,1313,1845,1499
6073026,1123,1398,1337,1623
4550348,1898,1306,2117,1636
6022023,2490,1461,2917,1904
4621545,2107,1218,2449,1549
4529240,3251,1088,3418,1336
