https://surfdrive.surf.nl/files/index.php/s/B7PEqFZSZZBPcW8/download?path=%2FData%2FInput%2FDatasets%2FBerend%2FImages&files=B_112.jpg,4608,3072
B_112,daylight,wood,"[130, 130, 130]","['6022064', '4211221', '4211511', '6073026', '4550348', '6022023']"
6022064,1939,1346,2144,1503
4211221,1537,1401,1638,1603
4211511,3029,1803,3173,1914
6073026,1519,1296,1632,1410
4550348,2091,1551,2273,1664
6022023,2946,1376,3163,1488
