https://surfdrive.surf.nl/files/index.php/s/B7PEqFZSZZBPcW8/download?path=%2FData%2FInput%2FDatasets%2FBerend%2FImages&files=B_1134.jpg,4608,3072
B_1134,artificial_light,desk_black_wood,"[120, 120, 120]","['4181135', '4649749', '300424', '6249125', '6003007', '4650630', '4181134', '306223', '4114319']"
4181135,2237,1115,3117,1684
4649749,1006,1783,1265,2080
300424,2690,1528,2944,1796
6249125,1383,1539,1518,1687
6003007,3254,2054,3483,2226
4650630,2765,711,3006,1059
4181134,1962,890,2836,1341
306223,1978,1604,2187,1789
4114319,1577,1318,2155,1790
