https://surfdrive.surf.nl/files/index.php/s/B7PEqFZSZZBPcW8/download?path=%2FData%2FInput%2FDatasets%2FBerend%2FImages&files=B_1131.jpg,4608,3072
B_1131,artificial_light,desk_black_wood,"[120, 120, 120]","['4181135', '4649749', '300424', '6249125', '6003007', '4650630', '4181134', '306223', '4114319', '4651236']"
4181135,1574,1299,2431,1937
4649749,1228,2008,1506,2263
300424,2217,958,2522,1098
6249125,3458,1166,3615,1313
6003007,977,1954,1232,2153
4650630,1170,794,1586,1202
4181134,856,1126,1842,1684
306223,1461,2038,1681,2277
4114319,2027,1066,2671,1359
4651236,1731,1979,2050,2280
