https://surfdrive.surf.nl/files/index.php/s/B7PEqFZSZZBPcW8/download?path=%2FData%2FInput%2FDatasets%2FBerend%2FImages&files=B_1203.jpg,4608,3072
B_1203,artificial_light,parquet_light,"[120, 120, 120]","['4211412', '623224', '6244886', '4153827', '4211201', '300323', '6069259', '6229071', '4211149', '4143562']"
4211412,1568,1094,1742,1275
623224,2568,1235,2822,1526
6244886,1595,521,1896,725
4153827,1815,1083,2192,1508
4211201,2222,957,2712,1278
300323,2381,1409,2648,1677
6069259,1789,1052,1915,1306
6229071,3522,1334,3757,1528
4211149,1612,841,1797,1112
4143562,2613,839,2873,1077
