https://surfdrive.surf.nl/files/index.php/s/B7PEqFZSZZBPcW8/download?path=%2FData%2FInput%2FDatasets%2FBerend%2FImages&files=B_14.jpg,4608,3072
B_14,daylight,wood,"[130, 130, 130]","['4650630', '6252809', '4211054', '4548180', '4649749']"
4650630,1605,2205,2061,2537
6252809,848,1252,1997,2534
4211054,2674,1329,3192,1650
4548180,1388,550,1720,834
4649749,3124,1589,3510,1828
