https://surfdrive.surf.nl/files/index.php/s/B7PEqFZSZZBPcW8/download?path=%2FData%2FInput%2FDatasets%2FBerend%2FImages&files=B_145.jpg,4608,3072
B_145,daylight,wood,"[130, 130, 130]","['300421', '6138173', '4114319']"
300421,1162,673,1467,939
6138173,995,2288,1374,2622
4114319,2407,1125,3004,1598
