https://surfdrive.surf.nl/files/index.php/s/B7PEqFZSZZBPcW8/download?path=%2FData%2FInput%2FDatasets%2FBerend%2FImages&files=B_160.jpg,4608,3072
B_160,daylight,wood,"[130, 130, 130]","['300421', '6138173', '4114319', '4211221', '6004938', '4211166', '6069259', '4212454']"
300421,2630,1803,2800,2035
6138173,2219,1679,2431,1873
4114319,2445,1592,2836,1834
4211221,2717,1224,2936,1460
6004938,3010,1806,3138,1970
4211166,1437,1065,1585,1267
6069259,2249,1456,2434,1604
4212454,2249,1615,2389,1696
