https://surfdrive.surf.nl/files/index.php/s/B7PEqFZSZZBPcW8/download?path=%2FData%2FInput%2FDatasets%2FBerend%2FImages&files=B_219.jpg,4607,3072
B_219,daylight,wood,"[130, 130, 130]","['4109995', '4651236', '6177697']"
4109995,1517,852,1871,1208
4651236,1517,1536,1859,1803
6177697,2657,1355,2935,1939
