https://surfdrive.surf.nl/files/index.php/s/B7PEqFZSZZBPcW8/download?path=%2FData%2FInput%2FDatasets%2FBerend%2FImages&files=B_222.jpg,4608,3072
B_222,daylight,wood,"[130, 130, 130]",['6138173']
6138173,2720,1263,3022,1533
