https://surfdrive.surf.nl/files/index.php/s/B7PEqFZSZZBPcW8/download?path=%2FData%2FInput%2FDatasets%2FBerend%2FImages&files=B_22.jpg,4608,3072
B_22,daylight,wood,"[130, 130, 130]","['4650630', '6252809', '4211054', '4548180', '4649749', '300401', '6075075', '4548180']"
4650630,3107,1396,3529,1773
6252809,1626,947,2990,1667
4211054,2090,1349,2527,1665
4548180,1056,1601,1369,1807
4548180,3317,1325,3581,1604
4649749,1264,1372,1465,1648
300401,2730,1377,3073,1706
6075075,2551,1695,2848,1906
