https://surfdrive.surf.nl/files/index.php/s/B7PEqFZSZZBPcW8/download?path=%2FData%2FInput%2FDatasets%2FBerend%2FImages&files=B_240.jpg,4608,3072
B_240,daylight,wood,"[130, 130, 130]","['6138173', '4210718', '4210718', '4121739', '4539099', '4211166', '300123']"
6138173,3112,1810,3298,2040
4210718,1983,2216,2446,2632
4210718,2391,1996,2851,2305
4121739,2489,2217,2736,2401
4539099,1794,859,1883,963
4211166,2591,1612,2795,1821
300123,2177,1331,2388,1719
