https://surfdrive.surf.nl/files/index.php/s/B7PEqFZSZZBPcW8/download?path=%2FData%2FInput%2FDatasets%2FBerend%2FImages&files=B_267.jpg,4608,3072
B_267,daylight,wood,"[130, 130, 130]","['6025026', '6223631', '4211166', '4567338', '4211054', '6249125', '6225539', '4153825']"
6025026,2149,1227,2276,1374
6223631,2065,1377,2156,1469
4211166,1886,1480,2022,1628
4567338,2264,1905,2378,1987
4211054,2068,1820,2273,2020
6249125,1872,1784,1955,1857
6225539,1669,1287,1959,1706
4153825,1991,1594,2168,1792
