https://surfdrive.surf.nl/files/index.php/s/B7PEqFZSZZBPcW8/download?path=%2FData%2FInput%2FDatasets%2FBerend%2FImages&files=B_261.jpg,4608,3072
B_261,daylight,wood,"[130, 130, 130]","['6025026', '6223631', '4211166', '4567338', '4211054', '6249125']"
6025026,2625,1909,2704,2044
6223631,1282,1257,1358,1325
4211166,2213,1811,2344,1963
4567338,1913,1238,2009,1303
4211054,2246,1674,2416,1838
6249125,2782,1889,2846,1938
