https://surfdrive.surf.nl/files/index.php/s/B7PEqFZSZZBPcW8/download?path=%2FData%2FInput%2FDatasets%2FBerend%2FImages&files=B_278.jpg,4608,3072
B_278,daylight,wood,"[130, 130, 130]","['4211614', '4121739', '300423']"
4211614,2423,1412,2695,1596
4121739,1672,1214,1926,1435
300423,1667,1813,1985,2122
