https://surfdrive.surf.nl/files/index.php/s/B7PEqFZSZZBPcW8/download?path=%2FData%2FInput%2FDatasets%2FBerend%2FImages&files=B_289.jpg,4608,3072
B_289,daylight,wood,"[130, 130, 130]","['4211614', '4121739', '300423', '300323', '6104154', '4211437', '6069259']"
4211614,1896,1037,2038,1123
4121739,2228,1130,2356,1234
300423,1550,1711,1711,1849
300323,2307,1448,2483,1624
6104154,2268,1603,2418,1767
4211437,1889,1547,2037,1654
6069259,2037,1154,2122,1283
