https://surfdrive.surf.nl/files/index.php/s/B7PEqFZSZZBPcW8/download?path=%2FData%2FInput%2FDatasets%2FBerend%2FImages&files=B_354.jpg,4608,3072
B_354,daylight,wood,"[130, 130, 130]","['4639693', '4121967', '4157124', '4567338']"
4639693,1773,1435,2053,2251
4121967,2065,1483,2192,1684
4157124,1821,913,2014,1061
4567338,2126,2049,2296,2211
