https://surfdrive.surf.nl/files/index.php/s/B7PEqFZSZZBPcW8/download?path=%2FData%2FInput%2FDatasets%2FBerend%2FImages&files=B_367.jpg,4608,3072
B_367,daylight,wood,"[130, 130, 130]","['4655172', '300321', '4517992']"
4655172,2058,1216,2409,1753
300321,1843,629,2182,951
4517992,2233,2163,2583,2578
