https://surfdrive.surf.nl/files/index.php/s/B7PEqFZSZZBPcW8/download?path=%2FData%2FInput%2FDatasets%2FBerend%2FImages&files=B_39.jpg,4608,3072
B_39,daylight,wood,"[130, 130, 130]","['306201', '4649749', '6025026', '6229071']"
306201,996,1630,1156,1733
4649749,3186,2098,3324,2327
6025026,2258,1071,2478,1239
6229071,2228,1356,2415,1558
