https://surfdrive.surf.nl/files/index.php/s/B7PEqFZSZZBPcW8/download?path=%2FData%2FInput%2FDatasets%2FBerend%2FImages&files=B_401.jpg,4608,3072
B_401,daylight,wood,"[130, 130, 130]","['4548180', '4651236']"
4548180,2600,1073,2937,1416
4651236,1558,1592,1945,1894
