https://surfdrive.surf.nl/files/index.php/s/B7PEqFZSZZBPcW8/download?path=%2FData%2FInput%2FDatasets%2FBerend%2FImages&files=B_408.jpg,4608,3072
B_408,daylight,wood,"[130, 130, 130]","['4548180', '4651236', '4529240', '4121739', '4527943']"
4548180,2811,734,3125,1057
4651236,1380,629,1728,967
4529240,1852,2260,2013,2452
4121739,906,1657,1182,2076
4527943,2094,1239,2432,1609
