https://surfdrive.surf.nl/files/index.php/s/B7PEqFZSZZBPcW8/download?path=%2FData%2FInput%2FDatasets%2FBerend%2FImages&files=B_420.jpg,4608,3072
B_420,daylight,wood,"[130, 130, 130]","['6003007', '4153827', '300124']"
6003007,755,1859,911,1949
4153827,2535,2103,2983,2455
300124,2520,1547,2777,1963
