https://surfdrive.surf.nl/files/index.php/s/B7PEqFZSZZBPcW8/download?path=%2FData%2FInput%2FDatasets%2FBerend%2FImages&files=B_450.jpg,4608,3072
B_450,daylight,wood,"[130, 130, 130]","['300423', '4165967', '4647553', '4211614']"
300423,1089,477,1374,714
4165967,2234,1863,2489,2521
4647553,1458,1669,1690,1993
4211614,3193,2251,3396,2593
