https://surfdrive.surf.nl/files/index.php/s/B7PEqFZSZZBPcW8/download?path=%2FData%2FInput%2FDatasets%2FBerend%2FImages&files=B_475.jpg,4608,3072
B_475,daylight,wood,"[130, 130, 130]","['6075079', '4211201', '4165967', '4647553', '4121967']"
6075079,533,1559,874,1763
4211201,3472,1628,4205,2196
4165967,2764,1197,3181,1746
4647553,3040,1705,3424,1980
4121967,2940,2171,3285,2587
