https://surfdrive.surf.nl/files/index.php/s/B7PEqFZSZZBPcW8/download?path=%2FData%2FInput%2FDatasets%2FBerend%2FImages&files=B_495.jpg,4608,3072
B_495,daylight,wood,"[130, 130, 130]","['6075075', '4649749', '300323', '4211149']"
6075075,1451,1142,1697,1263
4649749,2699,921,2863,1135
300323,2431,1453,2768,1786
4211149,1089,1522,1264,1799
