https://surfdrive.surf.nl/files/index.php/s/B7PEqFZSZZBPcW8/download?path=%2FData%2FInput%2FDatasets%2FBerend%2FImages&files=B_521.jpg,4608,3072
B_521,daylight,wood,"[130, 130, 130]",['6035291']
6035291,2202,1150,2336,1415
