https://surfdrive.surf.nl/files/index.php/s/B7PEqFZSZZBPcW8/download?path=%2FData%2FInput%2FDatasets%2FBerend%2FImages&files=B_580.jpg,4608,3072
B_580,daylight,wood,"[130, 130, 130]","['300401', '654126', '4211149']"
300401,1558,1383,1873,1753
654126,2599,1177,2800,1422
4211149,2421,1579,2761,1831
