https://surfdrive.surf.nl/files/index.php/s/B7PEqFZSZZBPcW8/download?path=%2FData%2FInput%2FDatasets%2FBerend%2FImages&files=B_600.jpg,4608,3072
B_600,daylight,wood,"[130, 130, 130]","['6238674', '300323', '4153825']"
6238674,1069,1007,1219,1207
300323,2960,1499,3370,1885
4153825,3105,1850,3453,2228
