https://surfdrive.surf.nl/files/index.php/s/B7PEqFZSZZBPcW8/download?path=%2FData%2FInput%2FDatasets%2FBerend%2FImages&files=B_614.jpg,4608,3072
B_614,daylight,wood,"[130, 130, 130]","['6238674', '300323', '4153825', '4211054', '6062574', '623224', '6249125']"
6238674,1490,1339,1699,1565
300323,2562,1174,2903,1499
4153825,1830,645,2206,1018
4211054,2482,1896,2944,2287
6062574,2542,1423,2756,1679
623224,2179,1427,2526,1931
6249125,2186,696,2385,853
