https://surfdrive.surf.nl/files/index.php/s/B7PEqFZSZZBPcW8/download?path=%2FData%2FInput%2FDatasets%2FBerend%2FImages&files=B_679.jpg,4608,3072
B_679,daylight,wood,"[130, 130, 130]","['365901', '4567338']"
365901,2865,433,3061,905
4567338,1084,2411,1327,2563
