https://surfdrive.surf.nl/files/index.php/s/B7PEqFZSZZBPcW8/download?path=%2FData%2FInput%2FDatasets%2FBerend%2FImages&files=B_704.jpg,4608,3072
B_704,daylight,wood,"[130, 130, 130]","['365901', '4567338', '4121967', '6223631', '4212454', '4153825', '4504381', '6035291', '4558957', '4529247']"
365901,2916,652,3427,840
4567338,1357,2379,1568,2526
4121967,2425,1410,2609,1673
6223631,2123,1388,2235,1527
4212454,3912,835,4049,1011
4153825,2305,1715,2655,2044
4504381,1871,1539,1983,1662
6035291,2783,1512,3090,1751
4558957,466,1077,969,1446
4529247,3692,1425,3802,1591
