https://surfdrive.surf.nl/files/index.php/s/B7PEqFZSZZBPcW8/download?path=%2FData%2FInput%2FDatasets%2FBerend%2FImages&files=B_74.jpg,4608,3072
B_74,daylight,wood,"[130, 130, 130]","['300121', '4211412', '4550325']"
300121,878,1464,1441,1827
4211412,3046,968,3142,1146
4550325,2018,1553,2202,1768
