https://surfdrive.surf.nl/files/index.php/s/B7PEqFZSZZBPcW8/download?path=%2FData%2FInput%2FDatasets%2FBerend%2FImages&files=B_741.jpg,4608,3072
B_741,daylight,wood,"[130, 130, 130]","['306201', '4527943', '6004938', '4121967', '4181144', '4160403', '300423', '6151663', '6073026', '6244886']"
306201,1168,1659,1332,1748
4527943,2619,1932,2855,2114
6004938,1767,1721,1931,1912
4121967,2775,714,2998,884
4181144,2168,1257,2301,1891
4160403,1816,1566,2197,2131
300423,1802,1927,1937,2173
6151663,1145,1945,1389,2136
6073026,1382,2128,1558,2334
6244886,2278,1849,2573,2166
