https://surfdrive.surf.nl/files/index.php/s/B7PEqFZSZZBPcW8/download?path=%2FData%2FInput%2FDatasets%2FBerend%2FImages&files=B_757.jpg,4608,3072
B_757,daylight,wood,"[130, 130, 130]","['6035291', '4118793', '4109995', '6022064']"
6035291,2479,1646,2873,1837
4118793,1885,1221,2099,1505
4109995,1394,1200,1838,1671
6022064,1851,1738,2360,2325
