https://surfdrive.surf.nl/files/index.php/s/B7PEqFZSZZBPcW8/download?path=%2FData%2FInput%2FDatasets%2FBerend%2FImages&files=B_773.jpg,4607,3072
B_773,daylight,wood,"[130, 130, 130]","['4181135', '6069259', '6003007']"
4181135,2384,1444,3130,1954
6069259,2321,928,2533,1166
6003007,2114,1701,2289,1886
