https://surfdrive.surf.nl/files/index.php/s/B7PEqFZSZZBPcW8/download?path=%2FData%2FInput%2FDatasets%2FBerend%2FImages&files=B_815.jpg,4608,3072
B_815,daylight,wood,"[130, 130, 130]","['614321', '4550348', '6104154', '4109995']"
614321,2149,1294,2358,1516
4550348,2228,1170,2448,1318
6104154,2788,1124,2943,1334
4109995,1792,1623,1963,1865
