https://surfdrive.surf.nl/files/index.php/s/B7PEqFZSZZBPcW8/download?path=%2FData%2FInput%2FDatasets%2FBerend%2FImages&files=B_827.jpg,4608,3072
B_827,daylight,parquet_dark_brown,"[120, 120, 120]","['6225539', '4181134', '4655172', '623224', '4143562', '6028324', '6244886', '4165967', '4655172', '4567338', '300401']"
6225539,2547,1367,2925,1593
4181134,2020,1149,2356,1405
4655172,2469,1125,2716,1272
4655172,2730,1335,3011,1530
623224,2333,1368,2501,1519
4143562,2225,1088,2365,1188
6028324,1727,1542,1848,1662
6244886,2015,1455,2172,1606
4165967,2460,1426,2748,1629
4567338,2465,1554,2548,1657
300401,2143,1397,2290,1532
