https://surfdrive.surf.nl/files/index.php/s/B7PEqFZSZZBPcW8/download?path=%2FData%2FInput%2FDatasets%2FBerend%2FImages&files=B_82.jpg,4608,3072
B_82,daylight,wood,"[130, 130, 130]","['4211149', '4539099', '6025026']"
4211149,2059,1287,2319,1725
4539099,1500,1315,1665,1550
6025026,1348,752,1602,1119
