https://surfdrive.surf.nl/files/index.php/s/B7PEqFZSZZBPcW8/download?path=%2FData%2FInput%2FDatasets%2FBerend%2FImages&files=B_842.jpg,4608,3072
B_842,daylight,parquet_dark_brown,"[120, 120, 120]","['6225539', '4181134', '4520632', '4639693', '300321', '6177697', '654126', '4153827', '4121739', '4550325', '6223631', '4153825', '623224']"
6225539,2010,1682,2596,1909
4181134,2102,1900,2730,2198
4520632,2554,1166,2944,1495
4639693,2558,1573,3314,2100
300321,923,1594,1181,1850
6177697,1910,1314,2297,1506
654126,2498,1727,2645,1887
4153827,2263,1394,2530,1755
4121739,1892,1951,2109,2124
4550325,2711,1874,2907,2080
6223631,1409,1042,1530,1148
4153825,2261,537,2422,712
623224,2447,1288,2702,1523
