https://surfdrive.surf.nl/files/index.php/s/B7PEqFZSZZBPcW8/download?path=%2FData%2FInput%2FDatasets%2FBerend%2FImages&files=B_855.jpg,4608,3072
B_855,daylight,parquet_dark_brown,"[120, 120, 120]","['6225539', '4181134', '4520632', '4639693', '300321', '6177697', '654126', '4153827']"
6225539,1380,1547,1987,1725
4181134,1735,952,2190,1381
4520632,2396,1175,2728,1529
4639693,2001,923,2517,1517
300321,2329,815,2527,1005
6177697,2345,1018,2616,1204
654126,1589,1025,1711,1135
4153827,1945,808,2315,1054
