https://surfdrive.surf.nl/files/index.php/s/B7PEqFZSZZBPcW8/download?path=%2FData%2FInput%2FDatasets%2FBerend%2FImages&files=B_872.jpg,4608,3072
B_872,daylight,parquet_dark_brown,"[120, 120, 120]","['4517992', '300121', '6022023', '300821', '300123', '6028324', '4143562', '6244886', '6022064', '4655172']"
4517992,2511,553,2662,714
300121,1621,1140,1927,1419
6022023,1182,1621,1394,1787
300821,2182,1463,2287,2063
300123,1941,1422,2115,1717
6028324,1597,1740,1731,1888
4143562,1579,999,1739,1091
6244886,1420,1868,1577,2042
6022064,1982,2026,2081,2272
4655172,1504,1518,1818,1701
