https://surfdrive.surf.nl/files/index.php/s/B7PEqFZSZZBPcW8/download?path=%2FData%2FInput%2FDatasets%2FBerend%2FImages&files=B_901.jpg,4608,3072
B_901,daylight,parquet_dark_brown,"[120, 120, 120]","['4165967', '623224', '6075075', '6225539', '4504369', '6252809', '4181135', '4211511']"
4165967,2131,1289,2342,1568
623224,1750,1326,1924,1500
6075075,1776,2073,1935,2228
6225539,2324,1937,2799,2139
4504369,1411,1134,1490,1210
6252809,1720,1216,2447,1309
4181135,1774,1750,2246,2158
4211511,2430,1451,2516,1553
