https://surfdrive.surf.nl/files/index.php/s/B7PEqFZSZZBPcW8/download?path=%2FData%2FInput%2FDatasets%2FBerend%2FImages&files=B_999.jpg,4608,3072
B_999,daylight,dirty_rug,"[120, 120, 120]","['4504369', '4181135', '4520632', '4529247', '300321', '6075075', '6252809', '4181144', '6244886', '6004938', '4157124', '4109995']"
4504369,2837,1203,2923,1307
4181135,1394,572,1738,1104
4520632,1658,954,2013,1367
4529247,2529,1833,2684,1935
300321,2403,1335,2627,1621
6075075,2030,1498,2202,1674
6252809,1763,1331,2019,2319
4181144,2244,1027,2820,1512
6244886,2216,1559,2416,1803
6004938,2769,1257,2889,1398
4157124,2614,1433,2765,1606
4109995,2661,1630,2873,1774
