https://surfdrive.surf.nl/files/index.php/s/B7PEqFZSZZBPcW8/download?path=%2FData%2FInput%2FDatasets%2FBerend%2FImages&files=B_994.jpg,4608,3072
B_994,daylight,parquet_light,"[120, 120, 120]","['4211511', '6028324', '614321', '4165967', '6225539', '6138173']"
4211511,1728,2784,1868,2892
6028324,1693,1845,1818,1986
614321,1813,1752,1974,1905
4165967,2063,977,2384,1268
6225539,1451,1259,1918,1574
6138173,2738,1660,2921,1810
