https://surfdrive.surf.nl/files/index.php/s/B7PEqFZSZZBPcW8/download?path=%2FData%2FInput%2FDatasets%2FDavid%2FImages&files=C_1006.jpg,5472,3648
C_1006,daylight,couch,"[120, 120, 120]","['4109995', '6073026', '4165967', '300124', '6225539', '4211511', '4181144', '4520632', '300321', '4550325', '4211149', '4639693', '4649749']"
4109995,1711,1767,1996,2078
6073026,2452,1566,2636,1753
4165967,2504,1183,3030,1416
300124,3330,1117,3843,1373
6225539,2923,1483,3744,1731
4211511,2587,1822,2748,2016
4181144,2920,1009,3641,1150
4520632,3334,1608,3900,1895
300321,3661,1877,4019,2201
4550325,3957,1493,4161,1788
4211149,3786,1497,4018,1771
4639693,2627,1256,3723,1605
4649749,2266,1448,2549,1633
