https://surfdrive.surf.nl/files/index.php/s/B7PEqFZSZZBPcW8/download?path=%2FData%2FInput%2FDatasets%2FDavid%2FImages&files=C_1009.jpg,5472,3648
C_1009,daylight,couch,"[120, 120, 120]","['4109995', '6073026', '4165967', '300124', '6225539', '4211511', '4181144', '4520632', '300321', '4550325', '4211149', '4639693']"
4109995,2714,1808,2928,2070
6073026,2665,2109,2807,2276
4165967,1938,1472,2344,1839
300124,2049,1848,2493,2225
6225539,3612,1686,4206,2120
4211511,1950,1362,2119,1539
4181144,3719,1328,4240,1834
4520632,2364,1736,2687,2171
300321,3380,1765,3605,2006
4550325,2180,886,2393,1078
4211149,2611,2292,2839,2471
4639693,1447,1080,1697,1742
