https://surfdrive.surf.nl/files/index.php/s/B7PEqFZSZZBPcW8/download?path=%2FData%2FInput%2FDatasets%2FDavid%2FImages&files=C_12.jpg,5472,3648
C_12,daylight,coffee_table,"[130, 130, 130]","['300121', '4567338', '4211149', '6022023', '6075075']"
300121,2048,985,2342,1357
4567338,2361,2346,2568,2530
4211149,3633,1812,3896,2051
6022023,2542,942,2823,1154
6075075,3218,1560,3439,1715
