https://surfdrive.surf.nl/files/index.php/s/B7PEqFZSZZBPcW8/download?path=%2FData%2FInput%2FDatasets%2FDavid%2FImages&files=C_131.jpg,5472,3648
C_131,artificial,coffee_table,"[130, 130, 130]","['6238674', '4212454', '4504369', '4550348', '4527943']"
6238674,2413,1492,2519,1681
4212454,2534,1488,2647,1662
4504369,2536,1879,2701,2058
4550348,2580,1759,2864,1914
4527943,2915,1829,3184,2145
