https://surfdrive.surf.nl/files/index.php/s/B7PEqFZSZZBPcW8/download?path=%2FData%2FInput%2FDatasets%2FDavid%2FImages&files=C_135.jpg,5472,3648
C_135,artificial,coffee_table,"[130, 130, 130]","['6238674', '4212454', '4504369', '4550348', '4527943', '6074890', '6244886']"
6238674,2336,2112,2543,2348
4212454,2522,2439,2751,2599
4504369,2204,2445,2422,2691
4550348,1893,1970,2209,2260
4527943,3492,1657,3810,2014
6074890,2609,1808,2816,1916
6244886,2262,995,2614,1283
