https://surfdrive.surf.nl/files/index.php/s/B7PEqFZSZZBPcW8/download?path=%2FData%2FInput%2FDatasets%2FDavid%2FImages&files=C_158.jpg,5472,3648
C_158,daylight,coffee_table,"[130, 130, 130]","['4121739', '6025026', '6238674', '6104154', '4121739']"
4121739,2289,1962,2676,2244
4121739,2633,1906,2914,2128
6025026,3376,1144,3614,1319
6238674,2272,1655,2423,1807
6104154,2020,2065,2196,2329
