https://surfdrive.surf.nl/files/index.php/s/B7PEqFZSZZBPcW8/download?path=%2FData%2FInput%2FDatasets%2FDavid%2FImages&files=C_154.jpg,5472,3648
C_154,daylight,coffee_table,"[130, 130, 130]","['4121739', '6025026', '6238674', '6104154']"
4121739,2146,1442,2407,1739
6025026,2686,1558,2861,1819
6238674,2474,1541,2618,1720
6104154,2913,1706,3116,2005
