https://surfdrive.surf.nl/files/index.php/s/B7PEqFZSZZBPcW8/download?path=%2FData%2FInput%2FDatasets%2FDavid%2FImages&files=C_181.jpg,5472,3648
C_181,daylight,coffee_table,"[130, 130, 130]","['6252809', '4160403', '300423']"
6252809,1844,1938,2413,3426
4160403,2472,1007,2651,1736
300423,3130,1253,3412,1411
