https://surfdrive.surf.nl/files/index.php/s/B7PEqFZSZZBPcW8/download?path=%2FData%2FInput%2FDatasets%2FDavid%2FImages&files=C_22.jpg,5472,3648
C_22,daylight,coffee_table,"[130, 130, 130]","['300121', '4567338', '4211149', '6022023', '6075075', '4118793', '4647553', '4655172']"
300121,1835,1604,2148,1783
4567338,3617,1599,3707,1661
4211149,2477,1129,2585,1270
6022023,3071,1498,3248,1646
6075075,2795,1158,2943,1277
4118793,2518,1736,2596,1854
4647553,2680,1105,2785,1245
4655172,1663,672,1802,866
