https://surfdrive.surf.nl/files/index.php/s/B7PEqFZSZZBPcW8/download?path=%2FData%2FInput%2FDatasets%2FDavid%2FImages&files=C_27.jpg,5472,3648
C_27,daylight,coffee_table,"[130, 130, 130]",['4650630']
4650630,2383,1539,2822,1967
