https://surfdrive.surf.nl/files/index.php/s/B7PEqFZSZZBPcW8/download?path=%2FData%2FInput%2FDatasets%2FDavid%2FImages&files=C_286.jpg,5472,3648
C_286,daylight,coffee_table,"[130, 130, 130]","['6151663', '365901', '4211201', '300401', '6252809']"
6151663,2771,1650,3016,1923
365901,2731,1876,3238,2404
4211201,2221,1848,2813,2329
300401,2675,1204,2893,1500
6252809,2307,919,3646,1290
