https://surfdrive.surf.nl/files/index.php/s/B7PEqFZSZZBPcW8/download?path=%2FData%2FInput%2FDatasets%2FDavid%2FImages&files=C_327.jpg,5472,3647
C_327,daylight,living_room_floor,"[130, 130, 130]","['4211614', '4153825', '6151663']"
4211614,2285,1966,2425,2180
4153825,2601,1729,2819,2009
6151663,2533,1634,2672,1829
