https://surfdrive.surf.nl/files/index.php/s/B7PEqFZSZZBPcW8/download?path=%2FData%2FInput%2FDatasets%2FDavid%2FImages&files=C_363.jpg,5472,3648
C_363,daylight,living_room_floor,"[130, 130, 130]","['4118793', '6035291', '4211614', '4567338', '4211412', '6025026', '4548180']"
4118793,2458,1164,2570,1326
6035291,3408,1453,3541,1652
4211614,2585,1721,2826,1873
4567338,2109,1101,2244,1165
4211412,2352,1179,2452,1318
6025026,2736,1884,2909,2122
4548180,3105,1087,3310,1188
