https://surfdrive.surf.nl/files/index.php/s/B7PEqFZSZZBPcW8/download?path=%2FData%2FInput%2FDatasets%2FDavid%2FImages&files=C_370.jpg,5472,3648
C_370,daylight,living_room_floor,"[130, 130, 130]","['4118793', '6035291', '4211614', '4567338', '4211412', '6025026', '4548180', '4655172', '4647553']"
4118793,2145,1833,2260,1941
6035291,2697,1725,2859,1796
4211614,2490,1327,2639,1512
4567338,2673,1444,2765,1563
4211412,2680,1818,2801,1916
6025026,2875,1971,3039,2121
4548180,2626,1568,2779,1713
4655172,2018,1457,2384,1759
4647553,2908,1850,3094,1976
