https://surfdrive.surf.nl/files/index.php/s/B7PEqFZSZZBPcW8/download?path=%2FData%2FInput%2FDatasets%2FDavid%2FImages&files=C_373.jpg,5472,3648
C_373,daylight,living_room_floor,"[130, 130, 130]",['300401']
300401,2619,1752,2765,1937
