https://surfdrive.surf.nl/files/index.php/s/B7PEqFZSZZBPcW8/download?path=%2FData%2FInput%2FDatasets%2FDavid%2FImages&files=C_436.jpg,5472,3648
C_436,daylight,living_room_floor,"[130, 130, 130]",['6069259']
6069259,2706,1680,2855,1896
