https://surfdrive.surf.nl/files/index.php/s/B7PEqFZSZZBPcW8/download?path=%2FData%2FInput%2FDatasets%2FDavid%2FImages&files=C_456.jpg,5472,3648
C_456,daylight,dining_table,"[130, 130, 130]","['6075079', '306201', '4211614', '4181135']"
6075079,2655,2137,3045,2459
306201,2976,1405,3139,1627
4211614,2179,1436,2381,1781
4181135,2583,985,2985,1986
