https://surfdrive.surf.nl/files/index.php/s/B7PEqFZSZZBPcW8/download?path=%2FData%2FInput%2FDatasets%2FDavid%2FImages&files=C_465.jpg,5472,3647
C_465,daylight,dining_table,"[130, 130, 130]","['6075079', '306201', '4211614', '4181135', '6003007', '6138173', '300421']"
6075079,1289,2261,1614,2455
306201,2034,2310,2206,2496
4211614,3477,1650,3723,1956
4181135,2252,1375,3080,1973
6003007,2891,2180,3022,2373
6138173,2587,2651,2916,3037
300421,1762,1647,2044,1944
