https://surfdrive.surf.nl/files/index.php/s/B7PEqFZSZZBPcW8/download?path=%2FData%2FInput%2FDatasets%2FDavid%2FImages&files=C_478.jpg,5472,3648
C_478,daylight,dining_table,"[130, 130, 130]","['4153825', '4621545', '306201']"
4153825,1433,1732,1914,2181
4621545,2922,1963,3131,2209
306201,2619,1733,2846,1873
