https://surfdrive.surf.nl/files/index.php/s/B7PEqFZSZZBPcW8/download?path=%2FData%2FInput%2FDatasets%2FDavid%2FImages&files=C_483.jpg,5472,3648
C_483,daylight,coffee_table,"[130, 130, 130]",['300424']
300424,2681,1629,2809,1850
