https://surfdrive.surf.nl/files/index.php/s/B7PEqFZSZZBPcW8/download?path=%2FData%2FInput%2FDatasets%2FDavid%2FImages&files=C_512.jpg,5472,3648
C_512,daylight,coffee_table,"[130, 130, 130]","['300424', '6004938', '306201', '4211166', '4621545', '300121', '4118793', '4548180', '4539099', '654126']"
300424,2329,1943,2660,2215
6004938,1988,1736,2181,1926
306201,2641,1511,2776,1667
4211166,2425,2396,2670,2655
4621545,3266,1331,3551,1534
300121,2106,1141,2640,1372
4118793,3034,2181,3220,2369
4548180,3898,1380,4139,1626
4539099,2184,1934,2386,2130
654126,1885,2008,2034,2168
