https://surfdrive.surf.nl/files/index.php/s/B7PEqFZSZZBPcW8/download?path=%2FData%2FInput%2FDatasets%2FDavid%2FImages&files=C_524.jpg,5472,3648
C_524,daylight,couch,"[130, 130, 130]","['6177697', '6223631']"
6177697,2284,1408,2766,1635
6223631,4006,1522,4127,1652
