https://surfdrive.surf.nl/files/index.php/s/B7PEqFZSZZBPcW8/download?path=%2FData%2FInput%2FDatasets%2FDavid%2FImages&files=C_529.jpg,5472,3648
C_529,daylight,couch,"[130, 130, 130]","['6177697', '6223631', '6073026', '300124']"
6177697,2643,1559,2993,1864
6223631,2145,1954,2264,2064
6073026,2701,1418,2833,1558
300124,2091,2207,2553,2514
