https://surfdrive.surf.nl/files/index.php/s/B7PEqFZSZZBPcW8/download?path=%2FData%2FInput%2FDatasets%2FDavid%2FImages&files=C_530.jpg,5472,3648
C_530,daylight,couch,"[130, 130, 130]","['6177697', '6223631', '6073026', '300124']"
6177697,2581,1476,3005,1640
6223631,3033,1932,3189,2060
6073026,3433,1485,3579,1643
300124,2380,1654,2894,2004
