https://surfdrive.surf.nl/files/index.php/s/B7PEqFZSZZBPcW8/download?path=%2FData%2FInput%2FDatasets%2FDavid%2FImages&files=C_547.jpg,5472,3648
C_547,daylight,chair,"[130, 130, 130]","['4109995', '4649749']"
4109995,2887,2325,3142,2617
4649749,2613,1788,2887,1976
