https://surfdrive.surf.nl/files/index.php/s/B7PEqFZSZZBPcW8/download?path=%2FData%2FInput%2FDatasets%2FDavid%2FImages&files=C_544.jpg,5472,3648
C_544,daylight,chair,"[130, 130, 130]",['4109995']
4109995,2564,1615,2830,1988
