https://surfdrive.surf.nl/files/index.php/s/B7PEqFZSZZBPcW8/download?path=%2FData%2FInput%2FDatasets%2FDavid%2FImages&files=C_555.jpg,5472,3648
C_555,daylight,window_sill,"[130, 130, 130]","['6003007', '365901', '4567338']"
6003007,2546,1511,2768,1769
365901,2379,1604,3001,2294
4567338,2666,1970,2884,2241
