https://surfdrive.surf.nl/files/index.php/s/B7PEqFZSZZBPcW8/download?path=%2FData%2FInput%2FDatasets%2FDavid%2FImages&files=C_570.jpg,5472,3648
C_570,daylight,window_sill,"[130, 130, 130]",['614321']
614321,2626,1639,2870,2010
