https://surfdrive.surf.nl/files/index.php/s/B7PEqFZSZZBPcW8/download?path=%2FData%2FInput%2FDatasets%2FDavid%2FImages&files=C_580.jpg,5472,3648
C_580,daylight,window_sill,"[130, 130, 130]","['614321', '4211221', '4651236', '4621545']"
614321,2519,675,2712,869
4211221,1096,1194,1351,1396
4651236,2615,1633,2853,1879
4621545,2203,2205,2484,2424
