https://surfdrive.surf.nl/files/index.php/s/B7PEqFZSZZBPcW8/download?path=%2FData%2FInput%2FDatasets%2FDavid%2FImages&files=C_65.jpg,5472,3648
C_65,daylight,coffee_table,"[130, 130, 130]","['4517992', '6074890']"
4517992,2195,1320,2527,1765
6074890,2855,2231,3019,2454
