https://surfdrive.surf.nl/files/index.php/s/B7PEqFZSZZBPcW8/download?path=%2FData%2FInput%2FDatasets%2FDavid%2FImages&files=C_670.jpg,5472,3648
C_670,daylight,coffee_table,"[130, 130, 130]",['6075079']
6075079,2545,1320,2890,1513
