https://surfdrive.surf.nl/files/index.php/s/B7PEqFZSZZBPcW8/download?path=%2FData%2FInput%2FDatasets%2FDavid%2FImages&files=C_688.jpg,5472,3647
C_688,daylight,coffee_table,"[130, 130, 130]","['4558957', '4539099', '300323', '6229071', '4157124']"
4558957,3837,1634,4058,2053
4539099,2636,1727,2728,1891
300323,2085,1167,2333,1446
6229071,3338,2010,3538,2333
4157124,1748,2045,2038,2212
