https://surfdrive.surf.nl/files/index.php/s/B7PEqFZSZZBPcW8/download?path=%2FData%2FInput%2FDatasets%2FDavid%2FImages&files=C_70.jpg,5472,3647
C_70,daylight,coffee_table,"[130, 130, 130]","['4517992', '6074890', '4650630', '6004938']"
4517992,1886,2394,2205,2683
6074890,2045,2297,2274,2419
4650630,2820,1150,3088,1368
6004938,2432,1210,2616,1374
