https://surfdrive.surf.nl/files/index.php/s/B7PEqFZSZZBPcW8/download?path=%2FData%2FInput%2FDatasets%2FDavid%2FImages&files=C_715.jpg,5472,3648
C_715,daylight,coffee_table,"[130, 130, 130]","['4529240', '4211437', '4211437', '4539099', '4211149', '300124']"
4529240,2065,2127,2160,2269
4211437,2686,1861,2884,2013
4211437,3035,1860,3261,2015
4539099,2159,2079,2304,2186
4211149,1842,1801,2073,1935
300124,2349,951,2621,1271
