https://surfdrive.surf.nl/files/index.php/s/B7PEqFZSZZBPcW8/download?path=%2FData%2FInput%2FDatasets%2FDavid%2FImages&files=C_785.jpg,5472,3648
C_785,daylight,couch,"[130, 130, 130]","['4621545', '4210718', '4650630', '4529247', '4529247']"
4621545,2118,1612,2372,1872
4210718,2612,1661,2874,2130
4650630,2777,1372,2945,1597
4529247,3029,1765,3172,1929
4529247,3022,1792,3137,1940
