https://surfdrive.surf.nl/files/index.php/s/B7PEqFZSZZBPcW8/download?path=%2FData%2FInput%2FDatasets%2FDavid%2FImages&files=C_806.jpg,5472,3647
C_806,daylight,couch,"[130, 130, 130]","['4504381', '4647553', '4153827', '4520632', '4647553']"
4504381,2414,1256,2536,1372
4647553,2817,1236,3037,1441
4647553,2667,2179,2892,2345
4153827,2805,1806,3238,2186
4520632,2741,1576,3162,1937
