https://surfdrive.surf.nl/files/index.php/s/B7PEqFZSZZBPcW8/download?path=%2FData%2FInput%2FDatasets%2FDavid%2FImages&files=C_820.jpg,5472,3647
C_820,daylight,coffee-table,"[120, 120, 120]","['4109995', '4504381', '4211614', '4504369', '4165967', '4181144', '6238674']"
4109995,2813,1262,3073,1462
4504381,3304,1873,3474,2002
4211614,1933,1960,2213,2202
4504369,1805,2119,1933,2262
4165967,2198,1790,2753,2096
4181144,2922,861,3432,1496
6238674,2537,1541,2635,1722
