https://surfdrive.surf.nl/files/index.php/s/B7PEqFZSZZBPcW8/download?path=%2FData%2FInput%2FDatasets%2FDavid%2FImages&files=C_854.jpg,5472,3648
C_854,daylight,coffee-table,"[120, 120, 120]","['6138173', '6069259', '6223631', '4211166', '6075079', '300424', '6177697', '4639693', '4504369']"
6138173,2910,1923,3197,2144
6069259,2796,1294,2961,1495
6223631,2473,1660,2581,1779
4211166,2527,1400,2750,1591
6075079,2610,1718,2827,1890
300424,3230,1217,3515,1402
6177697,2748,1288,3159,1643
4639693,2182,1373,2459,2269
4504369,2463,2267,2640,2393
