https://surfdrive.surf.nl/files/index.php/s/B7PEqFZSZZBPcW8/download?path=%2FData%2FInput%2FDatasets%2FDavid%2FImages&files=C_892.jpg,5472,3647
C_892,daylight,coffee-table,"[120, 120, 120]","['300123', '6225539', '6062574', '4160403', '4558957', '4548180', '614321', '4647553', '4153827']"
300123,3468,1996,3982,2241
6225539,2897,1271,3353,1765
6062574,848,1867,1011,1997
4160403,2773,1361,3021,1856
4558957,2347,1335,2718,1664
4548180,2385,2382,2635,2535
614321,2869,1905,3079,2117
4647553,3115,2003,3373,2133
4153827,2143,1793,2660,2042
