https://surfdrive.surf.nl/files/index.php/s/B7PEqFZSZZBPcW8/download?path=%2FData%2FInput%2FDatasets%2FDavid%2FImages&files=C_899.jpg,5472,3648
C_899,daylight,coffee-table,"[120, 120, 120]","['4529240', '6074890', '623224', '6025026', '4650630', '6028324', '4211412', '300121', '4181134', '4153827', '6028324', '4567338']"
4529240,2035,2037,2222,2224
6074890,2615,2210,2815,2386
623224,2613,1265,2927,1494
6025026,3209,2026,3463,2217
4650630,2169,2173,2486,2503
6028324,2921,1188,3127,1393
6028324,2510,1571,2721,1719
4211412,2093,1938,2289,2073
300121,2727,1472,3114,1897
4181134,2951,1409,3466,2031
4153827,2327,1747,2784,2218
4567338,2617,2088,2816,2257
