https://surfdrive.surf.nl/files/index.php/s/B7PEqFZSZZBPcW8/download?path=%2FData%2FInput%2FDatasets%2FDavid%2FImages&files=C_90.jpg,5472,3648
C_90,daylight,coffee_table,"[130, 130, 130]","['4121739', '306223', '4210718', '6151663', '4529240', '4211054']"
4121739,2520,2034,2719,2196
306223,2942,1619,3072,1727
4210718,2315,1195,2539,1578
6151663,2568,1938,2810,2111
4529240,2860,1548,2982,1634
4211054,2566,1926,2772,2110
