https://surfdrive.surf.nl/files/index.php/s/B7PEqFZSZZBPcW8/download?path=%2FData%2FInput%2FDatasets%2FDavid%2FImages&files=C_929.jpg,5472,3648
C_929,daylight,couch,"[120, 120, 120]","['365901', '306201', '4529247', '300423', '6003007', '6244886', '6104154', '300421', '6062574', '6075075']"
365901,2579,1599,3069,1840
306201,2863,1440,3039,1563
4529247,2860,1542,3012,1618
300423,3204,1752,3471,1955
6003007,2360,2074,2478,2257
6244886,2478,1777,2752,2038
6104154,3158,1592,3389,1793
300421,2912,1755,3184,1964
6062574,2653,1602,2819,1707
6075075,2511,2057,2740,2314
