https://surfdrive.surf.nl/files/index.php/s/B7PEqFZSZZBPcW8/download?path=%2FData%2FInput%2FDatasets%2FDavid%2FImages&files=C_957.jpg,5472,3648
C_957,daylight,couch,"[120, 120, 120]","['300821', '4143562', '4211149', '4655172', '300321', '6249125', '4550348', '4211221', '300323']"
300821,2238,1473,3063,1876
4143562,2616,2075,2922,2385
4211149,3009,1553,3221,1760
4655172,2096,2155,2485,2645
300321,2579,1739,2876,1990
6249125,3299,1605,3420,1704
4550348,3267,1858,3494,1971
4211221,2426,1654,2589,1885
300323,2107,1825,2404,2085
