https://surfdrive.surf.nl/files/index.php/s/B7PEqFZSZZBPcW8/download?path=%2FData%2FInput%2FDatasets%2FDavid%2FImages&files=C_987.jpg,5472,3648
C_987,daylight,couch,"[120, 120, 120]","['4527943', '300401', '4550325', '4211201', '4121967', '306223', '4157124', '6022064', '614321', '6069259', '6138173', '6075079']"
4527943,2498,1165,2731,1424
300401,3682,955,3895,1215
4550325,2648,1052,2892,1220
4211201,3037,1069,3404,1561
4121967,2989,1731,3291,1933
306223,2924,1376,3045,1498
4157124,2527,997,2708,1178
6022064,2603,1445,2956,1720
614321,2821,1133,3078,1397
6069259,3405,1166,3625,1394
6138173,3647,1494,3906,1782
6075079,2378,1553,2589,1807
