https://surfdrive.surf.nl/files/index.php/s/B7PEqFZSZZBPcW8/download?path=%2FData%2FInput%2FDatasets%2FDavid%2FImages&files=C_999.jpg,5472,3648
C_999,daylight,couch,"[120, 120, 120]","['4527943', '300401', '4550325', '4211201', '4121967', '306223', '4157124', '6022064']"
4527943,2322,2031,2586,2287
300401,2854,1221,3125,1455
4550325,3536,1253,3755,1512
4211201,2889,1496,3465,1989
4121967,2366,1380,2569,1635
306223,2442,1800,2638,1930
4157124,2290,1804,2474,2011
6022064,2624,1519,2842,1888
