https://surfdrive.surf.nl/files/index.php/s/B7PEqFZSZZBPcW8/download?path=%2FData%2FInput%2FDatasets%2FHiba%2FImages&files=H_159.jpg,5184,3456
H_159,daylight,wood,"[130, 130, 130]","['4109995', '6025026', '6025026']"
4109995,3614,1886,3794,2153
6025026,2376,1732,2613,1862
6025026,2379,1726,2626,1855
