https://surfdrive.surf.nl/files/index.php/s/B7PEqFZSZZBPcW8/download?path=%2FData%2FInput%2FDatasets%2FHiba%2FImages&files=H_192.jpg,5184,3456
H_192,daylight,wood,"[130, 130, 130]","['4548180', '4504381', '4517992', '4647553']"
4548180,2450,1747,2747,1885
4504381,1652,1495,1811,1668
4517992,3163,1537,3467,1864
4647553,1364,1011,1633,1255
