https://surfdrive.surf.nl/files/index.php/s/B7PEqFZSZZBPcW8/download?path=%2FData%2FInput%2FDatasets%2FHiba%2FImages&files=H_229.jpg,5184,3456
H_229,daylight,wood,"[130, 130, 130]","['300124', '300401', '6249125', '4121739', '6249125']"
300124,2062,1342,2364,1632
300401,1369,1458,1516,1623
6249125,4158,2390,4341,2561
6249125,2188,1794,2306,1930
4121739,4512,1270,4689,1446
