https://surfdrive.surf.nl/files/index.php/s/B7PEqFZSZZBPcW8/download?path=%2FData%2FInput%2FDatasets%2FHiba%2FImages&files=H_243.jpg,5184,3456
H_243,daylight,wood,"[130, 130, 130]","['6035291', '4160403', '6104154', '300123']"
6035291,2004,998,2104,1158
4160403,3150,1236,3301,1747
6104154,1748,1540,1990,1757
300123,2404,1612,2812,2061
