https://surfdrive.surf.nl/files/index.php/s/B7PEqFZSZZBPcW8/download?path=%2FData%2FInput%2FDatasets%2FHiba%2FImages&files=H_275.jpg,5184,3456
H_275,daylight,wood,"[130, 130, 130]","['4143562', '300123', '4109995', '614321']"
4143562,2942,1545,3134,1722
300123,1924,1531,2067,1905
4109995,2555,1810,2769,1992
614321,1723,1574,1882,1748
