https://surfdrive.surf.nl/files/index.php/s/B7PEqFZSZZBPcW8/download?path=%2FData%2FInput%2FDatasets%2FHiba%2FImages&files=H_302.jpg,5183,3456
H_302,daylight,wood,"[130, 130, 130]","['4558957', '6074890', '6075079', '4527943', '6069259']"
4558957,1383,1558,1842,1913
6074890,2272,943,2368,1041
6075079,2043,2272,2305,2469
4527943,3436,1009,3631,1169
6069259,3650,2291,3869,2545
