https://surfdrive.surf.nl/files/index.php/s/B7PEqFZSZZBPcW8/download?path=%2FData%2FInput%2FDatasets%2FHiba%2FImages&files=H_363.jpg,5184,3456
H_363,daylight,wood,"[130, 130, 130]",['365901']
365901,2119,1603,2839,1918
