https://surfdrive.surf.nl/files/index.php/s/B7PEqFZSZZBPcW8/download?path=%2FData%2FInput%2FDatasets%2FHiba%2FImages&files=H_385.jpg,5184,3456
H_385,daylight,wood,"[130, 130, 130]","['365901', '300424', '4529247', '4211412', '6238674', '4539099', '4211054', '300323']"
365901,2389,1735,2798,2069
300424,2621,2191,2912,2430
4529247,1771,1927,1934,2038
4211412,2087,1912,2243,2006
6238674,2836,867,2945,925
4539099,1362,1969,1470,2084
4211054,2722,2051,3039,2335
300323,2259,1673,2463,1873
