https://surfdrive.surf.nl/files/index.php/s/B7PEqFZSZZBPcW8/download?path=%2FData%2FInput%2FDatasets%2FHiba%2FImages&files=H_413.jpg,5184,3456
H_413,daylight,wood,"[130, 130, 130]","['4211166', '4647553', '4114319', '4550348', '4567338', '4211437', '4621545']"
4211166,2449,1507,2753,1815
4647553,2508,1316,2812,1557
4114319,838,2040,1421,2865
4550348,1354,1074,1513,1295
4567338,1692,1170,1879,1295
4211437,2395,1690,2633,2011
4621545,2021,1674,2329,2015
