https://surfdrive.surf.nl/files/index.php/s/B7PEqFZSZZBPcW8/download?path=%2FData%2FInput%2FDatasets%2FHiba%2FImages&files=H_411.jpg,5184,3456
H_411,daylight,wood,"[130, 130, 130]","['4211166', '4647553', '4114319', '4550348', '4567338', '4211437', '4621545']"
4211166,2569,811,2808,1065
4647553,2281,1539,2600,1850
4114319,1147,1863,1490,2629
4550348,1544,867,1704,1054
4567338,1543,1263,1760,1441
4211437,3221,1835,3440,2101
4621545,2689,1759,2929,2067
