https://surfdrive.surf.nl/files/index.php/s/B7PEqFZSZZBPcW8/download?path=%2FData%2FInput%2FDatasets%2FHiba%2FImages&files=H_42.jpg,5184,3456
H_42,daylight,wood,"[130, 130, 130]","['4210718', '6249125', '4504381', '4558957']"
4210718,3754,1242,4324,1714
6249125,3148,987,3250,1097
4504381,3640,764,3770,850
4558957,2443,1324,2889,1718
