https://surfdrive.surf.nl/files/index.php/s/B7PEqFZSZZBPcW8/download?path=%2FData%2FInput%2FDatasets%2FHiba%2FImages&files=H_453.jpg,5184,3456
H_453,daylight,parquet_brown_medium,"[120, 120, 120]","['4160403', '4539099', '6225539', '6151663', '4550348', '6252809', '4548180', '365901']"
4160403,3558,1726,3742,1909
4539099,2924,2080,2996,2146
6225539,2515,1525,2622,1774
6151663,2557,1955,2674,2015
4550348,2593,2042,2670,2137
6252809,1760,1902,2240,2114
4548180,2658,1735,2712,1804
365901,2028,1380,2189,1508
