https://surfdrive.surf.nl/files/index.php/s/B7PEqFZSZZBPcW8/download?path=%2FData%2FInput%2FDatasets%2FHiba%2FImages&files=H_45.jpg,5184,3456
H_45,daylight,wood,"[130, 130, 130]","['4210718', '6249125', '4504381', '4558957', '4651236']"
4210718,1491,2017,1760,2572
6249125,2633,1616,2744,1751
4504381,2559,1336,2695,1442
4558957,2385,1520,2837,1920
4651236,2431,2183,2618,2418
