https://surfdrive.surf.nl/files/index.php/s/B7PEqFZSZZBPcW8/download?path=%2FData%2FInput%2FDatasets%2FHiba%2FImages&files=H_464.jpg,5184,3456
H_464,daylight,parquet_brown_medium,"[120, 120, 120]","['6028324', '4114319', '6004938', '300121', '300421', '6249125', '306223', '6003007', '300424', '6252809', '6229071', '4160403']"
6028324,3202,1125,3345,1275
4114319,2800,1806,3232,2004
6004938,3015,2423,3142,2529
300121,1112,1459,1436,1589
300421,4084,1546,4262,1661
6249125,3360,2695,3490,2810
306223,2237,1990,2346,2113
6003007,4031,1677,4179,1779
300424,2063,1518,2197,1636
6252809,2240,1372,3077,1666
6229071,2484,1626,2667,1797
4160403,3208,1363,3537,1717
