https://surfdrive.surf.nl/files/index.php/s/B7PEqFZSZZBPcW8/download?path=%2FData%2FInput%2FDatasets%2FHiba%2FImages&files=H_479.jpg,5184,3456
H_479,daylight,parquet_brown_medium,"[120, 120, 120]","['6028324', '4114319', '6004938', '300121', '300421', '6249125', '306223']"
6028324,2413,1702,2561,1858
4114319,1501,1053,1884,1309
6004938,2684,1284,2819,1428
300121,2008,935,2343,1091
300421,2135,1482,2345,1643
6249125,4431,1346,4539,1429
306223,3343,1533,3481,1642
