https://surfdrive.surf.nl/files/index.php/s/B7PEqFZSZZBPcW8/download?path=%2FData%2FInput%2FDatasets%2FHiba%2FImages&files=H_509.jpg,5184,3456
H_509,daylight,parquet_brown_medium,"[120, 120, 120]","['4520632', '4181134', '4211201', '4504369', '6025026', '6244886', '623224', '4529247', '654126', '4211511', '6075075']"
4520632,1821,1118,2079,1252
4181134,2432,1268,2825,1559
4211201,2066,1699,2204,1996
4504369,2596,1873,2690,1967
6025026,2993,1904,3140,1980
6244886,2309,1867,2474,2010
623224,2671,2166,2868,2337
4529247,2656,1249,2748,1303
654126,1921,1381,2028,1485
4211511,1765,1048,1855,1139
6075075,2552,1082,2676,1153
