https://surfdrive.surf.nl/files/index.php/s/B7PEqFZSZZBPcW8/download?path=%2FData%2FInput%2FDatasets%2FHiba%2FImages&files=H_524.jpg,5184,3456
H_524,daylight,parquet_brown_medium,"[120, 120, 120]","['4520632', '4181134', '4211201', '4504369', '6025026', '6244886']"
4520632,2229,1805,2597,2094
4181134,3007,1038,3171,1346
4211201,1792,1430,2059,1692
4504369,3958,1475,4044,1550
6025026,3775,1838,3936,1927
6244886,1372,1761,1586,1949
