https://surfdrive.surf.nl/files/index.php/s/B7PEqFZSZZBPcW8/download?path=%2FData%2FInput%2FDatasets%2FHiba%2FImages&files=H_530.jpg,5184,3456
H_530,daylight,table_plastic_grey,"[120, 120, 120]","['4504381', '4165967', '4211221', '6177697', '4210718', '6035291', '6069259', '4109995', '4504381', '4527943', '4212454', '4647553']"
4504381,3488,1418,3576,1515
4504381,3502,1422,3594,1522
4165967,1574,1536,1877,1719
4211221,3000,1374,3148,1547
6177697,1434,887,1536,1079
4210718,2316,1681,2649,1796
6035291,1583,1212,1718,1303
6069259,2813,1299,2980,1479
4109995,2370,1020,2454,1124
4527943,1146,1563,1292,1688
4212454,2202,1325,2273,1435
4647553,1827,999,1950,1118
