https://surfdrive.surf.nl/files/index.php/s/B7PEqFZSZZBPcW8/download?path=%2FData%2FInput%2FDatasets%2FHiba%2FImages&files=H_54.jpg,5184,3456
H_54,daylight,wood,"[130, 130, 130]","['4211511', '4529240', '614321']"
4211511,3824,2289,4029,2508
4529240,1156,2058,1304,2204
614321,2430,1466,2690,1748
