https://surfdrive.surf.nl/files/index.php/s/B7PEqFZSZZBPcW8/download?path=%2FData%2FInput%2FDatasets%2FHiba%2FImages&files=H_595.jpg,5184,3456
H_595,daylight,table_plastic_grey,"[120, 120, 120]","['4157124', '4211511', '6022064', '4211149', '4550348', '4651236', '4539099', '4550325', '4548180']"
4157124,2348,1538,2519,1684
4211511,3022,2474,3202,2639
6022064,2442,2394,2726,2711
4211149,3193,2030,3416,2253
4550348,3204,908,3360,964
4651236,2660,1152,2843,1313
4539099,3244,1373,3385,1451
4550325,2838,1626,3025,1762
4548180,2697,1189,2884,1344
