https://surfdrive.surf.nl/files/index.php/s/B7PEqFZSZZBPcW8/download?path=%2FData%2FInput%2FDatasets%2FHiba%2FImages&files=H_602.jpg,5184,3456
H_602,daylight,table_plastic_grey,"[120, 120, 120]","['4639693', '4517992', '6074890', '4211437', '6062574', '4529240', '4655172', '6028324', '4649749', '4211149', '4143562', '4210718']"
4639693,1048,1378,1811,1629
4517992,2469,2090,2744,2313
6074890,3784,920,3909,1000
4211437,2567,1103,2750,1213
6062574,4137,508,4247,578
4529240,2219,772,2346,841
4655172,3148,2023,3460,2452
6028324,2953,1128,3152,1319
4649749,2100,912,2291,1060
4211149,2376,1753,2613,1917
4143562,2915,839,3152,1024
4210718,2900,1116,3195,1320
