https://surfdrive.surf.nl/files/index.php/s/B7PEqFZSZZBPcW8/download?path=%2FData%2FInput%2FDatasets%2FHiba%2FImages&files=H_604.jpg,5183,3456
H_604,daylight,table_plastic_grey,"[120, 120, 120]","['4639693', '4517992', '6074890', '4211437', '6062574', '4529240', '4655172', '6028324', '4649749', '4211149', '4143562', '4210718']"
4639693,1198,1416,1447,2051
4517992,1666,1624,1880,1840
6074890,1540,1005,1662,1099
4211437,2656,1060,2823,1168
6062574,2501,1726,2644,1864
4529240,2452,1660,2589,1737
4655172,2551,2536,2990,2805
6028324,2493,777,2634,897
4649749,2254,1021,2443,1094
4211149,2013,1564,2210,1710
4143562,3671,1375,3916,1569
4210718,3054,1427,3255,1745
