https://surfdrive.surf.nl/files/index.php/s/B7PEqFZSZZBPcW8/download?path=%2FData%2FInput%2FDatasets%2FHiba%2FImages&files=H_612.jpg,5184,3456
H_612,daylight,table_plastic_grey,"[120, 120, 120]","['4639693', '4517992', '6074890', '4211437', '6062574', '4529240', '4655172', '6028324', '4649749']"
4639693,1835,1849,2550,2491
4517992,1297,1755,1500,1980
6074890,3607,1588,3705,1705
4211437,1446,907,1608,1031
6062574,1536,2037,1698,2187
4529240,3147,1960,3302,2084
4655172,2306,1300,2699,1615
6028324,2858,1349,3016,1504
4649749,2313,1044,2477,1173
