https://surfdrive.surf.nl/files/index.php/s/B7PEqFZSZZBPcW8/download?path=%2FData%2FInput%2FDatasets%2FHiba%2FImages&files=H_629.jpg,5184,3456
H_629,daylight,parquet_brown_light,"[120, 120, 120]","['4211412', '300421', '300121', '4529247', '300401', '6075075', '6151663', '6022023', '6223631', '4121967', '4211166', '6252809', '4211511']"
4211412,1589,1903,1713,2013
300421,3503,994,3689,1194
300121,2315,1927,2777,2437
4529247,2970,938,3110,1010
300401,1294,1830,1569,2058
6075075,2637,709,2835,846
6151663,1657,1585,1821,1757
6022023,2289,982,2478,1167
6223631,3279,900,3361,1016
4121967,2885,1004,3101,1124
4211166,3092,763,3251,862
6252809,3469,1566,3710,2544
4211511,2722,984,2819,1075
