https://surfdrive.surf.nl/files/index.php/s/B7PEqFZSZZBPcW8/download?path=%2FData%2FInput%2FDatasets%2FHiba%2FImages&files=H_638.jpg,5184,3455
H_638,daylight,parquet_brown_light,"[120, 120, 120]","['4211412', '300421', '300121', '4529247', '300401', '6075075', '6151663', '6022023', '6223631', '4121967']"
4211412,2436,1734,2573,1922
300421,3425,1695,3765,1998
300121,2786,728,3047,1060
4529247,3007,1417,3156,1578
300401,3187,987,3375,1217
6075075,923,1644,1227,1868
6151663,1955,1102,2106,1294
6022023,1936,1795,2224,2075
6223631,3113,1514,3272,1665
4121967,1478,1206,1714,1468
