https://surfdrive.surf.nl/files/index.php/s/B7PEqFZSZZBPcW8/download?path=%2FData%2FInput%2FDatasets%2FHiba%2FImages&files=H_66.jpg,5184,3456
H_66,daylight,wood,"[130, 130, 130]","['4211511', '4529240', '614321', '300423', '4212454', '6062574', '4650630']"
4211511,3223,1280,3381,1430
4529240,2064,1891,2209,1993
614321,1089,1839,1340,2100
300423,2641,1579,2787,1817
4212454,2408,1899,2522,2037
6062574,1660,1347,1793,1503
4650630,2862,1859,3122,2133
