https://surfdrive.surf.nl/files/index.php/s/B7PEqFZSZZBPcW8/download?path=%2FData%2FInput%2FDatasets%2FHiba%2FImages&files=H_673.jpg,5184,3456
H_673,daylight,parquet_brown_light,"[120, 120, 120]","['6069259', '4165967', '6238674', '4181144', '4558957', '4181134', '6244886', '4504369', '4143562', '4210718']"
6069259,1291,2460,1578,2682
4165967,3655,1503,4142,1762
6238674,1600,1443,1758,1528
4181144,3515,1093,4144,1326
4558957,2831,743,3175,997
4181134,3146,1569,3875,1939
6244886,3121,2371,3459,2761
4504369,1691,1686,1807,1790
4143562,2112,1162,2357,1351
4210718,2410,1475,2944,1822
