https://surfdrive.surf.nl/files/index.php/s/B7PEqFZSZZBPcW8/download?path=%2FData%2FInput%2FDatasets%2FHiba%2FImages&files=H_685.jpg,5184,3456
H_685,daylight,parquet_brown_light,"[120, 120, 120]","['6138173', '6229071', '6075079', '4650630', '300424', '4527943', '300321', '4153825', '306201', '4558957', '4650630']"
6138173,2567,1744,2813,1974
6229071,3438,1342,3628,1522
6075079,3202,938,3365,1055
4650630,2712,885,2874,1090
4650630,1592,1280,1783,1499
300424,2508,1154,2714,1333
4527943,731,1516,921,1706
300321,2955,1146,3188,1363
4153825,3212,1207,3477,1436
306201,1753,1921,1877,2049
4558957,3185,1814,3602,2165
