https://surfdrive.surf.nl/files/index.php/s/B7PEqFZSZZBPcW8/download?path=%2FData%2FInput%2FDatasets%2FHiba%2FImages&files=H_693.jpg,5184,3456
H_693,daylight,parquet_brown_light,"[120, 120, 120]","['6138173', '6229071', '6075079', '4650630', '300424', '4527943', '300321', '4153825']"
6138173,3173,1186,3331,1282
6229071,1637,1681,1770,1839
6075079,2001,995,2122,1128
4650630,2403,1706,2569,1930
300424,2977,1955,3218,2055
4527943,3684,1989,3817,2072
300321,2977,1481,3193,1664
4153825,3118,1289,3268,1406
