https://surfdrive.surf.nl/files/index.php/s/B7PEqFZSZZBPcW8/download?path=%2FData%2FInput%2FDatasets%2FHiba%2FImages&files=H_701.jpg,5184,3456
H_701,daylight,parquet_brown_light,"[120, 120, 120]","['4160403', '4211221', '614321', '6073026', '6035291', '6025026', '4520632', '6177697', '4639693', '6022023', '4211614']"
4160403,2693,775,3238,976
4211221,2840,1966,3060,2292
614321,3267,1898,3507,2156
6073026,1583,847,1698,986
6035291,2241,865,2353,1028
6025026,1819,2057,2074,2231
4520632,2918,953,3186,1293
6177697,2298,1142,2426,1479
4639693,3417,999,3932,1620
6022023,2318,2076,2543,2380
4211614,2362,1725,2616,1907
