https://surfdrive.surf.nl/files/index.php/s/B7PEqFZSZZBPcW8/download?path=%2FData%2FInput%2FDatasets%2FHiba%2FImages&files=H_728.jpg,5184,3456
H_728,daylight,parquet_brown_light,"[120, 120, 120]","['6062574', '300123', '4655172', '6225539', '4517992', '6074890', '6022064', '4621545', '4211201', '4539099']"
6062574,2859,1552,3001,1664
300123,2066,1163,2322,1484
4655172,2070,1168,2324,1484
6225539,2466,1899,2948,2417
4517992,3300,1648,3450,1866
6074890,2463,2075,2561,2199
6022064,2541,1090,2729,1285
4621545,2878,1198,3094,1333
4211201,2681,1249,3099,1522
4539099,1826,1527,1960,1643
