https://surfdrive.surf.nl/files/index.php/s/B7PEqFZSZZBPcW8/download?path=%2FData%2FInput%2FDatasets%2FHiba%2FImages&files=H_730.jpg,5184,3456
H_730,daylight,parquet_brown_light,"[120, 120, 120]","['6062574', '300123', '4655172', '6225539', '4517992', '6074890', '6022064', '4621545', '4211201', '4539099']"
6062574,3370,2181,3540,2295
300123,2829,1658,3316,2013
4655172,2591,1008,2846,1267
6225539,1551,1221,2079,1512
4517992,1541,2208,1852,2475
6074890,2311,2373,2418,2473
6022064,1830,1642,1948,1883
4621545,1501,1987,1761,2154
4211201,2276,1520,2769,1805
4539099,1369,1899,1476,2027
