https://surfdrive.surf.nl/files/index.php/s/B7PEqFZSZZBPcW8/download?path=%2FData%2FInput%2FDatasets%2FHiba%2FImages&files=H_750.jpg,5184,3456
H_750,artificial_light,parquet_brown_medium,"[120, 120, 120]","['300323', '6028324', '4651236', '300124', '6004938', '4211412', '300121', '623224', '4550325']"
300323,2050,2354,2233,2517
6028324,2555,1346,2621,1490
4651236,1835,1627,1996,1739
300124,2369,1607,2729,1812
6004938,2739,2566,2868,2680
4211412,2096,1730,2185,1810
300121,3136,1809,3259,2054
623224,2962,1359,3078,1490
4550325,2820,1853,2991,1980
