https://surfdrive.surf.nl/files/index.php/s/B7PEqFZSZZBPcW8/download?path=%2FData%2FInput%2FDatasets%2FHiba%2FImages&files=H_752.jpg,5184,3456
H_752,artificial_light,parquet_brown_medium,"[120, 120, 120]","['300323', '6028324', '4651236', '300124', '6004938', '4211412', '300121', '623224']"
300323,3288,1615,3515,1747
6028324,3504,1930,3696,2107
4651236,1829,1879,2018,2025
300124,2061,1130,2403,1311
6004938,3109,2373,3274,2495
4211412,2415,1786,2540,1905
300121,2276,1422,2639,1533
623224,3126,1397,3370,1537
