https://surfdrive.surf.nl/files/index.php/s/B7PEqFZSZZBPcW8/download?path=%2FData%2FInput%2FDatasets%2FHiba%2FImages&files=H_760.jpg,5184,3456
H_760,artificial_light,parquet_brown_medium,"[120, 120, 120]","['4550348', '4153827', '300421', '6003007', '4211437', '654126', '4181135', '6252809', '4211437', '4548180', '4211149', '4655172', '4529247']"
4550348,2238,1257,2354,1345
4153827,1947,1408,2241,1650
300421,2761,718,2876,782
6003007,1470,1452,1573,1505
4211437,2795,987,2892,1096
4211437,2663,469,2735,557
654126,1750,1820,1872,1928
4181135,2884,1243,3063,1585
6252809,2384,1106,2885,1514
4548180,3104,1623,3251,1728
4211149,2506,1011,2605,1116
4655172,2982,1071,3115,1287
4529247,2489,2567,2591,2684
