https://surfdrive.surf.nl/files/index.php/s/B7PEqFZSZZBPcW8/download?path=%2FData%2FInput%2FDatasets%2FHiba%2FImages&files=H_772.jpg,5184,3455
H_772,artificial_light,parquet_brown_medium,"[120, 120, 120]","['4550348', '4153827', '300421', '6003007', '4211437', '654126', '4181135', '6252809', '4211437']"
4550348,1804,1722,1901,1817
4153827,2447,1255,2690,1379
300421,3231,2199,3400,2337
6003007,2301,1138,2384,1185
4211437,2229,1494,2353,1573
4211437,3064,1672,3187,1774
654126,2004,1778,2090,1872
4181135,2490,1663,2744,2021
6252809,2335,1449,2561,1955
