https://surfdrive.surf.nl/files/index.php/s/B7PEqFZSZZBPcW8/download?path=%2FData%2FInput%2FDatasets%2FBerend%2FImages&files=B_13.jpg,4608,3072
B_13,daylight,wood,"[130, 130, 130]","['4650630', '6252809', '4211054', '4548180', '4649749']"
4650630,2062,1764,2430,2193
6252809,1364,1142,2308,2122
4211054,1228,1183,1978,1879
4548180,2555,1312,2889,1589
4649749,2191,1439,2572,1767
