https://surfdrive.surf.nl/files/index.php/s/B7PEqFZSZZBPcW8/download?path=%2FData%2FInput%2FDatasets%2FBerend%2FImages&files=B_157.jpg,4608,3072
B_157,daylight,wood,"[130, 130, 130]","['300421', '6138173', '4114319', '4211221', '6004938', '4211166', '6069259']"
300421,3125,1588,3450,1933
6138173,1114,997,1392,1214
4114319,1964,1092,2395,1505
4211221,2230,1526,2511,1835
6004938,2676,1742,2894,1976
4211166,2331,1596,2535,1796
6069259,2217,1485,2415,1763
