https://surfdrive.surf.nl/files/index.php/s/B7PEqFZSZZBPcW8/download?path=%2FData%2FInput%2FDatasets%2FBerend%2FImages&files=B_385.jpg,4608,3072
B_385,daylight,wood,"[130, 130, 130]","['4181144', '6238674', '6025026', '6074890']"
4181144,2219,1433,2764,1971
6238674,1532,1242,1747,1423
6025026,2875,1223,3102,1430
6074890,3109,1387,3476,1757
