https://surfdrive.surf.nl/files/index.php/s/B7PEqFZSZZBPcW8/download?path=%2FData%2FInput%2FDatasets%2FBerend%2FImages&files=B_422.jpg,4607,3072
B_422,daylight,wood,"[130, 130, 130]","['6003007', '4153827', '300124']"
6003007,1788,1583,1898,1744
4153827,2019,1275,2395,1616
300124,2138,1126,2423,1493
