https://surfdrive.surf.nl/files/index.php/s/B7PEqFZSZZBPcW8/download?path=%2FData%2FInput%2FDatasets%2FBerend%2FImages&files=B_536.jpg,4608,3072
B_536,daylight,wood,"[130, 130, 130]","['4212454', '6028324']"
4212454,1491,1307,1680,1492
6028324,2665,1470,2881,1721
