https://surfdrive.surf.nl/files/index.php/s/B7PEqFZSZZBPcW8/download?path=%2FData%2FInput%2FDatasets%2FBerend%2FImages&files=B_56.jpg,4607,3072
B_56,daylight,wood,"[130, 130, 130]","['6075079', '4520632', '300421', '6073026']"
6075079,1781,1500,1972,1635
4520632,2241,1295,2648,1561
300421,2637,1550,2827,1697
6073026,1795,1237,1952,1379
