https://surfdrive.surf.nl/files/index.php/s/B7PEqFZSZZBPcW8/download?path=%2FData%2FInput%2FDatasets%2FBerend%2FImages&files=B_756.jpg,4608,3072
B_756,daylight,wood,"[130, 130, 130]","['6035291', '4118793', '4109995', '6022064']"
6035291,1638,764,1933,1086
4118793,1444,1553,1704,1875
4109995,2234,2014,2637,2396
6022064,3217,2366,3440,2948
