https://surfdrive.surf.nl/files/index.php/s/B7PEqFZSZZBPcW8/download?path=%2FData%2FInput%2FDatasets%2FBerend%2FImages&files=B_800.jpg,4608,3072
B_800,daylight,wood,"[130, 130, 130]","['6151663', '4550348']"
6151663,2225,1376,2571,1742
4550348,2043,1246,2452,1616
