https://surfdrive.surf.nl/files/index.php/s/B7PEqFZSZZBPcW8/download?path=%2FData%2FInput%2FDatasets%2FDavid%2FImages&files=C_322.jpg,5472,3648
C_322,daylight,living_room_floor,"[130, 130, 130]",['4211614']
4211614,2647,1698,2831,1909
