https://surfdrive.surf.nl/files/index.php/s/B7PEqFZSZZBPcW8/download?path=%2FData%2FInput%2FDatasets%2FDavid%2FImages&files=C_469.jpg,5472,3648
C_469,daylight,dining_table,"[130, 130, 130]","['6075079', '306201', '4211614', '4181135', '6003007', '6138173', '300421', '6028324']"
6075079,2725,1995,3016,2204
306201,1593,1895,1796,2113
4211614,3469,1382,3651,1645
4181135,2658,1280,3372,1974
6003007,1839,1723,2066,1889
6138173,3136,1595,3450,1905
300421,2240,1665,2455,1986
6028324,2429,1553,2697,1833
