https://surfdrive.surf.nl/files/index.php/s/B7PEqFZSZZBPcW8/download?path=%2FData%2FInput%2FDatasets%2FDavid%2FImages&files=C_516.jpg,5472,3648
C_516,daylight,couch,"[130, 130, 130]","['6069259', '4211412']"
6069259,2446,1253,2614,1508
4211412,2701,1674,2869,1843
