https://surfdrive.surf.nl/files/index.php/s/B7PEqFZSZZBPcW8/download?path=%2FData%2FInput%2FDatasets%2FDavid%2FImages&files=C_642.jpg,5472,3648
C_642,daylight,coffee_table,"[130, 130, 130]","['6074890', '6073026', '4211221', '4211166', '4181144', '4211149', '6062574', '4548180']"
6074890,3190,1441,3368,1603
6073026,2749,1812,2918,2032
4211221,3222,1184,3555,1512
4211166,2637,1626,2881,1869
4181144,2239,1339,2766,2071
4211149,3583,1373,3845,1594
6062574,3124,1166,3300,1337
4548180,2720,2059,3006,2324
