https://surfdrive.surf.nl/files/index.php/s/B7PEqFZSZZBPcW8/download?path=%2FData%2FInput%2FDatasets%2FDavid%2FImages&files=C_704.jpg,5472,3648
C_704,daylight,coffee_table,"[130, 130, 130]","['4529240', '4211437']"
4529240,2615,1801,2886,1974
4211437,2322,1358,2705,1628
