https://surfdrive.surf.nl/files/index.php/s/B7PEqFZSZZBPcW8/download?path=%2FData%2FInput%2FDatasets%2FDavid%2FImages&files=C_765.jpg,5472,3648
C_765,daylight,couch,"[130, 130, 130]","['6074890', '4211511', '4520632', '300421', '4558957']"
6074890,2990,1126,3176,1278
4211511,2237,2035,2441,2241
4520632,2435,1884,2823,2480
300421,2030,2260,2353,2600
4558957,2651,1536,3116,1969
