https://surfdrive.surf.nl/files/index.php/s/B7PEqFZSZZBPcW8/download?path=%2FData%2FInput%2FDatasets%2FDavid%2FImages&files=C_781.jpg,5472,3648
C_781,daylight,couch,"[130, 130, 130]","['4621545', '4210718', '4650630', '4529247']"
4621545,2625,1887,2920,2125
4210718,2359,1605,3043,1845
4650630,2378,1917,2662,2157
4529247,2919,1071,3111,1225
