https://surfdrive.surf.nl/files/index.php/s/B7PEqFZSZZBPcW8/download?path=%2FData%2FInput%2FDatasets%2FDavid%2FImages&files=C_799.jpg,5472,3648
C_799,daylight,couch,"[130, 130, 130]","['4504381', '4647553', '4153827']"
4504381,2932,1718,3087,1854
4647553,2636,1700,2905,1889
4153827,2320,1811,2868,2138
