https://surfdrive.surf.nl/files/index.php/s/B7PEqFZSZZBPcW8/download?path=%2FData%2FInput%2FDatasets%2FHiba%2FImages&files=H_219.jpg,5184,3456
H_219,daylight,wood,"[130, 130, 130]","['300124', '300401']"
300124,2282,1709,2923,2226
300401,2518,1530,2744,1786
