https://surfdrive.surf.nl/files/index.php/s/B7PEqFZSZZBPcW8/download?path=%2FData%2FInput%2FDatasets%2FHiba%2FImages&files=H_220.jpg,5184,3456
H_220,daylight,wood,"[130, 130, 130]","['300124', '300401']"
300124,1499,1279,2033,1649
300401,2960,1336,3209,1525
