https://surfdrive.surf.nl/files/index.php/s/B7PEqFZSZZBPcW8/download?path=%2FData%2FInput%2FDatasets%2FHiba%2FImages&files=H_26.jpg,5184,3456
H_26,daylight,wood,"[130, 130, 130]","['4181135', '6238674']"
4181135,2998,1004,3804,1451
6238674,1631,1228,1815,1386
