https://surfdrive.surf.nl/files/index.php/s/B7PEqFZSZZBPcW8/download?path=%2FData%2FInput%2FDatasets%2FHiba%2FImages&files=H_30.jpg,5184,3456
H_30,daylight,wood,"[130, 130, 130]","['4181135', '6238674', '300321', '4651236']"
4181135,2275,1329,2652,1713
6238674,2093,1481,2379,1776
300321,3957,1490,4234,1734
4651236,1933,1631,2108,1770
