https://surfdrive.surf.nl/files/index.php/s/B7PEqFZSZZBPcW8/download?path=%2FData%2FInput%2FDatasets%2FHiba%2FImages&files=H_356.jpg,5184,3456
H_356,daylight,wood,"[130, 130, 130]","['6035291', '6151663', '4181144', '4649749', '4639693']"
6035291,4075,1313,4294,1579
6151663,3211,1900,3448,2216
4181144,2351,647,3091,1001
4649749,2875,2203,3179,2571
4639693,1355,1186,2497,1512
