https://surfdrive.surf.nl/files/index.php/s/B7PEqFZSZZBPcW8/download?path=%2FData%2FInput%2FDatasets%2FHiba%2FImages&files=H_380.jpg,5184,3456
H_380,daylight,wood,"[130, 130, 130]","['365901', '300424', '4529247', '4211412', '6238674', '4539099']"
365901,1977,1649,2517,1827
300424,1638,2132,1971,2465
4529247,4088,2159,4316,2265
4211412,3692,1500,3846,1648
6238674,3197,977,3353,1080
4539099,2477,1551,2672,1700
