https://surfdrive.surf.nl/files/index.php/s/B7PEqFZSZZBPcW8/download?path=%2FData%2FInput%2FDatasets%2FHiba%2FImages&files=H_412.jpg,5184,3456
H_412,daylight,wood,"[130, 130, 130]","['4211166', '4647553', '4114319', '4550348', '4567338', '4211437', '4621545']"
4211166,3417,1155,3671,1373
4647553,2411,1108,2604,1369
4114319,1194,1935,1756,2683
4550348,924,1105,1163,1285
4567338,1235,1451,1460,1588
4211437,1826,1150,2051,1432
4621545,2451,1327,2674,1625
