https://surfdrive.surf.nl/files/index.php/s/B7PEqFZSZZBPcW8/download?path=%2FData%2FInput%2FDatasets%2FHiba%2FImages&files=H_45.jpg,5184,3456
H_45,daylight,wood,"[130, 130, 130]","['4210718', '6249125', '4504381', '4558957', '4651236']"
4210718,1508,2023,1742,2561
6249125,2634,1617,2741,1750
4504381,2560,1335,2694,1441
4558957,2406,1535,2824,1905
4651236,2432,2189,2616,2418
