https://surfdrive.surf.nl/files/index.php/s/B7PEqFZSZZBPcW8/download?path=%2FData%2FInput%2FDatasets%2FHiba%2FImages&files=H_57.jpg,5184,3456
H_57,daylight,wood,"[130, 130, 130]","['4211511', '4529240', '614321', '300423']"
4211511,2444,1494,2570,1615
4529240,1467,2152,1586,2324
614321,2924,2091,3166,2302
300423,2572,1635,2782,1779
