https://surfdrive.surf.nl/files/index.php/s/B7PEqFZSZZBPcW8/download?path=%2FData%2FInput%2FDatasets%2FBerend%2FImages&files=B_14.jpg,4608,3072
B_14,daylight,wood,"[130, 130, 130]","['4650630', '6252809', '4211054', '4548180', '4649749']"
4650630,1607,2204,2062,2540
6252809,851,1256,1996,2489
4211054,2676,1327,3192,1652
4548180,1378,548,1723,827
4649749,3111,1585,3506,1828
