https://surfdrive.surf.nl/files/index.php/s/B7PEqFZSZZBPcW8/download?path=%2FData%2FInput%2FDatasets%2FBerend%2FImages&files=B_14.jpg,4607,3072
B_14,daylight,wood,"[130, 130, 130]","['4650630', '6252809', '4211054', '4548180', '4649749']"
4650630,1601,2208,2059,2532
6252809,843,1245,1998,2617
4211054,2669,1333,3192,1647
4548180,1417,552,1712,841
4649749,3148,1595,3516,1829
