https://surfdrive.surf.nl/files/index.php/s/B7PEqFZSZZBPcW8/download?path=%2FData%2FInput%2FDatasets%2FBerend%2FImages&files=B_198.jpg,4608,3072
B_198,daylight,wood,"[130, 130, 130]","['4621545', '654126']"
4621545,2888,1250,3374,1669
654126,1019,1294,1355,1655
