https://surfdrive.surf.nl/files/index.php/s/B7PEqFZSZZBPcW8/download?path=%2FData%2FInput%2FDatasets%2FBerend%2FImages&files=B_210.jpg,4608,3072
B_210,daylight,wood,"[130, 130, 130]","['4621545', '654126', '300124', '306201', '4212454', '614321']"
4621545,1907,1622,2060,1814
654126,2162,1461,2267,1593
300124,2447,1492,2609,1811
306201,1920,1295,2030,1393
4212454,1821,1345,1939,1430
614321,2012,1464,2157,1579
