https://surfdrive.surf.nl/files/index.php/s/B7PEqFZSZZBPcW8/download?path=%2FData%2FInput%2FDatasets%2FBerend%2FImages&files=B_219.jpg,4607,3072
B_219,daylight,wood,"[130, 130, 130]","['4109995', '4651236', '6177697']"
4109995,1510,852,1872,1209
4651236,1515,1542,1858,1798
6177697,2649,1354,2939,1914
