https://surfdrive.surf.nl/files/index.php/s/B7PEqFZSZZBPcW8/download?path=%2FData%2FInput%2FDatasets%2FBerend%2FImages&files=B_350.jpg,4608,3072
B_350,daylight,wood,"[130, 130, 130]","['4639693', '4121967']"
4639693,1590,1308,2475,1600
4121967,2658,1607,2829,1808
