https://surfdrive.surf.nl/files/index.php/s/B7PEqFZSZZBPcW8/download?path=%2FData%2FInput%2FDatasets%2FBerend%2FImages&files=B_424.jpg,4608,3072
B_424,daylight,wood,"[130, 130, 130]",['306201']
306201,2206,1436,2335,1504
