https://surfdrive.surf.nl/files/index.php/s/B7PEqFZSZZBPcW8/download?path=%2FData%2FInput%2FDatasets%2FBerend%2FImages&files=B_439.jpg,4608,3072
B_439,daylight,wood,"[130, 130, 130]","['306201', '4153825', '4647553', '306223', '6151663', '6004938']"
306201,2425,875,2563,952
4153825,1786,1904,2050,2196
4647553,1680,1471,1897,1670
306223,2809,852,2948,940
6151663,1635,1879,1836,2027
6004938,1049,1675,1172,1814
