https://surfdrive.surf.nl/files/index.php/s/B7PEqFZSZZBPcW8/download?path=%2FData%2FInput%2FDatasets%2FBerend%2FImages&files=B_453.jpg,4608,3072
B_453,daylight,wood,"[130, 130, 130]","['300423', '4165967', '4647553', '4211614', '4529247']"
300423,2585,1767,2953,2123
4165967,2162,1281,2839,1786
4647553,3421,1883,3750,2052
4211614,3459,1141,3709,1455
4529247,234,1239,464,1419
