https://surfdrive.surf.nl/files/index.php/s/B7PEqFZSZZBPcW8/download?path=%2FData%2FInput%2FDatasets%2FBerend%2FImages&files=B_453.jpg,4608,3072
B_453,daylight,wood,"[130, 130, 130]","['300423', '4165967', '4647553', '4211614', '4529247']"
300423,229,1248,475,1424
4165967,2156,1276,2844,1791
4647553,2587,1765,2956,2125
4211614,3416,1880,3759,2144
4529247,3436,1130,3710,1460
