https://surfdrive.surf.nl/files/index.php/s/B7PEqFZSZZBPcW8/download?path=%2FData%2FInput%2FDatasets%2FBerend%2FImages&files=B_687.jpg,4608,3072
B_687,daylight,wood,"[130, 130, 130]","['365901', '4567338', '4121967', '6223631', '4212454']"
365901,2260,1641,2818,2171
4567338,1680,736,1840,957
4121967,3137,1339,3463,1664
6223631,1431,578,1606,754
4212454,3161,1729,3331,1954
