https://surfdrive.surf.nl/files/index.php/s/B7PEqFZSZZBPcW8/download?path=%2FData%2FInput%2FDatasets%2FBerend%2FImages&files=B_791.jpg,4608,3072
B_791,daylight,wood,"[130, 130, 130]","['4181135', '6069259', '6003007', '4650630', '4504369', '4527943', '6062574', '4211166', '4211437']"
4181135,2043,838,2382,1495
6069259,2432,1637,2754,1852
6003007,2359,768,2536,940
4650630,1791,1051,2088,1339
4504369,2553,1212,2746,1362
4527943,1815,703,2053,918
6062574,1710,919,1865,1120
4211166,2410,1432,2691,1641
4211437,2389,982,2585,1267
