https://surfdrive.surf.nl/files/index.php/s/B7PEqFZSZZBPcW8/download?path=%2FData%2FInput%2FDatasets%2FBerend%2FImages&files=B_82.jpg,4608,3072
B_82,daylight,wood,"[130, 130, 130]","['4211149', '4539099', '6025026']"
4211149,2058,1288,2319,1728
4539099,1495,1297,1666,1545
6025026,1325,743,1603,1121
