https://surfdrive.surf.nl/files/index.php/s/B7PEqFZSZZBPcW8/download?path=%2FData%2FInput%2FDatasets%2FDavid%2FImages&files=C_115.jpg,5472,3648
C_115,daylight,armchair,"[130, 130, 130]","['300124', '4181134', '4114319', '4529247']"
300124,3167,1219,3736,1617
4181134,1974,1261,2747,2025
4114319,1912,1643,2527,2201
4529247,2545,2639,2769,2780
