https://surfdrive.surf.nl/files/index.php/s/B7PEqFZSZZBPcW8/download?path=%2FData%2FInput%2FDatasets%2FDavid%2FImages&files=C_135.jpg,5472,3647
C_135,artificial,coffee_table,"[130, 130, 130]","['6238674', '4212454', '4504369', '4550348', '4527943', '6074890', '6244886']"
6238674,2337,2110,2532,2299
4212454,2539,2433,2727,2564
4504369,2209,2447,2418,2686
4550348,1914,1965,2202,2180
4527943,3504,1655,3822,1903
6074890,2628,1797,2783,1896
6244886,2347,979,2630,1243
