https://surfdrive.surf.nl/files/index.php/s/B7PEqFZSZZBPcW8/download?path=%2FData%2FInput%2FDatasets%2FDavid%2FImages&files=C_179.jpg,5472,3647
C_179,daylight,coffee_table,"[130, 130, 130]","['6252809', '4160403']"
6252809,2235,1593,3908,2076
4160403,1681,1317,2560,1903
