https://surfdrive.surf.nl/files/index.php/s/B7PEqFZSZZBPcW8/download?path=%2FData%2FInput%2FDatasets%2FDavid%2FImages&files=C_272.jpg,5472,3648
C_272,daylight,coffee_table,"[130, 130, 130]","['6003007', '6022023']"
6003007,2404,1620,2794,1889
6022023,2758,1773,2940,1995
