https://surfdrive.surf.nl/files/index.php/s/B7PEqFZSZZBPcW8/download?path=%2FData%2FInput%2FDatasets%2FDavid%2FImages&files=C_341.jpg,5472,3648
C_341,daylight,living_room_floor,"[130, 130, 130]","['4211614', '4153825', '6151663', '6004938', '306223', '6022064', '4639693']"
4211614,2464,1973,2580,2162
4153825,1922,1780,2155,2020
6151663,1902,1727,2067,1846
6004938,1656,1823,1781,1962
306223,2943,1474,3054,1533
6022064,2695,1761,2952,1902
4639693,1841,997,2443,1377
