https://surfdrive.surf.nl/files/index.php/s/B7PEqFZSZZBPcW8/download?path=%2FData%2FInput%2FDatasets%2FDavid%2FImages&files=C_489.jpg,5472,3648
C_489,daylight,coffee_table,"[130, 130, 130]","['300424', '6004938', '306201']"
300424,2135,1298,2303,1503
6004938,1679,1499,1847,1621
306201,2672,1730,2783,1864
