https://surfdrive.surf.nl/files/index.php/s/B7PEqFZSZZBPcW8/download?path=%2FData%2FInput%2FDatasets%2FDavid%2FImages&files=C_509.jpg,5472,3648
C_509,daylight,coffee_table,"[130, 130, 130]","['300424', '6004938', '306201', '4211166', '4621545', '300121', '4118793', '4548180', '4539099']"
300424,2741,1816,2995,2144
6004938,2449,1660,2626,1928
306201,2649,1596,2809,1780
4211166,757,1280,1071,1529
4621545,3717,1594,4091,1713
300121,1358,977,2034,1237
4118793,3028,2001,3220,2167
4548180,2947,1106,3171,1368
4539099,2800,2187,3049,2344
