https://surfdrive.surf.nl/files/index.php/s/B7PEqFZSZZBPcW8/download?path=%2FData%2FInput%2FDatasets%2FDavid%2FImages&files=C_616.jpg,5472,3648
C_616,daylight,window_sill,"[130, 130, 130]","['300423', '6073026', '4558957', '4527943', '4121967', '6249125']"
300423,2785,1370,3098,1655
6073026,2655,1490,2836,1680
4558957,1261,1430,1806,1749
4527943,2453,1595,2787,1901
4121967,2181,1012,2482,1236
6249125,2370,2553,2516,2697
