https://surfdrive.surf.nl/files/index.php/s/B7PEqFZSZZBPcW8/download?path=%2FData%2FInput%2FDatasets%2FDavid%2FImages&files=C_622.jpg,5472,3648
C_622,daylight,coffee_table,"[130, 130, 130]",['6074890']
6074890,2715,1770,2912,1947
