https://surfdrive.surf.nl/files/index.php/s/B7PEqFZSZZBPcW8/download?path=%2FData%2FInput%2FDatasets%2FDavid%2FImages&files=C_775.jpg,5472,3648
C_775,daylight,couch,"[130, 130, 130]","['4621545', '4210718']"
4621545,2401,1642,2648,1912
4210718,2759,1534,3146,2054
