https://surfdrive.surf.nl/files/index.php/s/B7PEqFZSZZBPcW8/download?path=%2FData%2FInput%2FDatasets%2FHiba%2FImages&files=H_14.jpg,5184,3456
H_14,daylight,wood,"[130, 130, 130]","['623224', '6022023', '4121739', '4118793']"
623224,3054,1199,3248,1397
6022023,2292,1082,2525,1190
4121739,2479,2258,2716,2516
4118793,3276,1349,3379,1517
