https://surfdrive.surf.nl/files/index.php/s/B7PEqFZSZZBPcW8/download?path=%2FData%2FInput%2FDatasets%2FHiba%2FImages&files=H_147.jpg,5184,3455
H_147,daylight,wood,"[130, 130, 130]","['4211054', '4211054', '306201', '6229071', '6074890', '4621545', '6062574', '300401']"
4211054,2015,1460,2274,1698
4211054,1309,1794,1628,2087
306201,2093,1689,2214,1843
6229071,4280,1826,4516,2107
6074890,3150,1397,3277,1540
4621545,1999,1214,2243,1414
6062574,3107,1583,3272,1702
300401,2493,1640,2746,1832
