https://surfdrive.surf.nl/files/index.php/s/B7PEqFZSZZBPcW8/download?path=%2FData%2FInput%2FDatasets%2FHiba%2FImages&files=H_177.jpg,5184,3456
H_177,daylight,wood,"[130, 130, 130]","['4211412', '4153825', '4210718', '6104154', '4157124', '4121739']"
4211412,3619,1575,3778,1722
4153825,2307,1380,2459,1696
4210718,1089,2000,1660,2510
6104154,901,1219,1048,1421
4157124,2967,1979,3215,2170
4121739,2578,1914,2869,2188
