https://surfdrive.surf.nl/files/index.php/s/B7PEqFZSZZBPcW8/download?path=%2FData%2FInput%2FDatasets%2FHiba%2FImages&files=H_335.jpg,5184,3456
H_335,daylight,wood,"[130, 130, 130]","['6022064', '300421']"
6022064,2413,1528,2811,1722
300421,2398,1941,2746,2248
