https://surfdrive.surf.nl/files/index.php/s/B7PEqFZSZZBPcW8/download?path=%2FData%2FInput%2FDatasets%2FHiba%2FImages&files=H_344.jpg,5184,3456
H_344,daylight,wood,"[130, 130, 130]",['6035291']
6035291,2464,1661,2601,2022
