https://surfdrive.surf.nl/files/index.php/s/B7PEqFZSZZBPcW8/download?path=%2FData%2FInput%2FDatasets%2FHiba%2FImages&files=H_358.jpg,5184,3456
H_358,daylight,wood,"[130, 130, 130]","['6035291', '6151663', '4181144', '4649749', '4639693', '300124']"
6035291,2220,562,2380,616
6151663,3627,1493,3858,1641
4181144,1577,2288,2255,2929
4649749,2287,1134,2472,1273
4639693,2770,1338,3174,2044
300124,1491,1474,1798,1878
