https://surfdrive.surf.nl/files/index.php/s/B7PEqFZSZZBPcW8/download?path=%2FData%2FInput%2FDatasets%2FHiba%2FImages&files=H_49.jpg,5184,3456
H_49,daylight,wood,"[130, 130, 130]",['4211511']
4211511,2458,1506,2696,1771
