https://surfdrive.surf.nl/files/index.php/s/B7PEqFZSZZBPcW8/download?path=%2FData%2FInput%2FDatasets%2FBerend%2FImages&files=B_336.jpg,4608,3071
B_336,daylight,wood,"[130, 130, 130]","['6003007', '4153827', '4621545', '6073026', '300401', '6074890', '4550325', '4118793']"
6003007,2828,1160,2974,1358
4153827,1696,1172,2313,1581
4621545,1718,1058,2022,1277
6073026,1875,935,2069,1116
300401,1249,1040,1554,1268
6074890,2871,866,3014,1057
4550325,1743,1549,2076,1807
4118793,1617,1211,1783,1441
