https://surfdrive.surf.nl/files/index.php/s/B7PEqFZSZZBPcW8/download?path=%2FData%2FInput%2FDatasets%2FBerend%2FImages&files=B_358.jpg,4608,3072
B_358,daylight,wood,"[130, 130, 130]","['4639693', '4121967', '4157124', '4567338', '4650630']"
4639693,1644,997,2143,1872
4121967,936,1460,1143,1734
4157124,1785,894,1966,1099
4567338,2117,2095,2330,2294
4650630,2170,1504,2457,1813
