https://surfdrive.surf.nl/files/index.php/s/B7PEqFZSZZBPcW8/download?path=%2FData%2FInput%2FDatasets%2FBerend%2FImages&files=B_469.jpg,4608,3071
B_469,daylight,wood,"[130, 130, 130]","['6075079', '4211201', '4165967']"
6075079,2713,1497,3025,1806
4211201,415,749,1127,1261
4165967,3788,943,4212,1600
