https://surfdrive.surf.nl/files/index.php/s/B7PEqFZSZZBPcW8/download?path=%2FData%2FInput%2FDatasets%2FBerend%2FImages&files=B_537.jpg,4608,3072
B_537,daylight,wood,"[130, 130, 130]","['4212454', '6028324', '4550325']"
4212454,1792,1363,1978,1537
6028324,2026,1246,2273,1506
4550325,2904,1720,3216,1997
