https://surfdrive.surf.nl/files/index.php/s/B7PEqFZSZZBPcW8/download?path=%2FData%2FInput%2FDatasets%2FBerend%2FImages&files=B_613.jpg,4608,3072
B_613,daylight,wood,"[130, 130, 130]","['6238674', '300323', '4153825', '4211054', '6062574', '623224', '6249125']"
6238674,1626,396,1863,564
300323,1947,1606,2382,2060
4153825,1222,2139,1499,2623
4211054,2796,1669,3182,2111
6062574,2813,1384,3068,1653
623224,2426,1794,2782,2287
6249125,1849,1386,2037,1532
