https://surfdrive.surf.nl/files/index.php/s/B7PEqFZSZZBPcW8/download?path=%2FData%2FInput%2FDatasets%2FBerend%2FImages&files=B_684.jpg,4608,3072
B_684,daylight,wood,"[130, 130, 130]","['365901', '4567338', '4121967', '6223631']"
365901,1770,1307,2437,1725
4567338,2427,1484,2675,1657
4121967,1792,1881,2177,2151
6223631,1323,960,1468,1165
