https://surfdrive.surf.nl/files/index.php/s/B7PEqFZSZZBPcW8/download?path=%2FData%2FInput%2FDatasets%2FDavid%2FImages&files=C_101.jpg,5472,3648
C_101,daylight,coffee_table,"[130, 130, 130]","['4121739', '306223', '4210718', '6151663', '4529240', '4211054', '6075079', '300123', '4550348']"
4121739,2954,1645,3203,1911
306223,2863,1063,3001,1192
4210718,575,1682,1261,2018
6151663,3259,2008,3508,2223
4529240,2885,2181,3079,2322
4211054,2915,1142,3108,1371
300123,3530,1970,4089,2420
4550348,3737,2689,3999,2999
6075079,2785,1663,3010,1831
