https://surfdrive.surf.nl/files/index.php/s/B7PEqFZSZZBPcW8/download?path=%2FData%2FInput%2FDatasets%2FDavid%2FImages&files=C_2.jpg,5472,3648
C_2,daylight,coffee_table,"[130, 130, 130]",['300121']
300121,1873,763,2260,1239
