https://surfdrive.surf.nl/files/index.php/s/B7PEqFZSZZBPcW8/download?path=%2FData%2FInput%2FDatasets%2FDavid%2FImages&files=C_226.jpg,5472,3648
C_226,daylight,coffee_table,"[130, 130, 130]","['4118793', '4567338', '6073026']"
4118793,2794,1692,2983,1876
4567338,2601,1644,2801,1850
6073026,2361,1722,2558,1886
