https://surfdrive.surf.nl/files/index.php/s/B7PEqFZSZZBPcW8/download?path=%2FData%2FInput%2FDatasets%2FDavid%2FImages&files=C_34.jpg,5472,3648
C_34,daylight,coffee_table,"[130, 130, 130]",['6104154']
6104154,2486,1610,2870,1971
