https://surfdrive.surf.nl/files/index.php/s/B7PEqFZSZZBPcW8/download?path=%2FData%2FInput%2FDatasets%2FDavid%2FImages&files=C_377.jpg,5472,3648
C_377,daylight,living_room_floor,"[130, 130, 130]","['300401', '300423']"
300401,2353,1092,2565,1290
300423,2806,2096,3015,2270
