https://surfdrive.surf.nl/files/index.php/s/B7PEqFZSZZBPcW8/download?path=%2FData%2FInput%2FDatasets%2FDavid%2FImages&files=C_388.jpg,5471,3648
C_388,daylight,living_room_floor,"[130, 130, 130]","['300401', '300423', '4529240', '6004938', '4550348', '6229071']"
300401,3176,2184,3412,2447
300423,1387,1157,1598,1309
4529240,2045,976,2186,1064
6004938,2403,1176,2539,1311
4550348,2732,1758,2949,1922
6229071,1717,2031,1932,2272
