https://surfdrive.surf.nl/files/index.php/s/B7PEqFZSZZBPcW8/download?path=%2FData%2FInput%2FDatasets%2FDavid%2FImages&files=C_688.jpg,5472,3648
C_688,daylight,coffee_table,"[130, 130, 130]","['4558957', '4539099', '300323', '6229071', '4157124']"
4558957,3662,1622,4210,2106
4539099,2616,1710,2747,1906
300323,2060,1166,2340,1460
6229071,3283,2004,3593,2345
4157124,1747,1994,2047,2223
