https://surfdrive.surf.nl/files/index.php/s/B7PEqFZSZZBPcW8/download?path=%2FData%2FInput%2FDatasets%2FDavid%2FImages&files=C_724.jpg,5472,3648
C_724,daylight,coffee_table,"[130, 130, 130]","['4529240', '4211437', '4211437', '4539099', '4211149', '300124', '6249125', '4160403', '4211412']"
4529240,3322,1520,3526,1690
4211437,2419,1459,2643,1780
4539099,3612,1450,3783,1650
4211149,1939,1119,2193,1338
300124,2276,1249,2823,1572
6249125,3271,1311,3404,1453
4160403,2573,1612,3280,2211
4211412,2290,1678,2486,1870
