https://surfdrive.surf.nl/files/index.php/s/B7PEqFZSZZBPcW8/download?path=%2FData%2FInput%2FDatasets%2FHiba%2FImages&files=H_198.jpg,5184,3456
H_198,daylight,wood,"[130, 130, 130]","['4548180', '4504381', '4517992', '4647553', '300821', '300124']"
4548180,2812,2548,3103,2707
4504381,2502,1726,2625,1862
4517992,1899,1972,2223,2311
4647553,1823,1765,2027,2022
300821,2661,2118,3739,2566
300124,1685,1909,2021,2489
