https://surfdrive.surf.nl/files/index.php/s/B7PEqFZSZZBPcW8/download?path=%2FData%2FInput%2FDatasets%2FHiba%2FImages&files=H_249.jpg,5184,3456
H_249,daylight,wood,"[130, 130, 130]","['6035291', '4160403', '6104154', '300123', '6069259', '6075079']"
6035291,3224,1687,3410,1874
4160403,2382,767,2818,1041
6104154,2538,1840,2768,2071
300123,1740,1500,2149,1800
6069259,3793,2091,3963,2299
6075079,2503,2174,2677,2383
