https://surfdrive.surf.nl/files/index.php/s/B7PEqFZSZZBPcW8/download?path=%2FData%2FInput%2FDatasets%2FHiba%2FImages&files=H_29.jpg,5184,3456
H_29,daylight,wood,"[130, 130, 130]","['4181135', '6238674', '300321']"
4181135,2465,1370,3053,1948
6238674,1893,1979,2086,2103
300321,3172,1217,3399,1457
