https://surfdrive.surf.nl/files/index.php/s/B7PEqFZSZZBPcW8/download?path=%2FData%2FInput%2FDatasets%2FHiba%2FImages&files=H_359.jpg,5184,3456
H_359,daylight,wood,"[130, 130, 130]","['6035291', '6151663', '4181144', '4649749', '4639693', '300124']"
6035291,1644,941,1883,1101
6151663,2314,1852,2645,2089
4181144,1117,1566,1502,2365
4649749,2016,1201,2290,1408
4639693,3075,1267,4027,2252
300124,2615,645,2973,1099
