https://surfdrive.surf.nl/files/index.php/s/B7PEqFZSZZBPcW8/download?path=%2FData%2FInput%2FDatasets%2FHiba%2FImages&files=H_377.jpg,5184,3456
H_377,daylight,wood,"[130, 130, 130]","['365901', '300424', '4529247', '4211412', '6238674']"
365901,1249,1812,1614,2273
300424,926,2108,1176,2437
4529247,2303,1611,2491,1731
4211412,1592,1796,1756,1987
6238674,4022,1966,4244,2162
