https://surfdrive.surf.nl/files/index.php/s/B7PEqFZSZZBPcW8/download?path=%2FData%2FInput%2FDatasets%2FHiba%2FImages&files=H_83.jpg,5184,3456
H_83,daylight,wood,"[130, 130, 130]","['4647553', '4153825', '4118793']"
4647553,3681,1583,3870,1761
4153825,2444,1696,2723,1973
4118793,3910,1150,4032,1277
